,path,total_conversion_value,conversions,non_conversions,cnt,ppl,Converted
0,FB_Impression_FacebookStory,61062.371258604,87.0,73.0,3329,3329,False
1,FB_Impression_MobileFeed > _AlwaysOn_sem_shopping_clk_2021-09-08_2021-09-14,8100.189774145,5.0,1.0,239,239,False
2,FB_Impression_MobileFeed > FB_Impression_InStream > OSP-2373_rw_app_imp_2021-09-15_2021-09-19,10592.383104926,27.0,16.0,131,131,False
3,FB_Impression_MobileFeed > OSP-2373_rw_app_imp_2021-09-08_2021-09-14 > OSP-2373_email_open_2021-09-08_2021-09-14,75141.463855639,30.0,22.0,204,204,False
4,FB_Impression_MobileFeed > _AlwaysOn_sem_shopping_clk_2021-09-15_2021-09-19,25.481253352727,12.0,9.0,142,142,False
5,OSP-2373_rw_app_imp_2021-09-08_2021-09-14 > OSP-2373_email_open_2021-09-15_2021-09-19 > OSP-2373_email_clk_2021-09-15_2021-09-19,38097.729582739,130.0,93.0,524,524,False
6,OSP-2373_rw_app_imp_2021-09-15_2021-09-19 > OSP-2373_rw_app_imp_2021-09-15_2021-09-19 > OSP-2373_rw_app_imp_2021-09-08_2021-09-14,66645.10813361,84.0,38.0,208,208,False
7,FB_Impression_MobileFeed > FB_Impression_InstagramStory,14655.93467239,92.0,83.0,4234,4234,False
8,FB_Impression_WebFeed > OSP-2373_rw_app_imp_2021-09-15_2021-09-19,17186.679665483,48.0,40.0,264,264,False
9,FB_Impression_MobileFeed > OSP-2373_rw_app_imp_2021-09-15_2021-09-19 > OSP-2373_email_open_2021-09-08_2021-09-14,76682.764085313,204.0,172.0,1084,1084,False
10,FB_Impression_InstagramStory > FB_Impression_MobileFeed > OSP-2373_email_open_2021-09-08_2021-09-14,-1190.5828114704,11.0,15.0,306,306,False
11,_AlwaysOn_wow_web_view_2021-09-15_2021-09-19 > OSP-2373_rw_app_imp_2021-09-15_2021-09-19 > OSP-2373_rw_app_imp_2021-09-08_2021-09-14,40574.6138317,56.0,45.0,165,165,False
12,FB_Impression_WebFeed > OSP-2373_email_open_2021-09-08_2021-09-14,26959.377319325,68.0,69.0,775,775,False
13,OSP-2373_rw_app_imp_2021-09-08_2021-09-14 > OSP-2373_rw_app_clk_2021-09-08_2021-09-14 > OSP-2373_email_open_2021-09-08_2021-09-14,11049.602209209,101.0,81.0,287,287,False
14,OSP-2373_rw_app_imp_2021-09-15_2021-09-19 > OSP-2373_rw_app_imp_2021-09-08_2021-09-14 > OSP-2373_rw_app_clk_2021-09-15_2021-09-19,1274996.1651078,2005.0,1310.0,4718,4718,False
15,FB_Impression_WebFeed,142738.19701986,305.0,287.0,8968,8968,False
16,FB_Impression_SuggestedVideo > OSP-2373_email_open_2021-09-08_2021-09-14,-16079.708714534,4.0,7.0,329,329,False
17,FB_Impression_InstagramStory > FB_Impression_MobileFeed,144697.06582413,164.0,124.0,4887,4887,False
18,FB_Impression_MobileFeed > FB_Impression_InstagramStory > FB_Impression_MobileFeed > OSP-2373_email_open_2021-09-08_2021-09-14 > OSP-2373_email_clk_2021-09-08_2021-09-14,17825.524105198,25.0,17.0,124,124,False
19,_AlwaysOn_wow_web_view_2021-09-08_2021-09-14 > _AlwaysOn_sem_brand_clk_2021-09-08_2021-09-14,9189.5287021347,5.0,0.0,119,119,False
20,FB_Impression_MobileFeed > _AlwaysOn_wow_web_view_2021-09-08_2021-09-14 > OSP-2373_email_open_2021-09-08_2021-09-14 > OSP-2373_email_clk_2021-09-08_2021-09-14,17067.374730925,17.0,9.0,112,112,False
21,OSP-2373_rw_app_imp_2021-09-15_2021-09-19 > OSP-2373_rw_app_imp_2021-09-08_2021-09-14 > OSP-2373_email_open_2021-09-15_2021-09-19,130339.35887037,253.0,174.0,996,996,False
22,FB_Impression_MobileFeed > FB_Impression_InstagramStory > FB_Impression_MobileFeed > OSP-2373_email_open_2021-09-08_2021-09-14,17426.566361231,15.0,8.0,262,262,False
23,OSP-2373_rw_app_imp_2021-09-08_2021-09-14 > OSP-2373_rw_app_clk_2021-09-15_2021-09-19 > OSP-2373_email_open_2021-09-08_2021-09-14,160635.73450037,280.0,182.0,494,494,False
24,OSP-2373_rw_app_clk_2021-09-15_2021-09-19 > OSP-2373_email_open_2021-09-15_2021-09-19 > OSP-2373_email_clk_2021-09-15_2021-09-19,25751.182534781,62.0,44.0,161,161,False
25,OSP-2373_rw_app_imp_2021-09-08_2021-09-14 > OSP-2373_rw_app_imp_2021-09-08_2021-09-14,62316.777507763,151.0,115.0,419,419,False
26,OSP-2373_rw_app_imp_2021-09-15_2021-09-19 > OSP-2373_rw_app_imp_2021-09-08_2021-09-14 > OSP-2373_rw_app_clk_2021-09-15_2021-09-19 > OSP-2373_email_open_2021-09-08_2021-09-14,122769.65378147,250.0,146.0,447,447,False
27,OSP-2373_rw_app_imp_2021-09-15_2021-09-19,11881605.19157,17251.0,11626.0,187160,187160,False
28,FB_Impression_MobileFeed > _AlwaysOn_wow_web_view_2021-09-15_2021-09-19 > OSP-2373_email_open_2021-09-08_2021-09-14,-310.60932197176,17.0,13.0,122,122,False
29,FB_Impression_MobileFeed > OSP-2373_rw_app_imp_2021-09-15_2021-09-19 > OSP-2373_email_open_2021-09-15_2021-09-19,34739.042225526,85.0,57.0,384,384,False
30,OSP-2373_rw_app_imp_2021-09-08_2021-09-14 > OSP-2373_rw_app_clk_2021-09-15_2021-09-19,1527379.7530943,2413.0,1434.0,5141,5141,False
31,OSP-2373_rw_app_imp_2021-09-15_2021-09-19 > OSP-2373_email_open_2021-09-15_2021-09-19 > OSP-2373_email_open_2021-09-08_2021-09-14,19140.852161989,124.0,79.0,620,620,False
32,_AlwaysOn_wow_web_view_2021-09-08_2021-09-14 > OSP-2373_rw_app_imp_2021-09-15_2021-09-19 > OSP-2373_rw_app_imp_2021-09-08_2021-09-14,75996.486381452,76.0,35.0,429,429,False
33,OSP-2373_rw_app_clk_2021-09-15_2021-09-19 > OSP-2373_email_open_2021-09-15_2021-09-19,122950.55200541,186.0,126.0,545,545,False
34,OSP-2373_rw_app_imp_2021-09-08_2021-09-14 > OSP-2373_rw_app_clk_2021-09-15_2021-09-19 > OSP-2373_email_open_2021-09-08_2021-09-14 > OSP-2373_email_clk_2021-09-08_2021-09-14,129163.23053512,214.0,142.0,297,297,False
35,_AlwaysOn_sem_brand_clk_2021-09-15_2021-09-19,10901.971926864,17.0,12.0,325,325,False
36,FB_Impression_SuggestedVideo > OSP-2373_rw_app_imp_2021-09-15_2021-09-19,18530.957050217,11.0,6.0,204,204,False
37,OSP-2373_rw_app_clk_2021-09-15_2021-09-19 > OSP-2373_email_open_2021-09-08_2021-09-14,202074.66687805,384.0,277.0,1140,1140,False
38,OSP-2373_rw_app_imp_2021-09-15_2021-09-19 > OSP-2373_rw_app_clk_2021-09-15_2021-09-19 > OSP-2373_email_open_2021-09-08_2021-09-14 > OSP-2373_email_clk_2021-09-08_2021-09-14,243380.63003133,170.0,103.0,314,314,False
39,FB_Impression_FacebookStory > OSP-2373_email_open_2021-09-08_2021-09-14 > OSP-2373_email_clk_2021-09-08_2021-09-14,25688.146228308,39.0,26.0,126,126,False
40,_AlwaysOn_wow_web_view_2021-09-08_2021-09-14 > _AlwaysOn_wow_web_clk_2021-09-15_2021-09-19,56366.62960943,33.0,15.0,561,561,False
41,OSP-2373_rw_app_imp_2021-09-08_2021-09-14 > OSP-2373_rw_app_clk_2021-09-15_2021-09-19 > OSP-2373_email_open_2021-09-15_2021-09-19,47425.808003519,122.0,65.0,230,230,False
42,_AlwaysOn_sem_brand_clk_2021-09-08_2021-09-14 > OSP-2373_email_open_2021-09-08_2021-09-14 > OSP-2373_email_clk_2021-09-08_2021-09-14,14012.88996535,13.0,5.0,100,100,False
43,FB_Impression_MobileFeed > OSP-2373_rw_app_imp_2021-09-15_2021-09-19 > OSP-2373_rw_app_imp_2021-09-08_2021-09-14 > OSP-2373_email_open_2021-09-15_2021-09-19,11652.098115249,32.0,18.0,122,122,False
44,OSP-2373_rw_app_imp_2021-09-15_2021-09-19 > OSP-2373_rw_app_clk_2021-09-15_2021-09-19 > OSP-2373_email_open_2021-09-15_2021-09-19,40284.954586045,128.0,90.0,414,414,False
45,FB_Impression_MobileFeed > _AlwaysOn_wow_web_view_2021-09-08_2021-09-14 > OSP-2373_email_open_2021-09-08_2021-09-14,3790.7951956372,4.0,5.0,168,168,False
46,FB_Impression_InStream > FB_Impression_MobileFeed > OSP-2373_rw_app_imp_2021-09-15_2021-09-19,12408.233648548,16.0,15.0,111,111,False
47,OSP-2373_rw_app_imp_2021-09-15_2021-09-19 > OSP-2373_rw_app_imp_2021-09-08_2021-09-14 > OSP-2373_email_open_2021-09-15_2021-09-19 > OSP-2373_email_clk_2021-09-15_2021-09-19,31211.310180537,73.0,37.0,212,212,False
48,OSP-2373_rw_app_imp_2021-09-15_2021-09-19 > OSP-2373_email_open_2021-09-15_2021-09-19 > OSP-2373_email_clk_2021-09-15_2021-09-19,61983.269482404,218.0,134.0,846,846,False
49,FB_Impression_InstagramStory > OSP-2373_rw_app_imp_2021-09-08_2021-09-14,14392.383747236,29.0,22.0,406,406,False
50,_AlwaysOn_wow_web_view_2021-09-08_2021-09-14 > OSP-2373_email_open_2021-09-15_2021-09-19,24862.79759381,24.0,10.0,542,542,False
51,_AlwaysOn_wow_web_view_2021-09-15_2021-09-19 > OSP-2373_email_open_2021-09-08_2021-09-14 > OSP-2373_email_clk_2021-09-08_2021-09-14,175019.02415461,190.0,118.0,469,469,False
52,_AlwaysOn_wow_web_view_2021-09-08_2021-09-14 > OSP-2373_email_open_2021-09-15_2021-09-19 > OSP-2373_email_clk_2021-09-15_2021-09-19,22898.421124756,27.0,12.0,153,153,False
53,OSP-2373_rw_app_imp_2021-09-15_2021-09-19 > OSP-2373_email_open_2021-09-08_2021-09-14,568621.41164643,1387.0,974.0,9391,9391,False
54,OSP-2373_rw_app_imp_2021-09-08_2021-09-14 > OSP-2373_email_open_2021-09-15_2021-09-19,216213.24539152,381.0,257.0,1924,1924,False
55,FB_Impression_InstagramStory > OSP-2373_email_open_2021-09-08_2021-09-14 > OSP-2373_email_clk_2021-09-08_2021-09-14,112984.92553474,141.0,98.0,578,578,False
56,FB_Impression_InstagramStory > OSP-2373_rw_app_imp_2021-09-15_2021-09-19 > OSP-2373_email_open_2021-09-08_2021-09-14,11245.975062255,28.0,13.0,111,111,False
57,_AlwaysOn_sem_shopping_clk_2021-09-08_2021-09-14 > OSP-2373_rw_app_imp_2021-09-15_2021-09-19,2386.3266919489,27.0,19.0,283,283,False
58,_AlwaysOn_wow_web_view_2021-09-15_2021-09-19 > _AlwaysOn_wow_web_clk_2021-09-15_2021-09-19 > OSP-2373_email_open_2021-09-08_2021-09-14 > OSP-2373_email_clk_2021-09-08_2021-09-14,57118.745356105,58.0,38.0,136,136,False
59,OSP-2373_rw_app_imp_2021-09-15_2021-09-19 > OSP-2373_rw_app_imp_2021-09-08_2021-09-14 > OSP-2373_rw_app_clk_2021-09-08_2021-09-14 > OSP-2373_email_open_2021-09-08_2021-09-14,21796.133688476,65.0,43.0,152,152,False
60,FB_Impression_WebFeed > FB_Impression_MobileFeed > OSP-2373_email_open_2021-09-08_2021-09-14,4128.9581663751,10.0,5.0,119,119,False
61,_AlwaysOn_wow_web_view_2021-09-08_2021-09-14 > _AlwaysOn_wow_web_clk_2021-09-08_2021-09-14 > OSP-2373_rw_app_imp_2021-09-08_2021-09-14,18808.448919107,11.0,6.0,159,159,False
62,FB_Impression_MobileFeed > FB_Impression_InstagramStory > FB_Impression_MobileFeed > OSP-2373_rw_app_imp_2021-09-15_2021-09-19,37148.016796305,55.0,23.0,247,247,False
63,OSP-2373_rw_app_imp_2021-09-08_2021-09-14,4941293.2654925,9035.0,6108.0,71142,71142,False
64,FB_Impression_MobileFeed > OSP-2373_email_open_2021-09-15_2021-09-19 > OSP-2373_email_open_2021-09-08_2021-09-14 > OSP-2373_email_clk_2021-09-15_2021-09-19,12706.224953598,29.0,22.0,130,130,False
65,OSP-2373_email_open_2021-09-15_2021-09-19 > OSP-2373_email_open_2021-09-08_2021-09-14 > OSP-2373_email_clk_2021-09-15_2021-09-19,96613.297279245,198.0,144.0,1076,1076,False
66,FB_Impression_InStream > OSP-2373_email_open_2021-09-08_2021-09-14 > OSP-2373_email_clk_2021-09-08_2021-09-14,-5814.1661428416,51.0,32.0,213,213,False
67,FB_Impression_InStream > OSP-2373_email_open_2021-09-08_2021-09-14,20841.371862724,16.0,11.0,147,147,False
68,_AlwaysOn_sem_brand_clk_2021-09-08_2021-09-14 > OSP-2373_email_open_2021-09-08_2021-09-14,4330.1834767165,4.0,2.0,133,133,False
69,_AlwaysOn_wow_web_view_2021-09-08_2021-09-14 > OSP-2373_rw_app_imp_2021-09-15_2021-09-19,281703.57462181,198.0,78.0,1367,1367,False
70,_AlwaysOn_sem_shopping_clk_2021-09-08_2021-09-14 > OSP-2373_email_open_2021-09-08_2021-09-14 > OSP-2373_email_clk_2021-09-08_2021-09-14,3449.5236678119,10.0,6.0,135,135,False
71,FB_Impression_MobileFeed > _AlwaysOn_wow_web_view_2021-09-15_2021-09-19,106977.92840708,116.0,89.0,1296,1296,False
72,_AlwaysOn_wow_web_view_2021-09-08_2021-09-14 > OSP-2373_email_open_2021-09-08_2021-09-14,57147.066433852,81.0,50.0,1757,1757,False
73,OSP-2373_rw_app_imp_2021-09-15_2021-09-19 > OSP-2373_rw_app_imp_2021-09-08_2021-09-14 > OSP-2373_email_open_2021-09-08_2021-09-14 > OSP-2373_email_clk_2021-09-08_2021-09-14,209797.84148024,490.0,315.0,1339,1339,False
74,FB_Impression_MobileFeed > FB_Impression_FacebookStory > OSP-2373_email_open_2021-09-08_2021-09-14,8583.2524701784,9.0,4.0,100,100,False
75,FB_Impression_InstagramStory > OSP-2373_rw_app_imp_2021-09-15_2021-09-19,179075.86516919,264.0,185.0,1660,1660,False
76,_AlwaysOn_wow_web_view_2021-09-08_2021-09-14 > _AlwaysOn_wow_web_clk_2021-09-15_2021-09-19 > _AlwaysOn_wow_web_clk_2021-09-08_2021-09-14,22977.811790707,12.0,3.0,262,262,False
77,FB_Impression_InstagramStory > OSP-2373_email_open_2021-09-15_2021-09-19,9193.1440246147,30.0,18.0,384,384,False
78,OSP-2373_rw_app_imp_2021-09-08_2021-09-14 > OSP-2373_rw_app_clk_2021-09-08_2021-09-14,394731.73313732,901.0,556.0,3439,3439,False
79,_AlwaysOn_wow_web_view_2021-09-08_2021-09-14 > OSP-2373_rw_app_imp_2021-09-08_2021-09-14,16483.987625803,41.0,20.0,400,400,False
80,OSP-2373_rw_app_clk_2021-09-15_2021-09-19,2844003.3002452,4177.0,2679.0,12552,12552,False
81,FB_Impression_MobileFeed > OSP-2373_rw_app_imp_2021-09-15_2021-09-19 > OSP-2373_email_open_2021-09-08_2021-09-14 > OSP-2373_email_clk_2021-09-08_2021-09-14,97209.117016491,212.0,125.0,547,547,False
82,_AlwaysOn_sem_shopping_clk_2021-09-15_2021-09-19 > OSP-2373_email_open_2021-09-08_2021-09-14,2490.0822927887,8.0,9.0,102,102,False
83,FB_Impression_MobileFeed > OSP-2373_email_open_2021-09-15_2021-09-19 > OSP-2373_email_open_2021-09-08_2021-09-14,47394.549370881,73.0,57.0,846,846,False
84,_AlwaysOn_wow_web_view_2021-09-08_2021-09-14 > _AlwaysOn_sem_shopping_clk_2021-09-08_2021-09-14,20003.597037384,12.0,5.0,259,259,False
85,FB_Impression_InstagramStory,394233.62857945,502.0,406.0,40070,40070,False
86,FB_Impression_InstagramStory > _AlwaysOn_wow_web_view_2021-09-15_2021-09-19,34824.834737013,25.0,15.0,250,250,False
87,OSP-2373_rw_app_imp_2021-09-15_2021-09-19 > OSP-2373_rw_app_imp_2021-09-08_2021-09-14 > OSP-2373_rw_app_clk_2021-09-15_2021-09-19 > OSP-2373_email_open_2021-09-15_2021-09-19,34334.152882866,113.0,55.0,196,196,False
88,_AlwaysOn_wow_web_view_2021-09-08_2021-09-14 > OSP-2373_email_open_2021-09-15_2021-09-19 > OSP-2373_email_open_2021-09-08_2021-09-14,5557.9678288744,13.0,5.0,114,114,False
89,FB_Impression_MobileFeed > _AlwaysOn_wow_web_view_2021-09-15_2021-09-19 > _AlwaysOn_wow_web_clk_2021-09-15_2021-09-19,18154.945209682,46.0,32.0,383,383,False
90,FB_Impression_MobileFeed > OSP-2373_rw_app_imp_2021-09-15_2021-09-19 > OSP-2373_rw_app_imp_2021-09-08_2021-09-14 > OSP-2373_rw_app_clk_2021-09-15_2021-09-19,83019.094195008,274.0,169.0,535,535,False
91,_AlwaysOn_wow_web_view_2021-09-08_2021-09-14 > _AlwaysOn_wow_web_clk_2021-09-08_2021-09-14,201570.93469092,160.0,70.0,8040,8040,False
92,FB_Impression_MobileFeed > FB_Impression_FacebookStory > FB_Impression_MobileFeed > OSP-2373_rw_app_imp_2021-09-15_2021-09-19,16821.365882622,28.0,14.0,111,111,False
93,FB_Impression_InstagramStory > _AlwaysOn_wow_web_view_2021-09-08_2021-09-14 > _AlwaysOn_wow_web_clk_2021-09-08_2021-09-14,2764.8455103005,2.0,3.0,108,108,False
94,OSP-2373_rw_app_clk_2021-09-15_2021-09-19 > OSP-2373_email_open_2021-09-15_2021-09-19 > OSP-2373_email_open_2021-09-08_2021-09-14,-1907.1204837458,45.0,25.0,107,107,False
95,FB_Impression_MobileFeed > OSP-2373_rw_app_imp_2021-09-08_2021-09-14,105159.01721451,253.0,171.0,2152,2152,False
96,_AlwaysOn_wow_web_view_2021-09-08_2021-09-14,747867.14372869,613.0,303.0,45309,45309,False
97,FB_Impression_InstagramStory > OSP-2373_rw_app_imp_2021-09-15_2021-09-19 > OSP-2373_rw_app_imp_2021-09-08_2021-09-14,28738.788005684,101.0,64.0,434,434,False
98,FB_Impression_MobileFeed > OSP-2373_rw_app_imp_2021-09-15_2021-09-19 > OSP-2373_rw_app_imp_2021-09-08_2021-09-14 > OSP-2373_rw_app_clk_2021-09-08_2021-09-14,47749.210329534,76.0,51.0,195,195,False
99,OSP-2373_rw_app_imp_2021-09-15_2021-09-19 > OSP-2373_rw_app_imp_2021-09-08_2021-09-14 > OSP-2373_rw_app_clk_2021-09-15_2021-09-19 > OSP-2373_rw_app_clk_2021-09-08_2021-09-14,167813.26943085,305.0,183.0,530,530,False
100,FB_Impression_FacebookStory > FB_Impression_MobileFeed > OSP-2373_rw_app_imp_2021-09-15_2021-09-19,-4002.2888710455,17.0,15.0,120,120,False
101,FB_Impression_MobileFeed > FB_Impression_FacebookStory,18082.458929902,57.0,55.0,1414,1414,False
102,_AlwaysOn_sem_shopping_clk_2021-09-08_2021-09-14 > OSP-2373_email_open_2021-09-08_2021-09-14,5656.8711597267,9.0,3.0,201,201,False
103,OSP-2373_rw_app_imp_2021-09-08_2021-09-14 > OSP-2373_rw_app_clk_2021-09-15_2021-09-19 > OSP-2373_rw_app_clk_2021-09-08_2021-09-14,208826.73307504,407.0,255.0,716,716,False
104,_AlwaysOn_wow_web_view_2021-09-15_2021-09-19 > _AlwaysOn_wow_web_view_2021-09-08_2021-09-14 > OSP-2373_email_open_2021-09-08_2021-09-14 > OSP-2373_email_clk_2021-09-08_2021-09-14,61543.940267674,49.0,20.0,144,144,False
105,_AlwaysOn_wow_web_view_2021-09-08_2021-09-14 > _AlwaysOn_wow_web_view_2021-09-08_2021-09-14,16147.712875917,13.0,7.0,305,305,False
106,FB_Impression_MobileFeed > OSP-2373_email_open_2021-09-15_2021-09-19 > OSP-2373_email_clk_2021-09-15_2021-09-19,144139.5222757,299.0,248.0,1613,1613,False
107,FB_Impression_WebFeed > OSP-2373_email_open_2021-09-15_2021-09-19 > OSP-2373_email_clk_2021-09-15_2021-09-19,16224.804734088,28.0,21.0,121,121,False
108,_AlwaysOn_wow_web_clk_2021-09-08_2021-09-14 > OSP-2373_email_open_2021-09-15_2021-09-19,1780.7418762082,5.0,5.0,101,101,False
109,FB_Impression_MobileFeed > _AlwaysOn_wow_web_view_2021-09-15_2021-09-19 > _AlwaysOn_wow_web_view_2021-09-08_2021-09-14,17524.500928966,16.0,6.0,350,350,False
110,_AlwaysOn_wow_web_clk_2021-09-08_2021-09-14 > OSP-2373_rw_app_imp_2021-09-08_2021-09-14,5388.4215118599,10.0,6.0,119,119,False
111,OSP-2373_rw_app_imp_2021-09-08_2021-09-14 > OSP-2373_rw_app_clk_2021-09-08_2021-09-14 > OSP-2373_email_open_2021-09-15_2021-09-19,20199.401683739,48.0,32.0,135,135,False
112,_AlwaysOn_wow_web_clk_2021-09-15_2021-09-19,321695.21245374,307.0,173.0,2736,2736,False
113,_AlwaysOn_wow_web_view_2021-09-15_2021-09-19 > _AlwaysOn_wow_web_clk_2021-09-15_2021-09-19 > OSP-2373_rw_app_imp_2021-09-15_2021-09-19,144185.44677263,139.0,53.0,290,290,False
114,FB_Impression_InStream,134420.99731553,162.0,113.0,1908,1908,False
115,FB_Impression_InstagramStory > FB_Impression_MobileFeed > OSP-2373_rw_app_imp_2021-09-15_2021-09-19,77355.667480997,96.0,50.0,506,506,False
116,OSP-2373_rw_app_imp_2021-09-08_2021-09-14 > OSP-2373_rw_app_clk_2021-09-08_2021-09-14 > OSP-2373_email_open_2021-09-08_2021-09-14 > OSP-2373_email_clk_2021-09-08_2021-09-14,54668.023267454,86.0,56.0,175,175,False
117,OSP-2373_email_open_2021-09-08_2021-09-14 > OSP-2373_email_clk_2021-09-15_2021-09-19,207768.19638658,303.0,239.0,1472,1472,False
118,_AlwaysOn_wow_web_view_2021-09-15_2021-09-19 > OSP-2373_rw_app_imp_2021-09-15_2021-09-19 > OSP-2373_rw_app_clk_2021-09-15_2021-09-19,40913.712691122,45.0,31.0,112,112,False
119,_AlwaysOn_wow_web_view_2021-09-15_2021-09-19 > _AlwaysOn_wow_web_view_2021-09-08_2021-09-14,248356.99557981,119.0,57.0,3221,3221,False
120,FB_Impression_InstagramStory > OSP-2373_rw_app_imp_2021-09-15_2021-09-19 > OSP-2373_rw_app_clk_2021-09-15_2021-09-19,69652.258199674,52.0,38.0,184,184,False
121,FB_Impression_MobileFeed,2762786.2743155,4639.0,3653.0,151411,151411,False
122,OSP-2373_email_open_2021-09-08_2021-09-14 > OSP-2373_email_clk_2021-09-15_2021-09-19 > OSP-2373_email_clk_2021-09-08_2021-09-14,27463.613088597,48.0,33.0,141,141,False
123,_AlwaysOn_sem_brand_clk_2021-09-08_2021-09-14 > OSP-2373_rw_app_imp_2021-09-15_2021-09-19,10911.630954126,11.0,7.0,105,105,False
124,OSP-2373_rw_app_clk_2021-09-08_2021-09-14 > OSP-2373_email_open_2021-09-08_2021-09-14 > OSP-2373_email_clk_2021-09-08_2021-09-14,-7709.3647598931,35.0,28.0,113,113,False
125,FB_Impression_MobileFeed > OSP-2373_rw_app_imp_2021-09-15_2021-09-19 > OSP-2373_rw_app_clk_2021-09-15_2021-09-19,223446.63062916,447.0,288.0,1436,1436,False
126,_AlwaysOn_wow_web_view_2021-09-15_2021-09-19 > _AlwaysOn_wow_web_clk_2021-09-15_2021-09-19 > OSP-2373_email_open_2021-09-08_2021-09-14,31641.272671969,44.0,16.0,193,193,False
127,_AlwaysOn_sem_shopping_clk_2021-09-08_2021-09-14,67014.721636974,50.0,42.0,4973,4973,False
128,_AlwaysOn_wow_web_clk_2021-09-08_2021-09-14 > OSP-2373_rw_app_imp_2021-09-15_2021-09-19 > OSP-2373_rw_app_imp_2021-09-08_2021-09-14,89583.594264426,29.0,10.0,151,151,False
129,_AlwaysOn_wow_web_view_2021-09-15_2021-09-19 > OSP-2373_email_open_2021-09-15_2021-09-19,43030.915476486,44.0,24.0,278,278,False
130,OSP-2373_rw_app_imp_2021-09-15_2021-09-19 > OSP-2373_rw_app_clk_2021-09-15_2021-09-19 > OSP-2373_email_open_2021-09-15_2021-09-19 > OSP-2373_email_clk_2021-09-15_2021-09-19,31667.10560355,56.0,23.0,115,115,False
131,_AlwaysOn_wow_web_view_2021-09-15_2021-09-19 > _AlwaysOn_wow_web_view_2021-09-08_2021-09-14 > OSP-2373_rw_app_imp_2021-09-15_2021-09-19,32953.933318338,34.0,17.0,151,151,False
132,FB_Impression_MobileFeed > FB_Impression_InstagramStory > FB_Impression_MobileFeed > _AlwaysOn_wow_web_view_2021-09-08_2021-09-14,2010.9211947856,1.0,2.0,146,146,False
133,OSP-2373_email_open_2021-09-08_2021-09-14 > OSP-2373_email_open_2021-09-08_2021-09-14 > OSP-2373_email_clk_2021-09-08_2021-09-14,57950.62245477,127.0,82.0,214,214,False
134,OSP-2373_rw_app_clk_2021-09-08_2021-09-14 > OSP-2373_email_open_2021-09-08_2021-09-14,8455.3383409729,21.0,16.0,115,115,False
135,_AlwaysOn_wow_web_clk_2021-09-15_2021-09-19 > OSP-2373_email_open_2021-09-08_2021-09-14 > OSP-2373_email_clk_2021-09-08_2021-09-14,109485.1775453,118.0,61.0,226,226,False
136,OSP-2373_rw_app_imp_2021-09-15_2021-09-19 > OSP-2373_rw_app_imp_2021-09-08_2021-09-14 > OSP-2373_email_open_2021-09-08_2021-09-14,321744.11822588,763.0,552.0,3095,3095,False
137,FB_Impression_WebFeed > OSP-2373_email_open_2021-09-08_2021-09-14 > OSP-2373_email_clk_2021-09-08_2021-09-14,74756.772322153,118.0,75.0,415,415,False
138,FB_Impression_InstagramStory > OSP-2373_email_open_2021-09-08_2021-09-14,49635.098946082,65.0,52.0,1387,1387,False
139,FB_Impression_FacebookStory > OSP-2373_rw_app_imp_2021-09-15_2021-09-19,-14844.031189682,44.0,27.0,232,232,False
140,FB_Impression_InStream > OSP-2373_rw_app_imp_2021-09-15_2021-09-19,23995.943100772,51.0,46.0,278,278,False
141,FB_Impression_MobileFeed > _AlwaysOn_wow_web_view_2021-09-08_2021-09-14 > OSP-2373_rw_app_imp_2021-09-15_2021-09-19,54379.381800121,22.0,8.0,126,126,False
142,FB_Impression_InstagramStory > FB_Impression_MobileFeed > OSP-2373_rw_app_imp_2021-09-15_2021-09-19 > OSP-2373_rw_app_imp_2021-09-08_2021-09-14,41105.754790221,39.0,19.0,168,168,False
143,OSP-2373_rw_app_imp_2021-09-08_2021-09-14 > OSP-2373_email_open_2021-09-08_2021-09-14,456136.79917818,1198.0,784.0,5301,5301,False
144,_AlwaysOn_wow_web_clk_2021-09-15_2021-09-19 > OSP-2373_rw_app_imp_2021-09-15_2021-09-19,171387.0861337,174.0,87.0,394,394,False
145,FB_Impression_MobileFeed > _AlwaysOn_wow_web_view_2021-09-08_2021-09-14 > _AlwaysOn_wow_web_clk_2021-09-08_2021-09-14,24296.626830745,20.0,4.0,650,650,False
146,FB_Impression_MobileFeed > FB_Impression_InstagramStory > OSP-2373_rw_app_imp_2021-09-15_2021-09-19,52872.281510225,50.0,35.0,280,280,False
147,OSP-2373_rw_app_imp_2021-09-08_2021-09-14 > OSP-2373_email_open_2021-09-15_2021-09-19 > OSP-2373_email_open_2021-09-08_2021-09-14 > OSP-2373_email_clk_2021-09-08_2021-09-14,112096.49983193,130.0,75.0,283,283,False
148,_AlwaysOn_wow_web_view_2021-09-15_2021-09-19 > OSP-2373_email_open_2021-09-08_2021-09-14,71290.287187095,91.0,74.0,747,747,False
149,_AlwaysOn_wow_web_clk_2021-09-15_2021-09-19 > OSP-2373_email_open_2021-09-08_2021-09-14,-11052.950927357,66.0,25.0,206,206,False
150,FB_Impression_InstagramStory > FB_Impression_MobileFeed > OSP-2373_rw_app_imp_2021-09-08_2021-09-14,2403.8060920271,8.0,9.0,132,132,False
151,OSP-2373_email_open_2021-09-15_2021-09-19 > OSP-2373_email_clk_2021-09-15_2021-09-19,1809234.829769,2805.0,1915.0,16207,16207,False
152,OSP-2373_email_open_2021-09-15_2021-09-19 > OSP-2373_email_open_2021-09-08_2021-09-14 > OSP-2373_email_clk_2021-09-08_2021-09-14,567585.04730816,1189.0,761.0,4675,4675,False
153,FB_Impression_MobileFeed > OSP-2373_email_open_2021-09-08_2021-09-14 > OSP-2373_email_clk_2021-09-08_2021-09-14,1061349.878065,1878.0,1334.0,7208,7208,False
154,OSP-2373_rw_app_imp_2021-09-15_2021-09-19 > OSP-2373_rw_app_imp_2021-09-08_2021-09-14 > OSP-2373_email_open_2021-09-15_2021-09-19 > OSP-2373_email_open_2021-09-08_2021-09-14 > OSP-2373_email_clk_2021-09-08_2021-09-14,33266.327158914,51.0,36.0,130,130,False
155,_AlwaysOn_wow_web_view_2021-09-08_2021-09-14 > OSP-2373_email_open_2021-09-08_2021-09-14 > OSP-2373_email_clk_2021-09-08_2021-09-14,213101.05416133,184.0,62.0,896,896,False
156,FB_Impression_MobileFeed > OSP-2373_rw_app_imp_2021-09-15_2021-09-19 > OSP-2373_rw_app_imp_2021-09-08_2021-09-14 > OSP-2373_email_open_2021-09-08_2021-09-14,62624.444407252,139.0,87.0,421,421,False
157,_AlwaysOn_wow_web_view_2021-09-15_2021-09-19,929360.09084358,874.0,532.0,23516,23516,False
158,_AlwaysOn_wow_web_view_2021-09-08_2021-09-14 > _AlwaysOn_wow_web_clk_2021-09-08_2021-09-14 > OSP-2373_email_open_2021-09-08_2021-09-14,29843.591728822,24.0,9.0,398,398,False
159,_AlwaysOn_wow_web_view_2021-09-15_2021-09-19 > _AlwaysOn_sem_shopping_clk_2021-09-15_2021-09-19,1825.1276183611,5.0,11.0,128,128,False
160,FB_Impression_MobileFeed > OSP-2373_rw_app_imp_2021-09-15_2021-09-19,1240660.8056187,2191.0,1488.0,10990,10990,False
161,FB_Impression_MobileFeed > FB_Impression_InstagramStory > OSP-2373_email_open_2021-09-08_2021-09-14,5783.5585657735,7.0,3.0,203,203,False
162,FB_Impression_InstagramStory > FB_Impression_MobileFeed > FB_Impression_InstagramStory > OSP-2373_email_open_2021-09-08_2021-09-14,1989.38574924,6.0,2.0,101,101,False
163,OSP-2373_email_clk_2021-09-08_2021-09-14,8363712.2593392,15318.0,10932.0,53713,53713,False
164,_AlwaysOn_wow_web_view_2021-09-15_2021-09-19 > _AlwaysOn_wow_web_view_2021-09-08_2021-09-14 > _AlwaysOn_wow_web_clk_2021-09-08_2021-09-14,16059.339461329,18.0,9.0,465,465,False
165,FB_Impression_SuggestedVideo > OSP-2373_email_open_2021-09-15_2021-09-19,1728.0043735042,3.0,1.0,129,129,False
166,OSP-2373_rw_app_imp_2021-09-08_2021-09-14 > OSP-2373_rw_app_imp_2021-09-08_2021-09-14 > OSP-2373_rw_app_clk_2021-09-15_2021-09-19,8411.3783758092,75.0,43.0,111,111,False
167,_AlwaysOn_sem_shopping_clk_2021-09-15_2021-09-19 > OSP-2373_rw_app_imp_2021-09-15_2021-09-19,13393.905505116,21.0,20.0,174,174,False
168,OSP-2373_email_open_2021-09-08_2021-09-14 > OSP-2373_email_clk_2021-09-08_2021-09-14,7990931.2661479,14212.0,9663.0,65527,65527,False
169,OSP-2373_email_open_2021-09-08_2021-09-14,3872514.5750645,8075.0,6449.0,203579,203579,False
170,FB_Impression_MobileFeed > OSP-2373_email_open_2021-09-08_2021-09-14,249881.06743263,607.0,487.0,9570,9570,False
171,FB_Impression_MobileFeed > OSP-2373_email_open_2021-09-15_2021-09-19 > OSP-2373_email_open_2021-09-08_2021-09-14 > OSP-2373_email_clk_2021-09-08_2021-09-14,89822.519013961,195.0,127.0,651,651,False
172,_AlwaysOn_wow_web_view_2021-09-08_2021-09-14 > _AlwaysOn_wow_web_clk_2021-09-08_2021-09-14 > OSP-2373_email_open_2021-09-08_2021-09-14 > OSP-2373_email_clk_2021-09-08_2021-09-14,60256.387896918,50.0,16.0,224,224,False
173,OSP-2373_rw_app_clk_2021-09-08_2021-09-14,142254.95323273,286.0,181.0,1560,1560,False
174,OSP-2373_rw_app_imp_2021-09-15_2021-09-19 > OSP-2373_rw_app_imp_2021-09-08_2021-09-14 > OSP-2373_email_open_2021-09-15_2021-09-19 > OSP-2373_email_open_2021-09-08_2021-09-14,49975.078369376,74.0,51.0,233,233,False
175,FB_Impression_InstagramStory > FB_Impression_MobileFeed > OSP-2373_email_open_2021-09-08_2021-09-14 > OSP-2373_email_clk_2021-09-08_2021-09-14,43053.069831567,60.0,37.0,251,251,False
176,_AlwaysOn_wow_web_view_2021-09-15_2021-09-19 > OSP-2373_rw_app_imp_2021-09-15_2021-09-19,194917.56368139,277.0,150.0,908,908,False
177,FB_Impression_MobileFeed > _AlwaysOn_wow_web_view_2021-09-08_2021-09-14,64672.534825193,60.0,29.0,2148,2148,False
178,FB_Impression_InstagramStory > OSP-2373_email_open_2021-09-15_2021-09-19 > OSP-2373_email_clk_2021-09-15_2021-09-19,9604.3593591313,23.0,20.0,102,102,False
179,FB_Impression_MobileFeed > OSP-2373_email_open_2021-09-15_2021-09-19,214532.32049362,341.0,267.0,4369,4369,False
180,FB_Impression_MobileFeed > OSP-2373_rw_app_imp_2021-09-15_2021-09-19 > OSP-2373_email_open_2021-09-15_2021-09-19 > OSP-2373_email_clk_2021-09-15_2021-09-19,28083.803373202,50.0,18.0,125,125,False
181,FB_Impression_MobileFeed > OSP-2373_rw_app_imp_2021-09-15_2021-09-19 > OSP-2373_rw_app_imp_2021-09-08_2021-09-14 > OSP-2373_email_open_2021-09-08_2021-09-14 > OSP-2373_email_clk_2021-09-08_2021-09-14,35917.747387271,82.0,48.0,209,209,False
182,OSP-2373_rw_app_imp_2021-09-15_2021-09-19 > OSP-2373_rw_app_imp_2021-09-08_2021-09-14,3328502.6939928,6681.0,4410.0,34602,34602,False
183,_AlwaysOn_wow_web_view_2021-09-08_2021-09-14 > _AlwaysOn_wow_web_clk_2021-09-08_2021-09-14 > OSP-2373_email_open_2021-09-15_2021-09-19,3242.1203819916,8.0,3.0,121,121,False
184,_AlwaysOn_wow_web_clk_2021-09-08_2021-09-14 > OSP-2373_email_open_2021-09-08_2021-09-14 > OSP-2373_email_clk_2021-09-08_2021-09-14,72584.444196047,55.0,28.0,249,249,False
185,_AlwaysOn_wow_web_clk_2021-09-08_2021-09-14,159238.55596286,130.0,46.0,4635,4635,False
186,OSP-2373_rw_app_imp_2021-09-15_2021-09-19 > OSP-2373_rw_app_clk_2021-09-15_2021-09-19 > OSP-2373_email_open_2021-09-08_2021-09-14,142569.79126525,284.0,156.0,825,825,False
187,_AlwaysOn_wow_web_view_2021-09-08_2021-09-14 > _AlwaysOn_wow_web_view_2021-09-08_2021-09-14 > _AlwaysOn_wow_web_clk_2021-09-08_2021-09-14,39410.133002666,12.0,2.0,316,316,False
188,_AlwaysOn_wow_web_view_2021-09-08_2021-09-14 > OSP-2373_rw_app_imp_2021-09-15_2021-09-19 > OSP-2373_email_open_2021-09-08_2021-09-14,9308.8185872132,29.0,11.0,159,159,False
189,_AlwaysOn_wow_web_clk_2021-09-08_2021-09-14 > OSP-2373_email_open_2021-09-08_2021-09-14,15382.999121984,19.0,10.0,317,317,False
190,FB_Impression_Instagram > OSP-2373_email_open_2021-09-08_2021-09-14,2495.8866266556,4.0,2.0,145,145,False
191,OSP-2373_rw_app_imp_2021-09-15_2021-09-19 > OSP-2373_rw_app_imp_2021-09-08_2021-09-14 > OSP-2373_rw_app_clk_2021-09-08_2021-09-14,189384.09367959,486.0,282.0,1448,1448,False
192,FB_Impression_MobileFeed > FB_Impression_InstagramStory > FB_Impression_MobileFeed,115535.38727784,101.0,57.0,3915,3915,False
193,OSP-2373_email_open_2021-09-15_2021-09-19,2240558.7770007,3980.0,3083.0,94131,94131,False
194,_AlwaysOn_wow_web_view_2021-09-15_2021-09-19 > _AlwaysOn_wow_web_view_2021-09-08_2021-09-14 > OSP-2373_email_open_2021-09-08_2021-09-14,21357.968024072,19.0,6.0,169,169,False
195,FB_Impression_MobileFeed > _AlwaysOn_wow_web_view_2021-09-15_2021-09-19 > OSP-2373_rw_app_imp_2021-09-15_2021-09-19,33006.797911172,60.0,23.0,139,139,False
196,OSP-2373_email_open_2021-09-15_2021-09-19 > OSP-2373_email_open_2021-09-08_2021-09-14,393721.56814146,700.0,580.0,9489,9489,False
197,_AlwaysOn_wow_web_view_2021-09-15_2021-09-19 > _AlwaysOn_wow_web_view_2021-09-08_2021-09-14 > _AlwaysOn_wow_web_clk_2021-09-15_2021-09-19,58388.511689519,33.0,12.0,581,581,False
198,FB_Impression_MobileFeed > FB_Impression_FacebookStory > OSP-2373_rw_app_imp_2021-09-15_2021-09-19,16784.852406081,31.0,25.0,179,179,False
199,OSP-2373_rw_app_imp_2021-09-08_2021-09-14 > OSP-2373_email_open_2021-09-08_2021-09-14 > OSP-2373_email_clk_2021-09-08_2021-09-14,466874.73568529,959.0,632.0,2941,2941,False
200,_AlwaysOn_wow_web_clk_2021-09-08_2021-09-14 > OSP-2373_rw_app_imp_2021-09-15_2021-09-19,35812.853284959,43.0,15.0,320,320,False
201,_AlwaysOn_wow_web_view_2021-09-15_2021-09-19 > _AlwaysOn_wow_web_view_2021-09-08_2021-09-14 > _AlwaysOn_wow_web_clk_2021-09-15_2021-09-19 > _AlwaysOn_wow_web_clk_2021-09-08_2021-09-14,24144.565653179,12.0,2.0,201,201,False
202,OSP-2373_rw_app_imp_2021-09-15_2021-09-19 > OSP-2373_rw_app_imp_2021-09-08_2021-09-14 > OSP-2373_rw_app_clk_2021-09-15_2021-09-19 > OSP-2373_email_open_2021-09-08_2021-09-14 > OSP-2373_email_clk_2021-09-08_2021-09-14,49948.239684657,161.0,85.0,231,231,False
203,FB_Impression_MobileFeed > OSP-2373_rw_app_imp_2021-09-15_2021-09-19 > OSP-2373_rw_app_clk_2021-09-15_2021-09-19 > OSP-2373_email_open_2021-09-08_2021-09-14,10986.586674581,33.0,16.0,101,101,False
204,_AlwaysOn_wow_web_view_2021-09-08_2021-09-14 > _AlwaysOn_wow_web_clk_2021-09-08_2021-09-14 > OSP-2373_rw_app_imp_2021-09-15_2021-09-19,59349.638783869,52.0,19.0,355,355,False
205,_AlwaysOn_wow_web_view_2021-09-15_2021-09-19 > _AlwaysOn_wow_web_clk_2021-09-15_2021-09-19,331875.61133596,325.0,171.0,4115,4115,False
206,FB_Impression_WebFeed > _AlwaysOn_wow_web_view_2021-09-08_2021-09-14,2227.3782143825,4.0,3.0,157,157,False
207,_AlwaysOn_sem_shopping_clk_2021-09-15_2021-09-19,34893.249761363,65.0,54.0,2775,2775,False
208,_AlwaysOn_wow_web_view_2021-09-08_2021-09-14 > OSP-2373_rw_app_imp_2021-09-15_2021-09-19 > OSP-2373_rw_app_clk_2021-09-15_2021-09-19,28874.619460166,28.0,18.0,143,143,False
209,FB_Impression_InstagramStory > _AlwaysOn_wow_web_view_2021-09-08_2021-09-14,10155.099582124,8.0,2.0,376,376,False
210,OSP-2373_rw_app_imp_2021-09-15_2021-09-19 > OSP-2373_email_open_2021-09-15_2021-09-19 > OSP-2373_email_open_2021-09-08_2021-09-14 > OSP-2373_email_clk_2021-09-08_2021-09-14,22705.683012475,86.0,69.0,296,296,False
211,OSP-2373_rw_app_imp_2021-09-15_2021-09-19 > OSP-2373_email_open_2021-09-08_2021-09-14 > OSP-2373_email_clk_2021-09-08_2021-09-14,486827.67312767,1068.0,579.0,3418,3418,False
212,OSP-2373_rw_app_clk_2021-09-15_2021-09-19 > OSP-2373_email_open_2021-09-08_2021-09-14 > OSP-2373_email_clk_2021-09-08_2021-09-14,160593.57173834,258.0,149.0,503,503,False
213,_AlwaysOn_sem_brand_clk_2021-09-08_2021-09-14,13455.456564808,31.0,18.0,1699,1699,False
214,FB_Impression_FacebookStory > OSP-2373_email_open_2021-09-08_2021-09-14,3923.917481154,12.0,9.0,173,173,False
215,FB_Impression_MobileFeed > OSP-2373_rw_app_imp_2021-09-08_2021-09-14 > OSP-2373_email_open_2021-09-08_2021-09-14 > OSP-2373_email_clk_2021-09-08_2021-09-14,62959.618819865,60.0,29.0,198,198,False
216,FB_Impression_WebFeed > OSP-2373_email_open_2021-09-15_2021-09-19,4870.71633769,46.0,32.0,383,383,False
217,OSP-2373_rw_app_imp_2021-09-15_2021-09-19 > OSP-2373_email_open_2021-09-15_2021-09-19,691749.17533224,614.0,395.0,3863,3863,False
219,FB_Impression_MobileFeed > OSP-2373_rw_app_imp_2021-09-15_2021-09-19 > OSP-2373_rw_app_imp_2021-09-08_2021-09-14,398741.91323238,929.0,602.0,3478,3478,False
220,_AlwaysOn_wow_web_view_2021-09-08_2021-09-14 > _AlwaysOn_wow_web_clk_2021-09-08_2021-09-14 > OSP-2373_rw_app_imp_2021-09-15_2021-09-19 > OSP-2373_rw_app_imp_2021-09-08_2021-09-14,45801.803981283,44.0,17.0,171,171,False
221,OSP-2373_rw_app_imp_2021-09-15_2021-09-19 > OSP-2373_rw_app_clk_2021-09-15_2021-09-19,2992899.2410287,3377.0,1979.0,13361,13361,False
222,OSP-2373_email_clk_2021-09-15_2021-09-19,2047818.311036,3504.0,2329.0,14329,14329,False
223,FB_Impression_MobileFeed > OSP-2373_rw_app_imp_2021-09-08_2021-09-14 > OSP-2373_rw_app_clk_2021-09-08_2021-09-14,6420.0484568653,38.0,26.0,183,183,False
224,OSP-2373_rw_app_imp_2021-09-08_2021-09-14 > OSP-2373_email_open_2021-09-15_2021-09-19 > OSP-2373_email_open_2021-09-08_2021-09-14,45827.996283131,126.0,86.0,450,450,False
