,path,total_conversion_value,conversions,non_conversions,cnt,ppl,Converted
0,OSP-2373_rw_app_imp_2021-12-22_2021-12-26 > OSP-2373_rw_app_clk_2021-12-22_2021-12-26 > OSP-2373_email_open_2021-12-22_2021-12-26,855088.40508278,4498.0,0.0,13174,13174,False
1,FB_Impression_MobileFeed > FB_Impression_Instagram > FB_Impression_MobileFeed > OSP-2373_email_open_2021-12-22_2021-12-26,9553.0173050369,12.0,0.0,262,262,False
2,FB_Impression_MobileFeed > OSP-2373_email_open_2021-12-22_2021-12-26 > OSP-2373_email_clk_2021-12-22_2021-12-26,252546.3479014,854.0,0.0,2905,2905,False
3,FB_Impression_MobileFeed > _AlwaysOn_wow_web_view_2021-12-22_2021-12-26,6896.053898942,24.0,0.0,437,437,False
4,OSP-2373_rw_app_imp_2021-12-22_2021-12-26 > OSP-2373_email_open_2021-12-15_2021-12-21,-924.72320517033,24.0,0.0,205,205,False
5,_AlwaysOn_wow_web_view_2021-12-15_2021-12-21 > OSP-2373_rw_app_imp_2021-12-22_2021-12-26,53715.30630832,66.0,0.0,1840,1840,False
6,_AlwaysOn_wow_web_clk_2021-12-15_2021-12-21 > OSP-2373_rw_app_imp_2021-12-22_2021-12-26 > OSP-2373_email_open_2021-12-22_2021-12-26,4497.8404123942,21.0,0.0,391,391,False
7,OSP-2373_rw_app_clk_2021-12-22_2021-12-26 > OSP-2373_email_open_2021-12-22_2021-12-26 > OSP-2373_email_open_2021-12-22_2021-12-26 > OSP-2373_email_clk_2021-12-22_2021-12-26,13749.403645494,243.0,0.0,422,422,False
8,FB_Impression_MobileFeed > _AlwaysOn_wow_web_view_2021-12-15_2021-12-21 > _AlwaysOn_wow_web_clk_2021-12-15_2021-12-21,18492.45843005,13.0,0.0,571,571,False
9,_AlwaysOn_wow_web_view_2021-12-22_2021-12-26 > OSP-2373_rw_app_imp_2021-12-22_2021-12-26 > OSP-2373_email_open_2021-12-22_2021-12-26,3326.2252838683,40.0,0.0,122,122,False
10,FB_Impression_MobileFeed > OSP-2373_email_open_2021-12-22_2021-12-26,71373.892833959,783.0,0.0,14233,14233,False
11,_AlwaysOn_wow_web_view_2021-12-22_2021-12-26 > _AlwaysOn_sem_shopping_clk_2021-12-22_2021-12-26,330.11369670636,43.0,0.0,516,516,False
12,_AlwaysOn_wow_web_clk_2021-12-15_2021-12-21 > OSP-2373_rw_app_imp_2021-12-22_2021-12-26,19645.683826984,38.0,0.0,610,610,False
13,OSP-2373_rw_app_clk_2021-12-22_2021-12-26 > OSP-2373_email_open_2021-12-22_2021-12-26 > OSP-2373_email_open_2021-12-15_2021-12-21 > OSP-2373_email_clk_2021-12-22_2021-12-26,5261.3881240976,107.0,0.0,190,190,False
14,_AlwaysOn_wow_web_view_2021-12-15_2021-12-21 > OSP-2373_rw_app_imp_2021-12-22_2021-12-26 > OSP-2373_rw_app_imp_2021-12-15_2021-12-21 > OSP-2373_email_open_2021-12-22_2021-12-26 > OSP-2373_email_clk_2021-12-22_2021-12-26,24800.893013387,43.0,0.0,265,265,False
15,OSP-2373_rw_app_imp_2021-12-15_2021-12-21 > OSP-2373_email_open_2021-12-22_2021-12-26,302873.54313017,2778.0,0.0,16946,16946,False
16,_AlwaysOn_wow_web_view_2021-12-15_2021-12-21 > OSP-2373_rw_app_imp_2021-12-22_2021-12-26 > OSP-2373_rw_app_imp_2021-12-15_2021-12-21 > OSP-2373_email_open_2021-12-22_2021-12-26,6680.3682033408,26.0,0.0,313,313,False
17,OSP-2373_rw_app_imp_2021-12-22_2021-12-26 > OSP-2373_rw_app_imp_2021-12-22_2021-12-26 > OSP-2373_rw_app_imp_2021-12-15_2021-12-21 > OSP-2373_email_open_2021-12-22_2021-12-26 > OSP-2373_email_clk_2021-12-22_2021-12-26,10630.922272276,57.0,0.0,195,195,False
18,_AlwaysOn_wow_web_view_2021-12-22_2021-12-26 > OSP-2373_rw_app_imp_2021-12-22_2021-12-26 > OSP-2373_rw_app_imp_2021-12-15_2021-12-21 > OSP-2373_rw_app_clk_2021-12-22_2021-12-26,48426.002951139,114.0,0.0,180,180,False
19,OSP-2373_rw_app_imp_2021-12-15_2021-12-21 > OSP-2373_email_open_2021-12-22_2021-12-26 > OSP-2373_email_open_2021-12-22_2021-12-26,1250.5009499286,57.0,0.0,182,182,False
20,_AlwaysOn_wow_web_view_2021-12-22_2021-12-26 > OSP-2373_rw_app_imp_2021-12-15_2021-12-21,13029.314972246,33.0,0.0,181,181,False
21,OSP-2373_rw_app_imp_2021-12-15_2021-12-21 > OSP-2373_rw_app_clk_2021-12-22_2021-12-26,3365680.1299075,19291.0,0.0,33214,33214,False
22,FB_Impression_MobileFeed > OSP-2373_rw_app_imp_2021-12-22_2021-12-26 > OSP-2373_rw_app_clk_2021-12-22_2021-12-26,13140.143412692,90.0,0.0,284,284,False
23,OSP-2373_email_open_2021-12-22_2021-12-26 > OSP-2373_email_open_2021-12-22_2021-12-26 > OSP-2373_email_clk_2021-12-22_2021-12-26,96191.652770205,619.0,0.0,1300,1300,False
25,OSP-2373_rw_app_imp_2021-12-15_2021-12-21 > OSP-2373_rw_app_clk_2021-12-22_2021-12-26 > OSP-2373_email_open_2021-12-22_2021-12-26 > OSP-2373_email_open_2021-12-15_2021-12-21 > OSP-2373_email_clk_2021-12-22_2021-12-26,12628.837512442,65.0,0.0,104,104,False
26,_AlwaysOn_wow_web_view_2021-12-22_2021-12-26 > OSP-2373_rw_app_imp_2021-12-22_2021-12-26 > OSP-2373_rw_app_clk_2021-12-22_2021-12-26 > OSP-2373_email_open_2021-12-22_2021-12-26,18960.155281632,90.0,0.0,131,131,False
27,_AlwaysOn_sem_brand_clk_2021-12-15_2021-12-21 > OSP-2373_email_open_2021-12-22_2021-12-26 > OSP-2373_email_clk_2021-12-22_2021-12-26,21426.569786718,29.0,0.0,197,197,False
28,FB_Impression_MobileFeed > _AlwaysOn_wow_web_view_2021-12-15_2021-12-21,12100.410094975,19.0,0.0,2336,2336,False
29,_AlwaysOn_wow_web_clk_2021-12-15_2021-12-21 > OSP-2373_email_open_2021-12-22_2021-12-26 > OSP-2373_email_open_2021-12-15_2021-12-21,1102.222386664,8.0,0.0,150,150,False
30,OSP-2373_email_open_2021-12-22_2021-12-26 > OSP-2373_email_clk_2021-12-22_2021-12-26,5628805.7783109,38853.0,0.0,122403,122403,False
31,OSP-2373_rw_app_imp_2021-12-22_2021-12-26 > OSP-2373_rw_app_imp_2021-12-15_2021-12-21 > OSP-2373_rw_app_clk_2021-12-22_2021-12-26,3068784.2012499,15745.0,0.0,33173,33173,False
32,_AlwaysOn_sem_shopping_clk_2021-12-15_2021-12-21 > OSP-2373_rw_app_imp_2021-12-15_2021-12-21,2021.7693878552,2.0,0.0,192,192,False
33,_AlwaysOn_wow_web_clk_2021-12-15_2021-12-21 > OSP-2373_rw_app_imp_2021-12-22_2021-12-26 > OSP-2373_rw_app_imp_2021-12-15_2021-12-21 > OSP-2373_rw_app_clk_2021-12-22_2021-12-26,81189.158213379,132.0,0.0,633,633,False
34,OSP-2373_rw_app_imp_2021-12-15_2021-12-21 > OSP-2373_email_open_2021-12-22_2021-12-26 > OSP-2373_email_clk_2021-12-22_2021-12-26,965398.5644185,5156.0,0.0,10658,10658,False
35,_AlwaysOn_wow_web_view_2021-12-15_2021-12-21 > OSP-2373_email_open_2021-12-22_2021-12-26 > OSP-2373_email_open_2021-12-15_2021-12-21 > OSP-2373_email_clk_2021-12-22_2021-12-26,6076.721445025,22.0,0.0,114,114,False
36,_AlwaysOn_wow_web_view_2021-12-15_2021-12-21 > OSP-2373_rw_app_imp_2021-12-15_2021-12-21 > OSP-2373_rw_app_clk_2021-12-15_2021-12-21,4083.2631715531,46.0,0.0,408,408,False
37,FB_Impression_MobileFeed > OSP-2373_rw_app_imp_2021-12-15_2021-12-21,4130.1620275194,17.0,0.0,278,278,False
38,OSP-2373_rw_app_imp_2021-12-15_2021-12-21 > OSP-2373_rw_app_clk_2021-12-22_2021-12-26 > OSP-2373_rw_app_clk_2021-12-15_2021-12-21 > OSP-2373_email_open_2021-12-22_2021-12-26 > OSP-2373_email_clk_2021-12-22_2021-12-26,50302.539833217,91.0,0.0,255,255,False
39,OSP-2373_rw_app_imp_2021-12-15_2021-12-21 > OSP-2373_rw_app_imp_2021-12-15_2021-12-21 > OSP-2373_rw_app_clk_2021-12-22_2021-12-26,142879.48263613,810.0,0.0,1154,1154,False
40,OSP-2373_rw_app_clk_2021-12-22_2021-12-26 > OSP-2373_email_open_2021-12-22_2021-12-26 > OSP-2373_email_open_2021-12-15_2021-12-21,43879.588132924,196.0,0.0,420,420,False
41,_AlwaysOn_wow_web_view_2021-12-15_2021-12-21 > _AlwaysOn_wow_web_clk_2021-12-15_2021-12-21 > OSP-2373_email_open_2021-12-22_2021-12-26,110333.26856579,153.0,0.0,3716,3716,False
42,FB_Impression_MobileFeed > _AlwaysOn_wow_web_view_2021-12-15_2021-12-21 > _AlwaysOn_wow_web_clk_2021-12-15_2021-12-21 > OSP-2373_email_open_2021-12-22_2021-12-26,4453.9738768748,7.0,0.0,132,132,False
43,_AlwaysOn_wow_web_view_2021-12-15_2021-12-21 > _AlwaysOn_wow_web_view_2021-12-15_2021-12-21 > OSP-2373_email_open_2021-12-22_2021-12-26,4422.8795693456,9.0,0.0,124,124,False
44,_AlwaysOn_wow_web_clk_2021-12-15_2021-12-21 > OSP-2373_email_open_2021-12-22_2021-12-26 > OSP-2373_email_open_2021-12-22_2021-12-26 > OSP-2373_email_clk_2021-12-22_2021-12-26,8301.2277860909,31.0,0.0,152,152,False
45,_AlwaysOn_wow_web_view_2021-12-22_2021-12-26 > _AlwaysOn_wow_web_view_2021-12-15_2021-12-21 > OSP-2373_email_open_2021-12-22_2021-12-26,-10033.924722018,22.0,0.0,514,514,False
46,_AlwaysOn_wow_web_view_2021-12-22_2021-12-26 > _AlwaysOn_wow_web_clk_2021-12-22_2021-12-26,275126.90420125,310.0,0.0,1751,1751,False
47,OSP-2373_rw_app_imp_2021-12-22_2021-12-26 > OSP-2373_rw_app_imp_2021-12-15_2021-12-21 > OSP-2373_rw_app_clk_2021-12-22_2021-12-26 > OSP-2373_email_open_2021-12-22_2021-12-26 > OSP-2373_email_open_2021-12-15_2021-12-21,-4930.1244316161,130.0,0.0,208,208,False
48,FB_Impression_Instagram > _AlwaysOn_wow_web_view_2021-12-15_2021-12-21,1547.1918094323,1.0,0.0,160,160,False
49,_AlwaysOn_wow_web_view_2021-12-15_2021-12-21 > _AlwaysOn_wow_web_clk_2021-12-15_2021-12-21 > OSP-2373_rw_app_imp_2021-12-22_2021-12-26 > OSP-2373_email_open_2021-12-22_2021-12-26 > OSP-2373_email_clk_2021-12-22_2021-12-26,10855.929620722,21.0,0.0,147,147,False
50,_AlwaysOn_wow_web_clk_2021-12-15_2021-12-21 > _AlwaysOn_sem_shopping_clk_2021-12-15_2021-12-21 > OSP-2373_email_open_2021-12-22_2021-12-26 > OSP-2373_email_clk_2021-12-22_2021-12-26,19120.099140179,20.0,0.0,106,106,False
51,OSP-2373_rw_app_imp_2021-12-15_2021-12-21 > OSP-2373_rw_app_clk_2021-12-15_2021-12-21 > OSP-2373_email_open_2021-12-22_2021-12-26,153372.36227516,537.0,0.0,3258,3258,False
52,_AlwaysOn_sem_shopping_clk_2021-12-22_2021-12-26 > OSP-2373_email_open_2021-12-22_2021-12-26 > OSP-2373_email_clk_2021-12-22_2021-12-26,394.70672332483,56.0,0.0,105,105,False
53,_AlwaysOn_wow_web_clk_2021-12-15_2021-12-21 > OSP-2373_rw_app_imp_2021-12-22_2021-12-26 > OSP-2373_rw_app_imp_2021-12-15_2021-12-21 > OSP-2373_rw_app_clk_2021-12-22_2021-12-26 > OSP-2373_email_open_2021-12-22_2021-12-26 > OSP-2373_email_clk_2021-12-22_2021-12-26,19325.404581433,43.0,0.0,142,142,False
54,OSP-2373_rw_app_imp_2021-12-22_2021-12-26 > OSP-2373_rw_app_clk_2021-12-22_2021-12-26 > OSP-2373_email_open_2021-12-22_2021-12-26 > OSP-2373_email_open_2021-12-15_2021-12-21,6585.3912757126,76.0,0.0,195,195,False
55,FB_Impression_Instagram > OSP-2373_email_open_2021-12-22_2021-12-26 > OSP-2373_email_clk_2021-12-22_2021-12-26,-412.71700633074,58.0,0.0,158,158,False
56,OSP-2373_rw_app_imp_2021-12-15_2021-12-21 > OSP-2373_rw_app_imp_2021-12-15_2021-12-21 > OSP-2373_rw_app_clk_2021-12-22_2021-12-26 > OSP-2373_email_open_2021-12-22_2021-12-26 > OSP-2373_email_clk_2021-12-22_2021-12-26,3010.2820416036,58.0,0.0,116,116,False
57,_AlwaysOn_wow_web_view_2021-12-22_2021-12-26 > _AlwaysOn_wow_web_view_2021-12-15_2021-12-21 > _AlwaysOn_wow_web_clk_2021-12-22_2021-12-26 > _AlwaysOn_wow_web_clk_2021-12-15_2021-12-21,35059.748846824,22.0,0.0,112,112,False
58,_AlwaysOn_wow_web_view_2021-12-22_2021-12-26 > OSP-2373_rw_app_imp_2021-12-22_2021-12-26 > OSP-2373_rw_app_imp_2021-12-15_2021-12-21,541.6117025535,23.0,0.0,111,111,False
59,OSP-2373_email_clk_2021-12-22_2021-12-26,7055251.3119617,46477.0,0.0,93596,93596,False
60,OSP-2373_rw_app_imp_2021-12-22_2021-12-26 > OSP-2373_rw_app_imp_2021-12-22_2021-12-26 > OSP-2373_rw_app_imp_2021-12-15_2021-12-21 > OSP-2373_rw_app_clk_2021-12-22_2021-12-26,126367.45591161,295.0,0.0,813,813,False
61,OSP-2373_email_clk_2021-12-15_2021-12-21,25151.38492628,78.0,0.0,264,264,False
62,_AlwaysOn_wow_web_view_2021-12-22_2021-12-26 > _AlwaysOn_wow_web_view_2021-12-15_2021-12-21,74949.255963503,68.0,0.0,2712,2712,False
63,OSP-2373_rw_app_imp_2021-12-22_2021-12-26 > OSP-2373_rw_app_imp_2021-12-15_2021-12-21 > OSP-2373_rw_app_clk_2021-12-22_2021-12-26 > OSP-2373_rw_app_clk_2021-12-15_2021-12-21 > OSP-2373_email_open_2021-12-22_2021-12-26 > OSP-2373_email_clk_2021-12-22_2021-12-26,12313.42966561,43.0,0.0,122,122,False
64,_AlwaysOn_wow_web_view_2021-12-15_2021-12-21 > _AlwaysOn_wow_web_clk_2021-12-15_2021-12-21 > _AlwaysOn_sem_shopping_clk_2021-12-15_2021-12-21 > OSP-2373_email_open_2021-12-22_2021-12-26,-2232.1034282443,6.0,0.0,110,110,False
65,_AlwaysOn_wow_web_view_2021-12-15_2021-12-21 > _AlwaysOn_sem_shopping_clk_2021-12-15_2021-12-21 > OSP-2373_email_open_2021-12-22_2021-12-26 > OSP-2373_email_clk_2021-12-22_2021-12-26,27573.629751874,40.0,0.0,296,296,False
66,_AlwaysOn_wow_web_view_2021-12-15_2021-12-21 > OSP-2373_email_open_2021-12-22_2021-12-26,122306.92950885,333.0,0.0,14419,14419,False
67,_AlwaysOn_wow_web_view_2021-12-15_2021-12-21 > _AlwaysOn_wow_web_clk_2021-12-15_2021-12-21 > OSP-2373_rw_app_imp_2021-12-22_2021-12-26 > OSP-2373_rw_app_imp_2021-12-15_2021-12-21,18897.860238119,20.0,0.0,224,224,False
68,_AlwaysOn_wow_web_clk_2021-12-15_2021-12-21 > _AlwaysOn_sem_shopping_clk_2021-12-15_2021-12-21,9781.2026737021,8.0,0.0,457,457,False
69,_AlwaysOn_wow_web_clk_2021-12-15_2021-12-21 > _AlwaysOn_sem_shopping_clk_2021-12-15_2021-12-21 > _AlwaysOn_sem_shopping_clk_2021-12-15_2021-12-21,856.06273218386,1.0,0.0,117,117,False
70,OSP-2373_rw_app_imp_2021-12-22_2021-12-26 > OSP-2373_rw_app_imp_2021-12-15_2021-12-21 > OSP-2373_email_open_2021-12-22_2021-12-26 > OSP-2373_email_clk_2021-12-22_2021-12-26,441096.92248652,2391.0,0.0,5195,5195,False
71,_AlwaysOn_wow_web_view_2021-12-22_2021-12-26 > OSP-2373_rw_app_imp_2021-12-22_2021-12-26,4340.8588943782,72.0,0.0,447,447,False
72,OSP-2373_rw_app_imp_2021-12-15_2021-12-21 > OSP-2373_rw_app_clk_2021-12-22_2021-12-26 > OSP-2373_rw_app_clk_2021-12-15_2021-12-21 > OSP-2373_email_open_2021-12-22_2021-12-26,220624.91841525,590.0,0.0,1774,1774,False
73,FB_Impression_MobileFeed > FB_Click_MobileFeed > FB_Impression_MobileFeed > OSP-2373_email_open_2021-12-22_2021-12-26,2106.4343482433,42.0,0.0,368,368,False
74,OSP-2373_rw_app_imp_2021-12-22_2021-12-26 > OSP-2373_rw_app_imp_2021-12-15_2021-12-21 > OSP-2373_rw_app_clk_2021-12-15_2021-12-21 > OSP-2373_email_open_2021-12-22_2021-12-26,88589.558746931,113.0,0.0,675,675,False
75,_AlwaysOn_wow_web_clk_2021-12-15_2021-12-21 > OSP-2373_email_open_2021-12-22_2021-12-26,145048.41093865,242.0,0.0,5327,5327,False
76,OSP-2373_rw_app_imp_2021-12-22_2021-12-26 > OSP-2373_rw_app_imp_2021-12-22_2021-12-26 > OSP-2373_rw_app_imp_2021-12-15_2021-12-21,6732.2858766315,33.0,0.0,174,174,False
77,_AlwaysOn_sem_brand_clk_2021-12-15_2021-12-21,8499.3229700734,10.0,0.0,519,519,False
78,FB_Impression_MobileFeed > _AlwaysOn_wow_web_view_2021-12-15_2021-12-21 > OSP-2373_email_open_2021-12-22_2021-12-26,2105.5449703721,11.0,0.0,559,559,False
79,OSP-2373_email_open_2021-12-22_2021-12-26,1927882.2095304,30393.0,0.0,693543,693543,False
80,OSP-2373_email_open_2021-12-22_2021-12-26 > OSP-2373_email_open_2021-12-22_2021-12-26 > OSP-2373_email_open_2021-12-15_2021-12-21 > OSP-2373_email_clk_2021-12-22_2021-12-26,8842.6597910805,68.0,0.0,184,184,False
81,_AlwaysOn_wow_web_clk_2021-12-15_2021-12-21 > OSP-2373_rw_app_imp_2021-12-22_2021-12-26 > OSP-2373_rw_app_imp_2021-12-15_2021-12-21 > OSP-2373_email_open_2021-12-22_2021-12-26,7923.8959106502,22.0,0.0,203,203,False
82,_AlwaysOn_wow_web_view_2021-12-15_2021-12-21 > OSP-2373_rw_app_imp_2021-12-22_2021-12-26 > OSP-2373_rw_app_imp_2021-12-15_2021-12-21 > OSP-2373_rw_app_clk_2021-12-22_2021-12-26 > OSP-2373_rw_app_clk_2021-12-15_2021-12-21,29011.912156051,32.0,0.0,126,126,False
83,OSP-2373_rw_app_imp_2021-12-15_2021-12-21 > OSP-2373_rw_app_clk_2021-12-22_2021-12-26 > OSP-2373_email_open_2021-12-22_2021-12-26 > OSP-2373_email_open_2021-12-22_2021-12-26,-8163.186093086,146.0,0.0,313,313,False
84,OSP-2373_email_open_2021-12-15_2021-12-21 > OSP-2373_email_clk_2021-12-15_2021-12-21,42986.212788383,137.0,0.0,555,555,False
85,_AlwaysOn_wow_web_view_2021-12-15_2021-12-21 > _AlwaysOn_wow_web_clk_2021-12-15_2021-12-21 > OSP-2373_email_open_2021-12-22_2021-12-26 > OSP-2373_email_clk_2021-12-22_2021-12-26,105296.96035733,254.0,0.0,1508,1508,False
86,_AlwaysOn_sem_shopping_clk_2021-12-15_2021-12-21 > OSP-2373_email_open_2021-12-22_2021-12-26 > OSP-2373_email_clk_2021-12-22_2021-12-26,68779.104103121,130.0,0.0,755,755,False
87,_AlwaysOn_wow_web_view_2021-12-15_2021-12-21 > OSP-2373_rw_app_imp_2021-12-22_2021-12-26 > OSP-2373_rw_app_imp_2021-12-15_2021-12-21,27576.636086612,36.0,0.0,588,588,False
88,OSP-2373_rw_app_imp_2021-12-22_2021-12-26 > OSP-2373_rw_app_imp_2021-12-15_2021-12-21 > OSP-2373_email_open_2021-12-22_2021-12-26 > OSP-2373_email_open_2021-12-15_2021-12-21 > OSP-2373_email_clk_2021-12-22_2021-12-26,23327.001054323,65.0,0.0,128,128,False
89,_AlwaysOn_wow_web_clk_2021-12-15_2021-12-21 > _AlwaysOn_sem_shopping_clk_2021-12-15_2021-12-21 > OSP-2373_email_open_2021-12-22_2021-12-26,15737.097430893,6.0,0.0,104,104,False
90,_AlwaysOn_wow_web_view_2021-12-15_2021-12-21 > _AlwaysOn_sem_shopping_clk_2021-12-15_2021-12-21 > OSP-2373_rw_app_imp_2021-12-22_2021-12-26 > OSP-2373_rw_app_clk_2021-12-22_2021-12-26,4852.271524375,13.0,0.0,134,134,False
91,_AlwaysOn_wow_web_view_2021-12-15_2021-12-21 > OSP-2373_rw_app_imp_2021-12-22_2021-12-26 > OSP-2373_rw_app_imp_2021-12-15_2021-12-21 > OSP-2373_rw_app_clk_2021-12-15_2021-12-21,2997.307153982,16.0,0.0,102,102,False
92,_AlwaysOn_wow_web_clk_2021-12-15_2021-12-21 > OSP-2373_rw_app_imp_2021-12-22_2021-12-26 > OSP-2373_rw_app_imp_2021-12-15_2021-12-21 > OSP-2373_rw_app_clk_2021-12-22_2021-12-26 > OSP-2373_email_open_2021-12-22_2021-12-26,28892.142883262,67.0,0.0,325,325,False
93,_AlwaysOn_wow_web_view_2021-12-15_2021-12-21 > _AlwaysOn_wow_web_clk_2021-12-15_2021-12-21 > OSP-2373_rw_app_imp_2021-12-22_2021-12-26 > OSP-2373_rw_app_imp_2021-12-15_2021-12-21 > OSP-2373_rw_app_clk_2021-12-22_2021-12-26,1270.4258662806,70.0,0.0,313,313,False
94,_AlwaysOn_wow_web_view_2021-12-15_2021-12-21 > _AlwaysOn_sem_shopping_clk_2021-12-15_2021-12-21,13897.584130763,35.0,0.0,4387,4387,False
95,OSP-2373_rw_app_imp_2021-12-22_2021-12-26 > OSP-2373_rw_app_imp_2021-12-22_2021-12-26 > OSP-2373_rw_app_imp_2021-12-15_2021-12-21 > OSP-2373_rw_app_clk_2021-12-22_2021-12-26 > OSP-2373_email_open_2021-12-22_2021-12-26 > OSP-2373_email_clk_2021-12-22_2021-12-26,15601.632078894,71.0,0.0,146,146,False
96,OSP-2373_rw_app_clk_2021-12-15_2021-12-21 > OSP-2373_email_open_2021-12-22_2021-12-26 > OSP-2373_email_open_2021-12-15_2021-12-21,10697.270618087,27.0,0.0,103,103,False
97,OSP-2373_rw_app_imp_2021-12-22_2021-12-26 > OSP-2373_email_open_2021-12-22_2021-12-26,173568.21523173,2233.0,0.0,18758,18758,False
98,_AlwaysOn_wow_web_view_2021-12-22_2021-12-26 > _AlwaysOn_wow_web_view_2021-12-15_2021-12-21 > _AlwaysOn_wow_web_clk_2021-12-22_2021-12-26,53128.657880711,53.0,0.0,317,317,False
99,OSP-2373_rw_app_imp_2021-12-22_2021-12-26 > OSP-2373_rw_app_imp_2021-12-15_2021-12-21 > OSP-2373_rw_app_clk_2021-12-22_2021-12-26 > OSP-2373_rw_app_clk_2021-12-15_2021-12-21,457743.74135558,1010.0,0.0,3439,3439,False
100,OSP-2373_rw_app_clk_2021-12-15_2021-12-21,662028.24375988,1649.0,0.0,7797,7797,False
101,_AlwaysOn_wow_web_view_2021-12-15_2021-12-21 > _AlwaysOn_sem_shopping_clk_2021-12-22_2021-12-26,546.80028601774,1.0,0.0,123,123,False
102,_AlwaysOn_wow_web_view_2021-12-15_2021-12-21 > _AlwaysOn_wow_web_clk_2021-12-15_2021-12-21 > OSP-2373_rw_app_imp_2021-12-22_2021-12-26,15147.015493414,16.0,0.0,519,519,False
103,FB_Impression_MobileFeed > _AlwaysOn_wow_web_view_2021-12-15_2021-12-21 > _AlwaysOn_sem_shopping_clk_2021-12-15_2021-12-21,2902.7283583971,1.0,0.0,342,342,False
104,OSP-2373_rw_app_imp_2021-12-22_2021-12-26 > OSP-2373_rw_app_imp_2021-12-22_2021-12-26 > OSP-2373_rw_app_imp_2021-12-15_2021-12-21 > OSP-2373_email_open_2021-12-22_2021-12-26,-5594.8934694094,20.0,0.0,121,121,False
105,_AlwaysOn_wow_web_view_2021-12-22_2021-12-26 > _AlwaysOn_wow_web_clk_2021-12-22_2021-12-26 > OSP-2373_email_open_2021-12-22_2021-12-26 > OSP-2373_email_clk_2021-12-22_2021-12-26,15828.048626775,73.0,0.0,113,113,False
106,_AlwaysOn_wow_web_view_2021-12-15_2021-12-21 > OSP-2373_rw_app_imp_2021-12-15_2021-12-21 > OSP-2373_email_open_2021-12-22_2021-12-26 > OSP-2373_email_clk_2021-12-22_2021-12-26,16417.713307625,40.0,0.0,286,286,False
107,_AlwaysOn_wow_web_view_2021-12-15_2021-12-21 > _AlwaysOn_wow_web_clk_2021-12-15_2021-12-21 > OSP-2373_rw_app_imp_2021-12-22_2021-12-26 > OSP-2373_rw_app_imp_2021-12-15_2021-12-21 > OSP-2373_email_open_2021-12-22_2021-12-26,-3717.7597313169,11.0,0.0,107,107,False
108,_AlwaysOn_wow_web_clk_2021-12-15_2021-12-21 > OSP-2373_rw_app_imp_2021-12-22_2021-12-26 > OSP-2373_rw_app_imp_2021-12-22_2021-12-26 > OSP-2373_rw_app_imp_2021-12-15_2021-12-21 > OSP-2373_rw_app_clk_2021-12-22_2021-12-26,31941.405353989,26.0,0.0,112,112,False
109,_AlwaysOn_sem_shopping_clk_2021-12-15_2021-12-21 > _AlwaysOn_sem_shopping_clk_2021-12-15_2021-12-21,2321.6793356325,4.0,0.0,685,685,False
110,_AlwaysOn_wow_web_clk_2021-12-22_2021-12-26 > OSP-2373_rw_app_imp_2021-12-22_2021-12-26 > OSP-2373_rw_app_clk_2021-12-22_2021-12-26,77667.080311209,171.0,0.0,203,203,False
111,OSP-2373_rw_app_clk_2021-12-22_2021-12-26 > OSP-2373_email_open_2021-12-22_2021-12-26 > OSP-2373_email_open_2021-12-22_2021-12-26,29135.189368362,144.0,0.0,259,259,False
112,OSP-2373_rw_app_clk_2021-12-22_2021-12-26,4797915.2547893,22362.0,0.0,47132,47132,False
113,_AlwaysOn_wow_web_view_2021-12-15_2021-12-21 > _AlwaysOn_wow_web_view_2021-12-15_2021-12-21 > _AlwaysOn_wow_web_clk_2021-12-15_2021-12-21 > OSP-2373_email_open_2021-12-22_2021-12-26,3996.2020482368,4.0,0.0,106,106,False
114,OSP-2373_rw_app_imp_2021-12-22_2021-12-26 > OSP-2373_email_open_2021-12-22_2021-12-26 > OSP-2373_email_open_2021-12-15_2021-12-21 > OSP-2373_email_clk_2021-12-22_2021-12-26,26244.156357566,76.0,0.0,166,166,False
115,FB_Impression_MobileFeed > OSP-2373_email_open_2021-12-15_2021-12-21,445.77003945736,2.0,0.0,238,238,False
116,_AlwaysOn_wow_web_view_2021-12-15_2021-12-21 > OSP-2373_rw_app_imp_2021-12-22_2021-12-26 > OSP-2373_rw_app_clk_2021-12-22_2021-12-26,145458.44601856,214.0,0.0,1393,1393,False
117,OSP-2373_rw_app_imp_2021-12-15_2021-12-21 > OSP-2373_email_open_2021-12-22_2021-12-26 > OSP-2373_email_open_2021-12-15_2021-12-21 > OSP-2373_email_clk_2021-12-22_2021-12-26,10381.165166199,154.0,0.0,312,312,False
118,_AlwaysOn_wow_web_view_2021-12-15_2021-12-21 > _AlwaysOn_wow_web_clk_2021-12-15_2021-12-21 > _AlwaysOn_sem_shopping_clk_2021-12-15_2021-12-21,17.287570462476,18.0,0.0,565,565,False
119,_AlwaysOn_wow_web_clk_2021-12-22_2021-12-26 > OSP-2373_email_open_2021-12-22_2021-12-26,171533.42850575,232.0,0.0,461,461,False
120,_AlwaysOn_wow_web_clk_2021-12-15_2021-12-21 > OSP-2373_rw_app_imp_2021-12-15_2021-12-21 > OSP-2373_email_open_2021-12-22_2021-12-26,6696.8377071064,20.0,0.0,279,279,False
121,FB_Impression_MobileFeed > OSP-2373_rw_app_imp_2021-12-22_2021-12-26 > OSP-2373_email_open_2021-12-22_2021-12-26,4030.7542800264,31.0,0.0,201,201,False
122,_AlwaysOn_wow_web_view_2021-12-15_2021-12-21 > _AlwaysOn_sem_brand_clk_2021-12-15_2021-12-21,2940.5858320261,2.0,0.0,463,463,False
123,OSP-2373_rw_app_imp_2021-12-22_2021-12-26 > OSP-2373_rw_app_imp_2021-12-15_2021-12-21,192288.27354594,2836.0,0.0,23822,23822,False
124,OSP-2373_rw_app_imp_2021-12-22_2021-12-26 > OSP-2373_rw_app_clk_2021-12-22_2021-12-26 > OSP-2373_email_open_2021-12-22_2021-12-26 > OSP-2373_email_clk_2021-12-22_2021-12-26,358562.9417631,1766.0,0.0,4298,4298,False
125,OSP-2373_rw_app_imp_2021-12-22_2021-12-26 > OSP-2373_rw_app_clk_2021-12-22_2021-12-26,4471627.2129345,17595.0,0.0,58698,58698,False
126,_AlwaysOn_wow_web_view_2021-12-22_2021-12-26 > _AlwaysOn_wow_web_clk_2021-12-22_2021-12-26 > OSP-2373_email_open_2021-12-22_2021-12-26,71891.540898752,101.0,0.0,308,308,False
127,FB_Impression_WebFeed > OSP-2373_email_open_2021-12-22_2021-12-26,-3275.2336922648,25.0,0.0,311,311,False
128,OSP-2373_rw_app_imp_2021-12-22_2021-12-26 > OSP-2373_rw_app_imp_2021-12-15_2021-12-21 > OSP-2373_rw_app_clk_2021-12-15_2021-12-21,152897.15787774,466.0,0.0,2512,2512,False
129,_AlwaysOn_wow_web_clk_2021-12-15_2021-12-21 > OSP-2373_rw_app_imp_2021-12-22_2021-12-26 > OSP-2373_email_open_2021-12-22_2021-12-26 > OSP-2373_email_clk_2021-12-22_2021-12-26,37576.588674478,102.0,0.0,431,431,False
130,_AlwaysOn_wow_web_view_2021-12-15_2021-12-21 > _AlwaysOn_wow_web_clk_2021-12-15_2021-12-21 > OSP-2373_rw_app_imp_2021-12-15_2021-12-21 > OSP-2373_email_open_2021-12-22_2021-12-26,18147.694005479,14.0,0.0,178,178,False
131,_AlwaysOn_wow_web_view_2021-12-15_2021-12-21 > OSP-2373_rw_app_imp_2021-12-22_2021-12-26 > OSP-2373_rw_app_clk_2021-12-22_2021-12-26 > OSP-2373_email_open_2021-12-22_2021-12-26 > OSP-2373_email_clk_2021-12-22_2021-12-26,26535.98527057,63.0,0.0,258,258,False
132,_AlwaysOn_wow_web_clk_2021-12-15_2021-12-21 > OSP-2373_rw_app_imp_2021-12-15_2021-12-21 > OSP-2373_rw_app_clk_2021-12-15_2021-12-21 > OSP-2373_email_open_2021-12-22_2021-12-26,3905.0281264927,18.0,0.0,101,101,False
133,_AlwaysOn_sem_shopping_clk_2021-12-22_2021-12-26 > OSP-2373_email_open_2021-12-22_2021-12-26,10397.552872287,31.0,0.0,130,130,False
134,OSP-2373_rw_app_imp_2021-12-22_2021-12-26,584036.71488561,6030.0,0.0,111143,111143,False
135,FB_Impression_MobileFeed > OSP-2373_email_open_2021-12-22_2021-12-26 > OSP-2373_email_open_2021-12-15_2021-12-21,4760.3051211669,24.0,0.0,346,346,False
136,_AlwaysOn_wow_web_view_2021-12-22_2021-12-26 > OSP-2373_email_open_2021-12-22_2021-12-26 > OSP-2373_email_clk_2021-12-22_2021-12-26,33422.936178146,378.0,0.0,790,790,False
137,FB_Impression_MobileFeed > _AlwaysOn_wow_web_view_2021-12-22_2021-12-26 > _AlwaysOn_wow_web_view_2021-12-15_2021-12-21,-1283.3843391509,1.0,0.0,129,129,False
138,OSP-2373_rw_app_imp_2021-12-15_2021-12-21 > OSP-2373_rw_app_imp_2021-12-15_2021-12-21,-4010.8849799614,87.0,0.0,213,213,False
139,_AlwaysOn_wow_web_clk_2021-12-15_2021-12-21 > OSP-2373_rw_app_imp_2021-12-15_2021-12-21 > OSP-2373_email_open_2021-12-22_2021-12-26 > OSP-2373_email_clk_2021-12-22_2021-12-26,12894.389951415,48.0,0.0,262,262,False
140,_AlwaysOn_wow_web_view_2021-12-15_2021-12-21 > _AlwaysOn_wow_web_clk_2021-12-22_2021-12-26 > OSP-2373_email_open_2021-12-22_2021-12-26,36804.930613664,31.0,0.0,112,112,False
141,OSP-2373_email_open_2021-12-22_2021-12-26 > OSP-2373_email_open_2021-12-15_2021-12-21 > OSP-2373_email_clk_2021-12-15_2021-12-21,1381.0679184759,43.0,0.0,292,292,False
142,OSP-2373_rw_app_clk_2021-12-15_2021-12-21 > OSP-2373_email_open_2021-12-22_2021-12-26 > OSP-2373_email_clk_2021-12-22_2021-12-26,127226.89488794,316.0,0.0,1114,1114,False
143,_AlwaysOn_wow_web_view_2021-12-15_2021-12-21 > OSP-2373_rw_app_imp_2021-12-22_2021-12-26 > OSP-2373_rw_app_imp_2021-12-15_2021-12-21 > OSP-2373_rw_app_clk_2021-12-22_2021-12-26,135730.77280577,157.0,0.0,738,738,False
144,_AlwaysOn_wow_web_clk_2021-12-15_2021-12-21 > OSP-2373_rw_app_imp_2021-12-22_2021-12-26 > OSP-2373_rw_app_imp_2021-12-15_2021-12-21 > OSP-2373_email_open_2021-12-22_2021-12-26 > OSP-2373_email_clk_2021-12-22_2021-12-26,48546.294721457,78.0,0.0,334,334,False
145,_AlwaysOn_wow_web_view_2021-12-15_2021-12-21 > OSP-2373_rw_app_imp_2021-12-15_2021-12-21 > OSP-2373_email_open_2021-12-22_2021-12-26,14217.353629346,32.0,0.0,495,495,False
146,OSP-2373_email_open_2021-12-15_2021-12-21 > OSP-2373_email_clk_2021-12-22_2021-12-26,225541.05292704,1320.0,0.0,2815,2815,False
147,_AlwaysOn_wow_web_clk_2021-12-15_2021-12-21 > OSP-2373_rw_app_imp_2021-12-22_2021-12-26 > OSP-2373_rw_app_imp_2021-12-15_2021-12-21 > OSP-2373_rw_app_clk_2021-12-22_2021-12-26 > OSP-2373_rw_app_clk_2021-12-15_2021-12-21,32315.394906391,32.0,0.0,109,109,False
148,_AlwaysOn_wow_web_view_2021-12-15_2021-12-21 > OSP-2373_rw_app_imp_2021-12-15_2021-12-21,46060.854671503,52.0,0.0,1400,1400,False
149,_AlwaysOn_wow_web_clk_2021-12-15_2021-12-21 > OSP-2373_rw_app_imp_2021-12-22_2021-12-26 > OSP-2373_rw_app_clk_2021-12-22_2021-12-26,57681.206298486,104.0,0.0,604,604,False
150,OSP-2373_rw_app_imp_2021-12-15_2021-12-21 > OSP-2373_rw_app_clk_2021-12-22_2021-12-26 > OSP-2373_email_open_2021-12-22_2021-12-26 > OSP-2373_email_open_2021-12-22_2021-12-26 > OSP-2373_email_clk_2021-12-22_2021-12-26,4546.8447860391,88.0,0.0,130,130,False
151,FB_Impression_MobileFeed > OSP-2373_rw_app_imp_2021-12-22_2021-12-26,-12902.860697497,35.0,0.0,699,699,False
152,OSP-2373_rw_app_clk_2021-12-22_2021-12-26 > OSP-2373_email_open_2021-12-22_2021-12-26,1564548.4115034,8094.0,0.0,18197,18197,False
153,OSP-2373_rw_app_imp_2021-12-15_2021-12-21 > OSP-2373_rw_app_imp_2021-12-15_2021-12-21 > OSP-2373_rw_app_clk_2021-12-22_2021-12-26 > OSP-2373_email_open_2021-12-22_2021-12-26,15093.070096505,345.0,0.0,549,549,False
154,OSP-2373_rw_app_clk_2021-12-15_2021-12-21 > OSP-2373_email_open_2021-12-22_2021-12-26,125071.89469282,558.0,0.0,3319,3319,False
155,OSP-2373_email_open_2021-12-22_2021-12-26 > OSP-2373_email_open_2021-12-15_2021-12-21,102906.21254384,815.0,0.0,9580,9580,False
156,OSP-2373_rw_app_imp_2021-12-22_2021-12-26 > OSP-2373_email_open_2021-12-22_2021-12-26 > OSP-2373_email_open_2021-12-15_2021-12-21,-64.614369162803,43.0,0.0,305,305,False
157,_AlwaysOn_wow_web_view_2021-12-15_2021-12-21 > _AlwaysOn_wow_web_clk_2021-12-15_2021-12-21 > OSP-2373_rw_app_imp_2021-12-15_2021-12-21 > OSP-2373_email_open_2021-12-22_2021-12-26 > OSP-2373_email_clk_2021-12-22_2021-12-26,12249.851991741,24.0,0.0,113,113,False
158,OSP-2373_rw_app_imp_2021-12-15_2021-12-21 > OSP-2373_email_open_2021-12-15_2021-12-21,9604.7150590077,33.0,0.0,232,232,False
159,OSP-2373_rw_app_imp_2021-12-15_2021-12-21 > OSP-2373_rw_app_clk_2021-12-15_2021-12-21,654399.06718084,1984.0,0.0,12578,12578,False
160,_AlwaysOn_wow_web_view_2021-12-15_2021-12-21,627066.42712344,893.0,0.0,98429,98429,False
161,_AlwaysOn_sem_shopping_clk_2021-12-15_2021-12-21 > OSP-2373_rw_app_imp_2021-12-22_2021-12-26 > OSP-2373_rw_app_imp_2021-12-15_2021-12-21,552.36531976612,3.0,0.0,159,159,False
162,_AlwaysOn_wow_web_view_2021-12-22_2021-12-26 > OSP-2373_email_open_2021-12-22_2021-12-26,9497.4244267757,330.0,0.0,2052,2052,False
163,OSP-2373_rw_app_imp_2021-12-15_2021-12-21 > OSP-2373_rw_app_clk_2021-12-22_2021-12-26 > OSP-2373_email_open_2021-12-22_2021-12-26,970437.00249427,7420.0,0.0,12483,12483,False
164,OSP-2373_rw_app_imp_2021-12-15_2021-12-21 > OSP-2373_email_open_2021-12-22_2021-12-26 > OSP-2373_email_open_2021-12-22_2021-12-26 > OSP-2373_email_clk_2021-12-22_2021-12-26,9246.4642050434,203.0,0.0,394,394,False
165,OSP-2373_rw_app_imp_2021-12-22_2021-12-26 > OSP-2373_rw_app_imp_2021-12-22_2021-12-26 > OSP-2373_rw_app_imp_2021-12-15_2021-12-21 > OSP-2373_rw_app_clk_2021-12-22_2021-12-26 > OSP-2373_email_open_2021-12-22_2021-12-26,26871.521143684,139.0,0.0,427,427,False
166,_AlwaysOn_wow_web_clk_2021-12-15_2021-12-21 > OSP-2373_rw_app_imp_2021-12-22_2021-12-26 > OSP-2373_rw_app_imp_2021-12-15_2021-12-21,15692.181676668,27.0,0.0,344,344,False
167,OSP-2373_rw_app_imp_2021-12-22_2021-12-26 > OSP-2373_rw_app_imp_2021-12-22_2021-12-26 > OSP-2373_rw_app_clk_2021-12-22_2021-12-26 > OSP-2373_email_open_2021-12-22_2021-12-26,10741.189606375,60.0,0.0,168,168,False
168,OSP-2373_rw_app_imp_2021-12-22_2021-12-26 > OSP-2373_rw_app_imp_2021-12-15_2021-12-21 > OSP-2373_rw_app_clk_2021-12-22_2021-12-26 > OSP-2373_rw_app_clk_2021-12-15_2021-12-21 > OSP-2373_email_open_2021-12-22_2021-12-26,102451.56830657,258.0,0.0,817,817,False
169,OSP-2373_rw_app_imp_2021-12-22_2021-12-26 > OSP-2373_rw_app_imp_2021-12-15_2021-12-21 > OSP-2373_rw_app_clk_2021-12-22_2021-12-26 > OSP-2373_email_open_2021-12-22_2021-12-26,612999.56910341,5450.0,0.0,10237,10237,False
170,OSP-2373_rw_app_imp_2021-12-15_2021-12-21 > OSP-2373_rw_app_clk_2021-12-22_2021-12-26 > OSP-2373_email_open_2021-12-22_2021-12-26 > OSP-2373_email_open_2021-12-15_2021-12-21,-3015.6401925828,188.0,0.0,320,320,False
171,_AlwaysOn_wow_web_view_2021-12-15_2021-12-21 > OSP-2373_email_open_2021-12-22_2021-12-26 > OSP-2373_email_clk_2021-12-22_2021-12-26,268389.3727681,712.0,0.0,5415,5415,False
172,OSP-2373_email_open_2021-12-15_2021-12-21 > OSP-2373_email_clk_2021-12-22_2021-12-26 > OSP-2373_email_clk_2021-12-15_2021-12-21,22490.149273566,281.0,0.0,532,532,False
173,_AlwaysOn_wow_web_clk_2021-12-15_2021-12-21 > OSP-2373_email_open_2021-12-22_2021-12-26 > OSP-2373_email_clk_2021-12-22_2021-12-26,298665.14291952,654.0,0.0,3834,3834,False
174,_AlwaysOn_wow_web_view_2021-12-15_2021-12-21 > _AlwaysOn_sem_shopping_clk_2021-12-15_2021-12-21 > OSP-2373_rw_app_imp_2021-12-15_2021-12-21,-1034.3392645024,2.0,0.0,106,106,False
175,OSP-2373_email_open_2021-12-22_2021-12-26 > OSP-2373_email_open_2021-12-15_2021-12-21 > OSP-2373_email_clk_2021-12-22_2021-12-26,160267.61925228,1047.0,0.0,3075,3075,False
176,FB_Impression_SuggestedVideo > OSP-2373_email_open_2021-12-22_2021-12-26,555.37665003584,3.0,0.0,169,169,False
177,_AlwaysOn_wow_web_view_2021-12-22_2021-12-26 > _AlwaysOn_wow_web_view_2021-12-15_2021-12-21 > OSP-2373_email_open_2021-12-22_2021-12-26 > OSP-2373_email_clk_2021-12-22_2021-12-26,16470.630603647,42.0,0.0,232,232,False
178,FB_Impression_MobileFeed > FB_Impression_Instagram > OSP-2373_email_open_2021-12-22_2021-12-26,1116.0880045974,10.0,0.0,190,190,False
179,OSP-2373_rw_app_imp_2021-12-15_2021-12-21 > OSP-2373_email_open_2021-12-22_2021-12-26 > OSP-2373_email_open_2021-12-15_2021-12-21,6587.656747448,90.0,0.0,413,413,False
180,OSP-2373_rw_app_imp_2021-12-15_2021-12-21,751942.93585887,7090.0,0.0,70279,70279,False
181,_AlwaysOn_sem_shopping_clk_2021-12-22_2021-12-26,10150.815006849,86.0,0.0,993,993,False
182,_AlwaysOn_wow_web_view_2021-12-15_2021-12-21 > _AlwaysOn_wow_web_clk_2021-12-15_2021-12-21 > OSP-2373_rw_app_imp_2021-12-22_2021-12-26 > OSP-2373_email_open_2021-12-22_2021-12-26,6952.2258163956,18.0,0.0,221,221,False
183,_AlwaysOn_wow_web_clk_2021-12-15_2021-12-21 > OSP-2373_rw_app_imp_2021-12-22_2021-12-26 > OSP-2373_rw_app_clk_2021-12-22_2021-12-26 > OSP-2373_email_open_2021-12-22_2021-12-26,32947.144607213,56.0,0.0,314,314,False
184,OSP-2373_rw_app_imp_2021-12-22_2021-12-26 > OSP-2373_rw_app_imp_2021-12-22_2021-12-26 > OSP-2373_rw_app_clk_2021-12-22_2021-12-26,55182.804315501,147.0,0.0,272,272,False
185,_AlwaysOn_wow_web_clk_2021-12-15_2021-12-21,379620.53250496,407.0,0.0,13176,13176,False
186,_AlwaysOn_wow_web_clk_2021-12-22_2021-12-26 > OSP-2373_email_open_2021-12-22_2021-12-26 > OSP-2373_email_clk_2021-12-22_2021-12-26,40413.072078407,161.0,0.0,225,225,False
187,FB_Impression_MobileFeed > _AlwaysOn_wow_web_view_2021-12-15_2021-12-21 > OSP-2373_email_open_2021-12-22_2021-12-26 > OSP-2373_email_clk_2021-12-22_2021-12-26,24150.485583773,34.0,0.0,188,188,False
188,OSP-2373_rw_app_imp_2021-12-22_2021-12-26 > OSP-2373_rw_app_imp_2021-12-15_2021-12-21 > OSP-2373_rw_app_clk_2021-12-15_2021-12-21 > OSP-2373_email_open_2021-12-22_2021-12-26 > OSP-2373_email_clk_2021-12-22_2021-12-26,38609.557162307,80.0,0.0,228,228,False
189,OSP-2373_email_open_2021-12-22_2021-12-26 > OSP-2373_email_clk_2021-12-22_2021-12-26 > OSP-2373_email_clk_2021-12-22_2021-12-26,37282.601962216,109.0,0.0,211,211,False
190,_AlwaysOn_wow_web_view_2021-12-15_2021-12-21 > _AlwaysOn_wow_web_view_2021-12-15_2021-12-21,3117.9647940481,3.0,0.0,345,345,False
191,_AlwaysOn_wow_web_view_2021-12-15_2021-12-21 > _AlwaysOn_wow_web_clk_2021-12-15_2021-12-21 > OSP-2373_rw_app_imp_2021-12-15_2021-12-21,-16069.459467394,21.0,0.0,426,426,False
192,FB_Impression_Instagram > FB_Impression_MobileFeed > OSP-2373_email_open_2021-12-22_2021-12-26,638.95351195178,17.0,0.0,231,231,False
193,_AlwaysOn_wow_web_clk_2021-12-15_2021-12-21 > OSP-2373_rw_app_imp_2021-12-15_2021-12-21 > OSP-2373_rw_app_clk_2021-12-15_2021-12-21,11532.499370168,30.0,0.0,214,214,False
194,OSP-2373_email_open_2021-12-15_2021-12-21,57117.657544934,1046.0,0.0,14864,14864,False
195,OSP-2373_rw_app_imp_2021-12-22_2021-12-26 > OSP-2373_rw_app_imp_2021-12-15_2021-12-21 > OSP-2373_email_open_2021-12-22_2021-12-26,180671.62728173,1097.0,0.0,6006,6006,False
196,OSP-2373_email_open_2021-12-22_2021-12-26 > OSP-2373_email_open_2021-12-15_2021-12-21 > OSP-2373_email_clk_2021-12-22_2021-12-26 > OSP-2373_email_clk_2021-12-15_2021-12-21,22386.241332861,192.0,0.0,525,525,False
197,OSP-2373_rw_app_imp_2021-12-22_2021-12-26 > OSP-2373_rw_app_clk_2021-12-22_2021-12-26 > OSP-2373_email_open_2021-12-15_2021-12-21,7472.1537613839,32.0,0.0,130,130,False
198,_AlwaysOn_sem_shopping_clk_2021-12-15_2021-12-21 > OSP-2373_rw_app_imp_2021-12-22_2021-12-26,-4380.5815207978,11.0,0.0,369,369,False
199,OSP-2373_rw_app_imp_2021-12-22_2021-12-26 > OSP-2373_rw_app_imp_2021-12-15_2021-12-21 > OSP-2373_rw_app_clk_2021-12-22_2021-12-26 > OSP-2373_email_open_2021-12-15_2021-12-21,11161.621082226,63.0,0.0,124,124,False
200,OSP-2373_rw_app_imp_2021-12-22_2021-12-26 > OSP-2373_email_open_2021-12-22_2021-12-26 > OSP-2373_email_clk_2021-12-22_2021-12-26,570004.54692658,2908.0,0.0,8145,8145,False
201,_AlwaysOn_wow_web_clk_2021-12-15_2021-12-21 > OSP-2373_rw_app_imp_2021-12-22_2021-12-26 > OSP-2373_rw_app_clk_2021-12-22_2021-12-26 > OSP-2373_email_open_2021-12-22_2021-12-26 > OSP-2373_email_clk_2021-12-22_2021-12-26,16253.270877118,52.0,0.0,257,257,False
202,_AlwaysOn_wow_web_view_2021-12-22_2021-12-26 > _AlwaysOn_wow_web_view_2021-12-15_2021-12-21 > _AlwaysOn_wow_web_clk_2021-12-15_2021-12-21,6466.8452494221,16.0,0.0,440,440,False
203,_AlwaysOn_wow_web_view_2021-12-15_2021-12-21 > _AlwaysOn_wow_web_clk_2021-12-15_2021-12-21,430880.14789666,464.0,0.0,17532,17532,False
204,_AlwaysOn_wow_web_view_2021-12-15_2021-12-21 > OSP-2373_rw_app_imp_2021-12-22_2021-12-26 > OSP-2373_email_open_2021-12-22_2021-12-26 > OSP-2373_email_clk_2021-12-22_2021-12-26,33687.398505246,86.0,0.0,486,486,False
205,OSP-2373_rw_app_imp_2021-12-15_2021-12-21 > OSP-2373_rw_app_imp_2021-12-15_2021-12-21 > OSP-2373_email_open_2021-12-22_2021-12-26 > OSP-2373_email_clk_2021-12-22_2021-12-26,39323.153535981,214.0,0.0,331,331,False
206,_AlwaysOn_wow_web_view_2021-12-15_2021-12-21 > _AlwaysOn_wow_web_clk_2021-12-15_2021-12-21 > OSP-2373_rw_app_imp_2021-12-22_2021-12-26 > OSP-2373_rw_app_clk_2021-12-22_2021-12-26 > OSP-2373_email_open_2021-12-22_2021-12-26,23767.092990232,26.0,0.0,144,144,False
207,_AlwaysOn_wow_web_view_2021-12-15_2021-12-21 > _AlwaysOn_wow_web_clk_2021-12-15_2021-12-21 > OSP-2373_rw_app_imp_2021-12-22_2021-12-26 > OSP-2373_rw_app_imp_2021-12-15_2021-12-21 > OSP-2373_rw_app_clk_2021-12-22_2021-12-26 > OSP-2373_email_open_2021-12-22_2021-12-26,2989.9766326161,31.0,0.0,147,147,False
208,_AlwaysOn_wow_web_view_2021-12-15_2021-12-21 > OSP-2373_email_open_2021-12-22_2021-12-26 > OSP-2373_email_open_2021-12-15_2021-12-21,1266.2013742116,11.0,0.0,254,254,False
209,_AlwaysOn_wow_web_view_2021-12-15_2021-12-21 > _AlwaysOn_sem_brand_clk_2021-12-15_2021-12-21 > OSP-2373_email_open_2021-12-22_2021-12-26,1915.3213567023,2.0,0.0,119,119,False
210,_AlwaysOn_wow_web_view_2021-12-15_2021-12-21 > OSP-2373_rw_app_imp_2021-12-22_2021-12-26 > OSP-2373_rw_app_clk_2021-12-22_2021-12-26 > OSP-2373_email_open_2021-12-22_2021-12-26,59451.82637017,97.0,0.0,485,485,False
211,OSP-2373_email_open_2021-12-22_2021-12-26 > OSP-2373_email_open_2021-12-22_2021-12-26,1769.7895033571,101.0,0.0,456,456,False
212,_AlwaysOn_wow_web_view_2021-12-15_2021-12-21 > _AlwaysOn_sem_shopping_clk_2021-12-15_2021-12-21 > OSP-2373_rw_app_imp_2021-12-22_2021-12-26,-150.0192231296,4.0,0.0,152,152,False
213,_AlwaysOn_wow_web_clk_2021-12-22_2021-12-26,378794.56887852,534.0,0.0,1599,1599,False
214,_AlwaysOn_sem_shopping_clk_2021-12-15_2021-12-21,30091.917991016,62.0,0.0,7523,7523,False
215,_AlwaysOn_wow_web_view_2021-12-15_2021-12-21 > _AlwaysOn_wow_web_view_2021-12-15_2021-12-21 > _AlwaysOn_wow_web_clk_2021-12-15_2021-12-21,21001.108558199,25.0,0.0,421,421,False
216,_AlwaysOn_wow_web_view_2021-12-15_2021-12-21 > OSP-2373_rw_app_imp_2021-12-22_2021-12-26 > OSP-2373_rw_app_imp_2021-12-15_2021-12-21 > OSP-2373_rw_app_clk_2021-12-22_2021-12-26 > OSP-2373_email_open_2021-12-22_2021-12-26,26147.82734272,89.0,0.0,349,349,False
217,FB_Impression_MobileFeed > OSP-2373_rw_app_imp_2021-12-22_2021-12-26 > OSP-2373_rw_app_imp_2021-12-15_2021-12-21,-6497.4141444944,13.0,0.0,199,199,False
218,_AlwaysOn_wow_web_view_2021-12-15_2021-12-21 > OSP-2373_rw_app_imp_2021-12-15_2021-12-21 > OSP-2373_rw_app_clk_2021-12-15_2021-12-21 > OSP-2373_email_open_2021-12-22_2021-12-26,1918.5292502403,12.0,0.0,125,125,False
219,OSP-2373_rw_app_imp_2021-12-15_2021-12-21 > OSP-2373_rw_app_clk_2021-12-15_2021-12-21 > OSP-2373_email_open_2021-12-22_2021-12-26 > OSP-2373_email_clk_2021-12-22_2021-12-26,124449.00346689,305.0,0.0,1049,1049,False
220,OSP-2373_rw_app_imp_2021-12-15_2021-12-21 > OSP-2373_rw_app_imp_2021-12-15_2021-12-21 > OSP-2373_email_open_2021-12-22_2021-12-26,16303.967732305,79.0,0.0,191,191,False
221,OSP-2373_rw_app_imp_2021-12-15_2021-12-21 > OSP-2373_rw_app_clk_2021-12-22_2021-12-26 > OSP-2373_email_open_2021-12-15_2021-12-21,50641.758494157,63.0,0.0,118,118,False
222,_AlwaysOn_sem_shopping_clk_2021-12-15_2021-12-21 > OSP-2373_rw_app_imp_2021-12-22_2021-12-26 > OSP-2373_rw_app_imp_2021-12-15_2021-12-21 > OSP-2373_rw_app_clk_2021-12-22_2021-12-26,21966.302242682,52.0,0.0,252,252,False
223,_AlwaysOn_wow_web_view_2021-12-15_2021-12-21 > _AlwaysOn_wow_web_clk_2021-12-15_2021-12-21 > OSP-2373_rw_app_imp_2021-12-22_2021-12-26 > OSP-2373_rw_app_imp_2021-12-15_2021-12-21 > OSP-2373_email_open_2021-12-22_2021-12-26 > OSP-2373_email_clk_2021-12-22_2021-12-26,10346.660332824,16.0,0.0,113,113,False
224,_AlwaysOn_wow_web_clk_2021-12-15_2021-12-21 > OSP-2373_email_open_2021-12-22_2021-12-26 > OSP-2373_email_open_2021-12-15_2021-12-21 > OSP-2373_email_clk_2021-12-22_2021-12-26,3134.4394598779,20.0,0.0,124,124,False
225,_AlwaysOn_wow_web_view_2021-12-15_2021-12-21 > _AlwaysOn_wow_web_clk_2021-12-15_2021-12-21 > OSP-2373_rw_app_imp_2021-12-22_2021-12-26 > OSP-2373_rw_app_clk_2021-12-22_2021-12-26,94407.418276126,77.0,0.0,352,352,False
226,FB_Impression_MobileFeed,136911.72650189,994.0,0.0,114720,114720,False
227,OSP-2373_email_clk_2021-12-22_2021-12-26 > OSP-2373_email_clk_2021-12-22_2021-12-26,-8664.2471080896,107.0,0.0,102,102,False
228,_AlwaysOn_sem_shopping_clk_2021-12-15_2021-12-21 > OSP-2373_email_open_2021-12-22_2021-12-26,997.67437076147,34.0,0.0,1174,1174,False
229,_AlwaysOn_wow_web_view_2021-12-22_2021-12-26,348346.86805401,918.0,0.0,18979,18979,False
230,OSP-2373_rw_app_imp_2021-12-22_2021-12-26 > OSP-2373_rw_app_imp_2021-12-15_2021-12-21 > OSP-2373_rw_app_clk_2021-12-22_2021-12-26 > OSP-2373_email_open_2021-12-22_2021-12-26 > OSP-2373_email_clk_2021-12-22_2021-12-26,183523.93370699,1440.0,0.0,2444,2444,False
231,_AlwaysOn_wow_web_clk_2021-12-15_2021-12-21 > OSP-2373_rw_app_imp_2021-12-15_2021-12-21,7570.6506744283,28.0,0.0,420,420,False
232,_AlwaysOn_wow_web_view_2021-12-22_2021-12-26 > OSP-2373_rw_app_imp_2021-12-22_2021-12-26 > OSP-2373_rw_app_clk_2021-12-22_2021-12-26,48918.371417937,209.0,0.0,424,424,False
233,OSP-2373_rw_app_imp_2021-12-15_2021-12-21 > OSP-2373_rw_app_clk_2021-12-22_2021-12-26 > OSP-2373_email_open_2021-12-22_2021-12-26 > OSP-2373_email_clk_2021-12-22_2021-12-26,255450.49722297,2118.0,0.0,3319,3319,False
234,_AlwaysOn_sem_shopping_clk_2021-12-15_2021-12-21 > OSP-2373_rw_app_imp_2021-12-22_2021-12-26 > OSP-2373_rw_app_clk_2021-12-22_2021-12-26,33256.129908918,60.0,0.0,333,333,False
235,OSP-2373_rw_app_imp_2021-12-15_2021-12-21 > OSP-2373_rw_app_clk_2021-12-22_2021-12-26 > OSP-2373_rw_app_clk_2021-12-15_2021-12-21,1016790.6579327,2007.0,0.0,6049,6049,False
236,_AlwaysOn_sem_brand_clk_2021-12-15_2021-12-21 > OSP-2373_email_open_2021-12-22_2021-12-26,-535.954855846,6.0,0.0,178,178,False
237,_AlwaysOn_wow_web_view_2021-12-15_2021-12-21 > OSP-2373_rw_app_imp_2021-12-22_2021-12-26 > OSP-2373_email_open_2021-12-22_2021-12-26,8245.8052619147,28.0,0.0,697,697,False
238,_AlwaysOn_wow_web_clk_2021-12-22_2021-12-26 > OSP-2373_rw_app_imp_2021-12-22_2021-12-26,89337.07858763,84.0,0.0,123,123,False
239,OSP-2373_rw_app_clk_2021-12-22_2021-12-26 > OSP-2373_email_open_2021-12-15_2021-12-21,-4832.1981471966,94.0,0.0,183,183,False
240,_AlwaysOn_wow_web_view_2021-12-15_2021-12-21 > _AlwaysOn_wow_web_clk_2021-12-22_2021-12-26 > _AlwaysOn_wow_web_clk_2021-12-15_2021-12-21,63441.685526044,71.0,0.0,238,238,False
241,_AlwaysOn_wow_web_clk_2021-12-22_2021-12-26 > OSP-2373_rw_app_imp_2021-12-22_2021-12-26 > OSP-2373_rw_app_imp_2021-12-15_2021-12-21 > OSP-2373_rw_app_clk_2021-12-22_2021-12-26,37404.155050396,93.0,0.0,102,102,False
242,OSP-2373_rw_app_imp_2021-12-15_2021-12-21 > OSP-2373_rw_app_imp_2021-12-15_2021-12-21 > OSP-2373_rw_app_clk_2021-12-22_2021-12-26 > OSP-2373_rw_app_clk_2021-12-15_2021-12-21,19048.273901969,90.0,0.0,189,189,False
243,FB_Impression_MobileFeed > _AlwaysOn_wow_web_clk_2021-12-15_2021-12-21,-29.782896364555,1.0,0.0,101,101,False
244,_AlwaysOn_wow_web_view_2021-12-15_2021-12-21 > _AlwaysOn_sem_shopping_clk_2021-12-15_2021-12-21 > OSP-2373_email_open_2021-12-22_2021-12-26,13947.060961031,12.0,0.0,593,593,False
245,_AlwaysOn_wow_web_view_2021-12-15_2021-12-21 > OSP-2373_email_open_2021-12-15_2021-12-21,4133.2862879312,2.0,0.0,155,155,False
246,FB_Impression_Instagram > OSP-2373_email_open_2021-12-22_2021-12-26,3620.9613352797,42.0,0.0,1061,1061,False
247,FB_Impression_MobileFeed > OSP-2373_rw_app_imp_2021-12-22_2021-12-26 > OSP-2373_rw_app_imp_2021-12-15_2021-12-21 > OSP-2373_rw_app_clk_2021-12-22_2021-12-26,10620.368602729,83.0,0.0,151,151,False
248,_AlwaysOn_wow_web_view_2021-12-15_2021-12-21 > _AlwaysOn_sem_shopping_clk_2021-12-22_2021-12-26 > _AlwaysOn_sem_shopping_clk_2021-12-15_2021-12-21,6140.1610934792,3.0,0.0,194,194,False
249,_AlwaysOn_wow_web_view_2021-12-15_2021-12-21 > _AlwaysOn_wow_web_clk_2021-12-15_2021-12-21 > OSP-2373_rw_app_imp_2021-12-15_2021-12-21 > OSP-2373_rw_app_clk_2021-12-15_2021-12-21,3769.2281944612,17.0,0.0,162,162,False
250,OSP-2373_rw_app_imp_2021-12-22_2021-12-26 > OSP-2373_rw_app_imp_2021-12-15_2021-12-21 > OSP-2373_email_open_2021-12-22_2021-12-26 > OSP-2373_email_open_2021-12-15_2021-12-21,4376.2453260377,25.0,0.0,132,132,False
251,OSP-2373_rw_app_imp_2021-12-22_2021-12-26 > OSP-2373_rw_app_imp_2021-12-15_2021-12-21 > OSP-2373_rw_app_imp_2021-12-15_2021-12-21 > OSP-2373_rw_app_clk_2021-12-22_2021-12-26,2130.6998585363,43.0,0.0,159,159,False
252,OSP-2373_rw_app_clk_2021-12-22_2021-12-26 > OSP-2373_email_open_2021-12-22_2021-12-26 > OSP-2373_email_clk_2021-12-22_2021-12-26,662915.0191761,4170.0,0.0,7969,7969,False
253,_AlwaysOn_wow_web_view_2021-12-15_2021-12-21 > _AlwaysOn_wow_web_clk_2021-12-22_2021-12-26,108215.00067953,84.0,0.0,440,440,False
