,path,total_conversion_value,conversions,non_conversions,cnt,ppl,Converted
0,FB_Impression > _AlwaysOn_wow_web_view_2021-04-28_2021-05-04 > OSP-2373_email_open_2021-05-05_2021-05-09 > OSP-2373_email_clk_2021-05-05_2021-05-09,526.74355353175,26.0,22.0,187,187,False
1,_AlwaysOn_wow_web_clk_2021-04-28_2021-05-04,44305.149036456,430.0,208.0,4573,4573,False
2,OSP-2373_rw_app_imp_2021-04-28_2021-05-04 > OSP-2373_rw_app_clk_2021-05-05_2021-05-09 > OSP-2373_rw_app_clk_2021-04-28_2021-05-04,6975.2393073306,301.0,208.0,422,422,False
3,OSP-2373_rw_app_imp_2021-05-05_2021-05-09 > OSP-2373_rw_app_imp_2021-04-28_2021-05-04 > OSP-2373_rw_app_clk_2021-05-05_2021-05-09 > OSP-2373_email_open_2021-05-05_2021-05-09,3951.8205067604,104.0,70.0,180,180,False
4,OSP-2373_email_open_2021-05-05_2021-05-09,277942.69315351,13397.0,13431.0,311491,311491,False
5,OSP-2373_email_open_2021-04-28_2021-05-04,48043.496975374,2011.0,1726.0,36566,36566,False
6,OSP-2373_rw_app_imp_2021-04-28_2021-05-04 > OSP-2373_rw_app_clk_2021-05-05_2021-05-09 > OSP-2373_rw_app_clk_2021-04-28_2021-05-04 > OSP-2373_email_open_2021-05-05_2021-05-09,-617.86659484067,74.0,66.0,108,108,False
7,OSP-2373_rw_app_imp_2021-05-05_2021-05-09 > OSP-2373_rw_app_clk_2021-05-05_2021-05-09 > OSP-2373_email_open_2021-05-05_2021-05-09 > OSP-2373_email_clk_2021-05-05_2021-05-09,360.21253126073,58.0,28.0,109,109,False
8,OSP-2373_rw_app_imp_2021-04-28_2021-05-04 > OSP-2373_rw_app_clk_2021-04-28_2021-05-04 > OSP-2373_email_open_2021-05-05_2021-05-09,15349.708319678,470.0,347.0,936,936,False
9,FB_Impression > OSP-2373_email_open_2021-05-05_2021-05-09 > OSP-2373_email_open_2021-04-28_2021-05-04 > OSP-2373_email_clk_2021-05-05_2021-05-09,2217.3248479635,43.0,33.0,137,137,False
10,_AlwaysOn_wow_web_view_2021-05-05_2021-05-09,17204.800473289,230.0,93.0,251,251,False
11,OSP-2373_rw_web_oap_clk_2021-05-05_2021-05-09,4797.8695961682,118.0,90.0,631,631,False
12,_AlwaysOn_wow_web_view_2021-05-05_2021-05-09 > OSP-2373_email_open_2021-05-05_2021-05-09 > OSP-2373_email_clk_2021-05-05_2021-05-09,9057.4364140654,173.0,126.0,220,220,False
13,OSP-2373_rw_app_imp_2021-05-05_2021-05-09 > OSP-2373_email_open_2021-05-05_2021-05-09,7327.1883576509,743.0,598.0,4243,4243,False
14,OSP-2373_rw_app_imp_2021-04-28_2021-05-04 > OSP-2373_email_open_2021-04-28_2021-05-04,3628.7083324866,116.0,101.0,552,552,False
15,OSP-2373_rw_app_imp_2021-05-05_2021-05-09 > OSP-2373_rw_app_imp_2021-04-28_2021-05-04 > OSP-2373_email_open_2021-05-05_2021-05-09,8659.1133834304,790.0,643.0,2401,2401,False
16,FB_Impression,105958.5517775,4737.0,4842.0,104442,104442,False
17,OSP-2373_rw_app_imp_2021-04-28_2021-05-04 > OSP-2373_rw_app_clk_2021-04-28_2021-05-04 > OSP-2373_email_open_2021-05-05_2021-05-09 > OSP-2373_email_clk_2021-05-05_2021-05-09,3974.7276487644,267.0,218.0,560,560,False
18,OSP-2373_email_clk_2021-05-05_2021-05-09,660194.28472632,25612.0,20375.0,82258,82258,False
19,OSP-2373_rw_app_imp_2021-04-28_2021-05-04 > OSP-2373_rw_app_imp_2021-04-28_2021-05-04 > OSP-2373_rw_app_clk_2021-05-05_2021-05-09 > OSP-2373_rw_app_clk_2021-04-28_2021-05-04,-476.50112376429,83.0,72.0,107,107,False
20,OSP-2373_rw_app_imp_2021-05-05_2021-05-09 > OSP-2373_rw_app_imp_2021-04-28_2021-05-04 > OSP-2373_rw_app_clk_2021-05-05_2021-05-09 > OSP-2373_rw_app_clk_2021-04-28_2021-05-04,-641.91652221387,109.0,89.0,180,180,False
21,OSP-2373_rw_app_clk_2021-05-05_2021-05-09,17937.230503448,762.0,547.0,2348,2348,False
22,OSP-2373_rw_app_imp_2021-04-28_2021-05-04 > OSP-2373_email_open_2021-05-05_2021-05-09 > OSP-2373_email_clk_2021-05-05_2021-05-09,33433.325414702,1920.0,1534.0,5153,5153,False
23,OSP-2373_rw_web_oap_clk_2021-04-28_2021-05-04,6424.1826968563,314.0,215.0,2026,2026,False
24,_AlwaysOn_display_imp_2021-04-28_2021-05-04,-98.247087340579,0.0,4.0,213,213,False
25,OSP-2373_email_clk_2021-04-28_2021-05-04,10989.489666688,419.0,262.0,2245,2245,False
26,FB_Impression > OSP-2373_rw_app_imp_2021-05-05_2021-05-09 > OSP-2373_rw_app_imp_2021-04-28_2021-05-04 > OSP-2373_email_open_2021-05-05_2021-05-09,2293.5946859075,194.0,175.0,423,423,False
27,FB_Impression > FB_Click > FB_Impression,3648.2307186826,127.0,111.0,1007,1007,False
28,OSP-2373_email_open_2021-05-05_2021-05-09 > OSP-2373_email_clk_2021-05-05_2021-05-09,434048.03010613,17802.0,14832.0,83430,83430,False
29,FB_Impression > OSP-2373_rw_app_imp_2021-04-28_2021-05-04 > OSP-2373_rw_app_clk_2021-04-28_2021-05-04,6277.9658792477,101.0,77.0,271,271,False
30,OSP-2373_email_open_2021-05-05_2021-05-09 > OSP-2373_email_open_2021-04-28_2021-05-04 > OSP-2373_email_clk_2021-05-05_2021-05-09 > OSP-2373_email_clk_2021-04-28_2021-05-04,264.99383935043,44.0,41.0,218,218,False
31,OSP-2373_rw_app_imp_2021-04-28_2021-05-04 > CVM-1661_rw_app_imp_2021-04-28_2021-05-04,1383.3143735568,52.0,49.0,514,514,False
32,_AlwaysOn_wow_web_clk_2021-05-05_2021-05-09,22020.033858501,221.0,110.0,264,264,False
33,FB_Impression > OSP-2373_rw_app_imp_2021-05-05_2021-05-09,11845.732199834,568.0,489.0,2388,2388,False
34,FB_Impression > OSP-2373_rw_app_imp_2021-04-28_2021-05-04,12074.953633004,887.0,750.0,3304,3304,False
35,FB_Impression > OSP-2373_rw_app_imp_2021-05-05_2021-05-09 > OSP-2373_rw_app_imp_2021-04-28_2021-05-04 > OSP-2373_email_open_2021-05-05_2021-05-09 > OSP-2373_email_clk_2021-05-05_2021-05-09,581.27022284704,92.0,90.0,200,200,False
36,OSP-2373_email_open_2021-04-28_2021-05-04 > OSP-2373_email_clk_2021-04-28_2021-05-04,9944.5884273821,285.0,200.0,2638,2638,False
37,OSP-2373_rw_app_imp_2021-04-28_2021-05-04 > OSP-2373_rw_app_clk_2021-05-05_2021-05-09 > OSP-2373_email_open_2021-05-05_2021-05-09 > OSP-2373_email_clk_2021-05-05_2021-05-09,1421.8973897171,110.0,76.0,176,176,False
38,FB_Impression > _AlwaysOn_wow_web_view_2021-04-28_2021-05-04 > _AlwaysOn_wow_web_clk_2021-04-28_2021-05-04 > OSP-2373_email_open_2021-05-05_2021-05-09,187.46934174798,8.0,4.0,104,104,False
39,OSP-2373_email_open_2021-05-05_2021-05-09 > OSP-2373_email_open_2021-04-28_2021-05-04 > OSP-2373_email_clk_2021-05-05_2021-05-09,7510.9365430796,534.0,432.0,2106,2106,False
40,_AlwaysOn_wow_web_view_2021-04-28_2021-05-04 > OSP-2373_email_open_2021-05-05_2021-05-09,7638.8523278462,104.0,60.0,1846,1846,False
41,OSP-2373_email_open_2021-05-05_2021-05-09 > CVM-1661_rw_app_imp_2021-04-28_2021-05-04,577.06834291431,39.0,46.0,326,326,False
42,_AlwaysOn_wow_web_view_2021-04-28_2021-05-04 > _AlwaysOn_wow_web_clk_2021-04-28_2021-05-04,31889.941423635,344.0,139.0,6879,6879,False
43,OSP-2373_rw_app_imp_2021-04-28_2021-05-04 > OSP-2373_email_open_2021-05-05_2021-05-09 > CVM-1661_rw_app_imp_2021-04-28_2021-05-04,352.15761289385,25.0,23.0,257,257,False
44,OSP-2373_rw_app_imp_2021-05-05_2021-05-09 > OSP-2373_rw_app_clk_2021-05-05_2021-05-09 > OSP-2373_email_open_2021-05-05_2021-05-09,288.227625982,82.0,55.0,227,227,False
45,_AlwaysOn_sem_shopping_clk_2021-04-28_2021-05-04 > OSP-2373_rw_app_imp_2021-04-28_2021-05-04,744.45157432127,21.0,11.0,174,174,False
46,OSP-2373_rw_app_imp_2021-05-05_2021-05-09 > OSP-2373_rw_app_imp_2021-04-28_2021-05-04 > OSP-2373_email_open_2021-05-05_2021-05-09 > OSP-2373_email_clk_2021-05-05_2021-05-09,2097.8254143377,425.0,319.0,998,998,False
47,OSP-2373_email_open_2021-04-28_2021-05-04 > CVM-1661_email_open_2021-04-28_2021-05-04,199.82385979342,6.0,7.0,207,207,False
48,OSP-2373_email_open_2021-05-05_2021-05-09 > OSP-2373_email_open_2021-05-05_2021-05-09 > OSP-2373_email_clk_2021-05-05_2021-05-09,2781.0752149127,101.0,83.0,153,153,False
49,FB_Impression > OSP-2373_rw_app_imp_2021-05-05_2021-05-09 > OSP-2373_rw_app_imp_2021-04-28_2021-05-04 > OSP-2373_rw_app_clk_2021-04-28_2021-05-04,-784.57601780645,74.0,67.0,146,146,False
50,FB_Impression > _AlwaysOn_wow_web_view_2021-04-28_2021-05-04 > OSP-2373_email_open_2021-05-05_2021-05-09,579.26463932825,17.0,12.0,326,326,False
51,_AlwaysOn_sem_shopping_clk_2021-04-28_2021-05-04 > OSP-2373_rw_app_imp_2021-05-05_2021-05-09,717.11797221572,12.0,4.0,120,120,False
52,_AlwaysOn_sem_shopping_clk_2021-04-28_2021-05-04,2411.2135151946,96.0,78.0,8367,8367,False
53,OSP-2373_rw_app_imp_2021-05-05_2021-05-09 > OSP-2373_rw_app_clk_2021-05-05_2021-05-09,17688.549018344,473.0,290.0,1880,1880,False
54,OSP-2373_rw_app_imp_2021-04-28_2021-05-04 > OSP-2373_rw_app_clk_2021-05-05_2021-05-09 > OSP-2373_email_open_2021-05-05_2021-05-09,-2906.2147058765,182.0,120.0,322,322,False
55,OSP-2373_rw_app_imp_2021-04-28_2021-05-04 > OSP-2373_rw_app_clk_2021-04-28_2021-05-04,40752.70713033,1866.0,1420.0,5223,5223,False
56,OSP-2373_rw_app_imp_2021-04-28_2021-05-04 > OSP-2373_rw_app_imp_2021-04-28_2021-05-04 > OSP-2373_email_open_2021-05-05_2021-05-09,4308.1856626283,243.0,184.0,424,424,False
57,OSP-2373_rw_web_oap_clk_2021-05-05_2021-05-09 > OSP-2373_email_open_2021-05-05_2021-05-09 > OSP-2373_email_clk_2021-05-05_2021-05-09,3663.714610437,73.0,33.0,249,249,False
58,FB_Impression > FB_Click > FB_Impression > OSP-2373_email_open_2021-05-05_2021-05-09,1569.7813752288,22.0,11.0,118,118,False
59,_AlwaysOn_wow_web_clk_2021-05-05_2021-05-09 > OSP-2373_email_open_2021-05-05_2021-05-09 > OSP-2373_email_clk_2021-05-05_2021-05-09,6892.5264598955,99.0,38.0,106,106,False
60,CVM-1661_email_open_2021-04-28_2021-05-04,-301.1000856232,10.0,9.0,1548,1548,False
61,_AlwaysOn_sem_other_clk_2021-04-28_2021-05-04,345.148181822,3.0,1.0,150,150,False
62,OSP-2373_rw_app_imp_2021-04-28_2021-05-04 > OSP-2373_rw_app_imp_2021-04-28_2021-05-04 > OSP-2373_rw_app_clk_2021-04-28_2021-05-04,554.1797895425,269.0,224.0,403,403,False
63,OSP-2373_rw_app_clk_2021-04-28_2021-05-04 > OSP-2373_email_open_2021-05-05_2021-05-09,4010.9438115657,248.0,227.0,696,696,False
64,FB_Impression > OSP-2373_email_open_2021-05-05_2021-05-09,12661.184526663,863.0,853.0,9942,9942,False
65,_AlwaysOn_sem_brand_clk_2021-04-28_2021-05-04 > OSP-2373_email_open_2021-05-05_2021-05-09,135.94792250507,3.0,3.0,100,100,False
66,_AlwaysOn_wow_web_clk_2021-04-28_2021-05-04 > OSP-2373_email_open_2021-05-05_2021-05-09 > OSP-2373_email_clk_2021-05-05_2021-05-09,3307.6585409494,64.0,33.0,372,372,False
67,FB_Impression > OSP-2373_email_open_2021-04-28_2021-05-04,-156.40228045452,73.0,70.0,749,749,False
68,_AlwaysOn_video_imp_2021-04-28_2021-05-04,654.35822414794,11.0,8.0,455,455,False
69,_AlwaysOn_wow_web_clk_2021-04-28_2021-05-04 > OSP-2373_rw_app_imp_2021-04-28_2021-05-04,4863.5249195866,62.0,27.0,250,250,False
70,_AlwaysOn_wow_web_view_2021-04-28_2021-05-04 > _AlwaysOn_wow_web_clk_2021-04-28_2021-05-04 > OSP-2373_rw_app_imp_2021-04-28_2021-05-04,4345.8292537056,44.0,13.0,180,180,False
71,FB_Impression > OSP-2373_email_open_2021-04-28_2021-05-04 > OSP-2373_email_clk_2021-04-28_2021-05-04,1879.082835233,30.0,17.0,118,118,False
72,CVM-1661_email_clk_2021-05-05_2021-05-09,-561.08333526434,9.0,17.0,1436,1436,False
73,FB_Impression > _AlwaysOn_wow_web_view_2021-04-28_2021-05-04,9552.9475312865,112.0,85.0,2750,2750,False
74,_AlwaysOn_wow_web_view_2021-04-28_2021-05-04 > OSP-2373_rw_app_imp_2021-05-05_2021-05-09,1436.3318783757,23.0,14.0,240,240,False
75,FB_Impression > OSP-2373_email_open_2021-05-05_2021-05-09 > OSP-2373_email_open_2021-04-28_2021-05-04,1714.9829002733,37.0,27.0,202,202,False
76,FB_Impression > OSP-2373_rw_app_imp_2021-05-05_2021-05-09 > OSP-2373_rw_app_clk_2021-05-05_2021-05-09,1593.1523364504,60.0,34.0,158,158,False
77,_AlwaysOn_sem_shopping_clk_2021-04-28_2021-05-04 > OSP-2373_email_open_2021-05-05_2021-05-09,-515.18835055676,18.0,14.0,526,526,False
78,_AlwaysOn_wow_web_view_2021-05-05_2021-05-09 > _AlwaysOn_wow_web_clk_2021-05-05_2021-05-09,22242.690142725,250.0,106.0,288,288,False
79,OSP-2373_email_open_2021-04-28_2021-05-04 > OSP-2373_email_clk_2021-05-05_2021-05-09,16936.755381511,921.0,679.0,2898,2898,False
80,OSP-2373_rw_app_clk_2021-04-28_2021-05-04,39729.990765654,1337.0,1018.0,3983,3983,False
81,OSP-2373_rw_app_imp_2021-04-28_2021-05-04 > OSP-2373_rw_app_imp_2021-04-28_2021-05-04,2601.1400997236,445.0,410.0,869,869,False
82,OSP-2373_rw_app_clk_2021-05-05_2021-05-09 > OSP-2373_email_open_2021-05-05_2021-05-09 > OSP-2373_email_clk_2021-05-05_2021-05-09,2456.1744418555,101.0,62.0,224,224,False
83,OSP-2373_rw_app_imp_2021-05-05_2021-05-09 > OSP-2373_email_open_2021-05-05_2021-05-09 > OSP-2373_email_clk_2021-05-05_2021-05-09,15293.026869398,466.0,320.0,1373,1373,False
84,FB_Impression > OSP-2373_rw_app_imp_2021-05-05_2021-05-09 > OSP-2373_email_open_2021-05-05_2021-05-09,1566.1682520095,99.0,86.0,366,366,False
85,OSP-2373_email_open_2021-05-05_2021-05-09 > OSP-2373_email_open_2021-04-28_2021-05-04 > OSP-2373_email_clk_2021-04-28_2021-05-04,-573.47957058532,16.0,19.0,203,203,False
86,OSP-2373_rw_app_imp_2021-04-28_2021-05-04 > OSP-2373_rw_app_imp_2021-04-28_2021-05-04 > OSP-2373_email_open_2021-05-05_2021-05-09 > OSP-2373_email_clk_2021-05-05_2021-05-09,2748.8191644559,117.0,110.0,251,251,False
87,OSP-2373_rw_web_oap_clk_2021-04-28_2021-05-04 > OSP-2373_email_open_2021-05-05_2021-05-09,-2632.3342749146,83.0,61.0,349,349,False
88,_AlwaysOn_wow_web_clk_2021-04-28_2021-05-04 > OSP-2373_email_open_2021-05-05_2021-05-09,4139.5403499354,63.0,34.0,583,583,False
89,_AlwaysOn_wow_web_view_2021-04-28_2021-05-04 > OSP-2373_rw_app_imp_2021-04-28_2021-05-04,2226.0245706234,82.0,43.0,574,574,False
90,OSP-2373_rw_app_imp_2021-04-28_2021-05-04 > OSP-2373_email_open_2021-05-05_2021-05-09 > OSP-2373_email_open_2021-04-28_2021-05-04,1331.349796233,70.0,50.0,214,214,False
91,OSP-2373_rw_app_clk_2021-05-05_2021-05-09 > OSP-2373_rw_app_clk_2021-04-28_2021-05-04,1426.6954559214,33.0,30.0,105,105,False
92,OSP-2373_rw_app_imp_2021-04-28_2021-05-04 > OSP-2373_rw_app_clk_2021-05-05_2021-05-09,10222.59724235,708.0,514.0,1405,1405,False
93,OSP-2373_rw_app_imp_2021-04-28_2021-05-04 > OSP-2373_rw_app_imp_2021-04-28_2021-05-04 > OSP-2373_rw_app_clk_2021-04-28_2021-05-04 > OSP-2373_email_open_2021-05-05_2021-05-09,1207.1830467469,81.0,77.0,139,139,False
94,_AlwaysOn_sem_brand_clk_2021-04-28_2021-05-04,579.71325902778,14.0,14.0,929,929,False
95,_AlwaysOn_wow_web_view_2021-04-28_2021-05-04 > OSP-2373_email_open_2021-05-05_2021-05-09 > OSP-2373_email_clk_2021-05-05_2021-05-09,12208.815115041,187.0,89.0,967,967,False
96,_AlwaysOn_wow_web_view_2021-04-28_2021-05-04 > _AlwaysOn_sem_shopping_clk_2021-04-28_2021-05-04,637.39111894318,9.0,9.0,258,258,False
97,OSP-2373_rw_app_imp_2021-04-28_2021-05-04,375073.5674813,15383.0,12560.0,91743,91743,False
98,OSP-2373_rw_app_imp_2021-05-05_2021-05-09 > OSP-2373_rw_app_imp_2021-04-28_2021-05-04 > OSP-2373_rw_app_clk_2021-04-28_2021-05-04 > OSP-2373_email_open_2021-05-05_2021-05-09 > OSP-2373_email_clk_2021-05-05_2021-05-09,630.31780743778,77.0,60.0,131,131,False
99,OSP-2373_rw_app_imp_2021-05-05_2021-05-09 > OSP-2373_rw_app_imp_2021-04-28_2021-05-04 > OSP-2373_email_open_2021-04-28_2021-05-04,551.8742872278,36.0,28.0,105,105,False
100,_AlwaysOn_wow_web_view_2021-04-28_2021-05-04 > OSP-2373_rw_app_imp_2021-05-05_2021-05-09 > OSP-2373_rw_app_imp_2021-04-28_2021-05-04,1047.6797326746,28.0,17.0,127,127,False
101,FB_Impression > FB_Click,5531.9260851446,123.0,66.0,938,938,False
102,OSP-2373_email_open_2021-05-05_2021-05-09 > OSP-2373_email_open_2021-04-28_2021-05-04,7723.993985107,442.0,366.0,4562,4562,False
103,FB_Impression > _AlwaysOn_wow_web_view_2021-04-28_2021-05-04 > _AlwaysOn_wow_web_clk_2021-04-28_2021-05-04,8494.0717874116,101.0,42.0,987,987,False
104,FB_Impression > OSP-2373_rw_app_imp_2021-04-28_2021-05-04 > OSP-2373_email_open_2021-05-05_2021-05-09,1346.993959894,163.0,136.0,551,551,False
105,OSP-2373_rw_app_clk_2021-05-05_2021-05-09 > OSP-2373_email_open_2021-05-05_2021-05-09,4312.2822555882,126.0,93.0,390,390,False
106,OSP-2373_rw_app_imp_2021-05-05_2021-05-09 > OSP-2373_email_open_2021-04-28_2021-05-04,-390.08072287447,38.0,30.0,227,227,False
107,OSP-2373_rw_app_imp_2021-05-05_2021-05-09,120804.74246168,5505.0,4711.0,54365,54365,False
108,_AlwaysOn_wow_web_view_2021-04-28_2021-05-04 > _AlwaysOn_wow_web_clk_2021-04-28_2021-05-04 > OSP-2373_email_open_2021-05-05_2021-05-09 > OSP-2373_email_clk_2021-05-05_2021-05-09,3019.1376925488,39.0,12.0,187,187,False
109,FB_Impression > _AlwaysOn_sem_shopping_clk_2021-04-28_2021-05-04,680.3566986468,9.0,8.0,316,316,False
110,OSP-2373_rw_web_oap_clk_2021-04-28_2021-05-04 > OSP-2373_email_open_2021-04-28_2021-05-04,586.29175088638,30.0,9.0,103,103,False
111,OSP-2373_rw_app_imp_2021-05-05_2021-05-09 > OSP-2373_rw_app_imp_2021-04-28_2021-05-04 > OSP-2373_rw_app_clk_2021-04-28_2021-05-04,7361.9159808609,466.0,368.0,989,989,False
113,FB_Impression > FB_Click > FB_Impression > OSP-2373_email_open_2021-05-05_2021-05-09 > OSP-2373_email_clk_2021-05-05_2021-05-09,-613.68344907732,54.0,39.0,139,139,False
114,CVM-1661_rw_app_imp_2021-04-28_2021-05-04,2210.7719119461,88.0,71.0,654,654,False
115,FB_Impression > OSP-2373_rw_app_imp_2021-05-05_2021-05-09 > OSP-2373_email_open_2021-05-05_2021-05-09 > OSP-2373_email_clk_2021-05-05_2021-05-09,-2431.5556780483,72.0,52.0,170,170,False
116,FB_Impression > OSP-2373_rw_app_imp_2021-05-05_2021-05-09 > OSP-2373_rw_app_imp_2021-04-28_2021-05-04,13928.728551632,634.0,506.0,1529,1529,False
117,FB_Impression > OSP-2373_rw_app_imp_2021-04-28_2021-05-04 > OSP-2373_email_open_2021-05-05_2021-05-09 > OSP-2373_email_clk_2021-05-05_2021-05-09,2922.4896851798,174.0,143.0,439,439,False
118,OSP-2373_rw_app_imp_2021-05-05_2021-05-09 > OSP-2373_rw_app_imp_2021-04-28_2021-05-04 > OSP-2373_rw_app_clk_2021-05-05_2021-05-09,8246.7735072689,338.0,255.0,759,759,False
119,FB_Impression > OSP-2373_email_open_2021-05-05_2021-05-09 > OSP-2373_email_clk_2021-05-05_2021-05-09,41954.141073811,1837.0,1412.0,6035,6035,False
120,OSP-2373_rw_app_imp_2021-04-28_2021-05-04 > OSP-2373_email_open_2021-05-05_2021-05-09 > OSP-2373_email_open_2021-04-28_2021-05-04 > OSP-2373_email_clk_2021-05-05_2021-05-09,1436.8339013956,78.0,49.0,153,153,False
121,OSP-2373_email_open_2021-04-28_2021-05-04 > OSP-2373_email_clk_2021-05-05_2021-05-09 > OSP-2373_email_clk_2021-04-28_2021-05-04,10960.491298381,97.0,60.0,385,385,False
122,OSP-2373_rw_app_imp_2021-04-28_2021-05-04 > OSP-2373_email_open_2021-05-05_2021-05-09,58933.693009047,2866.0,2356.0,10418,10418,False
123,_AlwaysOn_wow_web_view_2021-04-28_2021-05-04 > OSP-2373_email_open_2021-04-28_2021-05-04,1661.41660168,15.0,4.0,193,193,False
124,_AlwaysOn_sem_generic_clk_2021-04-28_2021-05-04,-38.93830013912,3.0,2.0,173,173,False
125,_AlwaysOn_wow_web_view_2021-04-28_2021-05-04,41126.585782645,541.0,397.0,35623,35623,False
126,_AlwaysOn_sem_shopping_clk_2021-04-28_2021-05-04 > OSP-2373_email_open_2021-05-05_2021-05-09 > OSP-2373_email_clk_2021-05-05_2021-05-09,1291.0881749,46.0,20.0,283,283,False
127,OSP-2373_rw_web_oap_clk_2021-04-28_2021-05-04 > OSP-2373_email_open_2021-05-05_2021-05-09 > OSP-2373_email_clk_2021-05-05_2021-05-09,-838.46993595291,101.0,65.0,305,305,False
128,_AlwaysOn_wow_web_view_2021-04-28_2021-05-04 > _AlwaysOn_wow_web_clk_2021-04-28_2021-05-04 > OSP-2373_email_open_2021-05-05_2021-05-09,3359.2125289043,43.0,24.0,419,419,False
129,OSP-2373_email_open_2021-05-05_2021-05-09 > OSP-2373_email_clk_2021-05-05_2021-05-09 > CVM-1661_rw_app_imp_2021-04-28_2021-05-04,130.72254460476,36.0,35.0,156,156,False
130,OSP-2373_rw_app_clk_2021-04-28_2021-05-04 > OSP-2373_email_open_2021-05-05_2021-05-09 > OSP-2373_email_clk_2021-05-05_2021-05-09,-1643.9537293848,209.0,174.0,457,457,False
131,OSP-2373_rw_app_imp_2021-05-05_2021-05-09 > OSP-2373_rw_app_imp_2021-04-28_2021-05-04,57969.901829169,3470.0,2897.0,14177,14177,False
132,OSP-2373_rw_app_imp_2021-05-05_2021-05-09 > OSP-2373_rw_app_imp_2021-04-28_2021-05-04 > OSP-2373_rw_app_clk_2021-04-28_2021-05-04 > OSP-2373_email_open_2021-05-05_2021-05-09,1638.3478588018,123.0,103.0,266,266,False
