,path,total_conversion_value,conversions,non_conversions,cnt,ppl,Converted
0,OSP-2373_rw_app_imp_2021-11-24_2021-11-28 > OSP-2373_email_open_2021-11-24_2021-11-28 > OSP-2373_email_clk_2021-11-24_2021-11-28 > OSP-2373_email_open_2021-11-24_2021-11-28,7652.2688051494,89.0,85.0,133,133,False
1,OSP-2373_email_open_2021-11-24_2021-11-28 > OSP-2373_rw_app_imp_2021-11-24_2021-11-28 > OSP-2373_email_open_2021-11-24_2021-11-28 > OSP-2373_rw_app_imp_2021-11-24_2021-11-28,10412.870854673,67.0,64.0,103,103,False
2,OSP-2373_email_open_2021-11-17_2021-11-23 > OSP-2373_email_open_2021-11-24_2021-11-28,270844.78813959,828.0,817.0,1448,1448,False
3,OSP-2373_rw_app_imp_2021-11-17_2021-11-23 > OSP-2373_email_open_2021-11-24_2021-11-28 > OSP-2373_rw_app_imp_2021-11-24_2021-11-28 > OSP-2373_rw_app_clk_2021-11-24_2021-11-28 > OSP-2373_email_open_2021-11-24_2021-11-28,54604.255351447,78.0,58.0,108,108,False
4,OSP-2373_rw_app_imp_2021-11-24_2021-11-28 > OSP-2373_rw_app_clk_2021-11-24_2021-11-28 > OSP-2373_rw_app_imp_2021-11-24_2021-11-28 > OSP-2373_rw_app_clk_2021-11-24_2021-11-28 > OSP-2373_rw_app_imp_2021-11-24_2021-11-28,296797.1847161,526.0,381.0,658,658,False
5,OSP-2373_email_open_2021-11-17_2021-11-23 > OSP-2373_email_open_2021-11-24_2021-11-28 > OSP-2373_email_clk_2021-11-24_2021-11-28 > OSP-2373_email_open_2021-11-24_2021-11-28 > OSP-2373_email_clk_2021-11-24_2021-11-28 > OSP-2373_email_open_2021-11-24_2021-11-28,82337.933477119,174.0,133.0,234,234,False
6,OSP-2373_email_open_2021-11-24_2021-11-28 > OSP-2373_email_clk_2021-11-24_2021-11-28 > OSP-2373_rw_app_imp_2021-11-24_2021-11-28 > OSP-2373_email_open_2021-11-24_2021-11-28,64930.444478365,232.0,202.0,363,363,False
7,_AlwaysOn_wow_web_view_2021-11-17_2021-11-23 > OSP-2373_rw_app_imp_2021-11-24_2021-11-28 > OSP-2373_rw_app_clk_2021-11-24_2021-11-28 > OSP-2373_rw_app_imp_2021-11-24_2021-11-28,366696.34112561,364.0,147.0,480,480,False
8,OSP-2373_rw_app_imp_2021-11-17_2021-11-23 > OSP-2373_rw_app_clk_2021-11-17_2021-11-23,885055.42791854,1262.0,882.0,2057,2057,False
9,OSP-2373_email_open_2021-11-24_2021-11-28 > OSP-2373_email_clk_2021-11-24_2021-11-28 > OSP-2373_rw_app_imp_2021-11-24_2021-11-28 > OSP-2373_rw_app_clk_2021-11-24_2021-11-28 > OSP-2373_rw_app_imp_2021-11-24_2021-11-28,60112.575298922,424.0,371.0,605,605,False
10,OSP-2373_email_open_2021-11-24_2021-11-28 > _AlwaysOn_wow_web_view_2021-11-24_2021-11-28 > _AlwaysOn_wow_web_clk_2021-11-24_2021-11-28 > _AlwaysOn_wow_web_view_2021-11-24_2021-11-28,-148.47779985905,52.0,72.0,121,121,False
11,OSP-2373_email_open_2021-11-17_2021-11-23 > OSP-2373_rw_app_imp_2021-11-24_2021-11-28 > OSP-2373_rw_app_clk_2021-11-24_2021-11-28,50410.15925223,76.0,61.0,114,114,False
12,OSP-2373_email_open_2021-11-24_2021-11-28,7257528.7879353,23622.0,24828.0,43268,43268,False
13,OSP-2373_rw_app_imp_2021-11-17_2021-11-23 > OSP-2373_rw_app_clk_2021-11-17_2021-11-23 > OSP-2373_rw_app_imp_2021-11-24_2021-11-28,371553.19352201,490.0,308.0,770,770,False
14,OSP-2373_rw_app_imp_2021-11-17_2021-11-23 > OSP-2373_email_open_2021-11-24_2021-11-28 > OSP-2373_rw_app_imp_2021-11-24_2021-11-28 > OSP-2373_rw_app_clk_2021-11-24_2021-11-28 > OSP-2373_rw_app_imp_2021-11-24_2021-11-28,411082.81694504,2155.0,1972.0,3104,3104,False
15,_AlwaysOn_wow_web_view_2021-11-17_2021-11-23 > _AlwaysOn_wow_web_clk_2021-11-17_2021-11-23 > _AlwaysOn_wow_web_view_2021-11-17_2021-11-23,153494.52444508,120.0,51.0,168,168,False
16,FB_Impression_MobileFeed > OSP-2373_email_open_2021-11-24_2021-11-28 > FB_Impression_MobileFeed,2468.7497790074,55.0,75.0,121,121,False
17,OSP-2373_rw_app_imp_2021-11-24_2021-11-28 > OSP-2373_rw_app_clk_2021-11-24_2021-11-28 > OSP-2373_email_open_2021-11-24_2021-11-28 > OSP-2373_email_clk_2021-11-24_2021-11-28,42258.366966651,276.0,236.0,382,382,False
18,OSP-2373_rw_app_imp_2021-11-17_2021-11-23 > OSP-2373_rw_app_imp_2021-11-24_2021-11-28 > OSP-2373_rw_app_clk_2021-11-24_2021-11-28 > OSP-2373_rw_app_imp_2021-11-24_2021-11-28 > _AlwaysOn_wow_web_view_2021-11-24_2021-11-28 > OSP-2373_rw_app_imp_2021-11-24_2021-11-28,-18744.960824493,50.0,73.0,115,115,False
19,OSP-2373_rw_app_imp_2021-11-17_2021-11-23 > OSP-2373_email_open_2021-11-24_2021-11-28 > OSP-2373_rw_app_imp_2021-11-24_2021-11-28 > OSP-2373_rw_app_clk_2021-11-24_2021-11-28 > OSP-2373_email_open_2021-11-24_2021-11-28 > OSP-2373_rw_app_imp_2021-11-24_2021-11-28,44291.919731648,211.0,168.0,272,272,False
20,OSP-2373_rw_app_imp_2021-11-24_2021-11-28 > OSP-2373_rw_app_clk_2021-11-24_2021-11-28 > OSP-2373_email_open_2021-11-24_2021-11-28 > OSP-2373_email_clk_2021-11-24_2021-11-28 > OSP-2373_rw_app_imp_2021-11-24_2021-11-28,31777.815790893,231.0,182.0,307,307,False
21,OSP-2373_rw_app_imp_2021-11-24_2021-11-28 > OSP-2373_rw_app_clk_2021-11-24_2021-11-28,9385590.0608847,19422.0,16081.0,29422,29422,False
22,FB_Impression_MobileFeed > OSP-2373_email_open_2021-11-24_2021-11-28 > OSP-2373_email_clk_2021-11-24_2021-11-28 > FB_Impression_MobileFeed,103951.98183383,167.0,130.0,251,251,False
23,OSP-2373_email_open_2021-11-24_2021-11-28 > OSP-2373_email_clk_2021-11-24_2021-11-28 > OSP-2373_email_open_2021-11-24_2021-11-28 > OSP-2373_rw_app_imp_2021-11-24_2021-11-28,246790.32331106,1046.0,906.0,1444,1444,False
24,OSP-2373_rw_app_imp_2021-11-17_2021-11-23 > OSP-2373_email_open_2021-11-24_2021-11-28 > OSP-2373_email_clk_2021-11-24_2021-11-28 > OSP-2373_email_open_2021-11-24_2021-11-28,91755.746444815,450.0,413.0,705,705,False
25,OSP-2373_email_open_2021-11-24_2021-11-28 > OSP-2373_email_clk_2021-11-24_2021-11-28 > OSP-2373_email_open_2021-11-24_2021-11-28 > OSP-2373_email_clk_2021-11-24_2021-11-28,1253481.4746266,2936.0,2455.0,3963,3963,False
26,FB_Impression_MobileFeed > OSP-2373_rw_app_imp_2021-11-24_2021-11-28 > OSP-2373_rw_app_clk_2021-11-24_2021-11-28 > FB_Impression_MobileFeed,12811.78499145,127.0,107.0,195,195,False
27,OSP-2373_email_open_2021-11-24_2021-11-28 > OSP-2373_email_clk_2021-11-24_2021-11-28 > OSP-2373_email_open_2021-11-24_2021-11-28 > OSP-2373_rw_app_imp_2021-11-24_2021-11-28 > OSP-2373_email_open_2021-11-24_2021-11-28,34896.533194084,105.0,99.0,150,150,False
28,_AlwaysOn_wow_web_view_2021-11-24_2021-11-28,630572.90720659,1433.0,1425.0,2659,2659,False
29,OSP-2373_rw_app_imp_2021-11-24_2021-11-28 > OSP-2373_rw_app_clk_2021-11-24_2021-11-28 > OSP-2373_rw_app_imp_2021-11-24_2021-11-28 > OSP-2373_email_open_2021-11-24_2021-11-28 > OSP-2373_rw_app_imp_2021-11-24_2021-11-28,102868.13297707,297.0,262.0,420,420,False
30,OSP-2373_rw_app_imp_2021-11-17_2021-11-23 > OSP-2373_rw_app_clk_2021-11-17_2021-11-23 > OSP-2373_rw_app_imp_2021-11-17_2021-11-23 > OSP-2373_rw_app_imp_2021-11-24_2021-11-28,196957.60193606,304.0,216.0,496,496,False
31,OSP-2373_email_open_2021-11-24_2021-11-28 > OSP-2373_rw_app_imp_2021-11-24_2021-11-28 > OSP-2373_rw_app_clk_2021-11-24_2021-11-28,1226646.7470997,3364.0,2821.0,5067,5067,False
32,OSP-2373_email_open_2021-11-24_2021-11-28 > FB_Impression_MobileFeed,97269.539778592,523.0,538.0,977,977,False
33,_AlwaysOn_wow_web_view_2021-11-17_2021-11-23 > OSP-2373_email_open_2021-11-24_2021-11-28 > OSP-2373_email_clk_2021-11-24_2021-11-28 > OSP-2373_email_open_2021-11-24_2021-11-28 > OSP-2373_email_clk_2021-11-24_2021-11-28 > OSP-2373_email_open_2021-11-24_2021-11-28,96403.731859692,137.0,74.0,184,184,False
34,OSP-2373_rw_app_imp_2021-11-17_2021-11-23 > OSP-2373_rw_app_clk_2021-11-17_2021-11-23 > OSP-2373_rw_app_imp_2021-11-24_2021-11-28 > OSP-2373_rw_app_clk_2021-11-24_2021-11-28 > OSP-2373_rw_app_imp_2021-11-24_2021-11-28,788575.18361709,791.0,428.0,1043,1043,False
35,OSP-2373_email_open_2021-11-24_2021-11-28 > OSP-2373_rw_app_imp_2021-11-24_2021-11-28 > OSP-2373_email_open_2021-11-24_2021-11-28,57450.200677384,134.0,126.0,227,227,False
36,OSP-2373_rw_app_imp_2021-11-24_2021-11-28 > OSP-2373_rw_app_clk_2021-11-24_2021-11-28 > OSP-2373_rw_app_imp_2021-11-24_2021-11-28 > _AlwaysOn_wow_web_view_2021-11-24_2021-11-28,-65946.064025897,97.0,119.0,215,215,False
37,OSP-2373_rw_app_imp_2021-11-17_2021-11-23 > OSP-2373_email_open_2021-11-24_2021-11-28 > OSP-2373_email_clk_2021-11-24_2021-11-28,450858.09977994,1399.0,1207.0,2152,2152,False
38,OSP-2373_rw_app_imp_2021-11-17_2021-11-23 > OSP-2373_rw_app_imp_2021-11-24_2021-11-28 > OSP-2373_email_open_2021-11-24_2021-11-28 > OSP-2373_email_clk_2021-11-24_2021-11-28 > OSP-2373_rw_app_imp_2021-11-24_2021-11-28,73273.047686505,116.0,105.0,161,161,False
39,OSP-2373_rw_app_imp_2021-11-24_2021-11-28 > OSP-2373_rw_app_clk_2021-11-24_2021-11-28 > OSP-2373_rw_app_imp_2021-11-24_2021-11-28 > OSP-2373_email_open_2021-11-24_2021-11-28 > OSP-2373_email_clk_2021-11-24_2021-11-28 > OSP-2373_rw_app_imp_2021-11-24_2021-11-28,14380.537804028,81.0,71.0,110,110,False
40,_AlwaysOn_wow_web_view_2021-11-17_2021-11-23 > OSP-2373_email_open_2021-11-24_2021-11-28 > OSP-2373_rw_app_imp_2021-11-24_2021-11-28 > OSP-2373_rw_app_clk_2021-11-24_2021-11-28,55132.026378292,86.0,53.0,128,128,False
41,OSP-2373_rw_app_imp_2021-11-17_2021-11-23 > OSP-2373_rw_app_imp_2021-11-24_2021-11-28 > OSP-2373_rw_app_clk_2021-11-24_2021-11-28 > OSP-2373_rw_app_imp_2021-11-24_2021-11-28 > OSP-2373_email_open_2021-11-24_2021-11-28 > OSP-2373_email_clk_2021-11-24_2021-11-28 > OSP-2373_rw_app_imp_2021-11-24_2021-11-28,63312.663558565,192.0,193.0,255,255,False
42,OSP-2373_email_open_2021-11-24_2021-11-28 > OSP-2373_email_clk_2021-11-24_2021-11-28 > OSP-2373_email_open_2021-11-24_2021-11-28 > _AlwaysOn_wow_web_view_2021-11-24_2021-11-28,-21918.661083454,158.0,208.0,348,348,False
43,_AlwaysOn_wow_web_view_2021-11-17_2021-11-23 > OSP-2373_email_open_2021-11-24_2021-11-28 > OSP-2373_email_clk_2021-11-24_2021-11-28,1768963.10148,2182.0,1074.0,3150,3150,False
44,FB_Impression_MobileFeed > OSP-2373_rw_app_imp_2021-11-24_2021-11-28 > OSP-2373_rw_app_clk_2021-11-24_2021-11-28 > OSP-2373_rw_app_imp_2021-11-24_2021-11-28,21812.426077482,131.0,114.0,189,189,False
45,OSP-2373_email_open_2021-11-24_2021-11-28 > OSP-2373_email_clk_2021-11-24_2021-11-28 > OSP-2373_email_open_2021-11-24_2021-11-28,6331838.785076,15470.0,12918.0,22414,22414,False
46,OSP-2373_rw_app_imp_2021-11-17_2021-11-23 > OSP-2373_email_open_2021-11-24_2021-11-28 > OSP-2373_rw_app_imp_2021-11-24_2021-11-28,150271.02114155,807.0,760.0,1289,1289,False
47,_AlwaysOn_wow_web_view_2021-11-17_2021-11-23 > OSP-2373_rw_app_imp_2021-11-24_2021-11-28,88541.058719222,154.0,86.0,234,234,False
48,OSP-2373_rw_app_imp_2021-11-24_2021-11-28 > OSP-2373_rw_app_clk_2021-11-24_2021-11-28 > _AlwaysOn_wow_web_view_2021-11-24_2021-11-28,-18103.986331703,138.0,198.0,325,325,False
49,OSP-2373_email_open_2021-11-24_2021-11-28 > OSP-2373_email_clk_2021-11-24_2021-11-28 > OSP-2373_email_open_2021-11-24_2021-11-28 > OSP-2373_email_clk_2021-11-24_2021-11-28 > FB_Impression_MobileFeed,29784.438859358,112.0,99.0,150,150,False
50,OSP-2373_rw_app_imp_2021-11-17_2021-11-23 > OSP-2373_rw_app_imp_2021-11-24_2021-11-28 > OSP-2373_rw_app_clk_2021-11-24_2021-11-28 > OSP-2373_rw_app_imp_2021-11-24_2021-11-28 > FB_Impression_MobileFeed > OSP-2373_rw_app_imp_2021-11-24_2021-11-28 > FB_Impression_MobileFeed,43458.706005315,114.0,84.0,142,142,False
51,OSP-2373_email_open_2021-11-24_2021-11-28 > OSP-2373_rw_app_imp_2021-11-24_2021-11-28 > OSP-2373_rw_app_clk_2021-11-24_2021-11-28 > OSP-2373_rw_app_imp_2021-11-24_2021-11-28,842306.11719368,2720.0,2270.0,3928,3928,False
52,OSP-2373_email_open_2021-11-24_2021-11-28 > OSP-2373_email_clk_2021-11-24_2021-11-28 > _AlwaysOn_wow_web_view_2021-11-24_2021-11-28,-110473.40376577,532.0,691.0,1186,1186,False
53,FB_Impression_MobileFeed > OSP-2373_email_open_2021-11-24_2021-11-28,28644.830163972,106.0,112.0,195,195,False
54,OSP-2373_rw_app_imp_2021-11-17_2021-11-23 > OSP-2373_rw_app_imp_2021-11-24_2021-11-28 > OSP-2373_rw_app_clk_2021-11-24_2021-11-28 > OSP-2373_rw_app_imp_2021-11-24_2021-11-28 > _AlwaysOn_wow_web_view_2021-11-24_2021-11-28,-42158.337522088,75.0,122.0,186,186,False
55,OSP-2373_rw_app_imp_2021-11-17_2021-11-23 > OSP-2373_email_open_2021-11-24_2021-11-28 > OSP-2373_rw_app_imp_2021-11-24_2021-11-28 > OSP-2373_rw_app_clk_2021-11-24_2021-11-28,258650.85221935,712.0,598.0,1082,1082,False
56,OSP-2373_rw_app_imp_2021-11-17_2021-11-23 > _AlwaysOn_wow_web_view_2021-11-24_2021-11-28,3752.4331290417,49.0,79.0,125,125,False
57,OSP-2373_rw_app_imp_2021-11-17_2021-11-23,591282.65156943,2406.0,2611.0,4637,4637,False
58,OSP-2373_rw_app_imp_2021-11-17_2021-11-23 > OSP-2373_rw_app_clk_2021-11-17_2021-11-23 > OSP-2373_rw_app_imp_2021-11-17_2021-11-23 > OSP-2373_rw_app_imp_2021-11-24_2021-11-28 > OSP-2373_rw_app_clk_2021-11-24_2021-11-28,191367.12870094,309.0,252.0,476,476,False
59,_AlwaysOn_wow_web_view_2021-11-17_2021-11-23 > _AlwaysOn_wow_web_view_2021-11-24_2021-11-28,244430.22447398,173.0,69.0,233,233,False
60,_AlwaysOn_wow_web_view_2021-11-17_2021-11-23 > OSP-2373_email_open_2021-11-24_2021-11-28 > OSP-2373_email_clk_2021-11-24_2021-11-28 > OSP-2373_email_open_2021-11-24_2021-11-28 > OSP-2373_email_clk_2021-11-24_2021-11-28,139590.47948308,200.0,101.0,267,267,False
61,OSP-2373_rw_app_imp_2021-11-17_2021-11-23 > OSP-2373_rw_app_imp_2021-11-24_2021-11-28 > OSP-2373_email_open_2021-11-24_2021-11-28 > OSP-2373_rw_app_imp_2021-11-24_2021-11-28 > OSP-2373_rw_app_clk_2021-11-24_2021-11-28 > OSP-2373_rw_app_imp_2021-11-24_2021-11-28,39508.53412997,140.0,113.0,179,179,False
62,_AlwaysOn_wow_web_view_2021-11-17_2021-11-23 > _AlwaysOn_wow_web_clk_2021-11-17_2021-11-23 > _AlwaysOn_wow_web_view_2021-11-17_2021-11-23 > OSP-2373_email_open_2021-11-24_2021-11-28 > OSP-2373_email_clk_2021-11-24_2021-11-28,87083.842591926,96.0,44.0,136,136,False
63,OSP-2373_rw_app_imp_2021-11-24_2021-11-28 > OSP-2373_email_open_2021-11-24_2021-11-28 > OSP-2373_email_clk_2021-11-24_2021-11-28,113737.41195368,279.0,237.0,424,424,False
64,OSP-2373_rw_app_imp_2021-11-17_2021-11-23 > OSP-2373_rw_app_imp_2021-11-24_2021-11-28 > OSP-2373_rw_app_clk_2021-11-24_2021-11-28 > OSP-2373_rw_app_imp_2021-11-24_2021-11-28,5348496.253275,16526.0,14376.0,22973,22973,False
65,OSP-2373_email_open_2021-11-24_2021-11-28 > _AlwaysOn_wow_web_view_2021-11-24_2021-11-28,96048.219386093,566.0,680.0,1188,1188,False
66,OSP-2373_rw_app_imp_2021-11-17_2021-11-23 > OSP-2373_rw_app_imp_2021-11-24_2021-11-28 > OSP-2373_rw_app_clk_2021-11-24_2021-11-28 > OSP-2373_rw_app_imp_2021-11-24_2021-11-28 > OSP-2373_rw_app_clk_2021-11-24_2021-11-28,123390.19144882,251.0,208.0,335,335,False
67,OSP-2373_email_open_2021-11-24_2021-11-28 > OSP-2373_email_clk_2021-11-24_2021-11-28,17147224.662556,44234.0,37986.0,65170,65170,False
68,OSP-2373_email_open_2021-11-24_2021-11-28 > OSP-2373_email_clk_2021-11-24_2021-11-28 > FB_Impression_MobileFeed > FB_Click_MobileFeed > FB_Impression_MobileFeed,32747.472758647,71.0,66.0,112,112,False
69,OSP-2373_rw_app_imp_2021-11-17_2021-11-23 > OSP-2373_rw_app_clk_2021-11-17_2021-11-23 > OSP-2373_email_open_2021-11-24_2021-11-28,132453.09218001,254.0,219.0,449,449,False
70,OSP-2373_email_open_2021-11-24_2021-11-28 > OSP-2373_email_clk_2021-11-24_2021-11-28 > OSP-2373_email_open_2021-11-24_2021-11-28 > OSP-2373_email_clk_2021-11-24_2021-11-28 > OSP-2373_email_open_2021-11-24_2021-11-28 > OSP-2373_email_clk_2021-11-24_2021-11-28 > OSP-2373_email_open_2021-11-24_2021-11-28,108052.84044036,265.0,209.0,338,338,False
71,FB_Impression_MobileFeed > FB_Click_MobileFeed,55610.063363572,70.0,59.0,115,115,False
72,OSP-2373_email_open_2021-11-17_2021-11-23 > OSP-2373_email_open_2021-11-24_2021-11-28 > OSP-2373_email_clk_2021-11-24_2021-11-28 > OSP-2373_email_open_2021-11-24_2021-11-28,284079.03377704,929.0,795.0,1349,1349,False
73,OSP-2373_rw_app_imp_2021-11-17_2021-11-23 > OSP-2373_email_open_2021-11-24_2021-11-28 > OSP-2373_email_clk_2021-11-24_2021-11-28 > OSP-2373_rw_app_imp_2021-11-24_2021-11-28,640319.00197355,2288.0,1996.0,3203,3203,False
74,OSP-2373_rw_app_imp_2021-11-17_2021-11-23 > OSP-2373_rw_app_imp_2021-11-24_2021-11-28 > OSP-2373_email_open_2021-11-24_2021-11-28 > OSP-2373_rw_app_imp_2021-11-24_2021-11-28,34438.057953796,126.0,123.0,204,204,False
75,OSP-2373_rw_app_imp_2021-11-17_2021-11-23 > OSP-2373_rw_app_clk_2021-11-17_2021-11-23 > OSP-2373_rw_app_imp_2021-11-17_2021-11-23 > OSP-2373_rw_app_imp_2021-11-24_2021-11-28 > OSP-2373_rw_app_clk_2021-11-24_2021-11-28 > OSP-2373_rw_app_imp_2021-11-24_2021-11-28,283833.11274388,477.0,343.0,663,663,False
76,OSP-2373_rw_app_imp_2021-11-17_2021-11-23 > OSP-2373_email_open_2021-11-24_2021-11-28 > OSP-2373_email_clk_2021-11-24_2021-11-28 > OSP-2373_rw_app_imp_2021-11-24_2021-11-28 > OSP-2373_email_open_2021-11-24_2021-11-28 > OSP-2373_rw_app_imp_2021-11-24_2021-11-28,59160.402535915,180.0,152.0,232,232,False
77,OSP-2373_rw_app_imp_2021-11-17_2021-11-23 > OSP-2373_rw_app_clk_2021-11-17_2021-11-23 > OSP-2373_email_open_2021-11-24_2021-11-28 > OSP-2373_rw_app_imp_2021-11-24_2021-11-28 > OSP-2373_rw_app_clk_2021-11-24_2021-11-28 > OSP-2373_rw_app_imp_2021-11-24_2021-11-28,70415.941909571,90.0,53.0,128,128,False
78,OSP-2373_rw_app_imp_2021-11-24_2021-11-28 > OSP-2373_email_open_2021-11-24_2021-11-28 > OSP-2373_email_clk_2021-11-24_2021-11-28 > OSP-2373_rw_app_imp_2021-11-24_2021-11-28,19481.968789695,113.0,94.0,162,162,False
79,OSP-2373_rw_app_imp_2021-11-24_2021-11-28 > OSP-2373_email_open_2021-11-24_2021-11-28,-15172.576416759,231.0,218.0,395,395,False
80,OSP-2373_rw_app_imp_2021-11-17_2021-11-23 > OSP-2373_rw_app_imp_2021-11-24_2021-11-28 > OSP-2373_rw_app_clk_2021-11-24_2021-11-28 > OSP-2373_email_open_2021-11-24_2021-11-28 > OSP-2373_rw_app_imp_2021-11-24_2021-11-28,208369.68443734,1228.0,1124.0,1662,1662,False
81,OSP-2373_rw_app_imp_2021-11-24_2021-11-28 > OSP-2373_email_open_2021-11-24_2021-11-28 > OSP-2373_rw_app_imp_2021-11-24_2021-11-28 > OSP-2373_rw_app_clk_2021-11-24_2021-11-28 > OSP-2373_rw_app_imp_2021-11-24_2021-11-28,19858.671687352,87.0,59.0,117,117,False
82,OSP-2373_email_open_2021-11-17_2021-11-23 > OSP-2373_email_clk_2021-11-17_2021-11-23 > OSP-2373_email_open_2021-11-24_2021-11-28 > OSP-2373_email_clk_2021-11-24_2021-11-28,55355.202374933,141.0,106.0,201,201,False
83,OSP-2373_email_open_2021-11-24_2021-11-28 > OSP-2373_email_clk_2021-11-24_2021-11-28 > OSP-2373_rw_app_imp_2021-11-24_2021-11-28 > OSP-2373_rw_app_clk_2021-11-24_2021-11-28 > OSP-2373_email_open_2021-11-24_2021-11-28,36805.577286885,181.0,155.0,266,266,False
84,OSP-2373_rw_app_imp_2021-11-24_2021-11-28 > OSP-2373_email_open_2021-11-24_2021-11-28 > OSP-2373_rw_app_imp_2021-11-24_2021-11-28 > OSP-2373_rw_app_clk_2021-11-24_2021-11-28,57729.239478187,82.0,63.0,118,118,False
85,OSP-2373_rw_app_imp_2021-11-17_2021-11-23 > OSP-2373_rw_app_clk_2021-11-17_2021-11-23 > OSP-2373_rw_app_imp_2021-11-24_2021-11-28 > OSP-2373_rw_app_clk_2021-11-24_2021-11-28,859535.30864204,1070.0,666.0,1534,1534,False
86,OSP-2373_email_open_2021-11-17_2021-11-23,174487.64484207,398.0,433.0,741,741,False
87,OSP-2373_email_open_2021-11-24_2021-11-28 > OSP-2373_email_clk_2021-11-24_2021-11-28 > OSP-2373_email_open_2021-11-24_2021-11-28 > OSP-2373_email_clk_2021-11-24_2021-11-28 > OSP-2373_rw_app_imp_2021-11-24_2021-11-28,108395.92735185,245.0,184.0,301,301,False
88,OSP-2373_rw_app_imp_2021-11-24_2021-11-28,2466819.7642545,6525.0,6423.0,11534,11534,False
89,OSP-2373_email_open_2021-11-24_2021-11-28 > OSP-2373_email_clk_2021-11-24_2021-11-28 > OSP-2373_rw_app_imp_2021-11-24_2021-11-28 > _AlwaysOn_wow_web_view_2021-11-24_2021-11-28,2664.1660163542,47.0,66.0,112,112,False
90,OSP-2373_email_open_2021-11-24_2021-11-28 > OSP-2373_email_clk_2021-11-24_2021-11-28 > OSP-2373_rw_app_imp_2021-11-24_2021-11-28,1250865.8075077,4387.0,3756.0,6186,6186,False
91,OSP-2373_email_open_2021-11-24_2021-11-28 > OSP-2373_email_clk_2021-11-24_2021-11-28 > OSP-2373_email_open_2021-11-24_2021-11-28 > FB_Impression_MobileFeed,181061.18978816,443.0,375.0,663,663,False
92,OSP-2373_rw_app_imp_2021-11-17_2021-11-23 > OSP-2373_rw_app_imp_2021-11-24_2021-11-28 > OSP-2373_rw_app_clk_2021-11-24_2021-11-28,1521036.3185253,4149.0,3747.0,6610,6610,False
93,_AlwaysOn_wow_web_view_2021-11-17_2021-11-23 > OSP-2373_rw_app_imp_2021-11-24_2021-11-28 > OSP-2373_rw_app_clk_2021-11-24_2021-11-28,435949.11766003,407.0,200.0,575,575,False
94,_AlwaysOn_wow_web_view_2021-11-24_2021-11-28 > OSP-2373_email_open_2021-11-24_2021-11-28 > OSP-2373_email_clk_2021-11-24_2021-11-28,92814.934292786,122.0,75.0,140,140,False
95,OSP-2373_rw_app_imp_2021-11-17_2021-11-23 > _AlwaysOn_wow_web_view_2021-11-17_2021-11-23 > OSP-2373_rw_app_imp_2021-11-24_2021-11-28 > OSP-2373_rw_app_clk_2021-11-24_2021-11-28 > OSP-2373_rw_app_imp_2021-11-24_2021-11-28,59843.72056678,112.0,68.0,172,172,False
96,_AlwaysOn_wow_web_view_2021-11-17_2021-11-23,2091104.6591132,1577.0,755.0,2256,2256,False
97,OSP-2373_email_open_2021-11-24_2021-11-28 > OSP-2373_email_clk_2021-11-24_2021-11-28 > OSP-2373_rw_app_imp_2021-11-24_2021-11-28 > OSP-2373_rw_app_clk_2021-11-24_2021-11-28,310958.02683257,762.0,613.0,1048,1048,False
98,OSP-2373_rw_app_imp_2021-11-17_2021-11-23 > OSP-2373_rw_app_imp_2021-11-24_2021-11-28 > OSP-2373_rw_app_clk_2021-11-24_2021-11-28 > OSP-2373_rw_app_imp_2021-11-24_2021-11-28 > OSP-2373_email_open_2021-11-24_2021-11-28,12025.288992415,125.0,100.0,178,178,False
99,FB_Impression_MobileFeed > OSP-2373_email_open_2021-11-24_2021-11-28 > OSP-2373_email_clk_2021-11-24_2021-11-28,105293.3493015,232.0,203.0,357,357,False
100,OSP-2373_email_open_2021-11-24_2021-11-28 > OSP-2373_email_clk_2021-11-24_2021-11-28 > FB_Impression_MobileFeed,623586.79631247,1378.0,1149.0,2041,2041,False
101,OSP-2373_email_open_2021-11-24_2021-11-28 > OSP-2373_rw_app_imp_2021-11-24_2021-11-28 > OSP-2373_rw_app_clk_2021-11-24_2021-11-28 > OSP-2373_rw_app_imp_2021-11-24_2021-11-28 > OSP-2373_email_open_2021-11-24_2021-11-28,5297.9669958359,83.0,58.0,116,116,False
102,FB_Impression_Instagram,-7077.964027338,57.0,67.0,110,110,False
103,OSP-2373_rw_app_imp_2021-11-17_2021-11-23 > OSP-2373_email_open_2021-11-24_2021-11-28 > OSP-2373_email_clk_2021-11-24_2021-11-28 > OSP-2373_rw_app_imp_2021-11-24_2021-11-28 > OSP-2373_rw_app_clk_2021-11-24_2021-11-28,14924.552834242,89.0,94.0,143,143,False
104,FB_Impression_MobileFeed,606259.27383915,1399.0,1421.0,2552,2552,False
106,OSP-2373_rw_app_imp_2021-11-17_2021-11-23 > OSP-2373_rw_app_imp_2021-11-24_2021-11-28 > OSP-2373_rw_app_clk_2021-11-24_2021-11-28 > FB_Impression_MobileFeed,10656.327994072,103.0,101.0,166,166,False
107,_AlwaysOn_wow_web_view_2021-11-17_2021-11-23 > OSP-2373_email_open_2021-11-24_2021-11-28 > OSP-2373_email_clk_2021-11-24_2021-11-28 > FB_Impression_MobileFeed,38980.731139227,72.0,40.0,111,111,False
108,OSP-2373_rw_app_imp_2021-11-24_2021-11-28 > OSP-2373_rw_app_clk_2021-11-24_2021-11-28 > OSP-2373_rw_app_imp_2021-11-24_2021-11-28 > FB_Impression_MobileFeed,94932.424197933,295.0,257.0,433,433,False
109,_AlwaysOn_wow_web_view_2021-11-24_2021-11-28 > _AlwaysOn_wow_web_clk_2021-11-24_2021-11-28 > _AlwaysOn_wow_web_view_2021-11-24_2021-11-28,96707.354572553,199.0,173.0,342,342,False
110,OSP-2373_rw_app_imp_2021-11-17_2021-11-23 > OSP-2373_email_open_2021-11-24_2021-11-28 > OSP-2373_email_clk_2021-11-24_2021-11-28 > OSP-2373_rw_app_imp_2021-11-24_2021-11-28 > OSP-2373_email_open_2021-11-24_2021-11-28,30219.68060051,85.0,52.0,108,108,False
111,OSP-2373_email_open_2021-11-24_2021-11-28 > FB_Impression_WebFeed,53848.660552538,281.0,290.0,469,469,False
112,OSP-2373_rw_app_imp_2021-11-17_2021-11-23 > OSP-2373_email_open_2021-11-24_2021-11-28 > OSP-2373_rw_app_imp_2021-11-24_2021-11-28 > OSP-2373_rw_app_clk_2021-11-24_2021-11-28 > OSP-2373_rw_app_imp_2021-11-24_2021-11-28 > OSP-2373_email_open_2021-11-24_2021-11-28 > OSP-2373_rw_app_imp_2021-11-24_2021-11-28,15640.105637599,115.0,96.0,150,150,False
113,OSP-2373_rw_app_imp_2021-11-17_2021-11-23 > OSP-2373_email_open_2021-11-24_2021-11-28 > OSP-2373_email_clk_2021-11-24_2021-11-28 > OSP-2373_rw_app_imp_2021-11-24_2021-11-28 > OSP-2373_rw_app_clk_2021-11-24_2021-11-28 > OSP-2373_rw_app_imp_2021-11-24_2021-11-28,75427.495873516,294.0,246.0,391,391,False
114,OSP-2373_rw_app_imp_2021-11-17_2021-11-23 > OSP-2373_email_open_2021-11-24_2021-11-28 > OSP-2373_email_clk_2021-11-24_2021-11-28 > OSP-2373_email_open_2021-11-24_2021-11-28 > OSP-2373_email_clk_2021-11-24_2021-11-28,14364.713438996,95.0,74.0,126,126,False
115,OSP-2373_rw_app_imp_2021-11-17_2021-11-23 > OSP-2373_rw_app_imp_2021-11-24_2021-11-28 > OSP-2373_rw_app_clk_2021-11-24_2021-11-28 > OSP-2373_rw_app_imp_2021-11-24_2021-11-28 > FB_Impression_MobileFeed > OSP-2373_rw_app_imp_2021-11-24_2021-11-28,14144.851595287,86.0,85.0,126,126,False
116,OSP-2373_rw_app_imp_2021-11-24_2021-11-28 > OSP-2373_rw_app_clk_2021-11-24_2021-11-28 > FB_Impression_MobileFeed,232263.81046311,393.0,342.0,618,618,False
117,FB_Impression_WebFeed,107834.27139142,308.0,318.0,561,561,False
118,OSP-2373_email_open_2021-11-24_2021-11-28 > OSP-2373_email_clk_2021-11-24_2021-11-28 > OSP-2373_rw_app_imp_2021-11-24_2021-11-28 > FB_Impression_MobileFeed,27406.501992688,112.0,93.0,166,166,False
119,OSP-2373_rw_app_imp_2021-11-17_2021-11-23 > OSP-2373_rw_app_imp_2021-11-24_2021-11-28 > OSP-2373_rw_app_clk_2021-11-24_2021-11-28 > OSP-2373_rw_app_imp_2021-11-24_2021-11-28 > OSP-2373_rw_app_clk_2021-11-24_2021-11-28 > OSP-2373_rw_app_imp_2021-11-24_2021-11-28,267848.58253794,731.0,600.0,893,893,False
120,OSP-2373_rw_app_imp_2021-11-17_2021-11-23 > OSP-2373_rw_app_imp_2021-11-24_2021-11-28 > OSP-2373_rw_app_clk_2021-11-24_2021-11-28 > OSP-2373_rw_app_imp_2021-11-24_2021-11-28 > OSP-2373_email_open_2021-11-24_2021-11-28 > OSP-2373_rw_app_imp_2021-11-24_2021-11-28,241468.15422411,822.0,685.0,1020,1020,False
121,OSP-2373_rw_app_imp_2021-11-24_2021-11-28 > _AlwaysOn_wow_web_view_2021-11-24_2021-11-28,26602.876129074,105.0,104.0,202,202,False
122,OSP-2373_rw_app_imp_2021-11-24_2021-11-28 > FB_Impression_MobileFeed,56066.280550159,108.0,91.0,179,179,False
123,OSP-2373_email_open_2021-11-24_2021-11-28 > OSP-2373_email_clk_2021-11-24_2021-11-28 > OSP-2373_email_open_2021-11-24_2021-11-28 > FB_Impression_WebFeed,18564.93947974,103.0,87.0,145,145,False
124,OSP-2373_rw_app_imp_2021-11-17_2021-11-23 > OSP-2373_rw_app_imp_2021-11-24_2021-11-28 > OSP-2373_rw_app_clk_2021-11-24_2021-11-28 > OSP-2373_email_open_2021-11-24_2021-11-28,77577.484251905,250.0,190.0,346,346,False
125,OSP-2373_rw_app_imp_2021-11-17_2021-11-23 > OSP-2373_rw_app_imp_2021-11-24_2021-11-28 > OSP-2373_rw_app_clk_2021-11-24_2021-11-28 > OSP-2373_email_open_2021-11-24_2021-11-28 > OSP-2373_email_clk_2021-11-24_2021-11-28 > OSP-2373_rw_app_imp_2021-11-24_2021-11-28,24732.786113681,313.0,290.0,415,415,False
126,_AlwaysOn_wow_web_view_2021-11-24_2021-11-28 > OSP-2373_rw_app_imp_2021-11-24_2021-11-28 > OSP-2373_rw_app_clk_2021-11-24_2021-11-28 > OSP-2373_rw_app_imp_2021-11-24_2021-11-28,70943.172490858,155.0,105.0,184,184,False
127,OSP-2373_rw_app_imp_2021-11-17_2021-11-23 > FB_Impression_MobileFeed,-12401.76228449,47.0,69.0,110,110,False
128,OSP-2373_rw_app_imp_2021-11-24_2021-11-28 > OSP-2373_rw_app_clk_2021-11-24_2021-11-28 > OSP-2373_email_open_2021-11-24_2021-11-28 > OSP-2373_rw_app_imp_2021-11-24_2021-11-28,221741.09066174,882.0,760.0,1224,1224,False
129,OSP-2373_email_open_2021-11-24_2021-11-28 > OSP-2373_rw_app_imp_2021-11-24_2021-11-28,599855.0398563,2220.0,2121.0,3768,3768,False
130,OSP-2373_email_open_2021-11-24_2021-11-28 > OSP-2373_email_clk_2021-11-24_2021-11-28 > OSP-2373_rw_app_imp_2021-11-24_2021-11-28 > OSP-2373_email_open_2021-11-24_2021-11-28 > OSP-2373_rw_app_imp_2021-11-24_2021-11-28,28912.854803266,131.0,103.0,166,166,False
131,OSP-2373_rw_app_imp_2021-11-24_2021-11-28 > OSP-2373_rw_app_clk_2021-11-24_2021-11-28 > OSP-2373_email_open_2021-11-24_2021-11-28,317453.22566408,926.0,855.0,1415,1415,False
132,OSP-2373_rw_app_imp_2021-11-24_2021-11-28 > OSP-2373_rw_app_clk_2021-11-24_2021-11-28 > OSP-2373_rw_app_imp_2021-11-24_2021-11-28 > OSP-2373_email_open_2021-11-24_2021-11-28,148915.53390599,284.0,243.0,409,409,False
133,_AlwaysOn_wow_web_view_2021-11-17_2021-11-23 > OSP-2373_email_open_2021-11-24_2021-11-28 > OSP-2373_email_clk_2021-11-24_2021-11-28 > OSP-2373_email_open_2021-11-24_2021-11-28,672949.21509783,888.0,432.0,1276,1276,False
134,FB_Impression_MobileFeed > FB_Click_MobileFeed > FB_Impression_MobileFeed,97326.74681888,97.0,69.0,147,147,False
135,OSP-2373_rw_app_imp_2021-11-17_2021-11-23 > OSP-2373_rw_app_imp_2021-11-24_2021-11-28 > OSP-2373_rw_app_clk_2021-11-24_2021-11-28 > OSP-2373_email_open_2021-11-24_2021-11-28 > OSP-2373_rw_app_imp_2021-11-24_2021-11-28 > OSP-2373_email_open_2021-11-24_2021-11-28 > OSP-2373_rw_app_imp_2021-11-24_2021-11-28,28575.010390275,121.0,89.0,141,141,False
136,OSP-2373_rw_app_imp_2021-11-17_2021-11-23 > OSP-2373_rw_app_clk_2021-11-17_2021-11-23 > OSP-2373_rw_app_imp_2021-11-17_2021-11-23,228071.59976314,401.0,315.0,682,682,False
137,_AlwaysOn_wow_web_view_2021-11-17_2021-11-23 > OSP-2373_email_open_2021-11-24_2021-11-28,678577.50479014,850.0,439.0,1240,1240,False
138,FB_Impression_MobileFeed > OSP-2373_email_open_2021-11-24_2021-11-28 > OSP-2373_email_clk_2021-11-24_2021-11-28 > OSP-2373_email_open_2021-11-24_2021-11-28,28266.542460117,101.0,78.0,140,140,False
139,_AlwaysOn_wow_web_view_2021-11-17_2021-11-23 > OSP-2373_email_open_2021-11-24_2021-11-28 > OSP-2373_email_clk_2021-11-24_2021-11-28 > OSP-2373_rw_app_imp_2021-11-24_2021-11-28,103793.62671291,212.0,119.0,320,320,False
140,OSP-2373_rw_app_imp_2021-11-17_2021-11-23 > OSP-2373_rw_app_imp_2021-11-24_2021-11-28 > OSP-2373_rw_app_clk_2021-11-24_2021-11-28 > OSP-2373_rw_app_imp_2021-11-24_2021-11-28 > FB_Impression_MobileFeed,78626.958966535,268.0,250.0,372,372,False
141,_AlwaysOn_wow_web_view_2021-11-17_2021-11-23 > OSP-2373_email_open_2021-11-24_2021-11-28 > OSP-2373_rw_app_imp_2021-11-24_2021-11-28 > OSP-2373_rw_app_clk_2021-11-24_2021-11-28 > OSP-2373_rw_app_imp_2021-11-24_2021-11-28,46738.599790751,76.0,30.0,102,102,False
142,OSP-2373_rw_app_imp_2021-11-17_2021-11-23 > OSP-2373_rw_app_clk_2021-11-17_2021-11-23 > OSP-2373_email_open_2021-11-24_2021-11-28 > OSP-2373_email_clk_2021-11-24_2021-11-28,65221.033019753,184.0,138.0,286,286,False
143,FB_Impression_MobileFeed > OSP-2373_rw_app_imp_2021-11-24_2021-11-28 > OSP-2373_rw_app_clk_2021-11-24_2021-11-28,78277.67157494,136.0,116.0,215,215,False
144,_AlwaysOn_wow_web_view_2021-11-17_2021-11-23 > OSP-2373_rw_app_imp_2021-11-17_2021-11-23 > OSP-2373_rw_app_imp_2021-11-24_2021-11-28 > OSP-2373_rw_app_clk_2021-11-24_2021-11-28 > OSP-2373_rw_app_imp_2021-11-24_2021-11-28,50701.027797944,91.0,43.0,128,128,False
145,_AlwaysOn_wow_web_view_2021-11-24_2021-11-28 > OSP-2373_rw_app_imp_2021-11-24_2021-11-28 > OSP-2373_rw_app_clk_2021-11-24_2021-11-28,244195.286897,247.0,148.0,295,295,False
146,OSP-2373_rw_app_imp_2021-11-17_2021-11-23 > OSP-2373_email_open_2021-11-24_2021-11-28 > OSP-2373_email_clk_2021-11-24_2021-11-28 > OSP-2373_email_open_2021-11-24_2021-11-28 > OSP-2373_email_clk_2021-11-24_2021-11-28 > OSP-2373_rw_app_imp_2021-11-24_2021-11-28,7043.9422870742,122.0,101.0,156,156,False
147,OSP-2373_rw_app_imp_2021-11-24_2021-11-28 > OSP-2373_rw_app_clk_2021-11-24_2021-11-28 > OSP-2373_rw_app_imp_2021-11-24_2021-11-28 > OSP-2373_rw_app_clk_2021-11-24_2021-11-28,308085.95793635,510.0,373.0,707,707,False
148,OSP-2373_rw_app_imp_2021-11-24_2021-11-28 > OSP-2373_rw_app_clk_2021-11-24_2021-11-28 > OSP-2373_rw_app_imp_2021-11-24_2021-11-28,8793134.464108,19182.0,15020.0,26909,26909,False
149,OSP-2373_email_open_2021-11-17_2021-11-23 > OSP-2373_email_open_2021-11-24_2021-11-28 > OSP-2373_email_clk_2021-11-24_2021-11-28,191390.65266871,633.0,554.0,962,962,False
150,OSP-2373_rw_app_imp_2021-11-17_2021-11-23 > OSP-2373_rw_app_imp_2021-11-24_2021-11-28,958167.47203011,2887.0,2735.0,4773,4773,False
151,OSP-2373_email_open_2021-11-17_2021-11-23 > OSP-2373_email_clk_2021-11-17_2021-11-23,13660.244066963,80.0,74.0,141,141,False
152,OSP-2373_email_open_2021-11-24_2021-11-28 > OSP-2373_rw_app_imp_2021-11-24_2021-11-28 > OSP-2373_rw_app_clk_2021-11-24_2021-11-28 > OSP-2373_email_open_2021-11-24_2021-11-28 > OSP-2373_rw_app_imp_2021-11-24_2021-11-28,79681.790539493,190.0,154.0,255,255,False
153,OSP-2373_email_open_2021-11-24_2021-11-28 > OSP-2373_rw_app_imp_2021-11-24_2021-11-28 > OSP-2373_rw_app_clk_2021-11-24_2021-11-28 > OSP-2373_email_open_2021-11-24_2021-11-28,127925.91629329,289.0,231.0,412,412,False
154,OSP-2373_email_open_2021-11-24_2021-11-28 > OSP-2373_email_clk_2021-11-24_2021-11-28 > OSP-2373_email_open_2021-11-24_2021-11-28 > OSP-2373_email_clk_2021-11-24_2021-11-28 > OSP-2373_email_open_2021-11-24_2021-11-28 > OSP-2373_email_clk_2021-11-24_2021-11-28,161877.40948109,364.0,294.0,462,462,False
155,OSP-2373_rw_app_imp_2021-11-17_2021-11-23 > OSP-2373_rw_app_clk_2021-11-17_2021-11-23 > OSP-2373_email_open_2021-11-24_2021-11-28 > OSP-2373_rw_app_imp_2021-11-24_2021-11-28 > OSP-2373_rw_app_clk_2021-11-24_2021-11-28,138896.05307486,134.0,89.0,203,203,False
156,OSP-2373_email_open_2021-11-24_2021-11-28 > OSP-2373_email_clk_2021-11-24_2021-11-28 > FB_Impression_WebFeed,165308.86472939,432.0,373.0,630,630,False
157,OSP-2373_email_open_2021-11-24_2021-11-28 > OSP-2373_email_clk_2021-11-24_2021-11-28 > OSP-2373_email_open_2021-11-24_2021-11-28 > OSP-2373_email_clk_2021-11-24_2021-11-28 > _AlwaysOn_wow_web_view_2021-11-24_2021-11-28,15073.887846918,65.0,73.0,121,121,False
158,OSP-2373_email_open_2021-11-17_2021-11-23 > OSP-2373_email_open_2021-11-24_2021-11-28 > OSP-2373_email_clk_2021-11-24_2021-11-28 > OSP-2373_email_open_2021-11-24_2021-11-28 > OSP-2373_email_clk_2021-11-24_2021-11-28,41070.355546464,132.0,82.0,157,157,False
159,OSP-2373_rw_app_imp_2021-11-17_2021-11-23 > OSP-2373_rw_app_clk_2021-11-17_2021-11-23 > OSP-2373_email_open_2021-11-24_2021-11-28 > OSP-2373_rw_app_imp_2021-11-24_2021-11-28,49391.945277201,84.0,52.0,128,128,False
160,OSP-2373_rw_app_imp_2021-11-24_2021-11-28 > OSP-2373_rw_app_clk_2021-11-24_2021-11-28 > OSP-2373_email_open_2021-11-24_2021-11-28 > OSP-2373_email_clk_2021-11-24_2021-11-28 > OSP-2373_email_open_2021-11-24_2021-11-28,18529.067934201,74.0,76.0,113,113,False
161,FB_Impression_MobileFeed > OSP-2373_rw_app_imp_2021-11-17_2021-11-23 > OSP-2373_rw_app_imp_2021-11-24_2021-11-28 > OSP-2373_rw_app_clk_2021-11-24_2021-11-28 > OSP-2373_rw_app_imp_2021-11-24_2021-11-28,36674.264227536,103.0,75.0,129,129,False
162,OSP-2373_rw_app_imp_2021-11-17_2021-11-23 > OSP-2373_rw_app_clk_2021-11-17_2021-11-23 > OSP-2373_rw_app_imp_2021-11-17_2021-11-23 > OSP-2373_email_open_2021-11-24_2021-11-28,62048.732130759,85.0,68.0,143,143,False
163,OSP-2373_rw_app_imp_2021-11-24_2021-11-28 > OSP-2373_email_open_2021-11-24_2021-11-28 > OSP-2373_rw_app_imp_2021-11-24_2021-11-28,32672.982920646,131.0,127.0,227,227,False
164,OSP-2373_rw_app_imp_2021-11-17_2021-11-23 > OSP-2373_email_open_2021-11-24_2021-11-28,233744.21061749,759.0,795.0,1399,1399,False
165,OSP-2373_rw_app_imp_2021-11-17_2021-11-23 > OSP-2373_email_open_2021-11-24_2021-11-28 > OSP-2373_email_clk_2021-11-24_2021-11-28 > OSP-2373_email_open_2021-11-24_2021-11-28 > OSP-2373_rw_app_imp_2021-11-24_2021-11-28,90150.020317816,480.0,448.0,675,675,False
166,OSP-2373_email_open_2021-11-24_2021-11-28 > OSP-2373_email_clk_2021-11-24_2021-11-28 > OSP-2373_email_open_2021-11-24_2021-11-28 > OSP-2373_email_clk_2021-11-24_2021-11-28 > OSP-2373_email_open_2021-11-24_2021-11-28,552201.96228728,1689.0,1413.0,2299,2299,False
167,OSP-2373_email_open_2021-11-24_2021-11-28 > OSP-2373_email_clk_2021-11-24_2021-11-28 > OSP-2373_email_open_2021-11-24_2021-11-28 > OSP-2373_email_clk_2021-11-24_2021-11-28 > OSP-2373_email_open_2021-11-24_2021-11-28 > OSP-2373_rw_app_imp_2021-11-24_2021-11-28,23842.541243162,97.0,75.0,121,121,False
