,path,total_conversion_value,conversions,non_conversions,cnt,ppl,Converted
0,_AlwaysOn_sem_shopping_clk_2021-08-04_2021-08-10 > OSP-2373_rw_app_imp_2021-08-11_2021-08-15,1198.4801792764,8.0,5.0,103,103,False
1,OSP-2373_rw_app_imp_2021-08-11_2021-08-15 > OSP-2373_rw_app_imp_2021-08-11_2021-08-15 > OSP-2373_rw_app_imp_2021-08-04_2021-08-10,95791.870037788,93.0,62.0,235,235,False
2,FB_Impression_InstagramStory > FB_Impression_MobileFeed > FB_Impression_InstagramStory > FB_Impression_MobileFeed,82763.505765,115.0,87.0,1211,1211,False
3,_AlwaysOn_wow_web_view_2021-08-11_2021-08-15 > OSP-2373_rw_app_imp_2021-08-11_2021-08-15 > OSP-2373_rw_app_imp_2021-08-04_2021-08-10,93938.439439821,112.0,53.0,304,304,False
4,FB_Impression_FacebookStory,75028.604804169,112.0,102.0,1466,1466,False
5,_AlwaysOn_wow_web_view_2021-08-11_2021-08-15 > _AlwaysOn_wow_web_view_2021-08-04_2021-08-10 > _AlwaysOn_wow_web_clk_2021-08-11_2021-08-15 > _AlwaysOn_wow_web_clk_2021-08-04_2021-08-10,101598.94359109,41.0,4.0,367,367,False
6,FB_Impression_MobileFeed > OSP-2373_rw_app_imp_2021-08-11_2021-08-15 > OSP-2373_rw_app_imp_2021-08-04_2021-08-10,1352029.9861331,2106.0,1609.0,5349,5349,False
7,FB_Impression_InstagramStory > FB_Impression_MobileFeed > FB_Impression_InstagramStory > OSP-2373_rw_app_imp_2021-08-11_2021-08-15,73767.360092581,67.0,48.0,277,277,False
8,_AlwaysOn_sem_shopping_clk_2021-08-04_2021-08-10,90598.546450525,67.0,25.0,3378,3378,False
9,FB_Impression_MobileFeed > OSP-2373_rw_app_imp_2021-08-11_2021-08-15 > OSP-2373_rw_app_imp_2021-08-04_2021-08-10 > OSP-2373_rw_app_clk_2021-08-11_2021-08-15,222452.43105028,326.0,261.0,555,555,False
10,FB_Impression_MobileFeed,6224858.2911208,9186.0,8284.0,119649,119649,False
11,OSP-2373_rw_app_imp_2021-08-04_2021-08-10 > OSP-2373_rw_app_imp_2021-08-04_2021-08-10 > OSP-2373_rw_app_clk_2021-08-11_2021-08-15,47635.038904669,90.0,67.0,134,134,False
12,FB_Impression_MobileFeed > OSP-2373_rw_app_imp_2021-08-11_2021-08-15,1583838.1118999,2371.0,2050.0,9373,9373,False
13,FB_Impression_MobileFeed > FB_Impression_InstagramStory > OSP-2373_rw_app_imp_2021-08-04_2021-08-10,39430.431680555,62.0,48.0,269,269,False
14,OSP-2373_rw_web_oap_clk_2021-08-11_2021-08-15 > OSP-2373_rw_app_imp_2021-08-11_2021-08-15,1221.9089719282,27.0,15.0,111,111,False
15,_AlwaysOn_wow_web_clk_2021-08-04_2021-08-10 > OSP-2373_rw_app_imp_2021-08-11_2021-08-15 > OSP-2373_rw_app_imp_2021-08-04_2021-08-10,80917.846506287,49.0,18.0,190,190,False
16,FB_Impression_MobileFeed > FB_Impression_InStream,125378.36588704,128.0,106.0,824,824,False
17,OSP-2373_rw_app_imp_2021-08-11_2021-08-15 > OSP-2373_rw_app_imp_2021-08-04_2021-08-10 > OSP-2373_rw_app_clk_2021-08-11_2021-08-15,1160248.5424459,1845.0,1263.0,4145,4145,False
18,OSP-2373_rw_app_imp_2021-08-04_2021-08-10 > OSP-2373_rw_app_clk_2021-08-04_2021-08-10,1829948.8586723,2763.0,1898.0,7245,7245,False
19,_AlwaysOn_wow_web_view_2021-08-11_2021-08-15 > _AlwaysOn_wow_web_clk_2021-08-11_2021-08-15,1816754.1739546,1186.0,630.0,7982,7982,False
20,FB_Impression_InStream > FB_Impression_MobileFeed,100367.99904924,121.0,99.0,665,665,False
21,OSP-2373_rw_app_imp_2021-08-04_2021-08-10 > OSP-2373_rw_app_clk_2021-08-11_2021-08-15,1909557.5265762,3529.0,2405.0,6077,6077,False
22,FB_Impression_InstagramStory > FB_Impression_MobileFeed > FB_Impression_InstagramStory > OSP-2373_rw_app_imp_2021-08-04_2021-08-10,29413.867790546,36.0,22.0,123,123,False
23,_AlwaysOn_sem_brand_clk_2021-08-04_2021-08-10,326.68769788698,4.0,7.0,367,367,False
24,FB_Impression_InstagramStory > OSP-2373_rw_app_imp_2021-08-11_2021-08-15 > OSP-2373_rw_app_clk_2021-08-11_2021-08-15,16134.879110513,39.0,35.0,133,133,False
25,FB_Impression_MobileFeed > FB_Impression_InstagramStory > FB_Impression_MobileFeed > FB_Impression_InstagramStory > OSP-2373_rw_app_imp_2021-08-11_2021-08-15,21999.683313861,32.0,30.0,144,144,False
26,_AlwaysOn_wow_web_view_2021-08-04_2021-08-10 > OSP-2373_rw_app_imp_2021-08-04_2021-08-10,113963.41025187,90.0,43.0,743,743,False
27,FB_Impression_FacebookStory > FB_Impression_MobileFeed > OSP-2373_rw_app_imp_2021-08-11_2021-08-15,16567.905679512,24.0,19.0,107,107,False
28,FB_Impression_WebFeed > FB_Impression_MobileFeed,76858.123125745,135.0,116.0,1782,1782,False
29,_AlwaysOn_wow_web_view_2021-08-04_2021-08-10 > _AlwaysOn_wow_web_clk_2021-08-04_2021-08-10 > OSP-2373_rw_app_imp_2021-08-11_2021-08-15,51004.468993107,31.0,16.0,277,277,False
30,CVM-1661_rw_app_imp_2021-08-04_2021-08-10,69552.923984055,79.0,65.0,730,730,False
31,FB_Impression_MobileFeed > _AlwaysOn_wow_web_view_2021-08-04_2021-08-10 > OSP-2373_rw_app_imp_2021-08-04_2021-08-10,34783.478152666,18.0,10.0,113,113,False
32,FB_Impression_WebFeed > OSP-2373_rw_app_imp_2021-08-11_2021-08-15,35897.884409134,42.0,29.0,174,174,False
33,_AlwaysOn_wow_web_view_2021-08-11_2021-08-15 > _AlwaysOn_sem_shopping_clk_2021-08-11_2021-08-15,10779.358020691,14.0,8.0,141,141,False
34,OSP-2373_rw_app_imp_2021-08-11_2021-08-15 > OSP-2373_rw_app_imp_2021-08-04_2021-08-10 > OSP-2373_rw_app_imp_2021-08-04_2021-08-10,56421.002650519,38.0,11.0,113,113,False
35,_AlwaysOn_wow_web_view_2021-08-04_2021-08-10 > _AlwaysOn_wow_web_clk_2021-08-11_2021-08-15,150442.47180313,97.0,48.0,1040,1040,False
36,OSP-2373_rw_web_oap_clk_2021-08-04_2021-08-10,266804.71037127,499.0,348.0,3030,3030,False
37,FB_Impression_MobileFeed > FB_Impression_InStream > OSP-2373_rw_app_imp_2021-08-11_2021-08-15,23560.405689637,35.0,29.0,120,120,False
38,FB_Impression_MobileFeed > _AlwaysOn_wow_web_view_2021-08-11_2021-08-15,250898.0022756,247.0,196.0,2171,2171,False
39,FB_Impression_InStream > OSP-2373_rw_app_imp_2021-08-11_2021-08-15,7055.324555908,58.0,58.0,236,236,False
40,FB_Impression_MobileFeed > FB_Impression_FacebookStory > FB_Impression_MobileFeed > OSP-2373_rw_app_imp_2021-08-11_2021-08-15,37853.920466229,56.0,35.0,167,167,False
41,FB_Impression_MobileFeed > FB_Impression_InstagramStory > FB_Impression_MobileFeed > FB_Impression_InstagramStory,93047.86455531,105.0,104.0,1723,1723,False
42,FB_Impression_MobileFeed > _AlwaysOn_wow_web_view_2021-08-11_2021-08-15 > _AlwaysOn_wow_web_clk_2021-08-11_2021-08-15,312662.92675962,185.0,111.0,854,854,False
43,_AlwaysOn_wow_web_clk_2021-08-11_2021-08-15,1447940.6842782,1111.0,747.0,5424,5424,False
44,_AlwaysOn_wow_web_view_2021-08-11_2021-08-15 > _AlwaysOn_wow_web_view_2021-08-04_2021-08-10,216983.16684806,126.0,49.0,4229,4229,False
45,FB_Impression_InstagramStory > _AlwaysOn_wow_web_view_2021-08-04_2021-08-10 > _AlwaysOn_wow_web_clk_2021-08-04_2021-08-10,11566.5497768,5.0,2.0,121,121,False
46,FB_Impression_MobileFeed > FB_Impression_InstagramStory > FB_Impression_MobileFeed > OSP-2373_rw_app_imp_2021-08-11_2021-08-15 > OSP-2373_rw_app_imp_2021-08-04_2021-08-10,42566.707188892,131.0,106.0,327,327,False
47,FB_Impression_MobileFeed > OSP-2373_rw_app_imp_2021-08-11_2021-08-15 > OSP-2373_rw_app_imp_2021-08-04_2021-08-10 > OSP-2373_rw_app_clk_2021-08-04_2021-08-10,113963.77925501,217.0,158.0,414,414,False
48,OSP-2373_rw_app_imp_2021-08-04_2021-08-10 > OSP-2373_rw_app_clk_2021-08-11_2021-08-15 > OSP-2373_rw_app_clk_2021-08-04_2021-08-10,611707.02226396,1242.0,811.0,1645,1645,False
49,OSP-2373_rw_web_oap_clk_2021-08-11_2021-08-15,529013.62734721,598.0,337.0,3665,3665,False
50,_AlwaysOn_wow_web_view_2021-08-04_2021-08-10 > _AlwaysOn_wow_web_clk_2021-08-04_2021-08-10 > OSP-2373_rw_app_imp_2021-08-04_2021-08-10,64553.450239623,60.0,23.0,296,296,False
51,FB_Impression_MobileFeed > FB_Impression_InstagramStory > OSP-2373_rw_app_imp_2021-08-11_2021-08-15,95527.487152637,171.0,134.0,640,640,False
52,FB_Impression_InstagramStory,988949.5809507,1326.0,1158.0,31388,31388,False
53,FB_Impression_MobileFeed > FB_Impression_FacebookStory > FB_Impression_MobileFeed,67269.852475354,128.0,112.0,1045,1045,False
54,FB_Impression_SuggestedVideo > OSP-2373_rw_app_imp_2021-08-11_2021-08-15,5053.6354397243,10.0,6.0,124,124,False
55,FB_Impression_MobileFeed > FB_Impression_InstagramStory > OSP-2373_rw_app_imp_2021-08-11_2021-08-15 > OSP-2373_rw_app_imp_2021-08-04_2021-08-10,79788.981389483,132.0,101.0,318,318,False
56,_AlwaysOn_sem_shopping_clk_2021-08-11_2021-08-15,99373.967760022,134.0,97.0,3208,3208,False
57,_AlwaysOn_wow_web_clk_2021-08-04_2021-08-10 > OSP-2373_rw_app_imp_2021-08-11_2021-08-15,44698.749017743,34.0,16.0,266,266,False
58,CVM-1661_rw_app_imp_2021-08-11_2021-08-15,165915.70918312,131.0,71.0,531,531,False
59,OSP-2373_rw_app_imp_2021-08-04_2021-08-10 > CVM-1661_rw_app_imp_2021-08-11_2021-08-15,23396.430660352,34.0,18.0,121,121,False
60,FB_Impression_MobileFeed > FB_Impression_InStream > FB_Impression_MobileFeed > OSP-2373_rw_app_imp_2021-08-11_2021-08-15,44556.757875994,38.0,18.0,113,113,False
61,_AlwaysOn_wow_web_clk_2021-08-11_2021-08-15 > OSP-2373_rw_app_imp_2021-08-11_2021-08-15,219024.07062447,220.0,155.0,528,528,False
62,FB_Impression_MobileFeed > FB_Impression_InstagramStory,374235.07424243,531.0,445.0,6399,6399,False
63,FB_Impression_InstagramStory > FB_Impression_MobileFeed,253064.65946958,364.0,343.0,5045,5045,False
64,FB_Impression_MobileFeed > OSP-2373_rw_app_imp_2021-08-04_2021-08-10 > OSP-2373_rw_app_clk_2021-08-04_2021-08-10,79173.928383935,102.0,49.0,285,285,False
65,FB_Impression_MobileFeed > FB_Impression_InStream > FB_Impression_MobileFeed,141956.15083452,128.0,102.0,697,697,False
66,FB_Impression_MobileFeed > OSP-2373_rw_web_oap_clk_2021-08-11_2021-08-15,4474.9404919899,47.0,31.0,137,137,False
67,FB_Impression_InStream > OSP-2373_rw_app_imp_2021-08-11_2021-08-15 > OSP-2373_rw_app_imp_2021-08-04_2021-08-10,16273.193445547,54.0,34.0,129,129,False
68,OSP-2373_rw_app_imp_2021-08-04_2021-08-10 > OSP-2373_rw_app_imp_2021-08-04_2021-08-10 > OSP-2373_rw_app_clk_2021-08-04_2021-08-10,99189.387292316,155.0,102.0,238,238,False
69,FB_Impression_MobileFeed > OSP-2373_rw_app_imp_2021-08-11_2021-08-15 > OSP-2373_rw_app_imp_2021-08-04_2021-08-10 > OSP-2373_rw_app_clk_2021-08-11_2021-08-15 > OSP-2373_rw_app_clk_2021-08-04_2021-08-10,69035.061972487,93.0,55.0,123,123,False
70,_AlwaysOn_wow_web_view_2021-08-04_2021-08-10,1427430.4597657,805.0,356.0,50424,50424,False
71,OSP-2373_rw_app_clk_2021-08-04_2021-08-10,1114787.8989358,1287.0,745.0,3753,3753,False
72,FB_Impression_MobileFeed > FB_Impression_InstagramStory > FB_Impression_MobileFeed > OSP-2373_rw_app_imp_2021-08-11_2021-08-15,75193.240304008,134.0,127.0,600,600,False
73,OSP-2373_rw_app_clk_2021-08-11_2021-08-15,2420591.9941782,3234.0,2285.0,8748,8748,False
74,_AlwaysOn_wow_web_view_2021-08-11_2021-08-15 > _AlwaysOn_wow_web_clk_2021-08-11_2021-08-15 > OSP-2373_rw_app_imp_2021-08-11_2021-08-15 > OSP-2373_rw_app_imp_2021-08-04_2021-08-10,12621.609764264,50.0,26.0,145,145,False
75,FB_Impression_WebFeed > OSP-2373_rw_app_imp_2021-08-11_2021-08-15 > OSP-2373_rw_app_imp_2021-08-04_2021-08-10,30532.258211055,41.0,32.0,104,104,False
76,OSP-2373_rw_app_imp_2021-08-11_2021-08-15 > OSP-2373_rw_app_imp_2021-08-04_2021-08-10 > CVM-1661_rw_app_imp_2021-08-04_2021-08-10,-3055.63881948,14.0,20.0,219,219,False
77,_AlwaysOn_wow_web_view_2021-08-04_2021-08-10 > _AlwaysOn_wow_web_clk_2021-08-04_2021-08-10,1105459.0713284,495.0,122.0,9661,9661,False
78,FB_Impression_MobileFeed > FB_Impression_InstagramStory > FB_Impression_MobileFeed,352939.66418794,474.0,463.0,6382,6382,False
79,FB_Impression_MobileFeed > _AlwaysOn_wow_web_view_2021-08-04_2021-08-10 > OSP-2373_rw_app_imp_2021-08-11_2021-08-15,7394.6956189435,10.0,8.0,117,117,False
80,_AlwaysOn_sem_shopping_clk_2021-08-11_2021-08-15 > OSP-2373_rw_app_imp_2021-08-11_2021-08-15,20718.535953586,31.0,15.0,161,161,False
81,OSP-2373_rw_app_clk_2021-08-11_2021-08-15 > OSP-2373_rw_app_clk_2021-08-04_2021-08-10,34917.642506041,57.0,46.0,209,209,False
82,_AlwaysOn_wow_web_view_2021-08-04_2021-08-10 > _AlwaysOn_sem_shopping_clk_2021-08-04_2021-08-10,13223.678493145,8.0,2.0,145,145,False
83,FB_Impression_MobileFeed > FB_Impression_InstagramStory > _AlwaysOn_wow_web_view_2021-08-04_2021-08-10,2400.3852296658,4.0,2.0,160,160,False
84,FB_Impression_InstagramStory > OSP-2373_rw_app_imp_2021-08-11_2021-08-15,254222.97377996,429.0,333.0,1755,1755,False
85,_AlwaysOn_wow_web_view_2021-08-11_2021-08-15 > OSP-2373_rw_app_imp_2021-08-04_2021-08-10,39734.3581018,60.0,27.0,275,275,False
86,_AlwaysOn_wow_web_view_2021-08-04_2021-08-10 > _AlwaysOn_wow_web_clk_2021-08-04_2021-08-10 > OSP-2373_rw_app_imp_2021-08-11_2021-08-15 > OSP-2373_rw_app_imp_2021-08-04_2021-08-10,50160.415090559,34.0,7.0,175,175,False
87,FB_Impression_MobileFeed > _AlwaysOn_sem_shopping_clk_2021-08-04_2021-08-10,-2001.2561527702,5.0,5.0,100,100,False
88,FB_Impression_MobileFeed > OSP-2373_rw_app_imp_2021-08-04_2021-08-10,1089506.220928,1308.0,954.0,4448,4448,False
89,FB_Impression_MobileFeed > FB_Click_MobileFeed > FB_Impression_MobileFeed,32741.921745834,73.0,71.0,1147,1147,False
90,FB_Impression_FacebookStory > FB_Impression_MobileFeed,154843.13860219,87.0,71.0,861,861,False
92,FB_Impression_InstagramStory > _AlwaysOn_wow_web_view_2021-08-11_2021-08-15 > _AlwaysOn_wow_web_clk_2021-08-11_2021-08-15,23937.121664109,30.0,24.0,139,139,False
93,FB_Impression_MobileFeed > FB_Impression_InstagramStory > FB_Impression_MobileFeed > _AlwaysOn_wow_web_view_2021-08-04_2021-08-10,21089.207845218,8.0,2.0,199,199,False
94,FB_Impression_InstagramStory > _AlwaysOn_wow_web_view_2021-08-04_2021-08-10,24944.09803593,16.0,5.0,414,414,False
95,FB_Impression_InstagramStory > FB_Impression_MobileFeed > FB_Impression_InstagramStory > FB_Impression_MobileFeed > OSP-2373_rw_app_imp_2021-08-11_2021-08-15,39796.281107525,40.0,26.0,130,130,False
96,FB_Impression_InstagramStory > FB_Impression_MobileFeed > FB_Impression_InstagramStory > OSP-2373_rw_app_imp_2021-08-11_2021-08-15 > OSP-2373_rw_app_imp_2021-08-04_2021-08-10,41401.757255648,49.0,45.0,131,131,False
97,FB_Impression_MobileFeed > FB_Impression_InstagramStory > FB_Impression_MobileFeed > OSP-2373_rw_app_imp_2021-08-04_2021-08-10,46829.651690279,78.0,64.0,251,251,False
98,_AlwaysOn_wow_web_clk_2021-08-04_2021-08-10,850787.45051808,400.0,129.0,5555,5555,False
99,FB_Impression_MobileFeed > _AlwaysOn_wow_web_view_2021-08-11_2021-08-15 > _AlwaysOn_wow_web_view_2021-08-04_2021-08-10 > _AlwaysOn_wow_web_clk_2021-08-04_2021-08-10,31908.336134299,11.0,1.0,126,126,False
100,OSP-2373_rw_app_imp_2021-08-11_2021-08-15 > OSP-2373_rw_app_imp_2021-08-04_2021-08-10,6104611.0965296,9636.0,6802.0,42485,42485,False
101,FB_Impression_WebFeed > OSP-2373_rw_app_imp_2021-08-04_2021-08-10,7849.4384857035,26.0,26.0,105,105,False
102,OSP-2373_rw_app_imp_2021-08-04_2021-08-10 > CVM-1661_rw_app_imp_2021-08-04_2021-08-10,74226.742895593,67.0,53.0,806,806,False
103,_AlwaysOn_wow_web_clk_2021-08-11_2021-08-15 > OSP-2373_rw_app_imp_2021-08-04_2021-08-10,60039.590954036,39.0,16.0,112,112,False
104,FB_Impression_MobileFeed > FB_Impression_WebFeed > FB_Impression_MobileFeed,20563.033386639,82.0,69.0,1077,1077,False
105,FB_Impression_InstagramStory > FB_Impression_MobileFeed > FB_Impression_InstagramStory,136390.60425263,210.0,196.0,2418,2418,False
106,FB_Impression_MobileFeed > FB_Impression_FacebookStory,93150.731483706,123.0,106.0,1003,1003,False
107,_AlwaysOn_wow_web_view_2021-08-04_2021-08-10 > OSP-2373_rw_app_imp_2021-08-11_2021-08-15,190220.76667608,97.0,53.0,1052,1052,False
108,FB_Impression_MobileFeed > _AlwaysOn_wow_web_view_2021-08-11_2021-08-15 > _AlwaysOn_wow_web_view_2021-08-04_2021-08-10 > _AlwaysOn_wow_web_clk_2021-08-11_2021-08-15,21053.955999349,18.0,7.0,138,138,False
109,_AlwaysOn_wow_web_clk_2021-08-04_2021-08-10 > OSP-2373_rw_app_imp_2021-08-04_2021-08-10,91005.045334025,47.0,20.0,223,223,False
110,_AlwaysOn_wow_web_view_2021-08-11_2021-08-15 > _AlwaysOn_wow_web_view_2021-08-04_2021-08-10 > _AlwaysOn_wow_web_clk_2021-08-04_2021-08-10,33685.548892769,18.0,7.0,660,660,False
111,FB_Impression_MobileFeed > FB_Impression_InstagramStory > FB_Impression_MobileFeed > _AlwaysOn_wow_web_view_2021-08-11_2021-08-15,35925.502156277,22.0,17.0,188,188,False
112,_AlwaysOn_wow_web_view_2021-08-04_2021-08-10 > OSP-2373_rw_app_imp_2021-08-11_2021-08-15 > OSP-2373_rw_app_imp_2021-08-04_2021-08-10,93895.788620636,94.0,49.0,541,541,False
113,FB_Impression_InstagramStory > FB_Impression_MobileFeed > OSP-2373_rw_app_imp_2021-08-11_2021-08-15,74263.546569714,146.0,145.0,572,572,False
114,FB_Impression_InstagramStory > OSP-2373_rw_app_imp_2021-08-04_2021-08-10,186908.49800029,187.0,129.0,755,755,False
115,FB_Impression_InStream > FB_Impression_MobileFeed > OSP-2373_rw_app_imp_2021-08-11_2021-08-15,14259.296270771,27.0,29.0,110,110,False
116,_AlwaysOn_wow_web_clk_2021-08-11_2021-08-15 > OSP-2373_rw_app_imp_2021-08-11_2021-08-15 > OSP-2373_rw_app_imp_2021-08-04_2021-08-10,97692.741585204,79.0,59.0,179,179,False
117,_AlwaysOn_wow_web_view_2021-08-11_2021-08-15 > _AlwaysOn_wow_web_clk_2021-08-11_2021-08-15 > OSP-2373_rw_app_imp_2021-08-11_2021-08-15,169469.42933738,154.0,89.0,427,427,False
118,FB_Impression_InstagramStory > FB_Impression_MobileFeed > _AlwaysOn_wow_web_view_2021-08-11_2021-08-15,15754.055669727,21.0,8.0,112,112,False
119,_AlwaysOn_wow_web_view_2021-08-11_2021-08-15,1582131.0899207,1605.0,1350.0,33285,33285,False
120,FB_Impression_WebFeed > _AlwaysOn_wow_web_view_2021-08-11_2021-08-15,30761.1180977,18.0,10.0,121,121,False
121,FB_Impression_MobileFeed > _AlwaysOn_wow_web_view_2021-08-04_2021-08-10,135344.10444018,83.0,35.0,2469,2469,False
122,CVM-1661_rw_app_clk_2021-08-11_2021-08-15,9702.7510154451,5.0,12.0,105,105,False
123,OSP-2373_rw_app_imp_2021-08-04_2021-08-10 > OSP-2373_rw_app_imp_2021-08-04_2021-08-10,317625.58175877,463.0,343.0,791,791,False
124,FB_Impression_InStream,159624.54566081,223.0,216.0,1628,1628,False
125,_AlwaysOn_wow_web_view_2021-08-04_2021-08-10 > _AlwaysOn_wow_web_clk_2021-08-11_2021-08-15 > _AlwaysOn_wow_web_clk_2021-08-04_2021-08-10,75364.003156908,45.0,18.0,440,440,False
126,FB_Impression_MobileFeed > FB_Impression_WebFeed,43479.348226701,65.0,65.0,701,701,False
127,FB_Impression_MobileFeed > _AlwaysOn_wow_web_view_2021-08-11_2021-08-15 > _AlwaysOn_wow_web_view_2021-08-04_2021-08-10,31197.291790828,19.0,8.0,518,518,False
128,FB_Impression_MobileFeed > FB_Impression_InstagramStory > _AlwaysOn_wow_web_view_2021-08-11_2021-08-15,4310.4584169075,19.0,19.0,133,133,False
129,FB_Impression_MobileFeed > FB_Impression_FacebookStory > OSP-2373_rw_app_imp_2021-08-11_2021-08-15,8637.9642479103,34.0,32.0,136,136,False
130,FB_Impression_InstagramStory > FB_Impression_MobileFeed > _AlwaysOn_wow_web_view_2021-08-04_2021-08-10,10442.776547692,5.0,0.0,113,113,False
131,OSP-2373_rw_app_imp_2021-08-11_2021-08-15 > OSP-2373_rw_app_imp_2021-08-04_2021-08-10 > OSP-2373_rw_app_clk_2021-08-11_2021-08-15 > OSP-2373_rw_app_clk_2021-08-04_2021-08-10,291619.30883478,568.0,374.0,907,907,False
132,FB_Impression_WebFeed > _AlwaysOn_wow_web_view_2021-08-04_2021-08-10,21984.483270661,13.0,1.0,185,185,False
133,FB_Impression_MobileFeed > OSP-2373_rw_app_imp_2021-08-11_2021-08-15 > OSP-2373_rw_app_clk_2021-08-11_2021-08-15,196135.05774659,266.0,213.0,702,702,False
134,FB_Impression_WebFeed,282298.49096207,459.0,417.0,5742,5742,False
135,OSP-2373_rw_app_imp_2021-08-04_2021-08-10,16992051.554751,25010.0,17915.0,115211,115211,False
136,_AlwaysOn_wow_web_view_2021-08-04_2021-08-10 > _AlwaysOn_wow_web_view_2021-08-04_2021-08-10 > _AlwaysOn_wow_web_clk_2021-08-04_2021-08-10,22302.659988174,16.0,6.0,344,344,False
137,OSP-2373_rw_app_imp_2021-08-11_2021-08-15 > OSP-2373_rw_app_clk_2021-08-11_2021-08-15,1360523.0322503,1845.0,1158.0,7290,7290,False
138,FB_Impression_MobileFeed > _AlwaysOn_wow_web_view_2021-08-04_2021-08-10 > _AlwaysOn_wow_web_clk_2021-08-04_2021-08-10,165200.2757059,66.0,9.0,787,787,False
139,FB_Impression_InstagramStory > FB_Impression_MobileFeed > OSP-2373_rw_app_imp_2021-08-04_2021-08-10,65678.220140348,70.0,44.0,224,224,False
140,_AlwaysOn_sem_brand_clk_2021-08-11_2021-08-15,19161.934776902,47.0,23.0,280,280,False
141,FB_Impression_MobileFeed > _AlwaysOn_sem_shopping_clk_2021-08-11_2021-08-15,13415.36965794,9.0,17.0,122,122,False
142,FB_Impression_InstagramStory > FB_Impression_MobileFeed > OSP-2373_rw_app_imp_2021-08-11_2021-08-15 > OSP-2373_rw_app_imp_2021-08-04_2021-08-10,53574.068240825,113.0,95.0,276,276,False
143,_AlwaysOn_wow_web_view_2021-08-04_2021-08-10 > _AlwaysOn_wow_web_view_2021-08-04_2021-08-10,26380.372210475,15.0,8.0,425,425,False
144,_AlwaysOn_wow_web_view_2021-08-04_2021-08-10 > _AlwaysOn_wow_web_clk_2021-08-04_2021-08-10 > _AlwaysOn_wow_web_clk_2021-08-04_2021-08-10,16819.638848876,5.0,0.0,128,128,False
145,OSP-2373_rw_app_imp_2021-08-11_2021-08-15,11508546.426418,16862.0,13178.0,164573,164573,False
146,OSP-2373_rw_app_imp_2021-08-11_2021-08-15 > OSP-2373_rw_app_imp_2021-08-04_2021-08-10 > OSP-2373_rw_app_clk_2021-08-04_2021-08-10,789452.54380149,1010.0,650.0,2627,2627,False
147,_AlwaysOn_wow_web_view_2021-08-11_2021-08-15 > OSP-2373_rw_app_imp_2021-08-11_2021-08-15,242299.60003985,283.0,220.0,1076,1076,False
148,_AlwaysOn_wow_web_view_2021-08-11_2021-08-15 > _AlwaysOn_wow_web_view_2021-08-04_2021-08-10 > _AlwaysOn_wow_web_clk_2021-08-11_2021-08-15,239784.86965556,108.0,33.0,1085,1085,False
149,FB_Impression_MobileFeed > FB_Impression_InstagramStory > FB_Impression_MobileFeed > FB_Impression_InstagramStory > FB_Impression_MobileFeed,52189.676138824,75.0,79.0,1705,1705,False
150,FB_Impression_MobileFeed > _AlwaysOn_wow_web_view_2021-08-11_2021-08-15 > OSP-2373_rw_app_imp_2021-08-11_2021-08-15,60350.190010404,77.0,56.0,216,216,False
151,OSP-2373_rw_app_imp_2021-08-11_2021-08-15 > CVM-1661_rw_app_imp_2021-08-11_2021-08-15,61718.823146231,49.0,33.0,400,400,False
152,FB_Impression_InstagramStory > _AlwaysOn_wow_web_view_2021-08-11_2021-08-15,22639.229063531,41.0,42.0,344,344,False
153,_AlwaysOn_wow_web_view_2021-08-11_2021-08-15 > _AlwaysOn_wow_web_view_2021-08-04_2021-08-10 > OSP-2373_rw_app_imp_2021-08-11_2021-08-15,52986.249529568,28.0,12.0,144,144,False
154,FB_Impression_InstagramStory > OSP-2373_rw_app_imp_2021-08-11_2021-08-15 > OSP-2373_rw_app_imp_2021-08-04_2021-08-10,127349.98830758,305.0,244.0,826,826,False
