,path,total_conversion_value,conversions,non_conversions,cnt,ppl,Converted
0,OSP-2373_rw_app_imp_2021-07-14_2021-07-18 > OSP-2373_email_open_2021-07-14_2021-07-18,543249.97595454,1649.0,1172.0,9020,9020,False
1,OSP-2373_rw_app_imp_2021-07-07_2021-07-13 > OSP-2373_rw_app_clk_2021-07-14_2021-07-18 > OSP-2373_rw_app_clk_2021-07-07_2021-07-13 > OSP-2373_email_open_2021-07-14_2021-07-18,42421.38989738,212.0,195.0,281,281,False
2,OSP-2373_rw_app_clk_2021-07-07_2021-07-13 > OSP-2373_email_open_2021-07-14_2021-07-18 > OSP-2373_email_clk_2021-07-14_2021-07-18,46762.042751405,86.0,68.0,186,186,False
3,_AlwaysOn_sem_shopping_clk_2021-07-07_2021-07-13,56090.551860992,90.0,31.0,5210,5210,False
4,OSP-2373_rw_app_clk_2021-07-14_2021-07-18 > OSP-2373_email_open_2021-07-14_2021-07-18 > OSP-2373_email_clk_2021-07-14_2021-07-18,63024.447326736,257.0,210.0,511,511,False
5,FB_Impression_InstagramStory > FB_Impression_MobileFeed > OSP-2373_rw_app_imp_2021-07-14_2021-07-18,37757.990362777,84.0,59.0,309,309,False
6,_AlwaysOn_wow_web_view_2021-07-07_2021-07-13 > _AlwaysOn_wow_web_clk_2021-07-07_2021-07-13 > OSP-2373_email_open_2021-07-14_2021-07-18 > OSP-2373_email_clk_2021-07-14_2021-07-18,32279.808886936,31.0,13.0,147,147,False
7,FB_Impression_InstagramStory > FB_Impression_MobileFeed > OSP-2373_email_open_2021-07-14_2021-07-18,19371.714625926,40.0,25.0,301,301,False
8,FB_Impression_InStream,32754.481736743,72.0,59.0,513,513,False
9,FB_Impression_InstagramStory > OSP-2373_rw_app_imp_2021-07-14_2021-07-18 > OSP-2373_rw_app_clk_2021-07-14_2021-07-18,19640.189979507,50.0,38.0,137,137,False
10,FB_Impression_InstagramStory > OSP-2373_rw_app_imp_2021-07-14_2021-07-18,147007.33863619,420.0,351.0,1660,1660,False
11,_AlwaysOn_sem_shopping_clk_2021-07-14_2021-07-18 > OSP-2373_email_open_2021-07-14_2021-07-18,8664.5558158353,25.0,20.0,211,211,False
12,FB_Impression_MobileFeed > _AlwaysOn_sem_shopping_clk_2021-07-07_2021-07-13,7124.2103533124,8.0,1.0,120,120,False
13,_AlwaysOn_wow_web_view_2021-07-14_2021-07-18 > _AlwaysOn_wow_web_view_2021-07-07_2021-07-13 > OSP-2373_email_open_2021-07-14_2021-07-18,11011.985321453,10.0,1.0,189,189,False
14,_AlwaysOn_wow_web_clk_2021-07-14_2021-07-18 > OSP-2373_email_open_2021-07-14_2021-07-18,170553.77502371,246.0,153.0,657,657,False
15,OSP-2373_email_open_2021-07-14_2021-07-18 > OSP-2373_email_open_2021-07-14_2021-07-18,43814.295031598,152.0,124.0,351,351,False
16,_AlwaysOn_sem_shopping_clk_2021-07-14_2021-07-18 > OSP-2373_email_open_2021-07-14_2021-07-18 > OSP-2373_email_clk_2021-07-14_2021-07-18,19892.371832319,30.0,15.0,108,108,False
17,OSP-2373_email_open_2021-07-14_2021-07-18 > CVM-1661_email_open_2021-07-14_2021-07-18,3020.5669167116,13.0,13.0,203,203,False
18,OSP-2373_rw_app_imp_2021-07-07_2021-07-13 > OSP-2373_rw_app_clk_2021-07-07_2021-07-13 > OSP-2373_email_open_2021-07-14_2021-07-18,108432.31015443,444.0,328.0,821,821,False
19,_AlwaysOn_wow_web_view_2021-07-14_2021-07-18,761520.08533914,1257.0,990.0,30555,30555,False
20,_AlwaysOn_wow_web_view_2021-07-14_2021-07-18 > _AlwaysOn_sem_shopping_clk_2021-07-14_2021-07-18,8125.4490709246,14.0,5.0,120,120,False
21,OSP-2373_rw_app_imp_2021-07-14_2021-07-18 > OSP-2373_email_open_2021-07-07_2021-07-13,22138.040705617,58.0,46.0,376,376,False
22,OSP-2373_rw_app_imp_2021-07-07_2021-07-13 > OSP-2373_email_open_2021-07-14_2021-07-18 > OSP-2373_email_open_2021-07-14_2021-07-18,6987.010418761,88.0,66.0,174,174,False
23,OSP-2373_rw_web_oap_clk_2021-07-14_2021-07-18 > OSP-2373_email_open_2021-07-14_2021-07-18,52742.042595347,119.0,89.0,429,429,False
24,FB_Impression_MobileFeed,1753730.8737858,5244.0,5020.0,80556,80556,False
25,OSP-2373_rw_app_imp_2021-07-14_2021-07-18 > OSP-2373_rw_app_imp_2021-07-07_2021-07-13 > OSP-2373_email_open_2021-07-14_2021-07-18 > OSP-2373_email_clk_2021-07-14_2021-07-18,116760.06625679,387.0,267.0,878,878,False
26,FB_Impression_InstagramStory > OSP-2373_email_open_2021-07-07_2021-07-13,545.86282330801,9.0,7.0,122,122,False
27,FB_Impression_MobileFeed > _AlwaysOn_wow_web_view_2021-07-14_2021-07-18 > OSP-2373_email_open_2021-07-14_2021-07-18,15520.728398303,31.0,26.0,145,145,False
28,_AlwaysOn_sem_brand_clk_2021-07-07_2021-07-13 > OSP-2373_email_open_2021-07-14_2021-07-18,3325.9750704539,6.0,5.0,130,130,False
29,FB_Impression_InstagramStory > FB_Impression_MobileFeed > FB_Impression_InstagramStory > OSP-2373_email_open_2021-07-14_2021-07-18,3716.5946691195,15.0,15.0,123,123,False
30,_AlwaysOn_sem_brand_clk_2021-07-14_2021-07-18,5095.3253183749,14.0,8.0,276,276,False
31,_AlwaysOn_wow_web_view_2021-07-07_2021-07-13 > _AlwaysOn_wow_web_clk_2021-07-07_2021-07-13 > OSP-2373_rw_app_imp_2021-07-14_2021-07-18 > OSP-2373_rw_app_imp_2021-07-07_2021-07-13,29302.766026527,30.0,7.0,117,117,False
32,OSP-2373_rw_app_imp_2021-07-14_2021-07-18 > OSP-2373_rw_app_imp_2021-07-07_2021-07-13 > OSP-2373_email_open_2021-07-14_2021-07-18 > OSP-2373_email_open_2021-07-07_2021-07-13,12028.186093776,39.0,24.0,106,106,False
33,_AlwaysOn_wow_web_view_2021-07-07_2021-07-13 > OSP-2373_email_open_2021-07-14_2021-07-18,90986.361313173,117.0,70.0,1733,1733,False
34,_AlwaysOn_sem_shopping_clk_2021-07-14_2021-07-18 > OSP-2373_rw_app_imp_2021-07-14_2021-07-18,-1442.9803490697,22.0,25.0,127,127,False
35,FB_Impression_MobileFeed > OSP-2373_rw_app_imp_2021-07-14_2021-07-18 > OSP-2373_email_open_2021-07-14_2021-07-18,73075.243267592,251.0,211.0,872,872,False
36,_AlwaysOn_wow_web_view_2021-07-14_2021-07-18 > _AlwaysOn_wow_web_clk_2021-07-14_2021-07-18 > OSP-2373_rw_app_imp_2021-07-14_2021-07-18,110941.64777402,180.0,110.0,432,432,False
37,FB_Impression_InstagramStory,432181.23679352,1202.0,1144.0,33452,33452,False
38,_AlwaysOn_wow_web_view_2021-07-14_2021-07-18 > _AlwaysOn_wow_web_view_2021-07-07_2021-07-13 > _AlwaysOn_wow_web_clk_2021-07-14_2021-07-18 > _AlwaysOn_wow_web_clk_2021-07-07_2021-07-13,48703.059549688,38.0,9.0,331,331,False
39,_AlwaysOn_wow_web_view_2021-07-07_2021-07-13 > _AlwaysOn_wow_web_clk_2021-07-07_2021-07-13 > _AlwaysOn_wow_web_clk_2021-07-07_2021-07-13,4609.2171251704,4.0,3.0,139,139,False
40,_AlwaysOn_wow_web_clk_2021-07-14_2021-07-18 > OSP-2373_email_open_2021-07-14_2021-07-18 > OSP-2373_email_clk_2021-07-14_2021-07-18,110129.84997472,207.0,156.0,455,455,False
41,_AlwaysOn_wow_web_view_2021-07-07_2021-07-13 > _AlwaysOn_wow_web_clk_2021-07-14_2021-07-18,83430.863381395,84.0,38.0,786,786,False
42,OSP-2373_rw_app_imp_2021-07-07_2021-07-13 > OSP-2373_rw_app_clk_2021-07-07_2021-07-13,835416.28807052,2453.0,1814.0,5658,5658,False
43,FB_Impression_InstagramStory > OSP-2373_rw_app_imp_2021-07-14_2021-07-18 > OSP-2373_rw_app_imp_2021-07-07_2021-07-13,101797.00309812,289.0,223.0,744,744,False
44,OSP-2373_rw_app_imp_2021-07-07_2021-07-13 > CVM-1661_rw_app_imp_2021-07-07_2021-07-13,56656.699891886,91.0,90.0,644,644,False
45,OSP-2373_rw_app_imp_2021-07-14_2021-07-18 > OSP-2373_email_open_2021-07-14_2021-07-18 > OSP-2373_email_open_2021-07-07_2021-07-13,21356.887661447,55.0,26.0,218,218,False
46,OSP-2373_email_open_2021-07-14_2021-07-18 > OSP-2373_email_open_2021-07-07_2021-07-13 > OSP-2373_email_clk_2021-07-14_2021-07-18 > OSP-2373_email_clk_2021-07-07_2021-07-13,45822.268770042,90.0,53.0,374,374,False
47,OSP-2373_rw_app_imp_2021-07-07_2021-07-13,6921190.7042726,19794.0,15908.0,84505,84505,False
48,_AlwaysOn_wow_web_view_2021-07-07_2021-07-13 > _AlwaysOn_wow_web_view_2021-07-07_2021-07-13 > _AlwaysOn_wow_web_clk_2021-07-07_2021-07-13,16353.269542263,10.0,3.0,282,282,False
49,OSP-2373_rw_web_oap_clk_2021-07-07_2021-07-13 > OSP-2373_email_open_2021-07-14_2021-07-18,53667.996002617,137.0,96.0,406,406,False
50,_AlwaysOn_wow_web_view_2021-07-14_2021-07-18 > OSP-2373_email_open_2021-07-14_2021-07-18 > OSP-2373_email_clk_2021-07-14_2021-07-18,111878.49020359,176.0,104.0,533,533,False
51,OSP-2373_rw_app_imp_2021-07-14_2021-07-18 > OSP-2373_rw_app_imp_2021-07-07_2021-07-13 > OSP-2373_email_open_2021-07-14_2021-07-18,321298.39443536,1088.0,784.0,3237,3237,False
52,OSP-2373_rw_app_imp_2021-07-14_2021-07-18 > OSP-2373_rw_app_imp_2021-07-07_2021-07-13 > OSP-2373_rw_app_clk_2021-07-14_2021-07-18 > OSP-2373_email_open_2021-07-14_2021-07-18 > OSP-2373_email_clk_2021-07-14_2021-07-18,35407.638597812,88.0,66.0,138,138,False
53,_AlwaysOn_wow_web_view_2021-07-07_2021-07-13 > OSP-2373_email_open_2021-07-07_2021-07-13,7121.2744915461,13.0,6.0,152,152,False
54,OSP-2373_rw_app_clk_2021-07-07_2021-07-13 > OSP-2373_email_open_2021-07-14_2021-07-18,42769.605604391,145.0,111.0,384,384,False
55,OSP-2373_rw_app_imp_2021-07-07_2021-07-13 > OSP-2373_email_open_2021-07-14_2021-07-18 > CVM-1661_rw_app_imp_2021-07-07_2021-07-13,12978.800337601,33.0,37.0,235,235,False
56,OSP-2373_rw_app_imp_2021-07-14_2021-07-18 > OSP-2373_rw_app_clk_2021-07-14_2021-07-18 > OSP-2373_email_open_2021-07-14_2021-07-18 > OSP-2373_email_clk_2021-07-14_2021-07-18,49906.370031058,128.0,71.0,255,255,False
57,OSP-2373_email_open_2021-07-07_2021-07-13 > OSP-2373_email_clk_2021-07-14_2021-07-18 > OSP-2373_email_clk_2021-07-07_2021-07-13,115602.21492242,207.0,119.0,679,679,False
58,OSP-2373_rw_app_imp_2021-07-14_2021-07-18 > OSP-2373_rw_app_imp_2021-07-07_2021-07-13 > OSP-2373_rw_app_clk_2021-07-14_2021-07-18,638513.90348567,1703.0,1114.0,3241,3241,False
59,FB_Impression_MobileFeed > OSP-2373_rw_app_imp_2021-07-07_2021-07-13 > OSP-2373_email_open_2021-07-14_2021-07-18,29173.533578041,89.0,75.0,274,274,False
60,_AlwaysOn_sem_brand_clk_2021-07-07_2021-07-13,12727.615902254,22.0,10.0,954,954,False
61,_AlwaysOn_wow_web_view_2021-07-07_2021-07-13 > _AlwaysOn_wow_web_clk_2021-07-07_2021-07-13,695557.68325967,543.0,119.0,8319,8319,False
62,OSP-2373_rw_app_imp_2021-07-14_2021-07-18 > OSP-2373_rw_app_imp_2021-07-07_2021-07-13 > OSP-2373_rw_app_clk_2021-07-14_2021-07-18 > OSP-2373_rw_app_clk_2021-07-07_2021-07-13 > OSP-2373_email_open_2021-07-14_2021-07-18,24296.447734943,107.0,61.0,134,134,False
63,OSP-2373_rw_app_imp_2021-07-07_2021-07-13 > OSP-2373_rw_app_clk_2021-07-14_2021-07-18 > OSP-2373_rw_app_clk_2021-07-07_2021-07-13,254287.95421732,979.0,786.0,1325,1325,False
64,FB_Impression_MobileFeed > OSP-2373_rw_app_imp_2021-07-07_2021-07-13 > OSP-2373_email_open_2021-07-14_2021-07-18 > OSP-2373_email_clk_2021-07-14_2021-07-18,6705.4112371643,63.0,65.0,189,189,False
65,_AlwaysOn_wow_web_view_2021-07-14_2021-07-18 > _AlwaysOn_wow_web_clk_2021-07-14_2021-07-18,1133278.2367694,1196.0,612.0,8073,8073,False
66,_AlwaysOn_wow_web_view_2021-07-14_2021-07-18 > OSP-2373_rw_app_imp_2021-07-14_2021-07-18,151505.13909088,261.0,164.0,839,839,False
67,_AlwaysOn_wow_web_view_2021-07-07_2021-07-13 > OSP-2373_rw_app_imp_2021-07-07_2021-07-13,75075.579002938,73.0,18.0,412,412,False
68,OSP-2373_rw_app_imp_2021-07-14_2021-07-18 > OSP-2373_rw_app_imp_2021-07-07_2021-07-13 > OSP-2373_rw_app_clk_2021-07-14_2021-07-18 > OSP-2373_rw_app_clk_2021-07-07_2021-07-13,198660.26547488,570.0,368.0,754,754,False
69,FB_Impression_InstagramStory > FB_Impression_MobileFeed > FB_Impression_InstagramStory,30308.038029011,80.0,76.0,1540,1540,False
70,_AlwaysOn_wow_web_view_2021-07-07_2021-07-13 > _AlwaysOn_wow_web_clk_2021-07-14_2021-07-18 > _AlwaysOn_wow_web_clk_2021-07-07_2021-07-13,67258.481081794,62.0,32.0,428,428,False
71,OSP-2373_rw_app_imp_2021-07-07_2021-07-13 > CVM-1661_rw_app_imp_2021-07-14_2021-07-18,13019.1173307,51.0,49.0,143,143,False
72,FB_Impression_InstagramStory > _AlwaysOn_wow_web_view_2021-07-07_2021-07-13,12486.955370813,14.0,4.0,318,318,False
73,_AlwaysOn_wow_web_view_2021-07-14_2021-07-18 > OSP-2373_rw_app_imp_2021-07-07_2021-07-13,25579.043824956,46.0,22.0,191,191,False
74,_AlwaysOn_wow_web_view_2021-07-07_2021-07-13 > _AlwaysOn_wow_web_clk_2021-07-07_2021-07-13 > OSP-2373_rw_app_imp_2021-07-14_2021-07-18,19217.436447208,30.0,14.0,182,182,False
75,_AlwaysOn_sem_shopping_clk_2021-07-07_2021-07-13 > OSP-2373_email_open_2021-07-14_2021-07-18 > OSP-2373_email_clk_2021-07-14_2021-07-18,4221.8896233723,10.0,10.0,107,107,False
76,OSP-2373_email_open_2021-07-14_2021-07-18 > CVM-1661_rw_app_imp_2021-07-07_2021-07-13,3554.5437952881,33.0,34.0,220,220,False
77,_AlwaysOn_wow_web_clk_2021-07-07_2021-07-13 > OSP-2373_rw_app_imp_2021-07-07_2021-07-13,37366.015275096,44.0,15.0,135,135,False
78,FB_Impression_MobileFeed > FB_Impression_InstagramStory > OSP-2373_email_open_2021-07-14_2021-07-18,61.09457942115,23.0,40.0,245,245,False
79,FB_Impression_MobileFeed > OSP-2373_rw_app_imp_2021-07-14_2021-07-18 > OSP-2373_rw_app_clk_2021-07-14_2021-07-18,75477.605944688,214.0,148.0,500,500,False
80,FB_Impression_MobileFeed > FB_Impression_InstagramStory > FB_Impression_MobileFeed,63168.093361214,140.0,109.0,2453,2453,False
81,FB_Impression_MobileFeed > _AlwaysOn_wow_web_view_2021-07-14_2021-07-18 > OSP-2373_email_open_2021-07-14_2021-07-18 > OSP-2373_email_clk_2021-07-14_2021-07-18,20909.890446633,53.0,38.0,108,108,False
82,_AlwaysOn_wow_web_clk_2021-07-14_2021-07-18 > OSP-2373_rw_app_imp_2021-07-14_2021-07-18 > OSP-2373_rw_app_imp_2021-07-07_2021-07-13,26336.178100606,75.0,56.0,158,158,False
83,FB_Impression_MobileFeed > FB_Impression_InstagramStory > FB_Impression_MobileFeed > OSP-2373_rw_app_imp_2021-07-14_2021-07-18,17141.103907556,47.0,35.0,192,192,False
84,OSP-2373_rw_web_oap_clk_2021-07-07_2021-07-13 > OSP-2373_email_open_2021-07-14_2021-07-18 > OSP-2373_email_clk_2021-07-14_2021-07-18,24108.503444636,91.0,66.0,239,239,False
85,_AlwaysOn_wow_web_view_2021-07-14_2021-07-18 > OSP-2373_email_open_2021-07-14_2021-07-18,121528.81537153,229.0,137.0,1419,1419,False
86,OSP-2373_rw_app_imp_2021-07-07_2021-07-13 > OSP-2373_rw_app_clk_2021-07-14_2021-07-18 > OSP-2373_email_open_2021-07-14_2021-07-18,117279.18917846,487.0,403.0,756,756,False
87,OSP-2373_rw_app_imp_2021-07-07_2021-07-13 > OSP-2373_rw_app_clk_2021-07-14_2021-07-18,796980.44964128,2491.0,2085.0,4270,4270,False
88,OSP-2373_rw_app_imp_2021-07-14_2021-07-18 > OSP-2373_rw_app_imp_2021-07-07_2021-07-13 > OSP-2373_rw_app_clk_2021-07-14_2021-07-18 > OSP-2373_email_open_2021-07-14_2021-07-18,42484.188754182,235.0,180.0,409,409,False
89,FB_Impression_MobileFeed > OSP-2373_email_open_2021-07-14_2021-07-18 > OSP-2373_email_clk_2021-07-14_2021-07-18,604901.98855734,1647.0,1325.0,5591,5591,False
90,OSP-2373_rw_web_oap_clk_2021-07-14_2021-07-18 > OSP-2373_email_open_2021-07-14_2021-07-18 > OSP-2373_email_clk_2021-07-14_2021-07-18,68828.565333564,144.0,101.0,500,500,False
91,FB_Impression_MobileFeed > OSP-2373_rw_app_imp_2021-07-14_2021-07-18 > OSP-2373_rw_app_imp_2021-07-07_2021-07-13,450603.42018553,1230.0,967.0,3012,3012,False
92,_AlwaysOn_wow_web_view_2021-07-14_2021-07-18 > _AlwaysOn_wow_web_view_2021-07-07_2021-07-13 > _AlwaysOn_wow_web_clk_2021-07-14_2021-07-18,78598.895936241,75.0,23.0,909,909,False
93,OSP-2373_rw_app_imp_2021-07-14_2021-07-18 > OSP-2373_rw_app_clk_2021-07-14_2021-07-18,834661.16518248,1873.0,1195.0,6442,6442,False
94,FB_Impression_MobileFeed > OSP-2373_rw_app_imp_2021-07-14_2021-07-18 > OSP-2373_rw_app_imp_2021-07-07_2021-07-13 > OSP-2373_email_open_2021-07-14_2021-07-18 > OSP-2373_email_clk_2021-07-14_2021-07-18,16116.074656346,67.0,61.0,133,133,False
95,OSP-2373_rw_app_imp_2021-07-14_2021-07-18 > OSP-2373_rw_app_imp_2021-07-07_2021-07-13 > OSP-2373_email_open_2021-07-07_2021-07-13,26787.570857378,63.0,28.0,160,160,False
96,CVM-1661_email_clk_2021-07-14_2021-07-18,-539.44310866646,1.0,5.0,741,741,False
97,FB_Impression_InstagramStory > _AlwaysOn_wow_web_view_2021-07-14_2021-07-18 > _AlwaysOn_wow_web_clk_2021-07-14_2021-07-18,24832.401431756,39.0,27.0,150,150,False
98,FB_Impression_InstagramStory > FB_Impression_MobileFeed > OSP-2373_rw_app_imp_2021-07-07_2021-07-13,18249.755201576,47.0,34.0,143,143,False
99,FB_Impression_MobileFeed > FB_Impression_InstagramStory > OSP-2373_rw_app_imp_2021-07-14_2021-07-18 > OSP-2373_rw_app_imp_2021-07-07_2021-07-13,14054.464638073,51.0,28.0,118,118,False
100,FB_Impression_FacebookStory,21611.296824602,75.0,80.0,1359,1359,False
101,CVM-1661_rw_app_imp_2021-07-14_2021-07-18,67603.494475185,162.0,140.0,554,554,False
102,OSP-2373_rw_app_imp_2021-07-14_2021-07-18 > OSP-2373_email_open_2021-07-14_2021-07-18 > OSP-2373_email_clk_2021-07-14_2021-07-18,286540.11275554,746.0,470.0,2152,2152,False
103,FB_Impression_MobileFeed > FB_Impression_InstagramStory,78369.452623099,165.0,155.0,2747,2747,False
104,OSP-2373_email_open_2021-07-14_2021-07-18 > OSP-2373_email_open_2021-07-07_2021-07-13 > OSP-2373_email_clk_2021-07-14_2021-07-18,141996.93648395,424.0,352.0,1790,1790,False
105,_AlwaysOn_wow_web_view_2021-07-14_2021-07-18 > _AlwaysOn_wow_web_clk_2021-07-14_2021-07-18 > OSP-2373_email_open_2021-07-14_2021-07-18,73739.091321073,135.0,97.0,572,572,False
107,FB_Impression_WebFeed > OSP-2373_email_open_2021-07-14_2021-07-18 > OSP-2373_email_clk_2021-07-14_2021-07-18,36164.914609075,85.0,77.0,345,345,False
108,OSP-2373_rw_app_imp_2021-07-07_2021-07-13 > OSP-2373_rw_app_imp_2021-07-07_2021-07-13 > OSP-2373_rw_app_clk_2021-07-07_2021-07-13,35218.951804401,125.0,82.0,192,192,False
109,FB_Impression_InstagramStory > FB_Impression_MobileFeed > OSP-2373_email_open_2021-07-14_2021-07-18 > OSP-2373_email_clk_2021-07-14_2021-07-18,32710.229579396,46.0,42.0,146,146,False
110,OSP-2373_email_open_2021-07-14_2021-07-18 > OSP-2373_email_open_2021-07-07_2021-07-13 > OSP-2373_email_clk_2021-07-07_2021-07-13,34370.762895543,56.0,24.0,360,360,False
111,FB_Impression_InstagramStory > OSP-2373_rw_app_imp_2021-07-07_2021-07-13,57520.84535174,159.0,113.0,643,643,False
112,_AlwaysOn_wow_web_view_2021-07-14_2021-07-18 > _AlwaysOn_wow_web_view_2021-07-07_2021-07-13,86155.995410879,91.0,25.0,3227,3227,False
113,FB_Impression_MobileFeed > OSP-2373_rw_app_imp_2021-07-14_2021-07-18 > OSP-2373_rw_app_imp_2021-07-07_2021-07-13 > OSP-2373_rw_app_clk_2021-07-14_2021-07-18,58618.451821816,222.0,179.0,354,354,False
114,_AlwaysOn_wow_web_view_2021-07-07_2021-07-13 > OSP-2373_email_open_2021-07-14_2021-07-18 > OSP-2373_email_clk_2021-07-14_2021-07-18,100016.77628992,123.0,37.0,579,579,False
115,FB_Impression_MobileFeed > FB_Impression_InstagramStory > OSP-2373_rw_app_imp_2021-07-14_2021-07-18,15384.828695029,69.0,55.0,249,249,False
116,OSP-2373_rw_app_imp_2021-07-07_2021-07-13 > OSP-2373_rw_app_clk_2021-07-07_2021-07-13 > OSP-2373_email_open_2021-07-14_2021-07-18 > OSP-2373_email_clk_2021-07-14_2021-07-18,44346.694855578,172.0,133.0,283,283,False
117,OSP-2373_rw_web_oap_clk_2021-07-14_2021-07-18,128159.40591216,321.0,209.0,2128,2128,False
118,OSP-2373_email_clk_2021-07-14_2021-07-18,8106725.9044108,21562.0,17670.0,65395,65395,False
119,_AlwaysOn_wow_web_view_2021-07-07_2021-07-13 > OSP-2373_rw_app_imp_2021-07-14_2021-07-18,71766.493827236,82.0,40.0,675,675,False
120,_AlwaysOn_sem_shopping_clk_2021-07-07_2021-07-13 > OSP-2373_rw_app_imp_2021-07-14_2021-07-18,8321.3966247871,13.0,5.0,198,198,False
121,FB_Impression_MobileFeed > OSP-2373_email_open_2021-07-07_2021-07-13,32869.142388033,81.0,64.0,594,594,False
122,OSP-2373_email_open_2021-07-14_2021-07-18 > OSP-2373_email_clk_2021-07-14_2021-07-18,4781302.3416564,13187.0,10533.0,64915,64915,False
123,FB_Impression_InstagramStory > _AlwaysOn_wow_web_view_2021-07-07_2021-07-13 > _AlwaysOn_wow_web_clk_2021-07-07_2021-07-13,8630.9523064842,10.0,2.0,109,109,False
124,FB_Impression_MobileFeed > OSP-2373_email_open_2021-07-14_2021-07-18 > OSP-2373_email_open_2021-07-07_2021-07-13 > OSP-2373_email_clk_2021-07-14_2021-07-18,22173.424925233,53.0,46.0,174,174,False
125,FB_Impression_InstagramStory > OSP-2373_rw_app_imp_2021-07-14_2021-07-18 > OSP-2373_email_open_2021-07-14_2021-07-18,25761.573636366,72.0,51.0,204,204,False
126,OSP-2373_rw_app_imp_2021-07-14_2021-07-18 > OSP-2373_rw_app_imp_2021-07-14_2021-07-18 > OSP-2373_rw_app_imp_2021-07-07_2021-07-13,22836.35519686,61.0,40.0,173,173,False
127,_AlwaysOn_wow_web_clk_2021-07-07_2021-07-13 > OSP-2373_rw_app_imp_2021-07-14_2021-07-18,29894.277435684,28.0,11.0,162,162,False
128,OSP-2373_rw_app_clk_2021-07-14_2021-07-18 > OSP-2373_rw_app_clk_2021-07-07_2021-07-13,19737.509653849,50.0,38.0,140,140,False
129,FB_Impression_WebFeed > FB_Impression_MobileFeed > OSP-2373_email_open_2021-07-14_2021-07-18,6904.6516567583,17.0,13.0,136,136,False
130,FB_Impression_InstagramStory > FB_Impression_MobileFeed > FB_Impression_InstagramStory > OSP-2373_rw_app_imp_2021-07-14_2021-07-18,19020.206290739,40.0,27.0,156,156,False
131,FB_Impression_MobileFeed > OSP-2373_rw_app_imp_2021-07-14_2021-07-18 > OSP-2373_rw_app_imp_2021-07-07_2021-07-13 > OSP-2373_rw_app_clk_2021-07-07_2021-07-13,49304.949554376,168.0,121.0,286,286,False
132,_AlwaysOn_wow_web_view_2021-07-07_2021-07-13 > OSP-2373_rw_app_imp_2021-07-14_2021-07-18 > OSP-2373_rw_app_imp_2021-07-07_2021-07-13,54429.98551765,73.0,22.0,297,297,False
133,_AlwaysOn_wow_web_view_2021-07-07_2021-07-13,672153.44137686,696.0,294.0,38718,38718,False
134,_AlwaysOn_wow_web_view_2021-07-14_2021-07-18 > OSP-2373_rw_app_imp_2021-07-14_2021-07-18 > OSP-2373_rw_app_imp_2021-07-07_2021-07-13,20151.649488976,71.0,49.0,202,202,False
135,_AlwaysOn_sem_shopping_clk_2021-07-07_2021-07-13 > OSP-2373_email_open_2021-07-14_2021-07-18,6173.5357193379,16.0,5.0,304,304,False
136,FB_Impression_MobileFeed > OSP-2373_rw_app_imp_2021-07-07_2021-07-13,256176.0599176,619.0,474.0,2148,2148,False
137,OSP-2373_email_open_2021-07-14_2021-07-18 > OSP-2373_email_open_2021-07-14_2021-07-18 > OSP-2373_email_clk_2021-07-14_2021-07-18,66031.635264422,182.0,143.0,324,324,False
138,FB_Impression_WebFeed > OSP-2373_email_open_2021-07-14_2021-07-18,17240.770009727,97.0,122.0,839,839,False
139,OSP-2373_rw_app_clk_2021-07-14_2021-07-18 > OSP-2373_email_open_2021-07-14_2021-07-18,139750.99554531,505.0,413.0,1198,1198,False
140,OSP-2373_rw_app_imp_2021-07-14_2021-07-18,6015829.091558,15501.0,12073.0,140861,140861,False
141,OSP-2373_rw_app_clk_2021-07-14_2021-07-18,1108323.2455386,2869.0,2177.0,7518,7518,False
142,OSP-2373_rw_app_imp_2021-07-07_2021-07-13 > OSP-2373_rw_app_imp_2021-07-07_2021-07-13 > OSP-2373_email_open_2021-07-14_2021-07-18,15362.472044914,64.0,50.0,116,116,False
143,FB_Impression_MobileFeed > OSP-2373_email_open_2021-07-07_2021-07-13 > OSP-2373_email_clk_2021-07-07_2021-07-13,28912.487754771,31.0,13.0,135,135,False
144,OSP-2373_email_open_2021-07-14_2021-07-18 > OSP-2373_email_clk_2021-07-14_2021-07-18 > CVM-1661_rw_app_imp_2021-07-14_2021-07-18,20194.885046224,41.0,41.0,135,135,False
145,FB_Impression_MobileFeed > OSP-2373_rw_app_imp_2021-07-14_2021-07-18 > OSP-2373_email_open_2021-07-14_2021-07-18 > OSP-2373_email_clk_2021-07-14_2021-07-18,81957.176376265,190.0,134.0,427,427,False
146,FB_Impression_InStream > OSP-2373_email_open_2021-07-14_2021-07-18,6918.2735020785,18.0,20.0,131,131,False
147,OSP-2373_rw_app_imp_2021-07-07_2021-07-13 > OSP-2373_email_open_2021-07-14_2021-07-18,671009.20520845,2639.0,2124.0,7847,7847,False
148,_AlwaysOn_sem_shopping_clk_2021-07-14_2021-07-18,58292.980549222,102.0,101.0,3339,3339,False
149,_AlwaysOn_sem_shopping_clk_2021-07-14_2021-07-18 > _AlwaysOn_sem_shopping_clk_2021-07-07_2021-07-13,-57.861854917864,0.0,1.0,110,110,False
150,OSP-2373_rw_app_imp_2021-07-14_2021-07-18 > OSP-2373_rw_app_imp_2021-07-07_2021-07-13 > OSP-2373_rw_app_clk_2021-07-07_2021-07-13 > OSP-2373_email_open_2021-07-14_2021-07-18,35913.943403965,165.0,110.0,309,309,False
151,_AlwaysOn_wow_web_view_2021-07-07_2021-07-13 > _AlwaysOn_wow_web_view_2021-07-07_2021-07-13,16551.348034807,16.0,7.0,320,320,False
152,OSP-2373_email_open_2021-07-07_2021-07-13,663336.4935052,2003.0,1700.0,27880,27880,False
153,CVM-1661_email_open_2021-07-14_2021-07-18,4316.1281705591,12.0,16.0,1363,1363,False
154,FB_Impression_WebFeed > OSP-2373_rw_app_imp_2021-07-14_2021-07-18,7564.0204798539,46.0,42.0,182,182,False
155,_AlwaysOn_wow_web_clk_2021-07-14_2021-07-18 > OSP-2373_rw_app_imp_2021-07-14_2021-07-18,171078.16909654,290.0,198.0,553,553,False
156,FB_Impression_MobileFeed > _AlwaysOn_wow_web_view_2021-07-07_2021-07-13 > OSP-2373_email_open_2021-07-14_2021-07-18,8747.4389402422,9.0,1.0,127,127,False
157,_AlwaysOn_wow_web_view_2021-07-14_2021-07-18 > _AlwaysOn_wow_web_clk_2021-07-14_2021-07-18 > OSP-2373_email_open_2021-07-14_2021-07-18 > OSP-2373_email_clk_2021-07-14_2021-07-18,65601.394630146,98.0,69.0,262,262,False
158,OSP-2373_rw_web_oap_clk_2021-07-07_2021-07-13,116650.54438474,276.0,175.0,1577,1577,False
159,_AlwaysOn_wow_web_view_2021-07-07_2021-07-13 > _AlwaysOn_wow_web_clk_2021-07-07_2021-07-13 > OSP-2373_rw_app_imp_2021-07-07_2021-07-13,54271.898223261,43.0,15.0,174,174,False
160,FB_Impression_MobileFeed > _AlwaysOn_wow_web_view_2021-07-14_2021-07-18 > _AlwaysOn_wow_web_view_2021-07-07_2021-07-13,7112.6139042233,12.0,5.0,299,299,False
161,FB_Impression_MobileFeed > OSP-2373_rw_app_imp_2021-07-14_2021-07-18,495855.95703365,1622.0,1398.0,6222,6222,False
162,FB_Impression_MobileFeed > OSP-2373_rw_app_imp_2021-07-14_2021-07-18 > OSP-2373_rw_app_imp_2021-07-07_2021-07-13 > OSP-2373_email_open_2021-07-14_2021-07-18,39933.823795543,195.0,158.0,433,433,False
163,FB_Impression_InstagramStory > FB_Impression_MobileFeed > OSP-2373_rw_app_imp_2021-07-14_2021-07-18 > OSP-2373_rw_app_imp_2021-07-07_2021-07-13,8025.9072241375,54.0,54.0,159,159,False
164,_AlwaysOn_wow_web_clk_2021-07-07_2021-07-13,632150.24022019,475.0,134.0,4901,4901,False
165,OSP-2373_rw_app_imp_2021-07-07_2021-07-13 > OSP-2373_email_open_2021-07-14_2021-07-18 > OSP-2373_email_open_2021-07-07_2021-07-13,11481.10092536,109.0,83.0,287,287,False
166,OSP-2373_email_clk_2021-07-07_2021-07-13,183057.02443962,338.0,177.0,1550,1550,False
167,OSP-2373_rw_app_imp_2021-07-07_2021-07-13 > OSP-2373_rw_app_imp_2021-07-07_2021-07-13,131462.43748878,373.0,327.0,685,685,False
168,OSP-2373_email_open_2021-07-07_2021-07-13 > OSP-2373_email_clk_2021-07-14_2021-07-18,202303.94282811,689.0,593.0,2262,2262,False
169,OSP-2373_email_open_2021-07-14_2021-07-18 > CVM-1661_rw_app_imp_2021-07-14_2021-07-18,28018.57226383,82.0,64.0,297,297,False
170,FB_Impression_InstagramStory > OSP-2373_email_open_2021-07-14_2021-07-18 > OSP-2373_email_clk_2021-07-14_2021-07-18,100991.85261379,262.0,209.0,882,882,False
171,OSP-2373_email_open_2021-07-07_2021-07-13 > CVM-1661_email_open_2021-07-07_2021-07-13,-882.39329500302,2.0,10.0,192,192,False
172,OSP-2373_rw_app_imp_2021-07-14_2021-07-18 > OSP-2373_email_open_2021-07-14_2021-07-18 > CVM-1661_rw_app_imp_2021-07-14_2021-07-18,16933.472979212,35.0,24.0,152,152,False
173,FB_Impression_MobileFeed > FB_Impression_InstagramStory > OSP-2373_email_open_2021-07-14_2021-07-18 > OSP-2373_email_clk_2021-07-14_2021-07-18,-558.50523259774,33.0,44.0,132,132,False
174,OSP-2373_rw_app_imp_2021-07-07_2021-07-13 > OSP-2373_email_open_2021-07-07_2021-07-13,54245.129292832,127.0,89.0,445,445,False
175,CVM-1661_rw_app_imp_2021-07-07_2021-07-13,61371.863669033,117.0,99.0,594,594,False
176,OSP-2373_rw_app_clk_2021-07-07_2021-07-13,412512.75886006,952.0,692.0,2755,2755,False
177,OSP-2373_rw_app_imp_2021-07-14_2021-07-18 > OSP-2373_rw_app_imp_2021-07-07_2021-07-13 > CVM-1661_rw_app_imp_2021-07-07_2021-07-13,21249.660706528,25.0,23.0,209,209,False
178,_AlwaysOn_wow_web_view_2021-07-14_2021-07-18 > _AlwaysOn_wow_web_view_2021-07-07_2021-07-13 > _AlwaysOn_wow_web_clk_2021-07-07_2021-07-13,13441.07014622,12.0,7.0,575,575,False
179,OSP-2373_rw_app_imp_2021-07-14_2021-07-18 > OSP-2373_rw_app_imp_2021-07-07_2021-07-13 > OSP-2373_rw_app_clk_2021-07-07_2021-07-13,337490.16784626,1066.0,688.0,2218,2218,False
180,_AlwaysOn_wow_web_clk_2021-07-07_2021-07-13 > OSP-2373_rw_app_imp_2021-07-14_2021-07-18 > OSP-2373_rw_app_imp_2021-07-07_2021-07-13,31291.718628447,33.0,12.0,114,114,False
181,FB_Impression_MobileFeed > _AlwaysOn_wow_web_view_2021-07-14_2021-07-18,88044.918452934,127.0,109.0,1349,1349,False
182,OSP-2373_rw_app_imp_2021-07-07_2021-07-13 > OSP-2373_rw_app_clk_2021-07-14_2021-07-18 > OSP-2373_email_open_2021-07-14_2021-07-18 > OSP-2373_email_clk_2021-07-14_2021-07-18,59447.592305681,211.0,153.0,283,283,False
183,OSP-2373_email_open_2021-07-07_2021-07-13 > OSP-2373_email_clk_2021-07-07_2021-07-13,168487.60271263,302.0,144.0,2211,2211,False
184,FB_Impression_MobileFeed > _AlwaysOn_wow_web_view_2021-07-14_2021-07-18 > _AlwaysOn_wow_web_clk_2021-07-14_2021-07-18,100462.07705504,126.0,71.0,541,541,False
185,_AlwaysOn_wow_web_clk_2021-07-14_2021-07-18,1032926.2067254,1210.0,846.0,5591,5591,False
186,_AlwaysOn_wow_web_view_2021-07-07_2021-07-13 > _AlwaysOn_wow_web_clk_2021-07-07_2021-07-13 > OSP-2373_email_open_2021-07-14_2021-07-18,58733.422895851,61.0,14.0,491,491,False
187,FB_Impression_InstagramStory > _AlwaysOn_wow_web_view_2021-07-14_2021-07-18,19297.521916113,42.0,35.0,296,296,False
188,FB_Impression_FacebookStory > OSP-2373_email_open_2021-07-14_2021-07-18,3457.9076100487,11.0,10.0,126,126,False
189,FB_Impression_MobileFeed > OSP-2373_email_open_2021-07-14_2021-07-18,441280.60617007,1294.0,1204.0,9917,9917,False
190,FB_Impression_MobileFeed > OSP-2373_rw_app_imp_2021-07-07_2021-07-13 > OSP-2373_rw_app_clk_2021-07-07_2021-07-13,29911.581113331,60.0,41.0,168,168,False
191,FB_Impression_MobileFeed > _AlwaysOn_wow_web_view_2021-07-14_2021-07-18 > OSP-2373_rw_app_imp_2021-07-14_2021-07-18,36069.959860656,53.0,31.0,135,135,False
192,_AlwaysOn_wow_web_view_2021-07-07_2021-07-13 > _AlwaysOn_sem_shopping_clk_2021-07-07_2021-07-13,4211.9597659837,9.0,5.0,245,245,False
193,OSP-2373_rw_app_imp_2021-07-14_2021-07-18 > CVM-1661_rw_app_imp_2021-07-14_2021-07-18,25787.901750239,64.0,43.0,312,312,False
194,OSP-2373_rw_app_imp_2021-07-07_2021-07-13 > OSP-2373_email_open_2021-07-14_2021-07-18 > OSP-2373_email_clk_2021-07-14_2021-07-18,342204.24280729,1222.0,942.0,2783,2783,False
195,OSP-2373_email_open_2021-07-14_2021-07-18 > OSP-2373_email_open_2021-07-07_2021-07-13,240662.13893605,776.0,623.0,7190,7190,False
196,CVM-1661_email_open_2021-07-07_2021-07-13,6571.5626551255,7.0,13.0,1125,1125,False
197,FB_Impression_MobileFeed > FB_Impression_InstagramStory > FB_Impression_MobileFeed > OSP-2373_email_open_2021-07-14_2021-07-18,12309.188823181,18.0,18.0,208,208,False
198,OSP-2373_rw_app_imp_2021-07-14_2021-07-18 > OSP-2373_rw_app_clk_2021-07-14_2021-07-18 > OSP-2373_email_open_2021-07-14_2021-07-18,89465.74409598,265.0,157.0,692,692,False
199,FB_Impression_MobileFeed > _AlwaysOn_wow_web_view_2021-07-07_2021-07-13 > _AlwaysOn_wow_web_clk_2021-07-07_2021-07-13,54609.236413083,50.0,22.0,489,489,False
200,FB_Impression_MobileFeed > OSP-2373_email_open_2021-07-14_2021-07-18 > OSP-2373_email_open_2021-07-07_2021-07-13,9111.1905115007,55.0,55.0,369,369,False
201,FB_Impression_WebFeed > _AlwaysOn_wow_web_view_2021-07-07_2021-07-13,7360.0550363984,4.0,0.0,112,112,False
202,FB_Impression_MobileFeed > _AlwaysOn_wow_web_view_2021-07-07_2021-07-13,63944.179100135,65.0,27.0,1396,1396,False
203,OSP-2373_email_open_2021-07-14_2021-07-18,5949368.1587471,19014.0,17039.0,332871,332871,False
204,_AlwaysOn_wow_web_clk_2021-07-07_2021-07-13 > OSP-2373_email_open_2021-07-14_2021-07-18 > OSP-2373_email_clk_2021-07-14_2021-07-18,53612.284639672,52.0,17.0,189,189,False
205,FB_Impression_Instagram > OSP-2373_email_open_2021-07-14_2021-07-18,336.73193188012,6.0,3.0,146,146,False
206,OSP-2373_rw_app_imp_2021-07-14_2021-07-18 > OSP-2373_rw_app_imp_2021-07-07_2021-07-13,3489377.6696022,9513.0,6609.0,34083,34083,False
207,FB_Impression_WebFeed,70780.638002588,327.0,300.0,6151,6151,False
208,FB_Impression_InstagramStory > OSP-2373_email_open_2021-07-14_2021-07-18,63101.539638534,199.0,187.0,1886,1886,False
209,_AlwaysOn_wow_web_clk_2021-07-07_2021-07-13 > OSP-2373_email_open_2021-07-14_2021-07-18,42264.727204938,53.0,26.0,430,430,False
210,FB_Impression_InstagramStory > FB_Impression_MobileFeed,70959.598147834,207.0,206.0,3585,3585,False
211,FB_Impression_InStream > OSP-2373_email_open_2021-07-14_2021-07-18 > OSP-2373_email_clk_2021-07-14_2021-07-18,12694.186836997,30.0,24.0,121,121,False
