,path,total_conversion_value,conversions,non_conversions,cnt,ppl,Converted
0,OSP-2373_rw_app_imp_2021-12-22_2021-12-26 > OSP-2373_rw_app_imp_2021-12-15_2021-12-21 > OSP-2373_rw_app_clk_2021-12-22_2021-12-26 > OSP-2373_rw_app_clk_2021-12-15_2021-12-21 > OSP-2373_email_open_2021-12-22_2021-12-26 > OSP-2373_email_clk_2021-12-22_2021-12-26,463.23097794412,21.0,20.0,122,122,False
1,_AlwaysOn_wow_web_view_2021-12-15_2021-12-21 > _AlwaysOn_sem_shopping_clk_2021-12-15_2021-12-21 > OSP-2373_rw_app_imp_2021-12-22_2021-12-26 > OSP-2373_rw_app_clk_2021-12-22_2021-12-26,495.51101332484,8.0,7.0,137,137,False
2,_AlwaysOn_wow_web_clk_2021-12-15_2021-12-21 > OSP-2373_rw_app_imp_2021-12-22_2021-12-26 > OSP-2373_rw_app_clk_2021-12-22_2021-12-26 > OSP-2373_email_open_2021-12-22_2021-12-26 > OSP-2373_email_clk_2021-12-22_2021-12-26,2567.1613304987,39.0,23.0,243,243,False
3,FB_Impression_WebFeed > OSP-2373_email_open_2021-12-22_2021-12-26,-383.45336231019,11.0,17.0,321,321,False
4,OSP-2373_rw_app_imp_2021-12-15_2021-12-21 > OSP-2373_rw_app_clk_2021-12-22_2021-12-26,300723.50902183,10828.0,9195.0,34748,34748,False
5,OSP-2373_rw_app_imp_2021-12-15_2021-12-21 > OSP-2373_rw_app_clk_2021-12-22_2021-12-26 > OSP-2373_email_open_2021-12-15_2021-12-21,4332.6397456584,44.0,37.0,151,151,False
6,OSP-2373_rw_app_imp_2021-12-22_2021-12-26 > OSP-2373_rw_app_clk_2021-12-22_2021-12-26 > OSP-2373_email_open_2021-12-22_2021-12-26 > OSP-2373_email_open_2021-12-15_2021-12-21,2113.1880681338,40.0,31.0,203,203,False
7,OSP-2373_rw_app_imp_2021-12-15_2021-12-21 > OSP-2373_rw_app_clk_2021-12-22_2021-12-26 > OSP-2373_rw_app_clk_2021-12-15_2021-12-21 > OSP-2373_email_open_2021-12-22_2021-12-26 > OSP-2373_email_clk_2021-12-22_2021-12-26,5837.2437474154,71.0,36.0,278,278,False
8,_AlwaysOn_wow_web_view_2021-12-22_2021-12-26 > _AlwaysOn_wow_web_view_2021-12-15_2021-12-21 > OSP-2373_email_open_2021-12-22_2021-12-26,-372.93527092081,16.0,14.0,517,517,False
9,_AlwaysOn_wow_web_view_2021-12-22_2021-12-26 > OSP-2373_rw_app_imp_2021-12-22_2021-12-26 > OSP-2373_email_open_2021-12-22_2021-12-26,136.14443070555,13.0,18.0,128,128,False
10,_AlwaysOn_wow_web_view_2021-12-15_2021-12-21 > OSP-2373_rw_app_imp_2021-12-22_2021-12-26,4022.95644038,45.0,32.0,2012,2012,False
11,_AlwaysOn_sem_shopping_clk_2021-12-15_2021-12-21 > OSP-2373_email_open_2021-12-22_2021-12-26,1685.1272052033,22.0,13.0,1214,1214,False
12,_AlwaysOn_wow_web_view_2021-12-15_2021-12-21 > OSP-2373_rw_app_imp_2021-12-15_2021-12-21 > OSP-2373_email_open_2021-12-22_2021-12-26 > OSP-2373_email_clk_2021-12-22_2021-12-26,1243.2234478733,32.0,23.0,264,264,False
13,_AlwaysOn_wow_web_view_2021-12-15_2021-12-21 > _AlwaysOn_sem_shopping_clk_2021-12-15_2021-12-21 > OSP-2373_rw_app_imp_2021-12-15_2021-12-21,104.31689145082,1.0,0.0,101,101,False
14,_AlwaysOn_wow_web_clk_2021-12-15_2021-12-21 > _AlwaysOn_sem_shopping_clk_2021-12-15_2021-12-21 > OSP-2373_email_open_2021-12-22_2021-12-26 > OSP-2373_email_clk_2021-12-22_2021-12-26,1528.3250082768,16.0,4.0,102,102,False
15,FB_Impression_Instagram > _AlwaysOn_wow_web_view_2021-12-15_2021-12-21,132.892727272,1.0,0.0,159,159,False
16,OSP-2373_rw_app_imp_2021-12-22_2021-12-26 > OSP-2373_rw_app_imp_2021-12-15_2021-12-21 > OSP-2373_rw_app_clk_2021-12-22_2021-12-26 > OSP-2373_email_open_2021-12-22_2021-12-26 > OSP-2373_email_open_2021-12-15_2021-12-21,563.98758426981,67.0,53.0,210,210,False
17,OSP-2373_rw_app_imp_2021-12-22_2021-12-26 > OSP-2373_email_open_2021-12-22_2021-12-26 > OSP-2373_email_open_2021-12-15_2021-12-21 > OSP-2373_email_clk_2021-12-22_2021-12-26,1110.4816256482,31.0,27.0,149,149,False
18,OSP-2373_rw_app_imp_2021-12-15_2021-12-21 > OSP-2373_email_open_2021-12-22_2021-12-26 > OSP-2373_email_open_2021-12-22_2021-12-26,1178.1810341582,26.0,21.0,172,172,False
19,_AlwaysOn_wow_web_clk_2021-12-15_2021-12-21 > OSP-2373_email_open_2021-12-22_2021-12-26 > OSP-2373_email_open_2021-12-22_2021-12-26 > OSP-2373_email_clk_2021-12-22_2021-12-26,1575.1054990064,24.0,15.0,166,166,False
20,OSP-2373_rw_app_imp_2021-12-22_2021-12-26 > OSP-2373_rw_app_imp_2021-12-15_2021-12-21 > OSP-2373_email_open_2021-12-22_2021-12-26 > OSP-2373_email_open_2021-12-15_2021-12-21 > OSP-2373_email_clk_2021-12-22_2021-12-26,1012.5957833184,33.0,22.0,132,132,False
21,_AlwaysOn_wow_web_clk_2021-12-15_2021-12-21 > OSP-2373_rw_app_imp_2021-12-22_2021-12-26 > OSP-2373_rw_app_imp_2021-12-15_2021-12-21 > OSP-2373_email_open_2021-12-22_2021-12-26,-182.48029630847,16.0,8.0,227,227,False
22,OSP-2373_rw_app_clk_2021-12-22_2021-12-26 > OSP-2373_email_open_2021-12-22_2021-12-26 > OSP-2373_email_open_2021-12-15_2021-12-21 > OSP-2373_email_clk_2021-12-22_2021-12-26,435.18437300671,57.0,47.0,182,182,False
23,FB_Impression_MobileFeed > OSP-2373_rw_app_imp_2021-12-15_2021-12-21,-99.718695694232,7.0,9.0,284,284,False
24,OSP-2373_email_open_2021-12-22_2021-12-26,194366.4758853,15121.0,16362.0,714340,714340,False
25,OSP-2373_email_open_2021-12-22_2021-12-26 > OSP-2373_email_open_2021-12-22_2021-12-26 > OSP-2373_email_open_2021-12-15_2021-12-21 > OSP-2373_email_clk_2021-12-22_2021-12-26,-553.22266556096,28.0,34.0,165,165,False
26,_AlwaysOn_wow_web_view_2021-12-22_2021-12-26 > _AlwaysOn_wow_web_view_2021-12-15_2021-12-21 > _AlwaysOn_wow_web_clk_2021-12-22_2021-12-26 > _AlwaysOn_wow_web_clk_2021-12-15_2021-12-21,1684.9541947167,21.0,7.0,122,122,False
27,_AlwaysOn_wow_web_view_2021-12-15_2021-12-21 > OSP-2373_rw_app_imp_2021-12-22_2021-12-26 > OSP-2373_rw_app_imp_2021-12-15_2021-12-21 > OSP-2373_email_open_2021-12-22_2021-12-26,686.49583357316,20.0,8.0,280,280,False
28,_AlwaysOn_wow_web_view_2021-12-22_2021-12-26 > OSP-2373_email_open_2021-12-22_2021-12-26,4653.1006590523,170.0,139.0,2066,2066,False
29,OSP-2373_email_open_2021-12-22_2021-12-26 > OSP-2373_email_open_2021-12-22_2021-12-26,-696.33084533841,45.0,71.0,481,481,False
30,_AlwaysOn_wow_web_view_2021-12-15_2021-12-21 > _AlwaysOn_wow_web_view_2021-12-15_2021-12-21 > _AlwaysOn_wow_web_clk_2021-12-15_2021-12-21,1117.5147864117,14.0,8.0,486,486,False
31,OSP-2373_rw_app_clk_2021-12-22_2021-12-26 > OSP-2373_email_open_2021-12-22_2021-12-26 > OSP-2373_email_open_2021-12-22_2021-12-26,510.97761526196,100.0,90.0,298,298,False
32,OSP-2373_email_open_2021-12-22_2021-12-26 > OSP-2373_email_open_2021-12-15_2021-12-21 > OSP-2373_email_clk_2021-12-22_2021-12-26 > OSP-2373_email_clk_2021-12-15_2021-12-21,2261.4551603665,112.0,90.0,526,526,False
33,OSP-2373_rw_app_imp_2021-12-22_2021-12-26 > OSP-2373_rw_app_imp_2021-12-15_2021-12-21 > OSP-2373_rw_app_clk_2021-12-15_2021-12-21,10219.57512671,243.0,165.0,2534,2534,False
34,FB_Impression_MobileFeed > _AlwaysOn_wow_web_view_2021-12-15_2021-12-21 > _AlwaysOn_wow_web_clk_2021-12-15_2021-12-21,1610.4173905611,12.0,0.0,586,586,False
35,OSP-2373_email_open_2021-12-15_2021-12-21 > OSP-2373_email_clk_2021-12-15_2021-12-21,3743.1893592808,83.0,44.0,557,557,False
36,OSP-2373_rw_app_imp_2021-12-15_2021-12-21 > OSP-2373_rw_app_clk_2021-12-22_2021-12-26 > OSP-2373_email_open_2021-12-22_2021-12-26 > OSP-2373_email_open_2021-12-22_2021-12-26,2935.5583271675,100.0,70.0,328,328,False
37,_AlwaysOn_wow_web_view_2021-12-15_2021-12-21 > _AlwaysOn_wow_web_clk_2021-12-22_2021-12-26 > OSP-2373_email_open_2021-12-22_2021-12-26,3435.4261127555,27.0,10.0,135,135,False
38,FB_Impression_Instagram > FB_Impression_MobileFeed > OSP-2373_email_open_2021-12-22_2021-12-26,322.11922695621,9.0,10.0,232,232,False
39,_AlwaysOn_wow_web_clk_2021-12-22_2021-12-26 > OSP-2373_email_open_2021-12-22_2021-12-26,12722.896185283,140.0,76.0,477,477,False
40,_AlwaysOn_wow_web_clk_2021-12-15_2021-12-21 > OSP-2373_rw_app_imp_2021-12-22_2021-12-26 > OSP-2373_rw_app_imp_2021-12-15_2021-12-21 > OSP-2373_rw_app_clk_2021-12-22_2021-12-26 > OSP-2373_email_open_2021-12-22_2021-12-26,2043.1036812621,45.0,23.0,353,353,False
41,FB_Impression_Instagram > OSP-2373_email_open_2021-12-22_2021-12-26,518.23773402143,23.0,22.0,1086,1086,False
42,OSP-2373_rw_app_imp_2021-12-15_2021-12-21 > OSP-2373_rw_app_imp_2021-12-15_2021-12-21 > OSP-2373_rw_app_clk_2021-12-15_2021-12-21,3036.1140753172,42.0,25.0,109,109,False
43,OSP-2373_rw_app_imp_2021-12-15_2021-12-21 > OSP-2373_rw_app_imp_2021-12-15_2021-12-21 > OSP-2373_rw_app_clk_2021-12-22_2021-12-26 > OSP-2373_email_open_2021-12-22_2021-12-26 > OSP-2373_email_clk_2021-12-22_2021-12-26,483.92116831723,34.0,33.0,131,131,False
44,OSP-2373_rw_app_clk_2021-12-22_2021-12-26 > OSP-2373_email_open_2021-12-22_2021-12-26 > OSP-2373_email_open_2021-12-22_2021-12-26 > OSP-2373_email_clk_2021-12-22_2021-12-26,1682.0284144788,120.0,96.0,385,385,False
45,OSP-2373_rw_app_clk_2021-12-22_2021-12-26 > OSP-2373_email_open_2021-12-22_2021-12-26 > OSP-2373_email_clk_2021-12-22_2021-12-26,63425.778113072,2297.0,1945.0,8171,8171,False
46,OSP-2373_rw_app_imp_2021-12-22_2021-12-26 > OSP-2373_rw_app_clk_2021-12-22_2021-12-26 > OSP-2373_email_open_2021-12-22_2021-12-26 > OSP-2373_email_clk_2021-12-22_2021-12-26,31002.11554549,1052.0,815.0,4464,4464,False
47,OSP-2373_rw_app_clk_2021-12-22_2021-12-26 > OSP-2373_email_open_2021-12-22_2021-12-26 > OSP-2373_email_open_2021-12-15_2021-12-21,2327.7267711161,94.0,99.0,421,421,False
48,_AlwaysOn_wow_web_view_2021-12-15_2021-12-21 > OSP-2373_rw_app_imp_2021-12-15_2021-12-21 > OSP-2373_rw_app_clk_2021-12-15_2021-12-21,-1150.0145157407,18.0,27.0,395,395,False
49,_AlwaysOn_wow_web_view_2021-12-15_2021-12-21 > OSP-2373_rw_app_imp_2021-12-15_2021-12-21,6186.535145069,45.0,17.0,1432,1432,False
50,OSP-2373_rw_app_imp_2021-12-15_2021-12-21 > OSP-2373_rw_app_clk_2021-12-22_2021-12-26 > OSP-2373_email_open_2021-12-22_2021-12-26 > OSP-2373_email_open_2021-12-22_2021-12-26 > OSP-2373_email_clk_2021-12-22_2021-12-26,-531.68394460256,34.0,31.0,125,125,False
51,_AlwaysOn_wow_web_clk_2021-12-15_2021-12-21 > OSP-2373_rw_app_imp_2021-12-22_2021-12-26 > OSP-2373_rw_app_clk_2021-12-22_2021-12-26,6650.5207577981,80.0,36.0,599,599,False
52,OSP-2373_rw_app_imp_2021-12-15_2021-12-21 > OSP-2373_rw_app_clk_2021-12-22_2021-12-26 > OSP-2373_email_open_2021-12-22_2021-12-26,72884.69605964,4168.0,3558.0,13049,13049,False
53,_AlwaysOn_sem_shopping_clk_2021-12-22_2021-12-26 > OSP-2373_email_open_2021-12-22_2021-12-26 > OSP-2373_email_clk_2021-12-22_2021-12-26,-614.45521756101,36.0,35.0,127,127,False
54,_AlwaysOn_wow_web_view_2021-12-15_2021-12-21 > _AlwaysOn_wow_web_clk_2021-12-15_2021-12-21 > OSP-2373_rw_app_imp_2021-12-22_2021-12-26,1222.6967718981,17.0,5.0,525,525,False
55,_AlwaysOn_wow_web_view_2021-12-15_2021-12-21 > _AlwaysOn_sem_shopping_clk_2021-12-15_2021-12-21 > OSP-2373_email_open_2021-12-22_2021-12-26 > OSP-2373_email_clk_2021-12-22_2021-12-26,3413.8588467369,34.0,10.0,269,269,False
56,_AlwaysOn_wow_web_view_2021-12-15_2021-12-21 > OSP-2373_rw_app_imp_2021-12-22_2021-12-26 > OSP-2373_rw_app_imp_2021-12-15_2021-12-21 > OSP-2373_rw_app_clk_2021-12-22_2021-12-26 > OSP-2373_rw_app_clk_2021-12-15_2021-12-21,1721.3246158325,21.0,12.0,123,123,False
57,OSP-2373_rw_app_imp_2021-12-22_2021-12-26 > OSP-2373_rw_app_imp_2021-12-15_2021-12-21 > OSP-2373_rw_app_clk_2021-12-15_2021-12-21 > OSP-2373_email_open_2021-12-22_2021-12-26 > OSP-2373_email_clk_2021-12-22_2021-12-26,4094.6351657289,66.0,34.0,259,259,False
58,_AlwaysOn_wow_web_view_2021-12-15_2021-12-21 > _AlwaysOn_wow_web_clk_2021-12-15_2021-12-21 > OSP-2373_rw_app_imp_2021-12-22_2021-12-26 > OSP-2373_rw_app_clk_2021-12-22_2021-12-26 > OSP-2373_email_open_2021-12-22_2021-12-26 > OSP-2373_email_clk_2021-12-22_2021-12-26,74.161185045209,16.0,10.0,106,106,False
59,_AlwaysOn_wow_web_view_2021-12-15_2021-12-21 > OSP-2373_rw_app_imp_2021-12-22_2021-12-26 > OSP-2373_rw_app_clk_2021-12-22_2021-12-26,14853.404960625,154.0,72.0,1400,1400,False
60,_AlwaysOn_wow_web_view_2021-12-15_2021-12-21 > _AlwaysOn_wow_web_clk_2021-12-15_2021-12-21 > OSP-2373_email_open_2021-12-22_2021-12-26 > OSP-2373_email_clk_2021-12-22_2021-12-26,9453.7525206549,195.0,90.0,1566,1566,False
61,OSP-2373_rw_app_imp_2021-12-15_2021-12-21,62932.811282669,3712.0,3580.0,72789,72789,False
62,_AlwaysOn_wow_web_view_2021-12-15_2021-12-21 > _AlwaysOn_wow_web_clk_2021-12-15_2021-12-21 > OSP-2373_rw_app_imp_2021-12-22_2021-12-26 > OSP-2373_email_open_2021-12-22_2021-12-26,945.43845909912,9.0,8.0,224,224,False
63,_AlwaysOn_wow_web_view_2021-12-22_2021-12-26 > _AlwaysOn_wow_web_view_2021-12-15_2021-12-21 > _AlwaysOn_wow_web_clk_2021-12-22_2021-12-26,4625.5790152239,33.0,13.0,305,305,False
64,OSP-2373_rw_app_imp_2021-12-22_2021-12-26 > OSP-2373_rw_app_clk_2021-12-22_2021-12-26 > OSP-2373_email_open_2021-12-22_2021-12-26,83244.328296449,2654.0,2072.0,13623,13623,False
65,OSP-2373_rw_app_imp_2021-12-22_2021-12-26 > OSP-2373_email_open_2021-12-22_2021-12-26 > OSP-2373_email_clk_2021-12-22_2021-12-26,51441.18657838,1686.0,1274.0,8364,8364,False
66,_AlwaysOn_wow_web_view_2021-12-15_2021-12-21 > OSP-2373_email_open_2021-12-22_2021-12-26 > OSP-2373_email_clk_2021-12-22_2021-12-26,21988.354982735,456.0,277.0,5494,5494,False
67,_AlwaysOn_wow_web_view_2021-12-22_2021-12-26 > OSP-2373_rw_app_imp_2021-12-22_2021-12-26 > OSP-2373_rw_app_imp_2021-12-15_2021-12-21 > OSP-2373_rw_app_clk_2021-12-22_2021-12-26,1487.779977771,77.0,61.0,207,207,False
68,OSP-2373_rw_app_imp_2021-12-22_2021-12-26 > OSP-2373_rw_app_imp_2021-12-22_2021-12-26 > OSP-2373_rw_app_imp_2021-12-15_2021-12-21 > OSP-2373_rw_app_clk_2021-12-22_2021-12-26 > OSP-2373_email_open_2021-12-22_2021-12-26,1564.3229680001,84.0,46.0,382,382,False
69,_AlwaysOn_wow_web_clk_2021-12-15_2021-12-21 > _AlwaysOn_sem_shopping_clk_2021-12-15_2021-12-21,463.39266607888,8.0,3.0,487,487,False
70,_AlwaysOn_wow_web_view_2021-12-15_2021-12-21 > OSP-2373_rw_app_imp_2021-12-22_2021-12-26 > OSP-2373_email_open_2021-12-22_2021-12-26,709.95099307147,26.0,16.0,738,738,False
71,_AlwaysOn_wow_web_clk_2021-12-15_2021-12-21 > OSP-2373_rw_app_imp_2021-12-22_2021-12-26 > OSP-2373_rw_app_imp_2021-12-15_2021-12-21 > OSP-2373_rw_app_clk_2021-12-22_2021-12-26,6752.8127585202,95.0,42.0,646,646,False
72,_AlwaysOn_wow_web_view_2021-12-22_2021-12-26 > OSP-2373_email_open_2021-12-22_2021-12-26 > OSP-2373_email_clk_2021-12-22_2021-12-26,7328.3925998277,202.0,169.0,770,770,False
73,_AlwaysOn_wow_web_clk_2021-12-15_2021-12-21 > OSP-2373_email_open_2021-12-22_2021-12-26 > OSP-2373_email_open_2021-12-15_2021-12-21,820.44003799338,9.0,1.0,182,182,False
74,OSP-2373_rw_app_imp_2021-12-15_2021-12-21 > OSP-2373_email_open_2021-12-22_2021-12-26 > OSP-2373_email_open_2021-12-22_2021-12-26 > OSP-2373_email_clk_2021-12-22_2021-12-26,3011.581171119,113.0,100.0,425,425,False
75,OSP-2373_rw_app_imp_2021-12-22_2021-12-26 > OSP-2373_rw_app_imp_2021-12-15_2021-12-21 > OSP-2373_rw_app_clk_2021-12-22_2021-12-26 > OSP-2373_rw_app_clk_2021-12-15_2021-12-21,43131.166339751,615.0,377.0,3549,3549,False
76,_AlwaysOn_wow_web_clk_2021-12-15_2021-12-21 > OSP-2373_rw_app_imp_2021-12-22_2021-12-26 > OSP-2373_email_open_2021-12-22_2021-12-26,-227.22063259008,13.0,9.0,412,412,False
77,_AlwaysOn_wow_web_view_2021-12-15_2021-12-21 > _AlwaysOn_wow_web_clk_2021-12-15_2021-12-21 > OSP-2373_rw_app_imp_2021-12-15_2021-12-21,52.356180221889,5.0,14.0,405,405,False
78,OSP-2373_email_clk_2021-12-15_2021-12-21,1648.1557178612,46.0,39.0,273,273,False
79,_AlwaysOn_wow_web_view_2021-12-15_2021-12-21,52390.961484445,584.0,328.0,101321,101321,False
80,_AlwaysOn_wow_web_clk_2021-12-15_2021-12-21 > OSP-2373_rw_app_imp_2021-12-22_2021-12-26,1787.6397185389,19.0,15.0,613,613,False
81,OSP-2373_rw_app_imp_2021-12-15_2021-12-21 > OSP-2373_rw_app_imp_2021-12-15_2021-12-21 > OSP-2373_rw_app_clk_2021-12-22_2021-12-26 > OSP-2373_email_open_2021-12-22_2021-12-26,546.82725509783,193.0,176.0,575,575,False
82,OSP-2373_rw_app_imp_2021-12-15_2021-12-21 > OSP-2373_email_open_2021-12-22_2021-12-26,23755.779082155,1479.0,1427.0,17449,17449,False
83,OSP-2373_email_open_2021-12-15_2021-12-21 > OSP-2373_email_clk_2021-12-22_2021-12-26 > OSP-2373_email_clk_2021-12-15_2021-12-21,2140.2003856018,142.0,132.0,533,533,False
84,_AlwaysOn_wow_web_view_2021-12-15_2021-12-21 > _AlwaysOn_wow_web_clk_2021-12-15_2021-12-21 > OSP-2373_rw_app_imp_2021-12-22_2021-12-26 > OSP-2373_rw_app_imp_2021-12-15_2021-12-21 > OSP-2373_email_open_2021-12-22_2021-12-26 > OSP-2373_email_clk_2021-12-22_2021-12-26,890.5314501092,19.0,8.0,138,138,False
85,_AlwaysOn_sem_shopping_clk_2021-12-15_2021-12-21 > OSP-2373_rw_app_imp_2021-12-22_2021-12-26 > OSP-2373_rw_app_imp_2021-12-15_2021-12-21 > OSP-2373_rw_app_clk_2021-12-22_2021-12-26,1876.5849436291,31.0,15.0,249,249,False
86,_AlwaysOn_wow_web_clk_2021-12-15_2021-12-21 > OSP-2373_email_open_2021-12-22_2021-12-26 > OSP-2373_email_open_2021-12-15_2021-12-21 > OSP-2373_email_clk_2021-12-22_2021-12-26,2686.9032815811,16.0,4.0,124,124,False
87,FB_Impression_MobileFeed > _AlwaysOn_wow_web_view_2021-12-15_2021-12-21 > _AlwaysOn_wow_web_clk_2021-12-15_2021-12-21 > OSP-2373_email_open_2021-12-22_2021-12-26,382.56454829172,6.0,1.0,131,131,False
88,_AlwaysOn_wow_web_clk_2021-12-15_2021-12-21 > _AlwaysOn_sem_shopping_clk_2021-12-15_2021-12-21 > OSP-2373_email_open_2021-12-22_2021-12-26,262.20465842073,6.0,1.0,119,119,False
89,_AlwaysOn_wow_web_view_2021-12-15_2021-12-21 > _AlwaysOn_wow_web_clk_2021-12-15_2021-12-21 > _AlwaysOn_sem_shopping_clk_2021-12-15_2021-12-21 > OSP-2373_email_open_2021-12-22_2021-12-26,260.57173986899,5.0,2.0,124,124,False
90,OSP-2373_rw_app_imp_2021-12-15_2021-12-21 > OSP-2373_rw_app_clk_2021-12-22_2021-12-26 > OSP-2373_email_open_2021-12-22_2021-12-26 > OSP-2373_email_open_2021-12-15_2021-12-21 > OSP-2373_email_clk_2021-12-22_2021-12-26,-44.467503986811,41.0,34.0,114,114,False
91,FB_Impression_MobileFeed > OSP-2373_email_open_2021-12-15_2021-12-21,210.55150334905,3.0,0.0,239,239,False
92,OSP-2373_rw_app_imp_2021-12-22_2021-12-26,60554.17240062,3023.0,3241.0,114689,114689,False
93,_AlwaysOn_sem_brand_clk_2021-12-15_2021-12-21,350.64415496974,4.0,2.0,568,568,False
94,_AlwaysOn_sem_shopping_clk_2021-12-22_2021-12-26 > OSP-2373_email_open_2021-12-22_2021-12-26,669.50205297787,16.0,16.0,138,138,False
95,_AlwaysOn_wow_web_view_2021-12-15_2021-12-21 > _AlwaysOn_wow_web_view_2021-12-15_2021-12-21 > OSP-2373_email_open_2021-12-22_2021-12-26,-18.954318335409,3.0,2.0,114,114,False
96,_AlwaysOn_wow_web_view_2021-12-22_2021-12-26 > OSP-2373_rw_app_imp_2021-12-15_2021-12-21,430.68445128346,14.0,11.0,187,187,False
97,OSP-2373_rw_app_imp_2021-12-15_2021-12-21 > OSP-2373_email_open_2021-12-22_2021-12-26 > OSP-2373_email_open_2021-12-15_2021-12-21,1219.4767309394,53.0,40.0,467,467,False
98,OSP-2373_rw_app_imp_2021-12-15_2021-12-21 > OSP-2373_rw_app_clk_2021-12-15_2021-12-21 > OSP-2373_email_open_2021-12-22_2021-12-26 > OSP-2373_email_clk_2021-12-22_2021-12-26,9832.8748669203,179.0,106.0,1061,1061,False
99,_AlwaysOn_wow_web_view_2021-12-15_2021-12-21 > _AlwaysOn_sem_shopping_clk_2021-12-15_2021-12-21,1197.3465731326,20.0,20.0,4407,4407,False
100,OSP-2373_email_open_2021-12-22_2021-12-26 > OSP-2373_email_clk_2021-12-22_2021-12-26,514235.10354194,21205.0,18756.0,126261,126261,False
101,_AlwaysOn_sem_brand_clk_2021-12-15_2021-12-21 > OSP-2373_email_open_2021-12-22_2021-12-26 > OSP-2373_email_clk_2021-12-22_2021-12-26,634.66258447637,21.0,12.0,202,202,False
102,_AlwaysOn_wow_web_view_2021-12-15_2021-12-21 > OSP-2373_email_open_2021-12-22_2021-12-26,16247.893239075,231.0,109.0,14710,14710,False
103,_AlwaysOn_wow_web_view_2021-12-22_2021-12-26 > OSP-2373_rw_app_imp_2021-12-22_2021-12-26 > OSP-2373_rw_app_imp_2021-12-15_2021-12-21,-305.79676648084,15.0,13.0,108,108,False
104,_AlwaysOn_wow_web_clk_2021-12-15_2021-12-21 > OSP-2373_rw_app_imp_2021-12-22_2021-12-26 > OSP-2373_rw_app_imp_2021-12-15_2021-12-21,2456.7194135631,28.0,12.0,373,373,False
106,_AlwaysOn_wow_web_view_2021-12-15_2021-12-21 > OSP-2373_rw_app_imp_2021-12-22_2021-12-26 > OSP-2373_rw_app_imp_2021-12-15_2021-12-21 > OSP-2373_rw_app_clk_2021-12-15_2021-12-21,112.28224126306,8.0,9.0,103,103,False
107,OSP-2373_rw_app_imp_2021-12-22_2021-12-26 > OSP-2373_email_open_2021-12-22_2021-12-26 > OSP-2373_email_open_2021-12-15_2021-12-21,-2.2389374424377,23.0,24.0,338,338,False
108,OSP-2373_rw_app_imp_2021-12-22_2021-12-26 > OSP-2373_rw_app_imp_2021-12-22_2021-12-26 > OSP-2373_rw_app_imp_2021-12-15_2021-12-21 > OSP-2373_email_open_2021-12-22_2021-12-26,591.34341977565,14.0,6.0,124,124,False
109,_AlwaysOn_wow_web_view_2021-12-22_2021-12-26 > _AlwaysOn_wow_web_clk_2021-12-22_2021-12-26 > OSP-2373_email_open_2021-12-22_2021-12-26 > OSP-2373_email_clk_2021-12-22_2021-12-26,1139.4720132677,39.0,29.0,107,107,False
110,_AlwaysOn_wow_web_clk_2021-12-15_2021-12-21 > OSP-2373_rw_app_imp_2021-12-22_2021-12-26 > OSP-2373_rw_app_imp_2021-12-15_2021-12-21 > OSP-2373_rw_app_clk_2021-12-22_2021-12-26 > OSP-2373_email_open_2021-12-22_2021-12-26 > OSP-2373_email_clk_2021-12-22_2021-12-26,856.63659139336,28.0,12.0,149,149,False
111,OSP-2373_rw_app_imp_2021-12-22_2021-12-26 > OSP-2373_email_open_2021-12-22_2021-12-26,18401.267972301,1146.0,1124.0,19293,19293,False
112,OSP-2373_email_open_2021-12-22_2021-12-26 > OSP-2373_email_open_2021-12-15_2021-12-21,9793.3301801083,390.0,393.0,9971,9971,False
113,_AlwaysOn_wow_web_view_2021-12-15_2021-12-21 > OSP-2373_rw_app_imp_2021-12-22_2021-12-26 > OSP-2373_rw_app_clk_2021-12-22_2021-12-26 > OSP-2373_email_open_2021-12-22_2021-12-26,2995.4923224495,73.0,30.0,519,519,False
114,FB_Impression_MobileFeed > FB_Click_MobileFeed > FB_Impression_MobileFeed > OSP-2373_email_open_2021-12-22_2021-12-26,429.55097549742,25.0,19.0,377,377,False
115,OSP-2373_rw_app_imp_2021-12-15_2021-12-21 > OSP-2373_rw_app_clk_2021-12-22_2021-12-26 > OSP-2373_rw_app_clk_2021-12-15_2021-12-21 > OSP-2373_email_open_2021-12-22_2021-12-26,15606.649763511,375.0,240.0,1835,1835,False
116,_AlwaysOn_wow_web_view_2021-12-15_2021-12-21 > OSP-2373_rw_app_imp_2021-12-15_2021-12-21 > OSP-2373_rw_app_clk_2021-12-15_2021-12-21 > OSP-2373_email_open_2021-12-22_2021-12-26,463.86184672931,9.0,2.0,138,138,False
117,OSP-2373_rw_app_imp_2021-12-22_2021-12-26 > OSP-2373_rw_app_clk_2021-12-22_2021-12-26,380091.73254924,10083.0,7936.0,60471,60471,False
118,OSP-2373_rw_app_clk_2021-12-22_2021-12-26 > OSP-2373_email_open_2021-12-22_2021-12-26,145479.59336436,4486.0,3735.0,18696,18696,False
119,_AlwaysOn_wow_web_view_2021-12-15_2021-12-21 > _AlwaysOn_sem_shopping_clk_2021-12-15_2021-12-21 > OSP-2373_rw_app_imp_2021-12-22_2021-12-26,-50.772954211244,1.0,3.0,172,172,False
120,OSP-2373_rw_app_imp_2021-12-22_2021-12-26 > OSP-2373_rw_app_imp_2021-12-15_2021-12-21,22360.885596486,1481.0,1364.0,24284,24284,False
121,OSP-2373_rw_app_imp_2021-12-15_2021-12-21 > OSP-2373_email_open_2021-12-22_2021-12-26 > OSP-2373_email_open_2021-12-15_2021-12-21 > OSP-2373_email_clk_2021-12-22_2021-12-26,1594.5589172553,93.0,75.0,319,319,False
122,_AlwaysOn_sem_shopping_clk_2021-12-15_2021-12-21 > OSP-2373_rw_app_imp_2021-12-22_2021-12-26,-288.56902543552,5.0,4.0,362,362,False
123,OSP-2373_rw_app_imp_2021-12-22_2021-12-26 > OSP-2373_rw_app_imp_2021-12-22_2021-12-26 > OSP-2373_rw_app_clk_2021-12-22_2021-12-26,2822.1818874139,75.0,57.0,254,254,False
124,OSP-2373_rw_app_imp_2021-12-15_2021-12-21 > OSP-2373_rw_app_clk_2021-12-15_2021-12-21 > OSP-2373_email_open_2021-12-22_2021-12-26,8990.1338306985,312.0,218.0,3379,3379,False
125,_AlwaysOn_sem_shopping_clk_2021-12-15_2021-12-21,2324.5368495176,43.0,32.0,7916,7916,False
126,_AlwaysOn_wow_web_view_2021-12-15_2021-12-21 > OSP-2373_rw_app_imp_2021-12-22_2021-12-26 > OSP-2373_rw_app_imp_2021-12-15_2021-12-21 > OSP-2373_rw_app_clk_2021-12-22_2021-12-26 > OSP-2373_email_open_2021-12-22_2021-12-26 > OSP-2373_email_clk_2021-12-22_2021-12-26,171.42047221347,22.0,16.0,103,103,False
127,_AlwaysOn_sem_shopping_clk_2021-12-15_2021-12-21 > _AlwaysOn_sem_shopping_clk_2021-12-15_2021-12-21,-133.97975986845,1.0,3.0,699,699,False
128,FB_Impression_MobileFeed > OSP-2373_rw_app_imp_2021-12-22_2021-12-26 > OSP-2373_rw_app_imp_2021-12-15_2021-12-21 > OSP-2373_rw_app_clk_2021-12-22_2021-12-26,1032.5074717863,34.0,44.0,158,158,False
129,_AlwaysOn_wow_web_view_2021-12-15_2021-12-21 > _AlwaysOn_wow_web_clk_2021-12-15_2021-12-21 > OSP-2373_rw_app_imp_2021-12-15_2021-12-21 > OSP-2373_email_open_2021-12-22_2021-12-26,781.49951671509,11.0,2.0,191,191,False
130,_AlwaysOn_wow_web_clk_2021-12-15_2021-12-21 > OSP-2373_rw_app_imp_2021-12-22_2021-12-26 > OSP-2373_email_open_2021-12-22_2021-12-26 > OSP-2373_email_clk_2021-12-22_2021-12-26,2631.2292870963,57.0,29.0,438,438,False
131,_AlwaysOn_wow_web_view_2021-12-15_2021-12-21 > _AlwaysOn_wow_web_clk_2021-12-15_2021-12-21 > OSP-2373_rw_app_imp_2021-12-15_2021-12-21 > OSP-2373_rw_app_clk_2021-12-15_2021-12-21,-225.84540407163,9.0,9.0,166,166,False
132,FB_Impression_MobileFeed > _AlwaysOn_wow_web_view_2021-12-15_2021-12-21 > _AlwaysOn_sem_shopping_clk_2021-12-15_2021-12-21,249.323636362,1.0,0.0,350,350,False
133,_AlwaysOn_wow_web_view_2021-12-15_2021-12-21 > _AlwaysOn_wow_web_clk_2021-12-15_2021-12-21 > OSP-2373_rw_app_imp_2021-12-15_2021-12-21 > OSP-2373_email_open_2021-12-22_2021-12-26 > OSP-2373_email_clk_2021-12-22_2021-12-26,1097.8100546859,16.0,6.0,144,144,False
134,_AlwaysOn_wow_web_view_2021-12-15_2021-12-21 > OSP-2373_rw_app_imp_2021-12-15_2021-12-21 > OSP-2373_email_open_2021-12-22_2021-12-26,1694.6590753414,19.0,7.0,541,541,False
135,FB_Impression_MobileFeed > OSP-2373_rw_app_imp_2021-12-22_2021-12-26,-1077.810862721,15.0,21.0,710,710,False
136,_AlwaysOn_wow_web_clk_2021-12-22_2021-12-26,32954.366612685,359.0,200.0,1662,1662,False
137,_AlwaysOn_sem_shopping_clk_2021-12-15_2021-12-21 > OSP-2373_rw_app_imp_2021-12-22_2021-12-26 > OSP-2373_rw_app_imp_2021-12-15_2021-12-21,135.72037563321,3.0,1.0,167,167,False
138,_AlwaysOn_wow_web_view_2021-12-15_2021-12-21 > OSP-2373_email_open_2021-12-22_2021-12-26 > OSP-2373_email_open_2021-12-15_2021-12-21,385.5434728153,10.0,4.0,275,275,False
139,OSP-2373_rw_app_clk_2021-12-15_2021-12-21 > OSP-2373_email_open_2021-12-22_2021-12-26 > OSP-2373_email_open_2021-12-15_2021-12-21,704.49660006939,15.0,8.0,101,101,False
140,OSP-2373_rw_app_imp_2021-12-15_2021-12-21 > OSP-2373_rw_app_clk_2021-12-22_2021-12-26 > OSP-2373_email_open_2021-12-22_2021-12-26 > OSP-2373_email_clk_2021-12-22_2021-12-26,24510.112747793,1214.0,1047.0,3451,3451,False
141,OSP-2373_rw_app_imp_2021-12-22_2021-12-26 > OSP-2373_rw_app_imp_2021-12-22_2021-12-26 > OSP-2373_rw_app_imp_2021-12-15_2021-12-21 > OSP-2373_rw_app_clk_2021-12-22_2021-12-26 > OSP-2373_email_open_2021-12-22_2021-12-26 > OSP-2373_email_clk_2021-12-22_2021-12-26,2065.772237946,34.0,19.0,126,126,False
142,OSP-2373_rw_app_imp_2021-12-22_2021-12-26 > OSP-2373_rw_app_imp_2021-12-22_2021-12-26 > OSP-2373_rw_app_imp_2021-12-15_2021-12-21 > OSP-2373_email_open_2021-12-22_2021-12-26 > OSP-2373_email_clk_2021-12-22_2021-12-26,808.5374162422,44.0,26.0,239,239,False
143,_AlwaysOn_wow_web_view_2021-12-15_2021-12-21 > _AlwaysOn_sem_shopping_clk_2021-12-15_2021-12-21 > OSP-2373_email_open_2021-12-22_2021-12-26,664.51901466493,10.0,5.0,593,593,False
144,OSP-2373_rw_app_imp_2021-12-15_2021-12-21 > OSP-2373_email_open_2021-12-15_2021-12-21,853.61781528733,22.0,13.0,235,235,False
145,OSP-2373_email_open_2021-12-22_2021-12-26 > OSP-2373_email_open_2021-12-22_2021-12-26 > OSP-2373_email_clk_2021-12-22_2021-12-26,12715.032006245,365.0,249.0,1338,1338,False
146,OSP-2373_rw_app_imp_2021-12-22_2021-12-26 > OSP-2373_rw_app_imp_2021-12-15_2021-12-21 > OSP-2373_rw_app_clk_2021-12-22_2021-12-26,281659.98421899,8806.0,7345.0,33672,33672,False
147,_AlwaysOn_wow_web_view_2021-12-15_2021-12-21 > _AlwaysOn_wow_web_clk_2021-12-15_2021-12-21 > OSP-2373_rw_app_imp_2021-12-22_2021-12-26 > OSP-2373_rw_app_imp_2021-12-15_2021-12-21 > OSP-2373_rw_app_clk_2021-12-22_2021-12-26,3512.6612474375,57.0,20.0,357,357,False
148,_AlwaysOn_wow_web_view_2021-12-22_2021-12-26 > _AlwaysOn_wow_web_clk_2021-12-22_2021-12-26,23709.245159712,198.0,120.0,1795,1795,False
149,_AlwaysOn_wow_web_view_2021-12-15_2021-12-21 > _AlwaysOn_wow_web_view_2021-12-15_2021-12-21,590.53314741777,3.0,4.0,377,377,False
150,_AlwaysOn_wow_web_view_2021-12-15_2021-12-21 > _AlwaysOn_wow_web_clk_2021-12-15_2021-12-21 > OSP-2373_rw_app_imp_2021-12-22_2021-12-26 > OSP-2373_rw_app_imp_2021-12-15_2021-12-21,408.13798370262,5.0,3.0,211,211,False
151,_AlwaysOn_wow_web_view_2021-12-22_2021-12-26 > _AlwaysOn_wow_web_view_2021-12-15_2021-12-21,7210.4314089358,50.0,16.0,2705,2705,False
152,_AlwaysOn_sem_shopping_clk_2021-12-22_2021-12-26,882.99651755063,39.0,43.0,1030,1030,False
153,_AlwaysOn_wow_web_view_2021-12-22_2021-12-26 > OSP-2373_rw_app_imp_2021-12-22_2021-12-26,1826.1098125244,46.0,38.0,448,448,False
154,_AlwaysOn_sem_shopping_clk_2021-12-15_2021-12-21 > OSP-2373_rw_app_imp_2021-12-22_2021-12-26 > OSP-2373_email_open_2021-12-22_2021-12-26,24.329821555205,2.0,3.0,101,101,False
155,_AlwaysOn_wow_web_view_2021-12-15_2021-12-21 > _AlwaysOn_wow_web_clk_2021-12-15_2021-12-21 > _AlwaysOn_sem_shopping_clk_2021-12-15_2021-12-21,621.2515491889,11.0,3.0,557,557,False
156,_AlwaysOn_wow_web_clk_2021-12-15_2021-12-21 > OSP-2373_rw_app_imp_2021-12-22_2021-12-26 > OSP-2373_rw_app_clk_2021-12-22_2021-12-26 > OSP-2373_email_open_2021-12-22_2021-12-26,981.53494205261,40.0,26.0,315,315,False
157,OSP-2373_rw_app_imp_2021-12-15_2021-12-21 > OSP-2373_rw_app_clk_2021-12-15_2021-12-21,69849.879674507,1267.0,756.0,13175,13175,False
158,_AlwaysOn_wow_web_view_2021-12-22_2021-12-26 > _AlwaysOn_wow_web_view_2021-12-15_2021-12-21 > _AlwaysOn_wow_web_clk_2021-12-15_2021-12-21,1012.5898910624,13.0,4.0,432,432,False
159,OSP-2373_rw_app_clk_2021-12-22_2021-12-26,427542.83474891,12674.0,10505.0,48755,48755,False
160,_AlwaysOn_wow_web_view_2021-12-22_2021-12-26 > _AlwaysOn_wow_web_view_2021-12-15_2021-12-21 > OSP-2373_email_open_2021-12-22_2021-12-26 > OSP-2373_email_clk_2021-12-22_2021-12-26,1099.7958411949,23.0,18.0,219,219,False
161,FB_Impression_SuggestedVideo > OSP-2373_email_open_2021-12-22_2021-12-26,47.702888055961,2.0,1.0,173,173,False
162,OSP-2373_rw_app_imp_2021-12-22_2021-12-26 > OSP-2373_rw_app_imp_2021-12-15_2021-12-21 > OSP-2373_email_open_2021-12-22_2021-12-26 > OSP-2373_email_clk_2021-12-22_2021-12-26,40568.741696656,1368.0,1037.0,5193,5193,False
163,_AlwaysOn_wow_web_clk_2021-12-15_2021-12-21 > OSP-2373_email_open_2021-12-22_2021-12-26,13707.21785913,163.0,85.0,5425,5425,False
164,OSP-2373_rw_app_imp_2021-12-22_2021-12-26 > OSP-2373_rw_app_imp_2021-12-22_2021-12-26 > OSP-2373_rw_app_imp_2021-12-15_2021-12-21,620.49928431467,17.0,13.0,146,146,False
165,OSP-2373_rw_app_clk_2021-12-15_2021-12-21,51848.143125283,1119.0,640.0,7876,7876,False
166,OSP-2373_rw_app_imp_2021-12-15_2021-12-21 > OSP-2373_rw_app_imp_2021-12-15_2021-12-21 > OSP-2373_email_open_2021-12-22_2021-12-26,2212.5190549632,56.0,37.0,196,196,False
167,_AlwaysOn_wow_web_clk_2021-12-15_2021-12-21 > OSP-2373_rw_app_imp_2021-12-22_2021-12-26 > OSP-2373_rw_app_imp_2021-12-15_2021-12-21 > OSP-2373_email_open_2021-12-22_2021-12-26 > OSP-2373_email_clk_2021-12-22_2021-12-26,3498.6319315323,60.0,19.0,343,343,False
168,_AlwaysOn_wow_web_view_2021-12-15_2021-12-21 > _AlwaysOn_wow_web_clk_2021-12-15_2021-12-21 > OSP-2373_email_open_2021-12-22_2021-12-26,7842.051540298,109.0,43.0,3848,3848,False
169,OSP-2373_rw_app_imp_2021-12-15_2021-12-21 > OSP-2373_rw_app_imp_2021-12-15_2021-12-21,210.79234950816,59.0,48.0,225,225,False
170,OSP-2373_email_clk_2021-12-22_2021-12-26,626203.71196927,25031.0,22922.0,96308,96308,False
171,_AlwaysOn_wow_web_view_2021-12-15_2021-12-21 > OSP-2373_rw_app_imp_2021-12-22_2021-12-26 > OSP-2373_rw_app_imp_2021-12-15_2021-12-21 > OSP-2373_rw_app_clk_2021-12-22_2021-12-26 > OSP-2373_email_open_2021-12-22_2021-12-26,1531.9327747074,47.0,33.0,336,336,False
172,_AlwaysOn_wow_web_clk_2021-12-15_2021-12-21 > OSP-2373_rw_app_imp_2021-12-15_2021-12-21,-383.57595420965,23.0,10.0,458,458,False
173,_AlwaysOn_wow_web_view_2021-12-22_2021-12-26 > OSP-2373_rw_app_imp_2021-12-22_2021-12-26 > OSP-2373_rw_app_clk_2021-12-22_2021-12-26,6428.8889154315,130.0,80.0,410,410,False
174,OSP-2373_email_open_2021-12-22_2021-12-26 > OSP-2373_email_open_2021-12-15_2021-12-21 > OSP-2373_email_clk_2021-12-15_2021-12-21,232.57548585909,30.0,28.0,311,311,False
175,_AlwaysOn_wow_web_clk_2021-12-15_2021-12-21 > OSP-2373_rw_app_imp_2021-12-22_2021-12-26 > OSP-2373_rw_app_imp_2021-12-22_2021-12-26 > OSP-2373_rw_app_imp_2021-12-15_2021-12-21 > OSP-2373_rw_app_clk_2021-12-22_2021-12-26,663.76453862464,17.0,7.0,117,117,False
176,OSP-2373_rw_app_imp_2021-12-22_2021-12-26 > OSP-2373_rw_app_imp_2021-12-15_2021-12-21 > OSP-2373_rw_app_clk_2021-12-15_2021-12-21 > OSP-2373_email_open_2021-12-22_2021-12-26,7316.3827712072,80.0,40.0,657,657,False
177,FB_Impression_MobileFeed > FB_Impression_Instagram > OSP-2373_email_open_2021-12-22_2021-12-26,95.863989133272,5.0,7.0,201,201,False
178,FB_Impression_MobileFeed > OSP-2373_rw_app_imp_2021-12-22_2021-12-26 > OSP-2373_rw_app_clk_2021-12-22_2021-12-26,1859.4188015223,56.0,35.0,294,294,False
179,FB_Impression_MobileFeed > OSP-2373_email_open_2021-12-22_2021-12-26 > OSP-2373_email_open_2021-12-15_2021-12-21,153.34546729812,11.0,13.0,357,357,False
180,OSP-2373_rw_app_imp_2021-12-22_2021-12-26 > OSP-2373_rw_app_imp_2021-12-15_2021-12-21 > OSP-2373_rw_app_clk_2021-12-22_2021-12-26 > OSP-2373_email_open_2021-12-22_2021-12-26 > OSP-2373_email_clk_2021-12-22_2021-12-26,19767.005506716,790.0,659.0,2493,2493,False
181,_AlwaysOn_wow_web_view_2021-12-15_2021-12-21 > _AlwaysOn_wow_web_view_2021-12-15_2021-12-21 > _AlwaysOn_wow_web_clk_2021-12-15_2021-12-21 > OSP-2373_email_open_2021-12-22_2021-12-26,952.29032412601,7.0,4.0,122,122,False
182,_AlwaysOn_wow_web_view_2021-12-22_2021-12-26 > _AlwaysOn_sem_shopping_clk_2021-12-22_2021-12-26,-133.37025563175,20.0,25.0,532,532,False
183,OSP-2373_email_clk_2021-12-22_2021-12-26 > OSP-2373_email_clk_2021-12-22_2021-12-26,2583.8364303116,58.0,45.0,103,103,False
184,OSP-2373_rw_app_imp_2021-12-22_2021-12-26 > OSP-2373_rw_app_imp_2021-12-15_2021-12-21 > OSP-2373_rw_app_clk_2021-12-22_2021-12-26 > OSP-2373_email_open_2021-12-22_2021-12-26,74906.929357122,3033.0,2498.0,10453,10453,False
185,OSP-2373_rw_app_imp_2021-12-22_2021-12-26 > OSP-2373_rw_app_imp_2021-12-15_2021-12-21 > OSP-2373_rw_app_clk_2021-12-22_2021-12-26 > OSP-2373_rw_app_clk_2021-12-15_2021-12-21 > OSP-2373_email_open_2021-12-22_2021-12-26,11573.54557985,169.0,84.0,851,851,False
186,_AlwaysOn_wow_web_view_2021-12-15_2021-12-21 > _AlwaysOn_sem_brand_clk_2021-12-15_2021-12-21,-599.55929340048,3.0,2.0,437,437,False
187,FB_Impression_MobileFeed > OSP-2373_rw_app_imp_2021-12-22_2021-12-26 > OSP-2373_email_open_2021-12-22_2021-12-26,322.3005551212,16.0,14.0,207,207,False
188,FB_Impression_Instagram > OSP-2373_email_open_2021-12-22_2021-12-26 > OSP-2373_email_clk_2021-12-22_2021-12-26,136.32609647235,33.0,23.0,159,159,False
189,_AlwaysOn_wow_web_view_2021-12-15_2021-12-21 > OSP-2373_rw_app_imp_2021-12-22_2021-12-26 > OSP-2373_email_open_2021-12-22_2021-12-26 > OSP-2373_email_clk_2021-12-22_2021-12-26,4167.4540811599,51.0,22.0,474,474,False
190,_AlwaysOn_wow_web_clk_2021-12-15_2021-12-21 > OSP-2373_email_open_2021-12-22_2021-12-26 > OSP-2373_email_clk_2021-12-22_2021-12-26,26212.505575241,438.0,231.0,3855,3855,False
191,OSP-2373_rw_app_clk_2021-12-22_2021-12-26 > OSP-2373_email_open_2021-12-15_2021-12-21,284.91152583001,44.0,39.0,200,200,False
192,_AlwaysOn_sem_shopping_clk_2021-12-15_2021-12-21 > OSP-2373_rw_app_imp_2021-12-22_2021-12-26 > OSP-2373_rw_app_imp_2021-12-15_2021-12-21 > OSP-2373_rw_app_clk_2021-12-22_2021-12-26 > OSP-2373_email_open_2021-12-22_2021-12-26,1278.3138763871,14.0,9.0,103,103,False
193,_AlwaysOn_wow_web_view_2021-12-15_2021-12-21 > _AlwaysOn_sem_shopping_clk_2021-12-22_2021-12-26 > _AlwaysOn_sem_shopping_clk_2021-12-15_2021-12-21,1202.7980210461,7.0,0.0,207,207,False
194,_AlwaysOn_wow_web_clk_2021-12-22_2021-12-26 > OSP-2373_rw_app_imp_2021-12-22_2021-12-26,6316.1810815542,48.0,29.0,135,135,False
195,OSP-2373_rw_app_imp_2021-12-22_2021-12-26 > OSP-2373_rw_app_clk_2021-12-22_2021-12-26 > OSP-2373_email_open_2021-12-15_2021-12-21,-402.14842517929,22.0,17.0,123,123,False
196,_AlwaysOn_wow_web_view_2021-12-15_2021-12-21 > _AlwaysOn_wow_web_clk_2021-12-15_2021-12-21 > OSP-2373_rw_app_imp_2021-12-22_2021-12-26 > OSP-2373_rw_app_clk_2021-12-22_2021-12-26,6005.9231000104,56.0,24.0,398,398,False
197,_AlwaysOn_sem_shopping_clk_2021-12-15_2021-12-21 > OSP-2373_rw_app_imp_2021-12-15_2021-12-21,205.78647311529,2.0,3.0,202,202,False
198,FB_Impression_MobileFeed > OSP-2373_email_open_2021-12-22_2021-12-26,7757.826568348,387.0,407.0,14593,14593,False
199,OSP-2373_email_open_2021-12-22_2021-12-26 > OSP-2373_email_clk_2021-12-22_2021-12-26 > OSP-2373_email_clk_2021-12-22_2021-12-26,2323.92141454,53.0,45.0,184,184,False
200,OSP-2373_rw_app_imp_2021-12-22_2021-12-26 > OSP-2373_rw_app_imp_2021-12-22_2021-12-26 > OSP-2373_rw_app_clk_2021-12-22_2021-12-26 > OSP-2373_email_open_2021-12-22_2021-12-26,-314.90660666948,33.0,31.0,166,166,False
201,_AlwaysOn_wow_web_clk_2021-12-15_2021-12-21 > OSP-2373_rw_app_imp_2021-12-22_2021-12-26 > OSP-2373_rw_app_imp_2021-12-15_2021-12-21 > OSP-2373_rw_app_clk_2021-12-22_2021-12-26 > OSP-2373_rw_app_clk_2021-12-15_2021-12-21,1731.3160591508,20.0,7.0,111,111,False
202,_AlwaysOn_wow_web_view_2021-12-15_2021-12-21 > _AlwaysOn_wow_web_clk_2021-12-22_2021-12-26,10444.536501744,73.0,23.0,482,482,False
203,OSP-2373_email_open_2021-12-22_2021-12-26 > OSP-2373_email_open_2021-12-15_2021-12-21 > OSP-2373_email_clk_2021-12-22_2021-12-26,10046.634869628,580.0,520.0,3142,3142,False
204,_AlwaysOn_wow_web_view_2021-12-15_2021-12-21 > _AlwaysOn_wow_web_clk_2021-12-15_2021-12-21 > OSP-2373_rw_app_imp_2021-12-22_2021-12-26 > OSP-2373_rw_app_imp_2021-12-15_2021-12-21 > OSP-2373_email_open_2021-12-22_2021-12-26,300.83447365229,5.0,6.0,111,111,False
205,FB_Impression_MobileFeed > _AlwaysOn_wow_web_view_2021-12-15_2021-12-21 > OSP-2373_email_open_2021-12-22_2021-12-26 > OSP-2373_email_clk_2021-12-22_2021-12-26,1142.5232209781,19.0,17.0,198,198,False
206,_AlwaysOn_wow_web_view_2021-12-15_2021-12-21 > _AlwaysOn_wow_web_clk_2021-12-15_2021-12-21,36616.206120498,318.0,124.0,18038,18038,False
207,_AlwaysOn_wow_web_clk_2021-12-22_2021-12-26 > OSP-2373_rw_app_imp_2021-12-22_2021-12-26 > OSP-2373_rw_app_clk_2021-12-22_2021-12-26,7175.455170364,106.0,75.0,221,221,False
208,_AlwaysOn_sem_shopping_clk_2021-12-15_2021-12-21 > OSP-2373_email_open_2021-12-22_2021-12-26 > OSP-2373_email_clk_2021-12-22_2021-12-26,4658.0380245866,74.0,45.0,760,760,False
209,FB_Impression_MobileFeed > OSP-2373_email_open_2021-12-22_2021-12-26 > OSP-2373_email_clk_2021-12-22_2021-12-26,21928.077993766,498.0,404.0,3022,3022,False
210,FB_Impression_MobileFeed > _AlwaysOn_wow_web_view_2021-12-15_2021-12-21,916.34376271418,11.0,7.0,2399,2399,False
211,FB_Impression_MobileFeed > FB_Impression_Instagram > FB_Impression_MobileFeed > OSP-2373_email_open_2021-12-22_2021-12-26,820.72062061238,8.0,3.0,265,265,False
212,FB_Impression_MobileFeed > _AlwaysOn_wow_web_view_2021-12-22_2021-12-26,312.90006368202,11.0,15.0,452,452,False
213,_AlwaysOn_wow_web_view_2021-12-15_2021-12-21 > _AlwaysOn_sem_brand_clk_2021-12-15_2021-12-21 > OSP-2373_email_open_2021-12-22_2021-12-26,-27.012826944266,1.0,1.0,100,100,False
214,OSP-2373_rw_app_imp_2021-12-15_2021-12-21 > OSP-2373_rw_app_clk_2021-12-22_2021-12-26 > OSP-2373_rw_app_clk_2021-12-15_2021-12-21,88853.040251909,1301.0,821.0,6287,6287,False
215,_AlwaysOn_sem_brand_clk_2021-12-15_2021-12-21 > OSP-2373_email_open_2021-12-22_2021-12-26,-27.364972610954,2.0,3.0,192,192,False
216,FB_Impression_MobileFeed,12105.739958854,492.0,520.0,113996,113996,False
217,_AlwaysOn_wow_web_view_2021-12-15_2021-12-21 > OSP-2373_rw_app_imp_2021-12-22_2021-12-26 > OSP-2373_rw_app_imp_2021-12-15_2021-12-21 > OSP-2373_rw_app_clk_2021-12-22_2021-12-26,10938.371694419,129.0,61.0,844,844,False
218,_AlwaysOn_wow_web_clk_2021-12-15_2021-12-21 > OSP-2373_rw_app_imp_2021-12-15_2021-12-21 > OSP-2373_rw_app_clk_2021-12-15_2021-12-21,1413.871838474,16.0,13.0,216,216,False
219,_AlwaysOn_wow_web_view_2021-12-22_2021-12-26 > OSP-2373_rw_app_imp_2021-12-22_2021-12-26 > OSP-2373_rw_app_clk_2021-12-22_2021-12-26 > OSP-2373_email_open_2021-12-22_2021-12-26,935.58623878867,40.0,49.0,127,127,False
220,OSP-2373_rw_app_imp_2021-12-15_2021-12-21 > OSP-2373_email_open_2021-12-22_2021-12-26 > OSP-2373_email_clk_2021-12-22_2021-12-26,75912.778962051,2939.0,2442.0,11146,11146,False
221,_AlwaysOn_wow_web_view_2021-12-15_2021-12-21 > OSP-2373_rw_app_imp_2021-12-22_2021-12-26 > OSP-2373_rw_app_clk_2021-12-22_2021-12-26 > OSP-2373_email_open_2021-12-22_2021-12-26 > OSP-2373_email_clk_2021-12-22_2021-12-26,2119.4216949569,33.0,18.0,250,250,False
222,OSP-2373_email_open_2021-12-15_2021-12-21 > OSP-2373_email_clk_2021-12-22_2021-12-26,23634.48308887,726.0,624.0,2928,2928,False
223,_AlwaysOn_wow_web_clk_2021-12-15_2021-12-21 > _AlwaysOn_sem_shopping_clk_2021-12-15_2021-12-21 > _AlwaysOn_sem_shopping_clk_2021-12-15_2021-12-21,39.351136219734,1.0,1.0,120,120,False
224,OSP-2373_rw_app_imp_2021-12-22_2021-12-26 > OSP-2373_rw_app_imp_2021-12-15_2021-12-21 > OSP-2373_email_open_2021-12-22_2021-12-26 > OSP-2373_email_open_2021-12-15_2021-12-21,825.00450818502,14.0,12.0,135,135,False
225,OSP-2373_rw_app_imp_2021-12-15_2021-12-21 > OSP-2373_rw_app_clk_2021-12-22_2021-12-26 > OSP-2373_email_open_2021-12-22_2021-12-26 > OSP-2373_email_open_2021-12-15_2021-12-21,-930.85416893733,113.0,121.0,359,359,False
226,_AlwaysOn_wow_web_clk_2021-12-22_2021-12-26 > OSP-2373_rw_app_imp_2021-12-22_2021-12-26 > OSP-2373_rw_app_imp_2021-12-15_2021-12-21 > OSP-2373_rw_app_clk_2021-12-22_2021-12-26,30.633113637567,58.0,38.0,109,109,False
227,_AlwaysOn_wow_web_view_2021-12-15_2021-12-21 > OSP-2373_rw_app_imp_2021-12-22_2021-12-26 > OSP-2373_rw_app_imp_2021-12-15_2021-12-21 > OSP-2373_email_open_2021-12-22_2021-12-26 > OSP-2373_email_clk_2021-12-22_2021-12-26,710.21725574374,37.0,17.0,289,289,False
228,_AlwaysOn_wow_web_view_2021-12-15_2021-12-21 > _AlwaysOn_wow_web_clk_2021-12-15_2021-12-21 > OSP-2373_rw_app_imp_2021-12-22_2021-12-26 > OSP-2373_email_open_2021-12-22_2021-12-26 > OSP-2373_email_clk_2021-12-22_2021-12-26,1066.8493440935,20.0,12.0,160,160,False
229,_AlwaysOn_wow_web_clk_2021-12-15_2021-12-21 > OSP-2373_rw_app_imp_2021-12-15_2021-12-21 > OSP-2373_email_open_2021-12-22_2021-12-26 > OSP-2373_email_clk_2021-12-22_2021-12-26,1981.5118805974,37.0,19.0,233,233,False
230,_AlwaysOn_wow_web_view_2021-12-15_2021-12-21 > _AlwaysOn_wow_web_clk_2021-12-15_2021-12-21 > OSP-2373_rw_app_imp_2021-12-22_2021-12-26 > OSP-2373_rw_app_clk_2021-12-22_2021-12-26 > OSP-2373_email_open_2021-12-22_2021-12-26,2223.2481457727,17.0,7.0,167,167,False
231,_AlwaysOn_wow_web_view_2021-12-15_2021-12-21 > _AlwaysOn_wow_web_clk_2021-12-15_2021-12-21 > OSP-2373_rw_app_imp_2021-12-22_2021-12-26 > OSP-2373_rw_app_imp_2021-12-15_2021-12-21 > OSP-2373_rw_app_clk_2021-12-22_2021-12-26 > OSP-2373_email_open_2021-12-22_2021-12-26,1214.4491984556,17.0,7.0,130,130,False
232,_AlwaysOn_wow_web_view_2021-12-15_2021-12-21 > _AlwaysOn_sem_shopping_clk_2021-12-22_2021-12-26,261.15134756456,3.0,2.0,133,133,False
233,_AlwaysOn_wow_web_view_2021-12-15_2021-12-21 > OSP-2373_email_open_2021-12-22_2021-12-26 > OSP-2373_email_open_2021-12-15_2021-12-21 > OSP-2373_email_clk_2021-12-22_2021-12-26,1222.869297803,17.0,6.0,153,153,False
234,_AlwaysOn_wow_web_view_2021-12-15_2021-12-21 > OSP-2373_rw_app_imp_2021-12-22_2021-12-26 > OSP-2373_rw_app_imp_2021-12-15_2021-12-21,1826.4051871355,21.0,11.0,645,645,False
235,OSP-2373_rw_app_imp_2021-12-22_2021-12-26 > OSP-2373_email_open_2021-12-15_2021-12-21,-171.31345051834,8.0,11.0,206,206,False
236,OSP-2373_rw_app_imp_2021-12-15_2021-12-21 > OSP-2373_rw_app_imp_2021-12-15_2021-12-21 > OSP-2373_email_open_2021-12-22_2021-12-26 > OSP-2373_email_clk_2021-12-22_2021-12-26,2315.8998317659,114.0,76.0,350,350,False
237,_AlwaysOn_wow_web_clk_2021-12-15_2021-12-21 > OSP-2373_rw_app_imp_2021-12-15_2021-12-21 > OSP-2373_email_open_2021-12-22_2021-12-26,1472.5325552854,15.0,7.0,280,280,False
238,_AlwaysOn_wow_web_view_2021-12-15_2021-12-21 > _AlwaysOn_wow_web_clk_2021-12-22_2021-12-26 > _AlwaysOn_wow_web_clk_2021-12-15_2021-12-21,6420.0990068216,56.0,25.0,243,243,False
239,OSP-2373_rw_app_imp_2021-12-15_2021-12-21 > OSP-2373_rw_app_imp_2021-12-15_2021-12-21 > OSP-2373_rw_app_clk_2021-12-22_2021-12-26,7696.6931199477,440.0,415.0,1254,1254,False
240,OSP-2373_rw_app_imp_2021-12-22_2021-12-26 > OSP-2373_rw_app_imp_2021-12-15_2021-12-21 > OSP-2373_rw_app_imp_2021-12-15_2021-12-21 > OSP-2373_rw_app_clk_2021-12-22_2021-12-26,-329.75612230509,32.0,15.0,172,172,False
241,_AlwaysOn_wow_web_view_2021-12-22_2021-12-26 > _AlwaysOn_wow_web_clk_2021-12-22_2021-12-26 > OSP-2373_email_open_2021-12-22_2021-12-26,7112.0545161683,76.0,41.0,314,314,False
242,FB_Impression_MobileFeed > OSP-2373_rw_app_imp_2021-12-22_2021-12-26 > OSP-2373_rw_app_imp_2021-12-15_2021-12-21,-282.25255316302,5.0,11.0,206,206,False
243,_AlwaysOn_wow_web_clk_2021-12-15_2021-12-21,35829.166109076,321.0,134.0,13565,13565,False
244,_AlwaysOn_wow_web_clk_2021-12-22_2021-12-26 > OSP-2373_email_open_2021-12-22_2021-12-26 > OSP-2373_email_clk_2021-12-22_2021-12-26,3741.6538377146,111.0,86.0,261,261,False
245,OSP-2373_rw_app_clk_2021-12-15_2021-12-21 > OSP-2373_email_open_2021-12-22_2021-12-26,12787.955167946,338.0,246.0,3416,3416,False
246,FB_Impression_MobileFeed > _AlwaysOn_wow_web_clk_2021-12-15_2021-12-21,-2.5581381053182,0.0,1.0,104,104,False
247,OSP-2373_rw_app_imp_2021-12-15_2021-12-21 > OSP-2373_rw_app_imp_2021-12-15_2021-12-21 > OSP-2373_rw_app_clk_2021-12-22_2021-12-26 > OSP-2373_rw_app_clk_2021-12-15_2021-12-21,2445.7734378112,65.0,31.0,198,198,False
248,FB_Impression_MobileFeed > _AlwaysOn_wow_web_view_2021-12-15_2021-12-21 > OSP-2373_email_open_2021-12-22_2021-12-26,132.07383245796,6.0,7.0,571,571,False
249,_AlwaysOn_wow_web_view_2021-12-22_2021-12-26,26365.336254817,469.0,425.0,19513,19513,False
250,OSP-2373_rw_app_imp_2021-12-22_2021-12-26 > OSP-2373_rw_app_imp_2021-12-22_2021-12-26 > OSP-2373_rw_app_imp_2021-12-15_2021-12-21 > OSP-2373_rw_app_clk_2021-12-22_2021-12-26,7896.4981488796,170.0,100.0,814,814,False
251,_AlwaysOn_wow_web_view_2021-12-15_2021-12-21 > OSP-2373_email_open_2021-12-15_2021-12-21,1599.1112440096,4.0,4.0,164,164,False
252,OSP-2373_rw_app_imp_2021-12-22_2021-12-26 > OSP-2373_rw_app_imp_2021-12-15_2021-12-21 > OSP-2373_email_open_2021-12-22_2021-12-26,7582.5087697699,602.0,555.0,6257,6257,False
253,OSP-2373_email_open_2021-12-15_2021-12-21,6059.571066765,511.0,604.0,15218,15218,False
254,OSP-2373_rw_app_clk_2021-12-15_2021-12-21 > OSP-2373_email_open_2021-12-22_2021-12-26 > OSP-2373_email_clk_2021-12-22_2021-12-26,10994.488891211,206.0,139.0,1155,1155,False
255,_AlwaysOn_sem_shopping_clk_2021-12-15_2021-12-21 > OSP-2373_rw_app_imp_2021-12-22_2021-12-26 > OSP-2373_rw_app_clk_2021-12-22_2021-12-26,2067.8633157712,40.0,18.0,346,346,False
