,path,total_conversion_value,conversions,non_conversions,cnt,ppl,Converted
0,FB_Impression_MobileFeed > OSP-2373_rw_app_imp_2021-09-22_2021-09-26,1220802.1948485,1483.0,1113.0,9468,9468,False
1,OSP-2373_rw_app_imp_2021-09-22_2021-09-26 > OSP-2373_email_open_2021-09-15_2021-09-21,18082.721443938,53.0,46.0,461,461,False
2,OSP-2373_rw_app_clk_2021-09-15_2021-09-21 > OSP-2373_email_open_2021-09-22_2021-09-26,91454.924229904,81.0,43.0,280,280,False
3,FB_Impression_MobileFeed > FB_Impression_InStream > FB_Impression_MobileFeed > OSP-2373_email_open_2021-09-22_2021-09-26,72919.730196874,19.0,15.0,138,138,False
4,FB_Impression_MobileFeed > FB_Impression_SuggestedVideo > OSP-2373_email_open_2021-09-22_2021-09-26,1437.0093937209,1.0,3.0,115,115,False
5,OSP-2373_rw_app_imp_2021-09-22_2021-09-26 > OSP-2373_rw_app_imp_2021-09-15_2021-09-21 > OSP-2373_rw_app_clk_2021-09-22_2021-09-26,1993517.9668346,1994.0,1379.0,4998,4998,False
6,OSP-2373_rw_app_imp_2021-09-15_2021-09-21 > OSP-2373_rw_app_clk_2021-09-22_2021-09-26 > OSP-2373_rw_app_clk_2021-09-15_2021-09-21,519115.53067456,618.0,433.0,1050,1050,False
7,FB_Impression_MobileFeed > FB_Impression_InStream > OSP-2373_rw_app_imp_2021-09-22_2021-09-26,30954.073667928,25.0,8.0,135,135,False
8,_AlwaysOn_wow_web_clk_2021-09-22_2021-09-26 > OSP-2373_email_open_2021-09-22_2021-09-26 > OSP-2373_email_clk_2021-09-22_2021-09-26,173238.16852109,127.0,99.0,289,289,False
9,_AlwaysOn_wow_web_clk_2021-09-15_2021-09-21 > OSP-2373_email_open_2021-09-22_2021-09-26,53458.20744292,24.0,10.0,458,458,False
10,FB_Impression_InstagramStory,446782.31418148,438.0,325.0,50726,50726,False
11,_AlwaysOn_sem_shopping_clk_2021-09-22_2021-09-26 > OSP-2373_email_open_2021-09-22_2021-09-26 > OSP-2373_email_clk_2021-09-22_2021-09-26,49109.69901283,20.0,12.0,105,105,False
12,FB_Impression_MobileFeed > FB_Impression_FacebookStory > FB_Impression_MobileFeed > OSP-2373_email_open_2021-09-22_2021-09-26,17666.239762391,15.0,11.0,179,179,False
13,FB_Impression_InstagramStory > _AlwaysOn_wow_web_view_2021-09-22_2021-09-26,41895.686694096,16.0,16.0,276,276,False
14,FB_Impression_MobileFeed > OSP-2373_rw_app_imp_2021-09-22_2021-09-26 > OSP-2373_email_open_2021-09-22_2021-09-26,63705.436358362,312.0,219.0,1893,1893,False
15,FB_Impression_FacebookStory > OSP-2373_email_open_2021-09-22_2021-09-26 > OSP-2373_email_clk_2021-09-22_2021-09-26,29382.175879155,17.0,16.0,121,121,False
16,OSP-2373_rw_app_imp_2021-09-15_2021-09-21 > OSP-2373_email_open_2021-09-15_2021-09-21,-13212.435590879,64.0,47.0,305,305,False
18,FB_Impression_WebFeed,179769.3914441,261.0,202.0,7180,7180,False
19,OSP-2373_rw_app_imp_2021-09-15_2021-09-21 > OSP-2373_rw_app_clk_2021-09-22_2021-09-26 > OSP-2373_email_open_2021-09-22_2021-09-26,278549.55276679,581.0,404.0,1110,1110,False
20,FB_Impression_InstagramStory > FB_Impression_MobileFeed > FB_Impression_InstagramStory > OSP-2373_email_open_2021-09-22_2021-09-26,5773.0840259857,4.0,10.0,136,136,False
21,OSP-2373_rw_app_imp_2021-09-15_2021-09-21 > OSP-2373_rw_app_clk_2021-09-15_2021-09-21,1396941.9130386,1255.0,697.0,3959,3959,False
22,_AlwaysOn_wow_web_view_2021-09-22_2021-09-26 > OSP-2373_rw_app_imp_2021-09-22_2021-09-26 > OSP-2373_rw_app_imp_2021-09-15_2021-09-21,57139.415712766,56.0,37.0,176,176,False
23,FB_Impression_MobileFeed > _AlwaysOn_wow_web_view_2021-09-15_2021-09-21 > OSP-2373_email_open_2021-09-22_2021-09-26,15054.960646724,10.0,5.0,174,174,False
24,FB_Impression_InstagramStory > FB_Impression_MobileFeed > OSP-2373_email_open_2021-09-22_2021-09-26,45249.667110788,20.0,8.0,257,257,False
25,_AlwaysOn_sem_shopping_clk_2021-09-22_2021-09-26 > OSP-2373_rw_app_imp_2021-09-22_2021-09-26,-17116.814369073,30.0,27.0,202,202,False
26,OSP-2373_rw_app_imp_2021-09-15_2021-09-21 > OSP-2373_rw_app_clk_2021-09-22_2021-09-26 > OSP-2373_rw_app_clk_2021-09-15_2021-09-21 > OSP-2373_email_open_2021-09-22_2021-09-26,132258.19290251,165.0,111.0,249,249,False
27,FB_Impression_MobileFeed > OSP-2373_email_open_2021-09-22_2021-09-26 > OSP-2373_email_clk_2021-09-22_2021-09-26,1437425.6753935,1464.0,989.0,7569,7569,False
28,_AlwaysOn_wow_web_view_2021-09-22_2021-09-26 > _AlwaysOn_wow_web_clk_2021-09-22_2021-09-26 > OSP-2373_rw_app_imp_2021-09-22_2021-09-26,221761.28409644,130.0,62.0,347,347,False
29,FB_Impression_InstagramStory > FB_Impression_MobileFeed > FB_Impression_InstagramStory > OSP-2373_rw_app_imp_2021-09-22_2021-09-26,9038.1501546193,12.0,6.0,123,123,False
30,FB_Impression_MobileFeed > OSP-2373_rw_app_imp_2021-09-22_2021-09-26 > OSP-2373_rw_app_imp_2021-09-15_2021-09-21 > OSP-2373_rw_app_clk_2021-09-22_2021-09-26,-15811.79674674,216.0,143.0,489,489,False
31,FB_Impression_MobileFeed > FB_Impression_FacebookStory > OSP-2373_rw_app_imp_2021-09-22_2021-09-26,48904.904969627,32.0,16.0,189,189,False
32,OSP-2373_email_open_2021-09-22_2021-09-26,15268649.421043,18096.0,13679.0,398386,398386,False
33,OSP-2373_rw_app_imp_2021-09-22_2021-09-26 > OSP-2373_rw_app_imp_2021-09-15_2021-09-21 > OSP-2373_rw_app_clk_2021-09-15_2021-09-21 > OSP-2373_email_open_2021-09-22_2021-09-26,74762.957283338,81.0,44.0,185,185,False
34,FB_Impression_InstagramStory > OSP-2373_rw_app_imp_2021-09-22_2021-09-26 > OSP-2373_rw_app_imp_2021-09-15_2021-09-21,52446.825252779,81.0,51.0,412,412,False
35,OSP-2373_rw_app_imp_2021-09-15_2021-09-21 > OSP-2373_rw_app_clk_2021-09-22_2021-09-26,2205441.2395438,2755.0,1902.0,5756,5756,False
36,FB_Impression_InstagramStory > _AlwaysOn_wow_web_view_2021-09-15_2021-09-21,6226.381804779,5.0,1.0,378,378,False
37,_AlwaysOn_sem_shopping_clk_2021-09-22_2021-09-26,38570.77605033,80.0,69.0,2860,2860,False
38,FB_Impression_MobileFeed > OSP-2373_rw_app_imp_2021-09-15_2021-09-21 > OSP-2373_rw_app_clk_2021-09-15_2021-09-21,41358.265202272,26.0,12.0,136,136,False
39,FB_Impression_MobileFeed > OSP-2373_rw_app_imp_2021-09-22_2021-09-26 > OSP-2373_rw_app_clk_2021-09-22_2021-09-26 > OSP-2373_email_open_2021-09-22_2021-09-26,55502.066258424,68.0,38.0,233,233,False
40,_AlwaysOn_wow_web_view_2021-09-15_2021-09-21 > OSP-2373_rw_app_imp_2021-09-15_2021-09-21,61234.290338105,32.0,12.0,420,420,False
41,FB_Impression_FacebookStory > FB_Impression_MobileFeed > OSP-2373_rw_app_imp_2021-09-22_2021-09-26,17026.861777671,15.0,14.0,102,102,False
42,FB_Impression_InStream > OSP-2373_rw_app_imp_2021-09-22_2021-09-26,35073.499920256,43.0,28.0,249,249,False
43,_AlwaysOn_wow_web_view_2021-09-15_2021-09-21 > _AlwaysOn_wow_web_clk_2021-09-22_2021-09-26 > _AlwaysOn_wow_web_clk_2021-09-15_2021-09-21,60543.096978086,21.0,5.0,314,314,False
44,OSP-2373_rw_app_imp_2021-09-22_2021-09-26 > OSP-2373_rw_app_imp_2021-09-15_2021-09-21 > OSP-2373_rw_app_clk_2021-09-22_2021-09-26 > OSP-2373_email_open_2021-09-22_2021-09-26 > OSP-2373_email_clk_2021-09-22_2021-09-26,91741.430743678,96.0,54.0,174,174,False
45,_AlwaysOn_wow_web_view_2021-09-22_2021-09-26 > _AlwaysOn_wow_web_clk_2021-09-22_2021-09-26,726837.61219669,291.0,165.0,4448,4448,False
46,FB_Impression_FacebookStory,169633.79911132,82.0,51.0,2992,2992,False
47,OSP-2373_rw_app_imp_2021-09-15_2021-09-21 > OSP-2373_rw_app_clk_2021-09-15_2021-09-21 > OSP-2373_email_open_2021-09-22_2021-09-26 > OSP-2373_email_clk_2021-09-22_2021-09-26,60322.624149261,90.0,79.0,234,234,False
48,OSP-2373_rw_app_clk_2021-09-22_2021-09-26,4032333.2063014,4142.0,2800.0,11959,11959,False
49,FB_Impression_InstagramStory > OSP-2373_email_open_2021-09-22_2021-09-26,84589.929755402,81.0,68.0,2480,2480,False
50,OSP-2373_rw_app_imp_2021-09-15_2021-09-21 > OSP-2373_rw_app_imp_2021-09-15_2021-09-21 > OSP-2373_rw_app_clk_2021-09-22_2021-09-26,-8833.6003360878,69.0,62.0,132,132,False
51,_AlwaysOn_sem_shopping_clk_2021-09-22_2021-09-26 > OSP-2373_email_open_2021-09-22_2021-09-26,1399.6139328644,10.0,7.0,177,177,False
52,OSP-2373_rw_app_clk_2021-09-22_2021-09-26 > OSP-2373_email_open_2021-09-22_2021-09-26 > OSP-2373_email_clk_2021-09-22_2021-09-26,355816.7531192,458.0,290.0,1025,1025,False
53,OSP-2373_email_open_2021-09-22_2021-09-26 > OSP-2373_email_open_2021-09-15_2021-09-21 > OSP-2373_email_clk_2021-09-22_2021-09-26,444650.76976522,420.0,269.0,1941,1941,False
54,OSP-2373_email_open_2021-09-22_2021-09-26 > OSP-2373_email_clk_2021-09-22_2021-09-26,13303045.180276,14510.0,9627.0,83311,83311,False
55,_AlwaysOn_sem_shopping_clk_2021-09-15_2021-09-21,115407.75573697,65.0,24.0,4216,4216,False
56,_AlwaysOn_wow_web_view_2021-09-15_2021-09-21 > OSP-2373_rw_app_imp_2021-09-22_2021-09-26,252185.19455623,138.0,69.0,1320,1320,False
57,_AlwaysOn_wow_web_view_2021-09-22_2021-09-26 > _AlwaysOn_wow_web_clk_2021-09-22_2021-09-26 > OSP-2373_email_open_2021-09-22_2021-09-26 > OSP-2373_email_clk_2021-09-22_2021-09-26,181048.30301771,75.0,33.0,178,178,False
58,FB_Impression_MobileFeed > OSP-2373_rw_app_imp_2021-09-15_2021-09-21 > OSP-2373_email_open_2021-09-22_2021-09-26,-5417.1722971901,35.0,27.0,295,295,False
59,FB_Impression_InstagramStory > FB_Impression_MobileFeed > OSP-2373_rw_app_imp_2021-09-22_2021-09-26,14880.480424687,45.0,36.0,259,259,False
60,_AlwaysOn_wow_web_view_2021-09-22_2021-09-26,1283491.7267786,1001.0,702.0,25267,25267,False
61,_AlwaysOn_wow_web_view_2021-09-22_2021-09-26 > OSP-2373_rw_app_imp_2021-09-15_2021-09-21,17908.268587443,22.0,22.0,137,137,False
62,FB_Impression_MobileFeed > FB_Impression_FacebookStory > FB_Impression_MobileFeed,60472.163661262,72.0,40.0,1303,1303,False
63,_AlwaysOn_wow_web_clk_2021-09-22_2021-09-26 > OSP-2373_rw_app_imp_2021-09-22_2021-09-26,241289.66723046,208.0,136.0,456,456,False
64,_AlwaysOn_wow_web_clk_2021-09-15_2021-09-21 > OSP-2373_rw_app_imp_2021-09-22_2021-09-26,97013.68170421,40.0,12.0,287,287,False
65,FB_Impression_MobileFeed > _AlwaysOn_wow_web_view_2021-09-22_2021-09-26 > OSP-2373_rw_app_imp_2021-09-22_2021-09-26,48098.342762735,49.0,25.0,128,128,False
66,_AlwaysOn_wow_web_view_2021-09-22_2021-09-26 > OSP-2373_email_open_2021-09-22_2021-09-26,264438.00802556,229.0,140.0,1503,1503,False
67,_AlwaysOn_wow_web_view_2021-09-22_2021-09-26 > _AlwaysOn_wow_web_view_2021-09-15_2021-09-21 > OSP-2373_email_open_2021-09-22_2021-09-26,32767.88543784,19.0,10.0,244,244,False
68,_AlwaysOn_wow_web_clk_2021-09-22_2021-09-26 > OSP-2373_email_open_2021-09-22_2021-09-26,76059.296087179,92.0,77.0,385,385,False
69,FB_Impression_MobileFeed > _AlwaysOn_wow_web_view_2021-09-15_2021-09-21 > OSP-2373_rw_app_imp_2021-09-22_2021-09-26,42935.03628944,15.0,5.0,110,110,False
70,OSP-2373_email_open_2021-09-22_2021-09-26 > OSP-2373_email_open_2021-09-15_2021-09-21,354597.78386458,560.0,464.0,6263,6263,False
71,_AlwaysOn_sem_brand_clk_2021-09-15_2021-09-21 > OSP-2373_email_open_2021-09-22_2021-09-26 > OSP-2373_email_clk_2021-09-22_2021-09-26,13887.887921562,9.0,4.0,113,113,False
72,_AlwaysOn_wow_web_clk_2021-09-22_2021-09-26 > OSP-2373_rw_app_imp_2021-09-22_2021-09-26 > OSP-2373_rw_app_imp_2021-09-15_2021-09-21,51457.480942111,71.0,37.0,124,124,False
73,FB_Impression_MobileFeed > FB_Impression_InstagramStory > OSP-2373_email_open_2021-09-22_2021-09-26 > OSP-2373_email_clk_2021-09-22_2021-09-26,14296.8021164,17.0,15.0,110,110,False
74,FB_Impression_MobileFeed > OSP-2373_rw_app_imp_2021-09-15_2021-09-21 > OSP-2373_email_open_2021-09-22_2021-09-26 > OSP-2373_email_clk_2021-09-22_2021-09-26,55145.164543066,25.0,21.0,137,137,False
75,FB_Impression_MobileFeed > FB_Impression_InstagramStory > OSP-2373_rw_app_imp_2021-09-22_2021-09-26,30132.610484931,42.0,28.0,243,243,False
76,OSP-2373_rw_app_imp_2021-09-22_2021-09-26 > OSP-2373_rw_app_imp_2021-09-15_2021-09-21 > OSP-2373_rw_app_clk_2021-09-22_2021-09-26 > OSP-2373_email_open_2021-09-22_2021-09-26,233626.0196355,350.0,258.0,745,745,False
77,FB_Impression_MobileFeed > _AlwaysOn_wow_web_view_2021-09-22_2021-09-26 > OSP-2373_email_open_2021-09-22_2021-09-26,48776.75021791,21.0,16.0,149,149,False
78,FB_Impression_MobileFeed > FB_Impression_InstagramStory,54613.627772752,73.0,82.0,2692,2692,False
79,_AlwaysOn_wow_web_view_2021-09-22_2021-09-26 > _AlwaysOn_sem_shopping_clk_2021-09-22_2021-09-26,16355.542630222,8.0,7.0,124,124,False
80,OSP-2373_email_open_2021-09-15_2021-09-21,697787.57923426,987.0,787.0,15272,15272,False
81,FB_Impression_MobileFeed > FB_Impression_WebFeed > OSP-2373_email_open_2021-09-22_2021-09-26,21279.936938018,18.0,10.0,162,162,False
82,FB_Impression_MobileFeed > _AlwaysOn_wow_web_view_2021-09-15_2021-09-21,98877.195829541,42.0,14.0,1387,1387,False
83,FB_Impression_SuggestedVideo > OSP-2373_email_open_2021-09-22_2021-09-26,8123.850471443,6.0,7.0,813,813,False
84,_AlwaysOn_wow_web_view_2021-09-15_2021-09-21 > _AlwaysOn_wow_web_view_2021-09-15_2021-09-21 > _AlwaysOn_wow_web_clk_2021-09-15_2021-09-21,35058.844293041,16.0,3.0,344,344,False
85,_AlwaysOn_sem_shopping_clk_2021-09-15_2021-09-21 > OSP-2373_rw_app_imp_2021-09-22_2021-09-26,6528.7105842573,12.0,8.0,217,217,False
86,_AlwaysOn_wow_web_view_2021-09-15_2021-09-21 > _AlwaysOn_wow_web_view_2021-09-15_2021-09-21,31716.234093306,19.0,2.0,384,384,False
87,OSP-2373_rw_app_clk_2021-09-15_2021-09-21,714430.02541432,426.0,208.0,1690,1690,False
88,FB_Impression_MobileFeed > FB_Impression_InStream > FB_Impression_MobileFeed > OSP-2373_rw_app_imp_2021-09-22_2021-09-26,23648.627735172,25.0,12.0,115,115,False
89,_AlwaysOn_wow_web_view_2021-09-15_2021-09-21,1332161.1369031,575.0,214.0,43591,43591,False
90,FB_Impression_InstagramStory > OSP-2373_rw_app_imp_2021-09-15_2021-09-21,46431.071990026,38.0,17.0,384,384,False
91,_AlwaysOn_wow_web_view_2021-09-15_2021-09-21 > _AlwaysOn_wow_web_clk_2021-09-15_2021-09-21 > OSP-2373_rw_app_imp_2021-09-15_2021-09-21,29050.100159047,13.0,3.0,159,159,False
92,OSP-2373_rw_app_imp_2021-09-22_2021-09-26 > OSP-2373_email_open_2021-09-22_2021-09-26 > OSP-2373_email_clk_2021-09-22_2021-09-26,969374.04318342,1142.0,723.0,4915,4915,False
93,OSP-2373_rw_app_imp_2021-09-22_2021-09-26 > OSP-2373_email_open_2021-09-22_2021-09-26 > OSP-2373_email_open_2021-09-15_2021-09-21,-8875.5274739985,50.0,26.0,304,304,False
94,FB_Impression_WebFeed > OSP-2373_rw_app_imp_2021-09-22_2021-09-26,31333.568973218,34.0,17.0,171,171,False
95,FB_Impression_MobileFeed > FB_Impression_InstagramStory > FB_Impression_MobileFeed > OSP-2373_email_open_2021-09-22_2021-09-26,-40916.424553978,20.0,13.0,214,214,False
96,FB_Impression_MobileFeed > FB_Impression_FacebookStory,97960.341102723,70.0,56.0,1546,1546,False
97,OSP-2373_email_open_2021-09-22_2021-09-26 > OSP-2373_email_open_2021-09-15_2021-09-21 > OSP-2373_email_clk_2021-09-15_2021-09-21,42179.684583543,18.0,8.0,158,158,False
98,FB_Impression_MobileFeed,3742548.4502687,3918.0,3126.0,140948,140948,False
99,_AlwaysOn_wow_web_view_2021-09-22_2021-09-26 > _AlwaysOn_wow_web_view_2021-09-15_2021-09-21 > OSP-2373_email_open_2021-09-22_2021-09-26 > OSP-2373_email_clk_2021-09-22_2021-09-26,19217.445197679,14.0,7.0,107,107,False
100,FB_Impression_MobileFeed > FB_Impression_InStream > OSP-2373_email_open_2021-09-22_2021-09-26 > OSP-2373_email_clk_2021-09-22_2021-09-26,26251.428095722,14.0,13.0,103,103,False
101,_AlwaysOn_wow_web_view_2021-09-15_2021-09-21 > _AlwaysOn_wow_web_clk_2021-09-15_2021-09-21,497153.2379733,165.0,60.0,8054,8054,False
102,_AlwaysOn_wow_web_view_2021-09-15_2021-09-21 > OSP-2373_rw_app_imp_2021-09-22_2021-09-26 > OSP-2373_rw_app_clk_2021-09-22_2021-09-26,70884.658978283,31.0,8.0,112,112,False
103,_AlwaysOn_sem_shopping_clk_2021-09-15_2021-09-21 > OSP-2373_email_open_2021-09-22_2021-09-26,6265.4284451857,15.0,6.0,294,294,False
104,OSP-2373_email_clk_2021-09-15_2021-09-21,69398.339919181,63.0,31.0,354,354,False
105,FB_Impression_InstagramStory > OSP-2373_rw_app_imp_2021-09-22_2021-09-26 > OSP-2373_rw_app_clk_2021-09-22_2021-09-26,61689.188308176,43.0,22.0,146,146,False
106,FB_Impression_InStream > OSP-2373_email_open_2021-09-22_2021-09-26,40957.107749022,32.0,19.0,316,316,False
107,FB_Impression_InStream,129204.07604961,116.0,94.0,1665,1665,False
108,OSP-2373_rw_app_imp_2021-09-15_2021-09-21 > OSP-2373_email_open_2021-09-22_2021-09-26 > OSP-2373_email_open_2021-09-22_2021-09-26,74949.777831741,61.0,49.0,237,237,False
109,OSP-2373_rw_app_imp_2021-09-22_2021-09-26 > OSP-2373_rw_app_imp_2021-09-15_2021-09-21 > OSP-2373_email_open_2021-09-22_2021-09-26 > OSP-2373_email_clk_2021-09-22_2021-09-26,376302.79604911,381.0,234.0,1171,1171,False
110,FB_Impression_MobileFeed > _AlwaysOn_wow_web_view_2021-09-15_2021-09-21 > _AlwaysOn_wow_web_clk_2021-09-15_2021-09-21,79248.43202683,20.0,3.0,433,433,False
111,FB_Impression_MobileFeed > OSP-2373_email_open_2021-09-22_2021-09-26 > OSP-2373_email_open_2021-09-15_2021-09-21 > OSP-2373_email_clk_2021-09-22_2021-09-26,76696.031936684,42.0,22.0,181,181,False
112,FB_Impression_WebFeed > FB_Impression_MobileFeed > OSP-2373_email_open_2021-09-22_2021-09-26,14760.053938194,17.0,9.0,141,141,False
113,_AlwaysOn_wow_web_view_2021-09-22_2021-09-26 > _AlwaysOn_wow_web_view_2021-09-15_2021-09-21,120946.10230908,85.0,41.0,3246,3246,False
114,FB_Impression_MobileFeed > FB_Impression_InstagramStory > FB_Impression_MobileFeed > OSP-2373_email_open_2021-09-22_2021-09-26 > OSP-2373_email_clk_2021-09-22_2021-09-26,22868.228011868,24.0,14.0,102,102,False
115,FB_Impression_MobileFeed > _AlwaysOn_wow_web_view_2021-09-22_2021-09-26 > _AlwaysOn_wow_web_clk_2021-09-22_2021-09-26,50448.710738768,27.0,10.0,256,256,False
116,FB_Impression_MobileFeed > OSP-2373_rw_app_imp_2021-09-22_2021-09-26 > OSP-2373_email_open_2021-09-22_2021-09-26 > OSP-2373_email_clk_2021-09-22_2021-09-26,99609.775539579,196.0,138.0,766,766,False
117,OSP-2373_rw_app_imp_2021-09-22_2021-09-26 > OSP-2373_rw_app_imp_2021-09-15_2021-09-21 > OSP-2373_email_open_2021-09-22_2021-09-26 > OSP-2373_email_open_2021-09-15_2021-09-21,21424.834775852,28.0,16.0,118,118,False
118,OSP-2373_rw_app_imp_2021-09-15_2021-09-21 > OSP-2373_rw_app_clk_2021-09-22_2021-09-26 > OSP-2373_email_open_2021-09-22_2021-09-26 > OSP-2373_email_clk_2021-09-22_2021-09-26,141914.03139603,227.0,156.0,386,386,False
119,_AlwaysOn_wow_web_view_2021-09-15_2021-09-21 > OSP-2373_rw_app_imp_2021-09-22_2021-09-26 > OSP-2373_email_open_2021-09-22_2021-09-26,93352.272957788,36.0,9.0,271,271,False
120,OSP-2373_rw_app_imp_2021-09-22_2021-09-26 > OSP-2373_rw_app_imp_2021-09-15_2021-09-21 > OSP-2373_rw_app_clk_2021-09-15_2021-09-21,557857.44631056,582.0,321.0,1685,1685,False
121,OSP-2373_email_open_2021-09-15_2021-09-21 > OSP-2373_email_clk_2021-09-22_2021-09-26,426141.05636079,572.0,412.0,2040,2040,False
122,FB_Impression_MobileFeed > OSP-2373_rw_app_imp_2021-09-22_2021-09-26 > OSP-2373_rw_app_imp_2021-09-15_2021-09-21 > OSP-2373_email_open_2021-09-22_2021-09-26,44085.289964091,132.0,94.0,502,502,False
123,_AlwaysOn_wow_web_view_2021-09-15_2021-09-21 > _AlwaysOn_wow_web_clk_2021-09-15_2021-09-21 > OSP-2373_rw_app_imp_2021-09-22_2021-09-26,88273.878296631,31.0,15.0,316,316,False
124,OSP-2373_rw_app_imp_2021-09-22_2021-09-26 > OSP-2373_rw_app_imp_2021-09-22_2021-09-26 > OSP-2373_rw_app_imp_2021-09-15_2021-09-21,94633.392500573,79.0,55.0,262,262,False
125,_AlwaysOn_wow_web_view_2021-09-22_2021-09-26 > _AlwaysOn_wow_web_view_2021-09-15_2021-09-21 > OSP-2373_rw_app_imp_2021-09-22_2021-09-26,7220.1691181499,18.0,14.0,168,168,False
126,_AlwaysOn_wow_web_clk_2021-09-15_2021-09-21,394505.04175229,135.0,43.0,3977,3977,False
127,_AlwaysOn_wow_web_view_2021-09-15_2021-09-21 > _AlwaysOn_sem_shopping_clk_2021-09-15_2021-09-21,1190.0217823364,4.0,4.0,227,227,False
128,FB_Impression_FacebookStory > OSP-2373_rw_app_imp_2021-09-22_2021-09-26,26849.239207414,21.0,21.0,179,179,False
129,OSP-2373_email_open_2021-09-22_2021-09-26 > OSP-2373_email_open_2021-09-22_2021-09-26 > OSP-2373_email_clk_2021-09-22_2021-09-26,214979.40493725,226.0,142.0,557,557,False
130,FB_Impression_MobileFeed > OSP-2373_email_open_2021-09-22_2021-09-26 > OSP-2373_email_open_2021-09-15_2021-09-21,58856.095212839,51.0,37.0,493,493,False
131,_AlwaysOn_wow_web_clk_2021-09-15_2021-09-21 > OSP-2373_email_open_2021-09-22_2021-09-26 > OSP-2373_email_clk_2021-09-22_2021-09-26,115398.38433041,36.0,10.0,210,210,False
132,_AlwaysOn_wow_web_view_2021-09-22_2021-09-26 > _AlwaysOn_wow_web_view_2021-09-15_2021-09-21 > _AlwaysOn_wow_web_clk_2021-09-22_2021-09-26,60851.382538456,23.0,11.0,647,647,False
133,_AlwaysOn_wow_web_view_2021-09-22_2021-09-26 > OSP-2373_rw_app_imp_2021-09-22_2021-09-26 > OSP-2373_rw_app_clk_2021-09-22_2021-09-26,31683.67820394,33.0,23.0,106,106,False
134,FB_Impression_MobileFeed > FB_Impression_SuggestedVideo > FB_Impression_MobileFeed > OSP-2373_email_open_2021-09-22_2021-09-26,-3110.1731916258,2.0,2.0,108,108,False
135,_AlwaysOn_wow_web_view_2021-09-15_2021-09-21 > OSP-2373_rw_app_imp_2021-09-22_2021-09-26 > OSP-2373_rw_app_imp_2021-09-15_2021-09-21,155649.6501616,70.0,21.0,425,425,False
136,FB_Impression_MobileFeed > OSP-2373_email_open_2021-09-15_2021-09-21,51211.948452005,30.0,25.0,447,447,False
137,FB_Impression_Instagram > OSP-2373_email_open_2021-09-22_2021-09-26,8729.7421199406,6.0,7.0,174,174,False
138,_AlwaysOn_sem_brand_clk_2021-09-15_2021-09-21,56629.159976417,33.0,19.0,1569,1569,False
139,FB_Impression_MobileFeed > FB_Click_MobileFeed > FB_Impression_MobileFeed > OSP-2373_email_open_2021-09-22_2021-09-26,56738.051535684,14.0,10.0,188,188,False
140,FB_Impression_InstagramStory > FB_Impression_MobileFeed,88483.757285788,89.0,84.0,2600,2600,False
141,_AlwaysOn_wow_web_view_2021-09-22_2021-09-26 > _AlwaysOn_wow_web_view_2021-09-15_2021-09-21 > _AlwaysOn_wow_web_clk_2021-09-22_2021-09-26 > _AlwaysOn_wow_web_clk_2021-09-15_2021-09-21,15464.694661915,10.0,1.0,199,199,False
142,_AlwaysOn_wow_web_clk_2021-09-15_2021-09-21 > OSP-2373_rw_app_imp_2021-09-15_2021-09-21,58713.117924218,16.0,5.0,102,102,False
143,OSP-2373_rw_app_imp_2021-09-15_2021-09-21 > OSP-2373_email_open_2021-09-22_2021-09-26 > OSP-2373_email_open_2021-09-22_2021-09-26 > OSP-2373_email_clk_2021-09-22_2021-09-26,28057.160685243,30.0,30.0,105,105,False
144,OSP-2373_rw_app_imp_2021-09-22_2021-09-26 > OSP-2373_rw_app_imp_2021-09-15_2021-09-21 > OSP-2373_rw_app_clk_2021-09-22_2021-09-26 > OSP-2373_rw_app_clk_2021-09-15_2021-09-21,166671.94491901,350.0,235.0,581,581,False
145,OSP-2373_rw_app_imp_2021-09-22_2021-09-26 > OSP-2373_email_open_2021-09-22_2021-09-26,1933404.5605787,2442.0,1701.0,18293,18293,False
146,FB_Impression_MobileFeed > OSP-2373_rw_app_imp_2021-09-22_2021-09-26 > OSP-2373_rw_app_imp_2021-09-15_2021-09-21,571188.83546466,823.0,545.0,3226,3226,False
147,FB_Impression_InstagramStory > FB_Impression_MobileFeed > OSP-2373_email_open_2021-09-22_2021-09-26 > OSP-2373_email_clk_2021-09-22_2021-09-26,5959.8843991024,18.0,18.0,124,124,False
148,FB_Impression_InstagramStory > _AlwaysOn_wow_web_view_2021-09-15_2021-09-21 > _AlwaysOn_wow_web_clk_2021-09-15_2021-09-21,7154.1845685572,5.0,1.0,134,134,False
149,OSP-2373_rw_app_imp_2021-09-15_2021-09-21 > OSP-2373_rw_app_clk_2021-09-15_2021-09-21 > OSP-2373_email_open_2021-09-22_2021-09-26,-1193593.2689836,242.0,143.0,644,644,False
150,_AlwaysOn_sem_brand_clk_2021-09-15_2021-09-21 > OSP-2373_email_open_2021-09-22_2021-09-26,8758.1892879293,11.0,1.0,199,199,False
151,_AlwaysOn_sem_shopping_clk_2021-09-15_2021-09-21 > OSP-2373_email_open_2021-09-22_2021-09-26 > OSP-2373_email_clk_2021-09-22_2021-09-26,17660.83567538,13.0,7.0,129,129,False
152,OSP-2373_rw_app_imp_2021-09-22_2021-09-26 > OSP-2373_rw_app_clk_2021-09-22_2021-09-26,2777033.9104917,2952.0,1925.0,12732,12732,False
153,_AlwaysOn_wow_web_view_2021-09-15_2021-09-21 > _AlwaysOn_wow_web_clk_2021-09-15_2021-09-21 > OSP-2373_email_open_2021-09-22_2021-09-26 > OSP-2373_email_clk_2021-09-22_2021-09-26,48180.143299529,32.0,17.0,205,205,False
154,FB_Impression_MobileFeed > FB_Impression_FacebookStory > FB_Impression_MobileFeed > OSP-2373_email_open_2021-09-22_2021-09-26 > OSP-2373_email_clk_2021-09-22_2021-09-26,13452.965288857,21.0,17.0,115,115,False
155,FB_Impression_SuggestedVideo > FB_Impression_MobileFeed > OSP-2373_email_open_2021-09-22_2021-09-26,-24844.042528074,1.0,2.0,115,115,False
156,OSP-2373_email_open_2021-09-15_2021-09-21 > OSP-2373_email_clk_2021-09-22_2021-09-26 > OSP-2373_email_clk_2021-09-15_2021-09-21,19141.460553012,39.0,33.0,253,253,False
157,_AlwaysOn_wow_web_view_2021-09-22_2021-09-26 > _AlwaysOn_wow_web_view_2021-09-15_2021-09-21 > _AlwaysOn_wow_web_clk_2021-09-15_2021-09-21,20403.893658027,10.0,2.0,363,363,False
158,_AlwaysOn_wow_web_clk_2021-09-15_2021-09-21 > OSP-2373_rw_app_imp_2021-09-22_2021-09-26 > OSP-2373_rw_app_imp_2021-09-15_2021-09-21,46117.658861575,27.0,9.0,163,163,False
159,FB_Impression_WebFeed > OSP-2373_email_open_2021-09-22_2021-09-26 > OSP-2373_email_clk_2021-09-22_2021-09-26,95960.276669835,99.0,75.0,508,508,False
160,FB_Impression_MobileFeed > FB_Impression_InstagramStory > FB_Impression_MobileFeed,115557.16813713,91.0,58.0,2025,2025,False
161,_AlwaysOn_wow_web_view_2021-09-15_2021-09-21 > _AlwaysOn_sem_brand_clk_2021-09-15_2021-09-21,-8441.2121741862,3.0,3.0,103,103,False
162,FB_Impression_MobileFeed > FB_Impression_FacebookStory > FB_Impression_MobileFeed > OSP-2373_rw_app_imp_2021-09-22_2021-09-26,34948.369358752,21.0,26.0,168,168,False
163,FB_Impression_MobileFeed > FB_Impression_InstagramStory > OSP-2373_email_open_2021-09-22_2021-09-26,39090.462596079,25.0,14.0,278,278,False
164,FB_Impression_MobileFeed > OSP-2373_rw_app_imp_2021-09-15_2021-09-21,254190.77686211,183.0,126.0,1917,1917,False
165,_AlwaysOn_wow_web_view_2021-09-15_2021-09-21 > _AlwaysOn_wow_web_clk_2021-09-22_2021-09-26,94305.716162924,37.0,14.0,651,651,False
166,OSP-2373_rw_app_imp_2021-09-15_2021-09-21 > OSP-2373_email_open_2021-09-22_2021-09-26,1735384.1767459,2113.0,1412.0,9343,9343,False
167,OSP-2373_email_clk_2021-09-22_2021-09-26,18662996.740607,17707.0,12235.0,66415,66415,False
168,OSP-2373_rw_app_imp_2021-09-22_2021-09-26 > OSP-2373_rw_app_clk_2021-09-22_2021-09-26 > OSP-2373_email_open_2021-09-22_2021-09-26,395764.39429286,510.0,291.0,1602,1602,False
169,FB_Impression_WebFeed > OSP-2373_email_open_2021-09-22_2021-09-26,84087.894034479,128.0,99.0,1317,1317,False
170,_AlwaysOn_wow_web_view_2021-09-15_2021-09-21 > _AlwaysOn_wow_web_clk_2021-09-15_2021-09-21 > OSP-2373_email_open_2021-09-22_2021-09-26,96386.473860138,29.0,11.0,531,531,False
171,FB_Impression_MobileFeed > FB_Impression_FacebookStory > OSP-2373_email_open_2021-09-22_2021-09-26 > OSP-2373_email_clk_2021-09-22_2021-09-26,13009.567060963,20.0,12.0,116,116,False
172,FB_Impression_MobileFeed > FB_Impression_FacebookStory > OSP-2373_email_open_2021-09-22_2021-09-26,-17263.953167034,17.0,10.0,218,218,False
173,_AlwaysOn_sem_brand_clk_2021-09-22_2021-09-26,23379.870623091,17.0,10.0,236,236,False
174,_AlwaysOn_wow_web_view_2021-09-22_2021-09-26 > OSP-2373_rw_app_imp_2021-09-22_2021-09-26,384438.42302747,277.0,139.0,1039,1039,False
175,OSP-2373_rw_app_imp_2021-09-22_2021-09-26 > OSP-2373_rw_app_clk_2021-09-22_2021-09-26 > OSP-2373_email_open_2021-09-22_2021-09-26 > OSP-2373_email_clk_2021-09-22_2021-09-26,209875.73496528,179.0,92.0,456,456,False
176,_AlwaysOn_wow_web_view_2021-09-15_2021-09-21 > _AlwaysOn_wow_web_view_2021-09-15_2021-09-21 > _AlwaysOn_wow_web_clk_2021-09-22_2021-09-26 > _AlwaysOn_wow_web_clk_2021-09-15_2021-09-21,22811.39594834,7.0,4.0,104,104,False
177,FB_Impression_MobileFeed > OSP-2373_rw_app_imp_2021-09-22_2021-09-26 > OSP-2373_rw_app_clk_2021-09-22_2021-09-26,411150.42481571,315.0,169.0,1097,1097,False
178,FB_Impression_MobileFeed > FB_Impression_InstagramStory > FB_Impression_MobileFeed > OSP-2373_rw_app_imp_2021-09-22_2021-09-26,55318.548105561,45.0,18.0,226,226,False
179,OSP-2373_email_open_2021-09-22_2021-09-26 > OSP-2373_email_open_2021-09-15_2021-09-21 > OSP-2373_email_clk_2021-09-22_2021-09-26 > OSP-2373_email_clk_2021-09-15_2021-09-21,34541.54729501,30.0,25.0,153,153,False
180,_AlwaysOn_wow_web_view_2021-09-15_2021-09-21 > _AlwaysOn_wow_web_clk_2021-09-15_2021-09-21 > OSP-2373_rw_app_imp_2021-09-22_2021-09-26 > OSP-2373_rw_app_imp_2021-09-15_2021-09-21,40189.040343517,29.0,7.0,139,139,False
181,OSP-2373_rw_app_imp_2021-09-22_2021-09-26 > OSP-2373_rw_app_imp_2021-09-15_2021-09-21,5357137.6489834,7311.0,5108.0,39403,39403,False
182,FB_Impression_InstagramStory > OSP-2373_email_open_2021-09-22_2021-09-26 > OSP-2373_email_clk_2021-09-22_2021-09-26,125370.70548664,114.0,77.0,551,551,False
183,OSP-2373_rw_app_imp_2021-09-22_2021-09-26 > OSP-2373_rw_app_imp_2021-09-15_2021-09-21 > OSP-2373_email_open_2021-09-15_2021-09-21,-34971.553254805,34.0,23.0,156,156,False
184,OSP-2373_rw_app_imp_2021-09-15_2021-09-21 > OSP-2373_rw_app_imp_2021-09-15_2021-09-21,228904.59774217,187.0,118.0,444,444,False
185,FB_Impression_InStream > OSP-2373_email_open_2021-09-22_2021-09-26 > OSP-2373_email_clk_2021-09-22_2021-09-26,79649.727615506,53.0,24.0,212,212,False
186,OSP-2373_rw_app_imp_2021-09-22_2021-09-26 > OSP-2373_rw_app_imp_2021-09-15_2021-09-21 > OSP-2373_email_open_2021-09-22_2021-09-26,742524.88613755,1052.0,686.0,4507,4507,False
187,OSP-2373_rw_app_imp_2021-09-15_2021-09-21 > OSP-2373_rw_app_imp_2021-09-15_2021-09-21 > OSP-2373_email_open_2021-09-22_2021-09-26,13478.984484838,47.0,44.0,145,145,False
188,FB_Impression_MobileFeed > OSP-2373_email_open_2021-09-22_2021-09-26,1011523.3021584,1171.0,874.0,18188,18188,False
189,OSP-2373_rw_app_imp_2021-09-15_2021-09-21 > OSP-2373_email_open_2021-09-22_2021-09-26 > OSP-2373_email_open_2021-09-15_2021-09-21,57972.284787014,79.0,47.0,266,266,False
190,FB_Impression_MobileFeed > FB_Impression_InStream > OSP-2373_email_open_2021-09-22_2021-09-26,9331.6967471795,10.0,11.0,125,125,False
191,FB_Impression_MobileFeed > _AlwaysOn_sem_shopping_clk_2021-09-15_2021-09-21,5830.2334812237,4.0,1.0,169,169,False
192,_AlwaysOn_wow_web_view_2021-09-15_2021-09-21 > OSP-2373_email_open_2021-09-15_2021-09-21,-9099.837956578,4.0,3.0,103,103,False
193,FB_Impression_FacebookStory > OSP-2373_email_open_2021-09-22_2021-09-26,28540.794117666,16.0,10.0,271,271,False
194,_AlwaysOn_wow_web_view_2021-09-22_2021-09-26 > OSP-2373_rw_app_imp_2021-09-22_2021-09-26 > OSP-2373_email_open_2021-09-22_2021-09-26,64848.08108217,55.0,43.0,203,203,False
195,OSP-2373_rw_app_clk_2021-09-15_2021-09-21 > OSP-2373_email_open_2021-09-22_2021-09-26 > OSP-2373_email_clk_2021-09-22_2021-09-26,52718.772879481,42.0,23.0,140,140,False
196,FB_Impression_MobileFeed > OSP-2373_rw_app_imp_2021-09-22_2021-09-26 > OSP-2373_rw_app_imp_2021-09-15_2021-09-21 > OSP-2373_email_open_2021-09-22_2021-09-26 > OSP-2373_email_clk_2021-09-22_2021-09-26,33062.403230695,52.0,39.0,167,167,False
197,FB_Impression_MobileFeed > OSP-2373_rw_app_imp_2021-09-22_2021-09-26 > OSP-2373_rw_app_imp_2021-09-15_2021-09-21 > OSP-2373_rw_app_clk_2021-09-15_2021-09-21,39266.545574586,61.0,44.0,186,186,False
198,_AlwaysOn_wow_web_view_2021-09-15_2021-09-21 > OSP-2373_email_open_2021-09-22_2021-09-26 > OSP-2373_email_clk_2021-09-22_2021-09-26,288844.26733051,130.0,39.0,798,798,False
199,_AlwaysOn_wow_web_clk_2021-09-22_2021-09-26,538423.62695078,346.0,205.0,2690,2690,False
200,OSP-2373_email_open_2021-09-22_2021-09-26 > OSP-2373_email_open_2021-09-22_2021-09-26,218720.09915442,202.0,164.0,685,685,False
201,OSP-2373_rw_app_imp_2021-09-15_2021-09-21 > OSP-2373_email_open_2021-09-22_2021-09-26 > OSP-2373_email_clk_2021-09-22_2021-09-26,466233.29903922,911.0,637.0,2985,2985,False
202,OSP-2373_rw_app_imp_2021-09-22_2021-09-26,15849666.49686,17364.0,12385.0,193331,193331,False
203,FB_Impression_MobileFeed > _AlwaysOn_wow_web_view_2021-09-22_2021-09-26 > _AlwaysOn_wow_web_view_2021-09-15_2021-09-21,27632.007522367,10.0,2.0,246,246,False
204,_AlwaysOn_wow_web_view_2021-09-22_2021-09-26 > _AlwaysOn_wow_web_clk_2021-09-22_2021-09-26 > OSP-2373_email_open_2021-09-22_2021-09-26,117472.0229085,75.0,40.0,374,374,False
205,_AlwaysOn_wow_web_view_2021-09-15_2021-09-21 > OSP-2373_email_open_2021-09-22_2021-09-26,223509.83425669,120.0,49.0,2386,2386,False
206,FB_Impression_InstagramStory > OSP-2373_rw_app_imp_2021-09-22_2021-09-26,259710.70872102,189.0,118.0,1503,1503,False
207,FB_Impression_InstagramStory > OSP-2373_rw_app_imp_2021-09-22_2021-09-26 > OSP-2373_email_open_2021-09-22_2021-09-26,50572.43600206,46.0,23.0,227,227,False
208,FB_Impression_SuggestedVideo > OSP-2373_rw_app_imp_2021-09-22_2021-09-26,17614.391896453,13.0,6.0,258,258,False
209,OSP-2373_rw_app_imp_2021-09-15_2021-09-21,9446553.9168301,11061.0,7730.0,74889,74889,False
210,_AlwaysOn_wow_web_view_2021-09-22_2021-09-26 > OSP-2373_email_open_2021-09-22_2021-09-26 > OSP-2373_email_clk_2021-09-22_2021-09-26,363126.25521853,215.0,112.0,608,608,False
211,OSP-2373_rw_app_clk_2021-09-22_2021-09-26 > OSP-2373_email_open_2021-09-22_2021-09-26,714704.57965289,917.0,643.0,2673,2673,False
212,FB_Impression_MobileFeed > _AlwaysOn_wow_web_view_2021-09-22_2021-09-26,171718.97132575,97.0,64.0,969,969,False
213,OSP-2373_email_open_2021-09-15_2021-09-21 > OSP-2373_email_clk_2021-09-15_2021-09-21,86560.17908417,76.0,36.0,677,677,False
214,FB_Impression_FacebookStory > FB_Impression_MobileFeed > OSP-2373_email_open_2021-09-22_2021-09-26,38528.887561,15.0,7.0,148,148,False
