,path,total_conversion_value,conversions,non_conversions,cnt,ppl,Converted
0,_AlwaysOn_wow_web_view_2021-06-23_2021-06-29 > _AlwaysOn_wow_web_clk_2021-06-30_2021-07-04 > _AlwaysOn_wow_web_clk_2021-06-23_2021-06-29,177043.26299691,48.0,18.0,263,263,False
1,FB_Impression_MobileFeed > OSP-2373_email_open_2021-06-30_2021-07-04,921431.73402066,1340.0,1359.0,13646,13646,False
2,FB_Impression_MobileFeed > FB_Impression_FacebookStory > OSP-2373_email_open_2021-06-30_2021-07-04 > OSP-2373_email_clk_2021-06-30_2021-07-04,-25059.167698533,34.0,32.0,109,109,False
3,FB_Impression_MobileFeed > OSP-2373_rw_app_imp_2021-06-23_2021-06-29 > OSP-2373_rw_app_clk_2021-06-23_2021-06-29,30693.791377287,44.0,22.0,117,117,False
4,OSP-2373_email_clk_2021-06-30_2021-07-04,29501784.673045,37715.0,29457.0,105660,105660,False
5,FB_Impression_InStream > OSP-2373_email_open_2021-06-30_2021-07-04,20893.86652988,39.0,41.0,328,328,False
6,_AlwaysOn_wow_web_clk_2021-06-23_2021-06-29 > OSP-2373_email_open_2021-06-30_2021-07-04 > OSP-2373_email_clk_2021-06-30_2021-07-04,153871.97049121,87.0,33.0,389,389,False
7,OSP-2373_email_open_2021-06-30_2021-07-04 > OSP-2373_email_open_2021-06-23_2021-06-29 > OSP-2373_email_clk_2021-06-30_2021-07-04 > OSP-2373_email_clk_2021-06-23_2021-06-29,108931.38858399,95.0,43.0,318,318,False
8,OSP-2373_rw_app_imp_2021-06-23_2021-06-29 > OSP-2373_rw_app_clk_2021-06-30_2021-07-04 > OSP-2373_rw_app_clk_2021-06-23_2021-06-29,364570.17701238,657.0,436.0,916,916,False
9,FB_Impression_WebFeed,218580.54700704,284.0,244.0,5770,5770,False
10,_AlwaysOn_wow_web_view_2021-06-30_2021-07-04 > _AlwaysOn_wow_web_clk_2021-06-30_2021-07-04 > OSP-2373_email_open_2021-06-30_2021-07-04 > OSP-2373_email_clk_2021-06-30_2021-07-04,237984.87425336,151.0,90.0,273,273,False
11,FB_Impression_MobileFeed > _AlwaysOn_wow_web_view_2021-06-23_2021-06-29,69943.901520718,35.0,15.0,1408,1408,False
12,OSP-2373_rw_app_imp_2021-06-30_2021-07-04 > OSP-2373_rw_app_clk_2021-06-30_2021-07-04,1513754.0831026,1723.0,1171.0,6091,6091,False
13,FB_Impression_MobileFeed > FB_Impression_InstagramStory > FB_Impression_MobileFeed > OSP-2373_email_open_2021-06-30_2021-07-04,-7095.1065029387,21.0,36.0,323,323,False
14,_AlwaysOn_wow_web_view_2021-06-23_2021-06-29 > OSP-2373_rw_app_imp_2021-06-30_2021-07-04 > OSP-2373_rw_app_imp_2021-06-23_2021-06-29,59238.835414025,45.0,24.0,237,237,False
15,OSP-2373_rw_app_imp_2021-06-23_2021-06-29 > OSP-2373_email_open_2021-06-30_2021-07-04 > CVM-1661_rw_app_imp_2021-06-30_2021-07-04 > CVM-1661_rw_app_imp_2021-06-23_2021-06-29,23431.83827235,48.0,40.0,106,106,False
16,OSP-2373_rw_app_imp_2021-06-23_2021-06-29 > OSP-2373_email_open_2021-06-30_2021-07-04 > OSP-2373_email_clk_2021-06-30_2021-07-04 > CVM-1661_rw_app_imp_2021-06-23_2021-06-29,92969.814844174,127.0,102.0,431,431,False
17,OSP-2373_rw_app_imp_2021-06-30_2021-07-04 > OSP-2373_rw_app_clk_2021-06-30_2021-07-04 > OSP-2373_email_open_2021-06-30_2021-07-04 > OSP-2373_email_clk_2021-06-30_2021-07-04,111911.74684338,235.0,175.0,442,442,False
18,FB_Impression_MobileFeed > FB_Impression_FacebookStory > OSP-2373_email_open_2021-06-30_2021-07-04,746.79928976844,11.0,11.0,105,105,False
19,FB_Impression_InStream,73891.879600648,82.0,85.0,993,993,False
20,FB_Impression_InstagramStory > OSP-2373_email_open_2021-06-30_2021-07-04,110013.23605868,178.0,166.0,2643,2643,False
21,FB_Impression_MobileFeed > _AlwaysOn_wow_web_view_2021-06-23_2021-06-29 > _AlwaysOn_wow_web_clk_2021-06-23_2021-06-29,147699.15274477,52.0,11.0,452,452,False
22,CVM-1661_email_open_2021-06-23_2021-06-29,1919.6486932588,8.0,13.0,1732,1732,False
23,OSP-2373_rw_app_imp_2021-06-23_2021-06-29 > OSP-2373_email_open_2021-06-30_2021-07-04,2607818.6365175,4036.0,3054.0,12474,12474,False
24,OSP-2373_rw_app_imp_2021-06-30_2021-07-04 > OSP-2373_rw_app_imp_2021-06-23_2021-06-29 > OSP-2373_email_open_2021-06-30_2021-07-04 > CVM-1661_rw_app_imp_2021-06-23_2021-06-29,17056.489325726,46.0,42.0,286,286,False
25,_AlwaysOn_wow_web_clk_2021-06-23_2021-06-29 > OSP-2373_rw_app_imp_2021-06-30_2021-07-04 > OSP-2373_rw_app_imp_2021-06-23_2021-06-29,65819.776245406,28.0,13.0,105,105,False
26,OSP-2373_rw_app_clk_2021-06-23_2021-06-29 > OSP-2373_email_open_2021-06-30_2021-07-04,236509.90858513,215.0,129.0,552,552,False
27,OSP-2373_email_open_2021-06-30_2021-07-04 > CVM-1661_rw_app_imp_2021-06-30_2021-07-04,197332.08309568,181.0,129.0,465,465,False
28,OSP-2373_rw_app_imp_2021-06-30_2021-07-04 > OSP-2373_email_open_2021-06-23_2021-06-29,25429.426842806,38.0,33.0,250,250,False
29,OSP-2373_rw_app_imp_2021-06-30_2021-07-04 > OSP-2373_rw_app_imp_2021-06-23_2021-06-29 > OSP-2373_email_open_2021-06-30_2021-07-04 > OSP-2373_email_clk_2021-06-30_2021-07-04,705419.8262018,1092.0,817.0,2502,2502,False
30,OSP-2373_rw_web_oap_clk_2021-06-30_2021-07-04,140642.63949893,129.0,81.0,703,703,False
31,OSP-2373_email_open_2021-06-30_2021-07-04 > CVM-1661_rw_app_imp_2021-06-23_2021-06-29,142140.46623018,161.0,169.0,1146,1146,False
32,OSP-2373_rw_app_imp_2021-06-30_2021-07-04 > OSP-2373_rw_app_imp_2021-06-23_2021-06-29 > OSP-2373_email_open_2021-06-30_2021-07-04 > OSP-2373_email_clk_2021-06-30_2021-07-04 > CVM-1661_rw_app_imp_2021-06-23_2021-06-29,10579.570103879,31.0,28.0,125,125,False
33,OSP-2373_email_open_2021-06-30_2021-07-04 > CVM-1661_email_open_2021-06-30_2021-07-04,4384.1630671409,2.0,6.0,245,245,False
34,OSP-2373_rw_web_oap_clk_2021-06-30_2021-07-04 > OSP-2373_email_open_2021-06-30_2021-07-04 > OSP-2373_email_clk_2021-06-30_2021-07-04,165246.70274221,137.0,91.0,447,447,False
35,_AlwaysOn_wow_web_view_2021-06-30_2021-07-04 > _AlwaysOn_wow_web_clk_2021-06-30_2021-07-04 > OSP-2373_rw_app_imp_2021-06-30_2021-07-04,231851.55212708,137.0,78.0,269,269,False
36,_AlwaysOn_sem_shopping_clk_2021-06-30_2021-07-04,102228.8591486,77.0,75.0,3029,3029,False
37,_AlwaysOn_wow_web_view_2021-06-30_2021-07-04 > _AlwaysOn_wow_web_view_2021-06-23_2021-06-29,90363.298148332,41.0,11.0,2342,2342,False
38,OSP-2373_rw_web_oap_clk_2021-06-30_2021-07-04 > OSP-2373_email_open_2021-06-30_2021-07-04,74553.135531235,65.0,34.0,216,216,False
39,FB_Impression_MobileFeed > OSP-2373_email_open_2021-06-23_2021-06-29 > OSP-2373_email_clk_2021-06-23_2021-06-29,16138.684832782,22.0,7.0,103,103,False
40,OSP-2373_rw_app_imp_2021-06-23_2021-06-29 > OSP-2373_email_open_2021-06-30_2021-07-04 > OSP-2373_email_open_2021-06-30_2021-07-04,10060.52313,89.0,82.0,211,211,False
41,_AlwaysOn_wow_web_clk_2021-06-23_2021-06-29 > OSP-2373_email_open_2021-06-30_2021-07-04,172203.0249412,87.0,25.0,647,647,False
42,OSP-2373_rw_app_imp_2021-06-30_2021-07-04 > CVM-1661_rw_app_imp_2021-06-23_2021-06-29,17286.414046132,32.0,29.0,176,176,False
43,OSP-2373_email_clk_2021-06-30_2021-07-04 > CVM-1661_rw_app_imp_2021-06-23_2021-06-29,93700.554297348,154.0,153.0,552,552,False
44,_AlwaysOn_wow_web_view_2021-06-30_2021-07-04 > _AlwaysOn_wow_web_view_2021-06-23_2021-06-29 > _AlwaysOn_wow_web_clk_2021-06-30_2021-07-04 > _AlwaysOn_wow_web_clk_2021-06-23_2021-06-29,69277.053765839,26.0,5.0,177,177,False
45,OSP-2373_rw_app_imp_2021-06-30_2021-07-04 > OSP-2373_email_open_2021-06-30_2021-07-04 > CVM-1661_rw_app_imp_2021-06-23_2021-06-29,14739.953367862,20.0,21.0,195,195,False
46,_AlwaysOn_wow_web_clk_2021-06-30_2021-07-04 > OSP-2373_email_open_2021-06-30_2021-07-04,393619.27804072,250.0,133.0,575,575,False
47,_AlwaysOn_wow_web_view_2021-06-23_2021-06-29 > _AlwaysOn_wow_web_clk_2021-06-30_2021-07-04,264614.9346714,94.0,33.0,518,518,False
48,OSP-2373_rw_app_imp_2021-06-30_2021-07-04 > OSP-2373_rw_app_imp_2021-06-23_2021-06-29 > OSP-2373_rw_app_clk_2021-06-30_2021-07-04 > OSP-2373_rw_app_clk_2021-06-23_2021-06-29 > OSP-2373_email_open_2021-06-30_2021-07-04,59625.331325928,135.0,99.0,174,174,False
49,OSP-2373_rw_web_oap_clk_2021-06-23_2021-06-29,120015.4576954,154.0,96.0,796,796,False
50,_AlwaysOn_wow_web_clk_2021-06-23_2021-06-29 > OSP-2373_rw_app_imp_2021-06-23_2021-06-29,134844.60652613,52.0,5.0,143,143,False
51,_AlwaysOn_wow_web_view_2021-06-30_2021-07-04 > _AlwaysOn_wow_web_clk_2021-06-30_2021-07-04,1964183.933882,1002.0,501.0,4868,4868,False
52,OSP-2373_rw_app_imp_2021-06-23_2021-06-29 > OSP-2373_rw_app_imp_2021-06-23_2021-06-29 > OSP-2373_rw_app_clk_2021-06-23_2021-06-29,94448.519263237,122.0,83.0,193,193,False
53,FB_Impression_InStream > OSP-2373_email_open_2021-06-30_2021-07-04 > OSP-2373_email_clk_2021-06-30_2021-07-04,96205.936020724,134.0,101.0,482,482,False
54,OSP-2373_rw_app_imp_2021-06-23_2021-06-29 > OSP-2373_rw_app_clk_2021-06-30_2021-07-04,1395381.8157754,1968.0,1380.0,3521,3521,False
55,OSP-2373_email_open_2021-06-23_2021-06-29 > OSP-2373_email_clk_2021-06-30_2021-07-04,669240.37488341,823.0,545.0,2535,2535,False
56,_AlwaysOn_wow_web_view_2021-06-23_2021-06-29 > _AlwaysOn_sem_shopping_clk_2021-06-23_2021-06-29,16360.202772259,7.0,2.0,165,165,False
57,FB_Impression_MobileFeed > _AlwaysOn_wow_web_view_2021-06-30_2021-07-04 > _AlwaysOn_wow_web_view_2021-06-23_2021-06-29,23773.518058155,10.0,6.0,210,210,False
58,FB_Impression_MobileFeed > OSP-2373_rw_app_imp_2021-06-30_2021-07-04 > OSP-2373_email_open_2021-06-30_2021-07-04,201705.55807411,401.0,350.0,1486,1486,False
59,_AlwaysOn_wow_web_view_2021-06-30_2021-07-04 > OSP-2373_rw_app_imp_2021-06-30_2021-07-04 > OSP-2373_email_open_2021-06-30_2021-07-04,42522.063745766,44.0,35.0,116,116,False
60,OSP-2373_rw_app_imp_2021-06-23_2021-06-29 > OSP-2373_email_open_2021-06-23_2021-06-29,37523.782380491,64.0,42.0,257,257,False
61,FB_Impression_InstagramStory > _AlwaysOn_wow_web_view_2021-06-30_2021-07-04,38848.449723276,19.0,18.0,183,183,False
62,FB_Impression_MobileFeed > FB_Impression_InstagramStory > FB_Impression_MobileFeed > OSP-2373_rw_app_imp_2021-06-30_2021-07-04,25893.063953944,39.0,31.0,146,146,False
63,OSP-2373_rw_app_imp_2021-06-23_2021-06-29 > OSP-2373_rw_app_clk_2021-06-30_2021-07-04 > OSP-2373_rw_app_clk_2021-06-23_2021-06-29 > OSP-2373_email_open_2021-06-30_2021-07-04 > OSP-2373_email_clk_2021-06-30_2021-07-04,54053.094387869,146.0,119.0,199,199,False
65,OSP-2373_rw_app_imp_2021-06-30_2021-07-04 > OSP-2373_rw_app_clk_2021-06-30_2021-07-04 > OSP-2373_email_open_2021-06-30_2021-07-04,198180.16974423,298.0,229.0,889,889,False
66,FB_Impression_InstagramStory > FB_Impression_MobileFeed > FB_Impression_InstagramStory > OSP-2373_email_open_2021-06-30_2021-07-04 > OSP-2373_email_clk_2021-06-30_2021-07-04,-5553.9285571501,35.0,29.0,110,110,False
67,FB_Impression_MobileFeed > OSP-2373_rw_app_imp_2021-06-30_2021-07-04 > OSP-2373_rw_app_clk_2021-06-30_2021-07-04,143747.77870156,154.0,110.0,373,373,False
68,OSP-2373_rw_app_imp_2021-06-23_2021-06-29,14251154.226534,17092.0,11786.0,75388,75388,False
69,OSP-2373_rw_app_imp_2021-06-30_2021-07-04,10810162.320052,14698.0,11810.0,131255,131255,False
70,OSP-2373_rw_app_imp_2021-06-23_2021-06-29 > OSP-2373_email_open_2021-06-30_2021-07-04 > CVM-1661_rw_app_imp_2021-06-30_2021-07-04,81755.644254697,79.0,64.0,169,169,False
71,FB_Impression_MobileFeed > _AlwaysOn_wow_web_view_2021-06-30_2021-07-04,163197.44406966,106.0,90.0,943,943,False
72,OSP-2373_rw_web_oap_clk_2021-06-23_2021-06-29 > OSP-2373_email_open_2021-06-30_2021-07-04 > OSP-2373_email_clk_2021-06-30_2021-07-04,46380.242143656,79.0,57.0,220,220,False
73,_AlwaysOn_sem_shopping_clk_2021-06-23_2021-06-29 > OSP-2373_email_open_2021-06-30_2021-07-04,18210.897533014,12.0,3.0,383,383,False
74,OSP-2373_rw_app_imp_2021-06-30_2021-07-04 > OSP-2373_rw_app_imp_2021-06-23_2021-06-29 > OSP-2373_rw_app_clk_2021-06-23_2021-06-29,666010.37028536,954.0,598.0,1903,1903,False
75,_AlwaysOn_wow_web_clk_2021-06-23_2021-06-29 > OSP-2373_rw_app_imp_2021-06-30_2021-07-04,47456.720065409,30.0,9.0,166,166,False
76,OSP-2373_rw_app_clk_2021-06-23_2021-06-29 > OSP-2373_email_open_2021-06-30_2021-07-04 > OSP-2373_email_clk_2021-06-30_2021-07-04,138060.64305772,186.0,148.0,461,461,False
77,OSP-2373_rw_app_imp_2021-06-23_2021-06-29 > OSP-2373_rw_app_clk_2021-06-23_2021-06-29 > OSP-2373_email_open_2021-06-30_2021-07-04 > OSP-2373_email_clk_2021-06-30_2021-07-04,274679.20157912,410.0,275.0,681,681,False
78,FB_Impression_InstagramStory > FB_Impression_MobileFeed > OSP-2373_email_open_2021-06-30_2021-07-04,41560.073407595,45.0,34.0,418,418,False
79,FB_Impression_MobileFeed > FB_Impression_InstagramStory > FB_Impression_MobileFeed,78452.055143637,97.0,84.0,2285,2285,False
80,OSP-2373_rw_app_imp_2021-06-30_2021-07-04 > OSP-2373_rw_app_imp_2021-06-23_2021-06-29 > OSP-2373_rw_app_clk_2021-06-30_2021-07-04 > OSP-2373_rw_app_clk_2021-06-23_2021-06-29,307391.31114987,421.0,283.0,590,590,False
81,OSP-2373_rw_app_imp_2021-06-30_2021-07-04 > OSP-2373_rw_app_imp_2021-06-23_2021-06-29,5571277.3046255,8563.0,6528.0,30916,30916,False
82,_AlwaysOn_sem_shopping_clk_2021-06-23_2021-06-29,39874.201231434,39.0,14.0,4754,4754,False
83,_AlwaysOn_sem_shopping_clk_2021-06-23_2021-06-29 > OSP-2373_email_open_2021-06-30_2021-07-04 > OSP-2373_email_clk_2021-06-30_2021-07-04,36073.720623081,26.0,9.0,217,217,False
84,FB_Impression_MobileFeed > OSP-2373_rw_app_imp_2021-06-30_2021-07-04 > OSP-2373_rw_app_imp_2021-06-23_2021-06-29 > OSP-2373_rw_app_clk_2021-06-23_2021-06-29,154955.64589179,146.0,77.0,231,231,False
85,FB_Impression_MobileFeed > OSP-2373_email_open_2021-06-30_2021-07-04 > OSP-2373_email_open_2021-06-23_2021-06-29,39408.452331132,37.0,28.0,268,268,False
86,_AlwaysOn_sem_shopping_clk_2021-06-30_2021-07-04 > OSP-2373_email_open_2021-06-30_2021-07-04,18013.523367967,19.0,13.0,240,240,False
87,FB_Impression_MobileFeed > OSP-2373_email_open_2021-06-30_2021-07-04 > OSP-2373_email_open_2021-06-23_2021-06-29 > OSP-2373_email_clk_2021-06-30_2021-07-04,118997.94323684,92.0,59.0,244,244,False
88,FB_Impression_FacebookStory > OSP-2373_email_open_2021-06-30_2021-07-04,26261.945962514,20.0,15.0,177,177,False
89,FB_Impression_InstagramStory > FB_Impression_MobileFeed > OSP-2373_rw_app_imp_2021-06-30_2021-07-04,19320.522796629,36.0,39.0,166,166,False
90,OSP-2373_email_open_2021-06-30_2021-07-04 > OSP-2373_email_clk_2021-06-30_2021-07-04,23937143.990737,29234.0,21944.0,119578,119578,False
91,OSP-2373_rw_app_imp_2021-06-30_2021-07-04 > OSP-2373_rw_app_imp_2021-06-23_2021-06-29 > OSP-2373_rw_app_clk_2021-06-30_2021-07-04 > OSP-2373_email_open_2021-06-30_2021-07-04 > OSP-2373_email_clk_2021-06-30_2021-07-04,161616.0861906,232.0,159.0,341,341,False
92,FB_Impression_WebFeed > FB_Impression_MobileFeed > OSP-2373_email_open_2021-06-30_2021-07-04,59047.619823834,31.0,15.0,199,199,False
93,_AlwaysOn_wow_web_view_2021-06-23_2021-06-29 > _AlwaysOn_wow_web_view_2021-06-23_2021-06-29,2289.3376902573,1.0,0.0,177,177,False
94,OSP-2373_rw_app_imp_2021-06-23_2021-06-29 > OSP-2373_rw_app_clk_2021-06-23_2021-06-29 > OSP-2373_email_open_2021-06-30_2021-07-04,400946.32114136,573.0,353.0,1096,1096,False
95,FB_Impression_MobileFeed > _AlwaysOn_wow_web_view_2021-06-30_2021-07-04 > OSP-2373_email_open_2021-06-30_2021-07-04,34478.879878423,27.0,20.0,166,166,False
96,_AlwaysOn_wow_web_view_2021-06-23_2021-06-29 > OSP-2373_email_open_2021-06-30_2021-07-04 > OSP-2373_email_clk_2021-06-30_2021-07-04,419922.26833974,224.0,87.0,1056,1056,False
97,FB_Impression_InStream > FB_Impression_MobileFeed > OSP-2373_email_open_2021-06-30_2021-07-04 > OSP-2373_email_clk_2021-06-30_2021-07-04,47465.860147126,58.0,36.0,151,151,False
98,FB_Impression_MobileFeed > OSP-2373_rw_app_imp_2021-06-30_2021-07-04 > OSP-2373_rw_app_imp_2021-06-23_2021-06-29 > OSP-2373_email_open_2021-06-30_2021-07-04 > OSP-2373_email_clk_2021-06-30_2021-07-04,165911.10266574,297.0,207.0,563,563,False
99,_AlwaysOn_sem_shopping_clk_2021-06-23_2021-06-29 > OSP-2373_rw_app_imp_2021-06-30_2021-07-04,15738.572671261,12.0,7.0,164,164,False
100,_AlwaysOn_sem_brand_clk_2021-06-23_2021-06-29 > OSP-2373_email_open_2021-06-30_2021-07-04,1963.7562078328,4.0,3.0,145,145,False
101,OSP-2373_rw_app_imp_2021-06-30_2021-07-04 > OSP-2373_rw_app_imp_2021-06-23_2021-06-29 > OSP-2373_email_open_2021-06-23_2021-06-29,5918.8831427432,21.0,15.0,101,101,False
102,_AlwaysOn_wow_web_view_2021-06-23_2021-06-29 > _AlwaysOn_wow_web_clk_2021-06-23_2021-06-29 > OSP-2373_rw_app_imp_2021-06-23_2021-06-29,99009.053346323,40.0,7.0,144,144,False
103,FB_Impression_MobileFeed > FB_Impression_InstagramStory > OSP-2373_email_open_2021-06-30_2021-07-04,32581.520621015,39.0,37.0,521,521,False
104,OSP-2373_rw_app_imp_2021-06-23_2021-06-29 > OSP-2373_email_open_2021-06-30_2021-07-04 > OSP-2373_email_clk_2021-06-30_2021-07-04 > CVM-1661_rw_app_imp_2021-06-30_2021-07-04,16292.100316745,48.0,40.0,102,102,False
105,OSP-2373_rw_app_imp_2021-06-30_2021-07-04 > OSP-2373_email_open_2021-06-30_2021-07-04,1310869.1470914,2233.0,1919.0,13955,13955,False
106,CVM-1661_email_open_2021-06-30_2021-07-04,30201.715224895,28.0,35.0,3516,3516,False
107,_AlwaysOn_wow_web_view_2021-06-23_2021-06-29 > OSP-2373_rw_app_imp_2021-06-23_2021-06-29,172486.71595662,69.0,18.0,377,377,False
108,CVM-1661_rw_app_imp_2021-06-23_2021-06-29,170513.57177905,183.0,207.0,1531,1531,False
109,OSP-2373_rw_app_imp_2021-06-23_2021-06-29 > OSP-2373_rw_app_imp_2021-06-23_2021-06-29 > OSP-2373_email_open_2021-06-30_2021-07-04,104127.69732208,145.0,100.0,262,262,False
110,OSP-2373_email_open_2021-06-23_2021-06-29 > OSP-2373_email_clk_2021-06-30_2021-07-04 > OSP-2373_email_clk_2021-06-23_2021-06-29,248623.80940745,178.0,76.0,583,583,False
111,OSP-2373_rw_app_imp_2021-06-30_2021-07-04 > OSP-2373_rw_app_imp_2021-06-23_2021-06-29 > OSP-2373_rw_app_clk_2021-06-30_2021-07-04,1026332.7708754,1380.0,956.0,2644,2644,False
112,OSP-2373_rw_app_imp_2021-06-30_2021-07-04 > OSP-2373_email_open_2021-06-30_2021-07-04 > OSP-2373_email_clk_2021-06-30_2021-07-04,743874.36705216,1401.0,1114.0,4164,4164,False
113,FB_Impression_InstagramStory > OSP-2373_rw_app_imp_2021-06-23_2021-06-29,101595.10506611,97.0,47.0,392,392,False
114,_AlwaysOn_wow_web_clk_2021-06-30_2021-07-04,2228622.6561047,1147.0,608.0,3327,3327,False
115,FB_Impression_MobileFeed > _AlwaysOn_wow_web_view_2021-06-23_2021-06-29 > OSP-2373_email_open_2021-06-30_2021-07-04,38300.375264141,10.0,3.0,217,217,False
116,FB_Impression_InstagramStory > OSP-2373_rw_app_imp_2021-06-30_2021-07-04 > OSP-2373_email_open_2021-06-30_2021-07-04 > OSP-2373_email_clk_2021-06-30_2021-07-04,30691.886409737,51.0,33.0,113,113,False
117,FB_Impression_InstagramStory > FB_Impression_MobileFeed,127163.26743286,116.0,107.0,2536,2536,False
118,_AlwaysOn_wow_web_view_2021-06-30_2021-07-04 > OSP-2373_email_open_2021-06-30_2021-07-04 > OSP-2373_email_clk_2021-06-30_2021-07-04,328322.95449037,291.0,203.0,730,730,False
119,FB_Impression_InstagramStory > FB_Impression_MobileFeed > OSP-2373_email_open_2021-06-30_2021-07-04 > OSP-2373_email_clk_2021-06-30_2021-07-04,106714.94324748,152.0,120.0,443,443,False
120,OSP-2373_rw_app_imp_2021-06-30_2021-07-04 > OSP-2373_rw_app_imp_2021-06-23_2021-06-29 > OSP-2373_rw_app_clk_2021-06-23_2021-06-29 > OSP-2373_email_open_2021-06-30_2021-07-04 > OSP-2373_email_clk_2021-06-30_2021-07-04,84620.774427269,147.0,111.0,280,280,False
121,FB_Impression_MobileFeed > _AlwaysOn_sem_shopping_clk_2021-06-23_2021-06-29,10233.555856327,4.0,4.0,118,118,False
122,_AlwaysOn_wow_web_view_2021-06-30_2021-07-04 > _AlwaysOn_wow_web_clk_2021-06-30_2021-07-04 > OSP-2373_email_open_2021-06-30_2021-07-04,286539.07495345,152.0,85.0,468,468,False
123,FB_Impression_MobileFeed > OSP-2373_rw_app_imp_2021-06-23_2021-06-29,526841.26396213,591.0,447.0,1998,1998,False
124,_AlwaysOn_wow_web_view_2021-06-30_2021-07-04,1184065.4720745,816.0,665.0,20025,20025,False
125,OSP-2373_rw_app_imp_2021-06-23_2021-06-29 > OSP-2373_rw_app_clk_2021-06-23_2021-06-29,2110663.2843976,2197.0,1336.0,5049,5049,False
126,FB_Impression_MobileFeed > OSP-2373_rw_app_imp_2021-06-30_2021-07-04 > OSP-2373_rw_app_imp_2021-06-23_2021-06-29 > OSP-2373_rw_app_clk_2021-06-30_2021-07-04,105271.21369301,181.0,108.0,266,266,False
127,_AlwaysOn_wow_web_view_2021-06-23_2021-06-29 > _AlwaysOn_wow_web_view_2021-06-23_2021-06-29 > _AlwaysOn_wow_web_clk_2021-06-23_2021-06-29,36184.727928517,9.0,3.0,261,261,False
128,OSP-2373_rw_app_imp_2021-06-30_2021-07-04 > OSP-2373_rw_app_imp_2021-06-30_2021-07-04 > OSP-2373_rw_app_imp_2021-06-23_2021-06-29,21556.646231287,38.0,20.0,131,131,False
129,OSP-2373_rw_app_imp_2021-06-23_2021-06-29 > OSP-2373_email_open_2021-06-30_2021-07-04 > OSP-2373_email_open_2021-06-23_2021-06-29,55687.486291013,77.0,41.0,191,191,False
130,FB_Impression_MobileFeed > OSP-2373_rw_app_imp_2021-06-30_2021-07-04 > OSP-2373_rw_app_clk_2021-06-30_2021-07-04 > OSP-2373_email_open_2021-06-30_2021-07-04,41767.088362401,52.0,42.0,108,108,False
131,OSP-2373_rw_app_imp_2021-06-30_2021-07-04 > OSP-2373_rw_app_imp_2021-06-23_2021-06-29 > OSP-2373_rw_app_clk_2021-06-23_2021-06-29 > OSP-2373_email_open_2021-06-30_2021-07-04,100356.76223998,254.0,180.0,506,506,False
132,FB_Impression_MobileFeed > OSP-2373_rw_app_imp_2021-06-30_2021-07-04,1053061.7313172,1434.0,1206.0,5483,5483,False
133,OSP-2373_rw_app_imp_2021-06-23_2021-06-29 > OSP-2373_rw_app_clk_2021-06-30_2021-07-04 > OSP-2373_rw_app_clk_2021-06-23_2021-06-29 > OSP-2373_email_open_2021-06-30_2021-07-04,110918.55064045,215.0,135.0,276,276,False
134,_AlwaysOn_wow_web_view_2021-06-23_2021-06-29 > _AlwaysOn_wow_web_clk_2021-06-23_2021-06-29 > OSP-2373_email_open_2021-06-30_2021-07-04 > OSP-2373_email_clk_2021-06-30_2021-07-04,175917.18306715,85.0,32.0,331,331,False
135,OSP-2373_email_open_2021-06-30_2021-07-04 > OSP-2373_email_open_2021-06-23_2021-06-29 > OSP-2373_email_clk_2021-06-30_2021-07-04,462869.89502628,627.0,444.0,2295,2295,False
136,FB_Impression_MobileFeed > FB_Impression_InstagramStory > OSP-2373_rw_app_imp_2021-06-30_2021-07-04,40281.950002161,54.0,37.0,209,209,False
137,_AlwaysOn_wow_web_view_2021-06-23_2021-06-29 > OSP-2373_rw_app_imp_2021-06-30_2021-07-04,178903.5336528,84.0,24.0,604,604,False
138,_AlwaysOn_wow_web_view_2021-06-23_2021-06-29 > _AlwaysOn_wow_web_clk_2021-06-23_2021-06-29,1247276.2311749,451.0,81.0,8389,8389,False
139,OSP-2373_rw_app_imp_2021-06-30_2021-07-04 > CVM-1661_rw_app_imp_2021-06-30_2021-07-04,83783.738035671,69.0,37.0,207,207,False
140,_AlwaysOn_sem_brand_clk_2021-06-30_2021-07-04,9698.7882717334,10.0,8.0,177,177,False
141,CVM-1661_rw_app_imp_2021-06-30_2021-07-04,113382.17115995,132.0,111.0,406,406,False
142,CVM-1661_email_clk_2021-06-30_2021-07-04,23741.864659742,64.0,93.0,8156,8156,False
143,_AlwaysOn_wow_web_view_2021-06-30_2021-07-04 > OSP-2373_email_open_2021-06-30_2021-07-04,192364.26048539,177.0,146.0,1299,1299,False
144,OSP-2373_rw_app_clk_2021-06-30_2021-07-04 > OSP-2373_rw_app_clk_2021-06-23_2021-06-29,89093.871363651,75.0,46.0,166,166,False
145,FB_Impression_MobileFeed,2775233.1776384,3940.0,3829.0,77649,77649,False
146,_AlwaysOn_wow_web_view_2021-06-23_2021-06-29 > OSP-2373_rw_app_imp_2021-06-30_2021-07-04 > OSP-2373_email_open_2021-06-30_2021-07-04,1913.8237285186,14.0,11.0,132,132,False
147,FB_Impression_MobileFeed > FB_Impression_InstagramStory > FB_Impression_MobileFeed > OSP-2373_email_open_2021-06-30_2021-07-04 > OSP-2373_email_clk_2021-06-30_2021-07-04,55227.535983738,84.0,86.0,268,268,False
148,OSP-2373_email_open_2021-06-23_2021-06-29,997047.47207784,982.0,760.0,19406,19406,False
149,_AlwaysOn_wow_web_clk_2021-06-23_2021-06-29,1245327.2931735,428.0,85.0,4296,4296,False
150,FB_Impression_InstagramStory,597956.95706343,675.0,606.0,28145,28145,False
151,OSP-2373_email_open_2021-06-30_2021-07-04 > OSP-2373_email_open_2021-06-30_2021-07-04 > OSP-2373_email_clk_2021-06-30_2021-07-04,265858.15390375,503.0,384.0,1015,1015,False
152,_AlwaysOn_wow_web_view_2021-06-23_2021-06-29 > OSP-2373_email_open_2021-06-23_2021-06-29,7438.7159480148,3.0,2.0,105,105,False
153,OSP-2373_rw_app_imp_2021-06-23_2021-06-29 > OSP-2373_email_open_2021-06-30_2021-07-04 > CVM-1661_rw_app_imp_2021-06-23_2021-06-29,90903.076315696,130.0,133.0,785,785,False
154,_AlwaysOn_wow_web_view_2021-06-30_2021-07-04 > _AlwaysOn_wow_web_view_2021-06-23_2021-06-29 > _AlwaysOn_wow_web_clk_2021-06-23_2021-06-29,72111.919648102,21.0,5.0,327,327,False
155,OSP-2373_rw_app_imp_2021-06-30_2021-07-04 > OSP-2373_email_open_2021-06-30_2021-07-04 > OSP-2373_email_clk_2021-06-30_2021-07-04 > CVM-1661_rw_app_imp_2021-06-30_2021-07-04,19769.864994176,45.0,34.0,104,104,False
156,OSP-2373_rw_app_clk_2021-06-30_2021-07-04,2214005.1164507,2459.0,1624.0,6404,6404,False
157,_AlwaysOn_sem_shopping_clk_2021-06-30_2021-07-04 > OSP-2373_rw_app_imp_2021-06-30_2021-07-04,20015.670345466,22.0,18.0,133,133,False
158,FB_Impression_MobileFeed > _AlwaysOn_wow_web_view_2021-06-30_2021-07-04 > OSP-2373_email_open_2021-06-30_2021-07-04 > OSP-2373_email_clk_2021-06-30_2021-07-04,136552.74949034,86.0,58.0,154,154,False
159,OSP-2373_rw_app_imp_2021-06-23_2021-06-29 > OSP-2373_rw_app_clk_2021-06-30_2021-07-04 > OSP-2373_email_open_2021-06-30_2021-07-04 > OSP-2373_email_clk_2021-06-30_2021-07-04,172026.95245546,429.0,294.0,594,594,False
160,OSP-2373_rw_app_imp_2021-06-23_2021-06-29 > OSP-2373_rw_app_imp_2021-06-23_2021-06-29,228139.09790014,304.0,223.0,529,529,False
161,FB_Impression_FacebookStory > OSP-2373_email_open_2021-06-30_2021-07-04 > OSP-2373_email_clk_2021-06-30_2021-07-04,71328.130520093,56.0,44.0,135,135,False
162,FB_Impression_MobileFeed > OSP-2373_email_open_2021-06-23_2021-06-29,59664.302906224,47.0,29.0,352,352,False
163,FB_Impression_MobileFeed > _AlwaysOn_wow_web_view_2021-06-23_2021-06-29 > OSP-2373_email_open_2021-06-30_2021-07-04 > OSP-2373_email_clk_2021-06-30_2021-07-04,67756.832878172,34.0,10.0,134,134,False
164,OSP-2373_email_open_2021-06-23_2021-06-29 > CVM-1661_email_open_2021-06-23_2021-06-29,5596.315367899,2.0,1.0,128,128,False
165,FB_Impression_InstagramStory > OSP-2373_rw_app_imp_2021-06-30_2021-07-04,276628.359859,271.0,188.0,1170,1170,False
166,FB_Impression_MobileFeed > _AlwaysOn_wow_web_view_2021-06-30_2021-07-04 > _AlwaysOn_wow_web_clk_2021-06-30_2021-07-04,287588.89786819,141.0,78.0,432,432,False
167,OSP-2373_rw_app_imp_2021-06-23_2021-06-29 > OSP-2373_email_open_2021-06-30_2021-07-04 > OSP-2373_email_open_2021-06-30_2021-07-04 > OSP-2373_email_clk_2021-06-30_2021-07-04,106775.23326657,122.0,113.0,278,278,False
168,OSP-2373_rw_app_imp_2021-06-23_2021-06-29 > OSP-2373_rw_app_clk_2021-06-30_2021-07-04 > OSP-2373_email_open_2021-06-30_2021-07-04,377248.31748391,588.0,409.0,975,975,False
169,OSP-2373_email_open_2021-06-23_2021-06-29 > OSP-2373_email_clk_2021-06-23_2021-06-29,284196.55531151,209.0,87.0,1457,1457,False
170,OSP-2373_rw_app_imp_2021-06-30_2021-07-04 > OSP-2373_email_open_2021-06-30_2021-07-04 > CVM-1661_rw_app_imp_2021-06-30_2021-07-04,64685.407124247,56.0,52.0,233,233,False
171,FB_Impression_InstagramStory > OSP-2373_rw_app_imp_2021-06-30_2021-07-04 > OSP-2373_email_open_2021-06-30_2021-07-04,55172.668272534,63.0,44.0,236,236,False
172,_AlwaysOn_sem_brand_clk_2021-06-23_2021-06-29,9906.3225840004,6.0,0.0,802,802,False
173,FB_Impression_InstagramStory > _AlwaysOn_wow_web_view_2021-06-23_2021-06-29,21694.932495216,8.0,2.0,276,276,False
174,_AlwaysOn_wow_web_clk_2021-06-30_2021-07-04 > OSP-2373_email_open_2021-06-30_2021-07-04 > OSP-2373_email_clk_2021-06-30_2021-07-04,468804.19760026,320.0,171.0,531,531,False
175,OSP-2373_email_open_2021-06-30_2021-07-04 > OSP-2373_email_clk_2021-06-30_2021-07-04 > CVM-1661_rw_app_imp_2021-06-30_2021-07-04,218239.72009234,213.0,153.0,412,412,False
176,OSP-2373_rw_app_imp_2021-06-30_2021-07-04 > OSP-2373_rw_app_imp_2021-06-23_2021-06-29 > OSP-2373_email_open_2021-06-30_2021-07-04,1137872.7791629,2027.0,1586.0,5977,5977,False
177,_AlwaysOn_wow_web_view_2021-06-23_2021-06-29 > _AlwaysOn_wow_web_clk_2021-06-23_2021-06-29 > OSP-2373_rw_app_imp_2021-06-30_2021-07-04,40589.808178733,20.0,8.0,158,158,False
178,FB_Impression_MobileFeed > OSP-2373_rw_app_imp_2021-06-23_2021-06-29 > OSP-2373_email_open_2021-06-30_2021-07-04,104567.30788686,157.0,131.0,481,481,False
179,FB_Impression_InstagramStory > OSP-2373_rw_app_imp_2021-06-30_2021-07-04 > OSP-2373_rw_app_imp_2021-06-23_2021-06-29 > OSP-2373_email_open_2021-06-30_2021-07-04,23036.240534193,57.0,46.0,112,112,False
180,_AlwaysOn_wow_web_view_2021-06-30_2021-07-04 > OSP-2373_rw_app_imp_2021-06-30_2021-07-04 > OSP-2373_rw_app_imp_2021-06-23_2021-06-29,72226.380818741,55.0,34.0,125,125,False
181,OSP-2373_rw_app_imp_2021-06-30_2021-07-04 > OSP-2373_rw_app_imp_2021-06-23_2021-06-29 > OSP-2373_rw_app_clk_2021-06-30_2021-07-04 > OSP-2373_email_open_2021-06-30_2021-07-04,199478.13571605,403.0,287.0,673,673,False
182,OSP-2373_rw_app_imp_2021-06-23_2021-06-29 > OSP-2373_email_open_2021-06-30_2021-07-04 > OSP-2373_email_open_2021-06-23_2021-06-29 > OSP-2373_email_clk_2021-06-30_2021-07-04,38585.077516184,55.0,29.0,114,114,False
183,OSP-2373_email_clk_2021-06-30_2021-07-04 > CVM-1661_rw_app_imp_2021-06-30_2021-07-04,98480.706187728,79.0,63.0,143,143,False
184,FB_Impression_WebFeed > OSP-2373_email_open_2021-06-30_2021-07-04,102729.38302468,157.0,146.0,1094,1094,False
185,OSP-2373_email_open_2021-06-30_2021-07-04,12782564.652695,19363.0,17622.0,430797,430797,False
186,FB_Impression_MobileFeed > OSP-2373_rw_app_imp_2021-06-30_2021-07-04 > OSP-2373_email_open_2021-06-30_2021-07-04 > OSP-2373_email_clk_2021-06-30_2021-07-04,277615.07839823,379.0,306.0,895,895,False
187,FB_Impression_InstagramStory > OSP-2373_rw_app_imp_2021-06-30_2021-07-04 > OSP-2373_rw_app_imp_2021-06-23_2021-06-29,103237.81392926,145.0,100.0,397,397,False
188,OSP-2373_email_clk_2021-06-23_2021-06-29,259810.39243288,216.0,80.0,980,980,False
189,FB_Impression_InstagramStory > OSP-2373_email_open_2021-06-30_2021-07-04 > OSP-2373_email_clk_2021-06-30_2021-07-04,370685.41077418,549.0,430.0,1710,1710,False
190,OSP-2373_rw_app_clk_2021-06-23_2021-06-29,1119200.0551761,958.0,510.0,2552,2552,False
191,FB_Impression_MobileFeed > FB_Impression_InstagramStory,104948.69760943,129.0,133.0,3998,3998,False
192,FB_Impression_MobileFeed > OSP-2373_email_open_2021-06-30_2021-07-04 > OSP-2373_email_clk_2021-06-30_2021-07-04,3681952.5315985,4587.0,3529.0,13647,13647,False
193,OSP-2373_rw_app_clk_2021-06-30_2021-07-04 > OSP-2373_email_open_2021-06-30_2021-07-04,517641.78489579,622.0,411.0,1507,1507,False
194,FB_Impression_MobileFeed > FB_Impression_InstagramStory > OSP-2373_email_open_2021-06-30_2021-07-04 > OSP-2373_email_clk_2021-06-30_2021-07-04,185013.96758387,169.0,124.0,482,482,False
195,_AlwaysOn_wow_web_clk_2021-06-30_2021-07-04 > OSP-2373_rw_app_imp_2021-06-30_2021-07-04,366740.03774178,232.0,141.0,369,369,False
196,FB_Impression_MobileFeed > OSP-2373_rw_app_imp_2021-06-30_2021-07-04 > OSP-2373_rw_app_imp_2021-06-23_2021-06-29,792084.1880117,1114.0,833.0,2528,2528,False
197,OSP-2373_rw_app_imp_2021-06-23_2021-06-29 > CVM-1661_rw_app_imp_2021-06-23_2021-06-29,100216.53385105,110.0,83.0,577,577,False
198,_AlwaysOn_wow_web_view_2021-06-23_2021-06-29 > _AlwaysOn_wow_web_clk_2021-06-23_2021-06-29 > OSP-2373_email_open_2021-06-30_2021-07-04,163708.42495795,66.0,14.0,671,671,False
199,OSP-2373_email_open_2021-06-30_2021-07-04 > OSP-2373_email_open_2021-06-23_2021-06-29 > OSP-2373_email_clk_2021-06-23_2021-06-29,50899.372865274,40.0,15.0,239,239,False
200,FB_Impression_WebFeed > FB_Impression_MobileFeed > OSP-2373_email_open_2021-06-30_2021-07-04 > OSP-2373_email_clk_2021-06-30_2021-07-04,29341.643871185,43.0,31.0,117,117,False
201,_AlwaysOn_wow_web_view_2021-06-23_2021-06-29,957486.89394542,423.0,144.0,37183,37183,False
202,FB_Impression_WebFeed > OSP-2373_email_open_2021-06-30_2021-07-04 > OSP-2373_email_clk_2021-06-30_2021-07-04,110670.19577189,219.0,195.0,705,705,False
203,FB_Impression_InstagramStory > FB_Impression_MobileFeed > FB_Impression_InstagramStory > OSP-2373_email_open_2021-06-30_2021-07-04,-2518.2307728528,12.0,10.0,141,141,False
204,_AlwaysOn_wow_web_view_2021-06-30_2021-07-04 > _AlwaysOn_wow_web_view_2021-06-23_2021-06-29 > _AlwaysOn_wow_web_clk_2021-06-30_2021-07-04,202951.58215997,71.0,22.0,493,493,False
205,OSP-2373_rw_app_imp_2021-06-30_2021-07-04 > OSP-2373_rw_app_imp_2021-06-23_2021-06-29 > CVM-1661_rw_app_imp_2021-06-23_2021-06-29,12048.94570221,31.0,33.0,175,175,False
206,OSP-2373_rw_app_clk_2021-06-30_2021-07-04 > OSP-2373_email_open_2021-06-30_2021-07-04 > OSP-2373_email_clk_2021-06-30_2021-07-04,416875.75602361,562.0,394.0,1004,1004,False
207,_AlwaysOn_wow_web_view_2021-06-30_2021-07-04 > _AlwaysOn_wow_web_view_2021-06-23_2021-06-29 > OSP-2373_email_open_2021-06-30_2021-07-04,24089.933278571,12.0,3.0,208,208,False
208,FB_Impression_MobileFeed > OSP-2373_rw_app_imp_2021-06-23_2021-06-29 > OSP-2373_email_open_2021-06-30_2021-07-04 > OSP-2373_email_clk_2021-06-30_2021-07-04,122443.47029317,218.0,173.0,567,567,False
209,_AlwaysOn_wow_web_view_2021-06-23_2021-06-29 > OSP-2373_email_open_2021-06-30_2021-07-04,156339.35998971,97.0,43.0,2452,2452,False
210,OSP-2373_rw_app_imp_2021-06-30_2021-07-04 > OSP-2373_email_open_2021-06-30_2021-07-04 > OSP-2373_email_open_2021-06-23_2021-06-29,25935.105679373,24.0,19.0,129,129,False
211,OSP-2373_email_open_2021-06-30_2021-07-04 > OSP-2373_email_open_2021-06-23_2021-06-29,293424.7472166,438.0,324.0,5459,5459,False
212,_AlwaysOn_wow_web_view_2021-06-30_2021-07-04 > OSP-2373_rw_app_imp_2021-06-23_2021-06-29,24438.576518457,22.0,9.0,102,102,False
213,_AlwaysOn_wow_web_view_2021-06-30_2021-07-04 > OSP-2373_rw_app_imp_2021-06-30_2021-07-04,276858.55121158,197.0,133.0,611,611,False
214,CVM-1661_email_open_2021-06-30_2021-07-04 > CVM-1661_email_clk_2021-06-30_2021-07-04,9946.6405009959,6.0,7.0,356,356,False
215,OSP-2373_email_open_2021-06-30_2021-07-04 > OSP-2373_email_open_2021-06-30_2021-07-04,74184.560746532,150.0,115.0,423,423,False
216,OSP-2373_rw_web_oap_clk_2021-06-23_2021-06-29 > OSP-2373_email_open_2021-06-30_2021-07-04,55345.453498782,60.0,50.0,240,240,False
217,_AlwaysOn_wow_web_view_2021-06-30_2021-07-04 > _AlwaysOn_wow_web_view_2021-06-23_2021-06-29 > OSP-2373_email_open_2021-06-30_2021-07-04 > OSP-2373_email_clk_2021-06-30_2021-07-04,82921.881037718,32.0,17.0,152,152,False
218,OSP-2373_rw_app_imp_2021-06-23_2021-06-29 > OSP-2373_rw_app_imp_2021-06-23_2021-06-29 > OSP-2373_email_open_2021-06-30_2021-07-04 > OSP-2373_email_clk_2021-06-30_2021-07-04,31389.828777296,81.0,52.0,162,162,False
219,FB_Impression_MobileFeed > OSP-2373_rw_app_imp_2021-06-30_2021-07-04 > OSP-2373_rw_app_imp_2021-06-23_2021-06-29 > OSP-2373_email_open_2021-06-30_2021-07-04,165746.86503063,380.0,308.0,816,816,False
220,_AlwaysOn_sem_shopping_clk_2021-06-30_2021-07-04 > OSP-2373_email_open_2021-06-30_2021-07-04 > OSP-2373_email_clk_2021-06-30_2021-07-04,21326.604423972,31.0,34.0,166,166,False
221,OSP-2373_rw_app_imp_2021-06-23_2021-06-29 > OSP-2373_email_open_2021-06-30_2021-07-04 > OSP-2373_email_clk_2021-06-30_2021-07-04,2110913.477306,3016.0,2145.0,6773,6773,False
222,OSP-2373_email_open_2021-06-30_2021-07-04 > CVM-1661_email_open_2021-06-23_2021-06-29,-1231.3683054017,2.0,3.0,174,174,False
223,OSP-2373_email_open_2021-06-30_2021-07-04 > OSP-2373_email_clk_2021-06-30_2021-07-04 > CVM-1661_rw_app_imp_2021-06-23_2021-06-29,175175.59159047,252.0,187.0,900,900,False
224,FB_Impression_MobileFeed > FB_Impression_WebFeed > OSP-2373_email_open_2021-06-30_2021-07-04,13935.569697582,16.0,15.0,113,113,False
225,FB_Impression_WebFeed > OSP-2373_rw_app_imp_2021-06-30_2021-07-04,34330.551901246,56.0,47.0,197,197,False
