,path,total_conversion_value,conversions,non_conversions,cnt,ppl,Converted
0,OSP-2373_rw_app_imp_2021-05-26_2021-05-30 > OSP-2373_rw_app_imp_2021-05-19_2021-05-25 > OSP-2373_rw_app_clk_2021-05-19_2021-05-25 > OSP-2373_email_open_2021-05-26_2021-05-30,4446.8178450448,133.0,88.0,273,273,False
1,_AlwaysOn_wow_web_view_2021-05-26_2021-05-30 > OSP-2373_rw_app_imp_2021-05-26_2021-05-30 > OSP-2373_rw_app_imp_2021-05-19_2021-05-25,2233.9746486088,58.0,62.0,180,180,False
2,OSP-2373_rw_app_imp_2021-05-26_2021-05-30 > OSP-2373_rw_app_clk_2021-05-26_2021-05-30,55262.54462667,1566.0,1054.0,7591,7591,False
3,_AlwaysOn_wow_web_clk_2021-05-26_2021-05-30 > OSP-2373_email_open_2021-05-26_2021-05-30 > OSP-2373_email_clk_2021-05-26_2021-05-30,6505.9344874582,101.0,75.0,222,222,False
4,OSP-2373_email_open_2021-05-26_2021-05-30 > OSP-2373_email_clk_2021-05-26_2021-05-30,318432.81200307,11339.0,10322.0,60543,60543,False
5,_AlwaysOn_wow_web_view_2021-05-19_2021-05-25 > _AlwaysOn_wow_web_clk_2021-05-26_2021-05-30 > _AlwaysOn_wow_web_clk_2021-05-19_2021-05-25,5016.1522677489,46.0,15.0,210,210,False
6,FB_Impression > _AlwaysOn_wow_web_view_2021-05-19_2021-05-25 > _AlwaysOn_wow_web_clk_2021-05-19_2021-05-25,5177.1003778452,45.0,18.0,357,357,False
7,OSP-2373_rw_app_imp_2021-05-26_2021-05-30 > OSP-2373_rw_app_imp_2021-05-19_2021-05-25 > OSP-2373_email_open_2021-05-26_2021-05-30,34773.203978657,970.0,644.0,3069,3069,False
8,_AlwaysOn_wow_web_view_2021-05-26_2021-05-30 > _AlwaysOn_wow_web_clk_2021-05-26_2021-05-30 > OSP-2373_rw_app_imp_2021-05-26_2021-05-30,4276.4043795776,108.0,83.0,318,318,False
9,OSP-2373_rw_app_imp_2021-05-26_2021-05-30 > OSP-2373_rw_app_imp_2021-05-19_2021-05-25 > OSP-2373_rw_app_clk_2021-05-19_2021-05-25,29448.962696957,944.0,571.0,2260,2260,False
10,OSP-2373_rw_app_imp_2021-05-19_2021-05-25 > OSP-2373_rw_app_clk_2021-05-26_2021-05-30 > OSP-2373_rw_app_clk_2021-05-19_2021-05-25,16944.744690568,621.0,505.0,949,949,False
11,OSP-2373_rw_app_imp_2021-05-26_2021-05-30 > OSP-2373_rw_app_clk_2021-05-26_2021-05-30 > OSP-2373_email_open_2021-05-26_2021-05-30,6037.34259732,190.0,145.0,745,745,False
12,OSP-2373_email_open_2021-05-26_2021-05-30 > OSP-2373_email_open_2021-05-19_2021-05-25,15359.641552117,630.0,575.0,4822,4822,False
13,FB_Impression > OSP-2373_email_open_2021-05-26_2021-05-30,3429.0521654238,145.0,144.0,1030,1030,False
14,OSP-2373_email_open_2021-05-19_2021-05-25,32554.275506246,1286.0,1158.0,14678,14678,False
15,FB_Impression > OSP-2373_rw_app_imp_2021-05-26_2021-05-30,7183.8676435781,361.0,364.0,1587,1587,False
16,_AlwaysOn_wow_web_view_2021-05-19_2021-05-25 > _AlwaysOn_wow_web_clk_2021-05-26_2021-05-30,9944.880208204,82.0,36.0,459,459,False
17,OSP-2373_rw_app_imp_2021-05-19_2021-05-25 > CVM-1661_rw_app_imp_2021-05-26_2021-05-30,357.32995873845,51.0,59.0,131,131,False
18,FB_Impression > _AlwaysOn_wow_web_view_2021-05-26_2021-05-30 > _AlwaysOn_wow_web_clk_2021-05-26_2021-05-30,2436.6158956347,64.0,58.0,287,287,False
19,OSP-2373_rw_app_imp_2021-05-19_2021-05-25 > OSP-2373_rw_app_imp_2021-05-19_2021-05-25 > OSP-2373_rw_app_clk_2021-05-26_2021-05-30,894.35439497741,61.0,52.0,103,103,False
20,_AlwaysOn_wow_web_clk_2021-05-26_2021-05-30 > OSP-2373_rw_app_imp_2021-05-26_2021-05-30 > OSP-2373_rw_app_imp_2021-05-19_2021-05-25,387.74708325769,36.0,36.0,114,114,False
21,OSP-2373_rw_app_imp_2021-05-19_2021-05-25 > OSP-2373_email_open_2021-05-26_2021-05-30 > OSP-2373_email_clk_2021-05-26_2021-05-30,27113.802553479,931.0,800.0,2557,2557,False
22,FB_Impression > OSP-2373_rw_app_imp_2021-05-19_2021-05-25,6563.3067636397,156.0,110.0,487,487,False
23,OSP-2373_rw_app_imp_2021-05-19_2021-05-25 > OSP-2373_rw_app_imp_2021-05-19_2021-05-25,9179.7871934098,343.0,295.0,678,678,False
24,OSP-2373_rw_web_oap_clk_2021-05-26_2021-05-30 > OSP-2373_email_open_2021-05-26_2021-05-30 > OSP-2373_email_clk_2021-05-26_2021-05-30,1752.8792080853,59.0,43.0,278,278,False
25,OSP-2373_email_open_2021-05-26_2021-05-30 > CVM-1661_email_open_2021-05-26_2021-05-30,536.16309150922,9.0,8.0,137,137,False
26,_AlwaysOn_sem_brand_clk_2021-05-19_2021-05-25,1193.5928238826,23.0,19.0,943,943,False
27,_AlwaysOn_wow_web_view_2021-05-26_2021-05-30 > _AlwaysOn_wow_web_view_2021-05-19_2021-05-25,4429.7039243675,59.0,39.0,1869,1869,False
28,_AlwaysOn_sem_brand_clk_2021-05-26_2021-05-30,176.78964213666,13.0,14.0,269,269,False
29,OSP-2373_rw_app_clk_2021-05-26_2021-05-30 > OSP-2373_rw_app_clk_2021-05-19_2021-05-25,2071.0822597869,61.0,58.0,218,218,False
30,_AlwaysOn_wow_web_view_2021-05-26_2021-05-30 > _AlwaysOn_sem_shopping_clk_2021-05-26_2021-05-30,344.57799077337,13.0,16.0,132,132,False
31,OSP-2373_email_open_2021-05-19_2021-05-25 > CVM-1661_email_open_2021-05-19_2021-05-25,-170.02225543774,1.0,4.0,136,136,False
32,FB_Impression,40805.464927261,1096.0,1204.0,18223,18223,False
33,OSP-2373_rw_app_clk_2021-05-19_2021-05-25 > OSP-2373_email_open_2021-05-26_2021-05-30,3359.5353883559,125.0,91.0,349,349,False
34,OSP-2373_rw_app_imp_2021-05-19_2021-05-25 > OSP-2373_rw_app_clk_2021-05-26_2021-05-30,47025.273891704,1653.0,1514.0,3651,3651,False
35,OSP-2373_rw_app_imp_2021-05-26_2021-05-30 > OSP-2373_rw_app_imp_2021-05-19_2021-05-25 > OSP-2373_rw_app_clk_2021-05-19_2021-05-25 > OSP-2373_email_open_2021-05-26_2021-05-30 > OSP-2373_email_clk_2021-05-26_2021-05-30,2463.0019967382,53.0,25.0,101,101,False
36,CVM-1661_email_open_2021-05-26_2021-05-30,823.89043053832,14.0,8.0,671,671,False
37,_AlwaysOn_display_imp_2021-05-19_2021-05-25,-336.36578736971,4.0,8.0,353,353,False
38,OSP-2373_rw_web_oap_clk_2021-05-26_2021-05-30 > OSP-2373_email_open_2021-05-26_2021-05-30,3472.7886504287,90.0,64.0,375,375,False
39,OSP-2373_email_open_2021-05-26_2021-05-30,385925.12762009,15612.0,15855.0,272966,272966,False
40,FB_Impression > OSP-2373_email_open_2021-05-26_2021-05-30 > OSP-2373_email_clk_2021-05-26_2021-05-30,4384.3555078437,133.0,157.0,516,516,False
41,_AlwaysOn_sem_shopping_clk_2021-05-19_2021-05-25 > OSP-2373_rw_app_imp_2021-05-19_2021-05-25,910.89931375861,14.0,2.0,123,123,False
42,_AlwaysOn_wow_web_view_2021-05-26_2021-05-30 > _AlwaysOn_wow_web_clk_2021-05-26_2021-05-30,49970.989563688,642.0,489.0,5054,5054,False
43,_AlwaysOn_sem_shopping_clk_2021-05-26_2021-05-30 > OSP-2373_rw_app_imp_2021-05-26_2021-05-30,-138.72185034814,51.0,42.0,350,350,False
44,FB_Impression > OSP-2373_rw_app_imp_2021-05-26_2021-05-30 > OSP-2373_rw_app_imp_2021-05-19_2021-05-25,13172.994293078,305.0,256.0,766,766,False
45,OSP-2373_email_open_2021-05-26_2021-05-30 > OSP-2373_email_clk_2021-05-26_2021-05-30 > CVM-1661_rw_app_imp_2021-05-26_2021-05-30,1618.8688188275,54.0,46.0,135,135,False
46,_AlwaysOn_wow_web_view_2021-05-19_2021-05-25 > _AlwaysOn_wow_web_clk_2021-05-19_2021-05-25 > OSP-2373_email_open_2021-05-26_2021-05-30,3295.0698477888,30.0,10.0,214,214,False
47,_AlwaysOn_sem_other_clk_2021-05-26_2021-05-30,54.820208368127,3.0,4.0,124,124,False
48,OSP-2373_rw_app_imp_2021-05-26_2021-05-30 > OSP-2373_rw_app_imp_2021-05-19_2021-05-25 > OSP-2373_rw_app_clk_2021-05-26_2021-05-30,53814.730748191,1299.0,865.0,2884,2884,False
49,OSP-2373_rw_app_clk_2021-05-26_2021-05-30,65583.491886656,2114.0,1869.0,8233,8233,False
50,OSP-2373_rw_app_imp_2021-05-19_2021-05-25 > OSP-2373_email_open_2021-05-26_2021-05-30 > OSP-2373_email_open_2021-05-19_2021-05-25,-127.81900161224,67.0,66.0,197,197,False
51,OSP-2373_email_open_2021-05-26_2021-05-30 > OSP-2373_email_open_2021-05-19_2021-05-25 > OSP-2373_email_clk_2021-05-26_2021-05-30 > OSP-2373_email_clk_2021-05-19_2021-05-25,2018.062601114,40.0,31.0,181,181,False
52,CVM-1661_email_open_2021-05-19_2021-05-25,374.08500307475,9.0,14.0,1150,1150,False
53,OSP-2373_rw_app_imp_2021-05-26_2021-05-30 > CVM-1661_rw_app_imp_2021-05-26_2021-05-30,2770.4505477264,73.0,86.0,386,386,False
54,CVM-1661_rw_app_imp_2021-05-26_2021-05-30,7084.7698673264,185.0,209.0,693,693,False
55,_AlwaysOn_sem_shopping_clk_2021-05-19_2021-05-25 > OSP-2373_rw_app_imp_2021-05-26_2021-05-30,1190.7545563351,29.0,19.0,406,406,False
56,_AlwaysOn_wow_web_view_2021-05-19_2021-05-25 > _AlwaysOn_wow_web_view_2021-05-19_2021-05-25 > _AlwaysOn_wow_web_clk_2021-05-19_2021-05-25,1987.2551359895,18.0,8.0,160,160,False
57,OSP-2373_email_open_2021-05-19_2021-05-25 > OSP-2373_email_clk_2021-05-26_2021-05-30 > OSP-2373_email_clk_2021-05-19_2021-05-25,2132.8136629077,60.0,54.0,297,297,False
58,OSP-2373_rw_app_imp_2021-05-26_2021-05-30 > OSP-2373_email_open_2021-05-26_2021-05-30 > CVM-1661_rw_app_imp_2021-05-26_2021-05-30,1823.1084641928,41.0,31.0,167,167,False
59,OSP-2373_rw_app_clk_2021-05-26_2021-05-30 > OSP-2373_email_open_2021-05-26_2021-05-30,6770.7182569588,351.0,313.0,1212,1212,False
60,OSP-2373_rw_app_imp_2021-05-19_2021-05-25 > OSP-2373_rw_app_clk_2021-05-26_2021-05-30 > OSP-2373_rw_app_clk_2021-05-19_2021-05-25 > OSP-2373_email_open_2021-05-26_2021-05-30,3299.604790852,134.0,111.0,187,187,False
61,_AlwaysOn_sem_generic_clk_2021-05-19_2021-05-25,-14.589090908,2.0,5.0,160,160,False
62,_AlwaysOn_wow_web_view_2021-05-26_2021-05-30 > _AlwaysOn_wow_web_clk_2021-05-26_2021-05-30 > OSP-2373_email_open_2021-05-26_2021-05-30 > OSP-2373_email_clk_2021-05-26_2021-05-30,2867.9362742694,44.0,28.0,115,115,False
63,OSP-2373_rw_web_oap_clk_2021-05-19_2021-05-25,3073.7934906829,107.0,59.0,681,681,False
64,_AlwaysOn_sem_shopping_clk_2021-05-26_2021-05-30 > OSP-2373_email_open_2021-05-26_2021-05-30 > OSP-2373_email_clk_2021-05-26_2021-05-30,337.06387684049,21.0,17.0,122,122,False
65,_AlwaysOn_wow_web_clk_2021-05-26_2021-05-30 > OSP-2373_email_open_2021-05-26_2021-05-30,6075.5228096175,99.0,84.0,308,308,False
66,_AlwaysOn_wow_web_view_2021-05-19_2021-05-25 > OSP-2373_rw_app_imp_2021-05-19_2021-05-25,6514.7077435457,74.0,30.0,353,353,False
67,OSP-2373_email_clk_2021-05-26_2021-05-30,427679.45455819,14412.0,13015.0,53922,53922,False
68,OSP-2373_rw_app_imp_2021-05-26_2021-05-30 > OSP-2373_rw_app_clk_2021-05-26_2021-05-30 > OSP-2373_email_open_2021-05-26_2021-05-30 > OSP-2373_email_clk_2021-05-26_2021-05-30,3725.7859813711,87.0,67.0,227,227,False
69,OSP-2373_email_open_2021-05-26_2021-05-30 > OSP-2373_email_open_2021-05-19_2021-05-25 > OSP-2373_email_clk_2021-05-26_2021-05-30,11439.948525941,339.0,312.0,1424,1424,False
70,_AlwaysOn_wow_web_view_2021-05-26_2021-05-30 > _AlwaysOn_wow_web_view_2021-05-19_2021-05-25 > _AlwaysOn_wow_web_clk_2021-05-19_2021-05-25,2013.332061858,20.0,8.0,309,309,False
71,OSP-2373_rw_web_oap_clk_2021-05-19_2021-05-25 > OSP-2373_email_open_2021-05-26_2021-05-30,2316.2897307677,42.0,21.0,111,111,False
72,_AlwaysOn_wow_web_view_2021-05-19_2021-05-25 > OSP-2373_email_open_2021-05-26_2021-05-30,2773.284467209,78.0,67.0,1101,1101,False
73,_AlwaysOn_wow_web_clk_2021-05-26_2021-05-30,78924.589708422,929.0,656.0,3960,3960,False
74,OSP-2373_email_open_2021-05-26_2021-05-30 > OSP-2373_email_open_2021-05-26_2021-05-30 > OSP-2373_email_clk_2021-05-26_2021-05-30,3601.3274091357,174.0,138.0,389,389,False
75,_AlwaysOn_sem_shopping_clk_2021-05-26_2021-05-30 > OSP-2373_email_open_2021-05-26_2021-05-30,1503.1201658257,31.0,21.0,265,265,False
76,OSP-2373_rw_app_imp_2021-05-19_2021-05-25 > OSP-2373_rw_app_imp_2021-05-19_2021-05-25 > OSP-2373_email_open_2021-05-26_2021-05-30,1418.1359536712,70.0,64.0,131,131,False
77,_AlwaysOn_sem_shopping_clk_2021-05-26_2021-05-30 > _AlwaysOn_sem_shopping_clk_2021-05-19_2021-05-25,255.29002663096,4.0,4.0,249,249,False
78,OSP-2373_rw_app_imp_2021-05-26_2021-05-30 > OSP-2373_rw_app_imp_2021-05-19_2021-05-25 > OSP-2373_rw_app_clk_2021-05-26_2021-05-30 > OSP-2373_email_open_2021-05-26_2021-05-30 > OSP-2373_email_clk_2021-05-26_2021-05-30,2015.7610214872,63.0,41.0,115,115,False
79,OSP-2373_rw_app_imp_2021-05-19_2021-05-25 > OSP-2373_email_open_2021-05-26_2021-05-30 > OSP-2373_email_open_2021-05-26_2021-05-30,-292.57199285321,61.0,55.0,165,165,False
80,_AlwaysOn_wow_web_view_2021-05-19_2021-05-25 > _AlwaysOn_sem_shopping_clk_2021-05-19_2021-05-25,1137.3533708367,16.0,13.0,239,239,False
81,OSP-2373_email_open_2021-05-26_2021-05-30 > CVM-1661_rw_app_imp_2021-05-19_2021-05-25,982.00843146925,31.0,37.0,211,211,False
82,OSP-2373_rw_app_imp_2021-05-19_2021-05-25 > OSP-2373_rw_app_clk_2021-05-26_2021-05-30 > OSP-2373_email_open_2021-05-26_2021-05-30 > OSP-2373_email_clk_2021-05-26_2021-05-30,3169.2325990926,123.0,108.0,206,206,False
83,_AlwaysOn_wow_web_view_2021-05-19_2021-05-25 > _AlwaysOn_wow_web_view_2021-05-19_2021-05-25,1862.5939351722,13.0,8.0,184,184,False
84,_AlwaysOn_wow_web_clk_2021-05-19_2021-05-25 > OSP-2373_email_open_2021-05-26_2021-05-30 > OSP-2373_email_clk_2021-05-26_2021-05-30,2370.9566020937,29.0,19.0,152,152,False
85,OSP-2373_rw_app_imp_2021-05-26_2021-05-30 > OSP-2373_email_open_2021-05-19_2021-05-25,288.28280457429,47.0,51.0,359,359,False
86,OSP-2373_rw_app_clk_2021-05-26_2021-05-30 > OSP-2373_email_open_2021-05-26_2021-05-30 > OSP-2373_email_clk_2021-05-26_2021-05-30,5269.9884911064,189.0,171.0,530,530,False
87,FB_Impression > _AlwaysOn_wow_web_view_2021-05-26_2021-05-30,1640.1210820691,58.0,73.0,587,587,False
88,_AlwaysOn_sem_shopping_clk_2021-05-19_2021-05-25,5178.6568040282,151.0,144.0,8016,8016,False
89,OSP-2373_rw_app_imp_2021-05-26_2021-05-30,335506.16473412,15255.0,15372.0,183569,183569,False
90,_AlwaysOn_wow_web_view_2021-05-26_2021-05-30,36623.411936536,898.0,1066.0,21452,21452,False
91,_AlwaysOn_wow_web_view_2021-05-26_2021-05-30 > OSP-2373_rw_app_imp_2021-05-26_2021-05-30,6249.7371985716,205.0,220.0,937,937,False
92,_AlwaysOn_wow_web_view_2021-05-19_2021-05-25 > OSP-2373_rw_app_imp_2021-05-26_2021-05-30 > OSP-2373_email_open_2021-05-26_2021-05-30,717.08389307208,12.0,9.0,103,103,False
93,_AlwaysOn_wow_web_view_2021-05-19_2021-05-25 > OSP-2373_rw_app_imp_2021-05-26_2021-05-30,4872.8890182687,85.0,76.0,858,858,False
94,_AlwaysOn_sem_other_clk_2021-05-19_2021-05-25,261.25923464189,3.0,2.0,186,186,False
95,OSP-2373_rw_app_imp_2021-05-26_2021-05-30 > OSP-2373_email_open_2021-05-26_2021-05-30 > OSP-2373_email_clk_2021-05-26_2021-05-30,19602.419402,656.0,492.0,2681,2681,False
96,_AlwaysOn_sem_shopping_clk_2021-05-26_2021-05-30,1974.4915841871,174.0,230.0,6133,6133,False
97,OSP-2373_rw_app_imp_2021-05-26_2021-05-30 > OSP-2373_rw_app_imp_2021-05-19_2021-05-25 > OSP-2373_rw_app_clk_2021-05-26_2021-05-30 > OSP-2373_email_open_2021-05-26_2021-05-30,5698.3163739008,217.0,128.0,375,375,False
98,OSP-2373_rw_app_imp_2021-05-26_2021-05-30 > OSP-2373_email_open_2021-05-26_2021-05-30,37179.613098694,1609.0,1321.0,11610,11610,False
99,OSP-2373_email_open_2021-05-26_2021-05-30 > OSP-2373_email_open_2021-05-19_2021-05-25 > OSP-2373_email_clk_2021-05-19_2021-05-25,1871.98505331,30.0,24.0,153,153,False
100,OSP-2373_rw_app_imp_2021-05-19_2021-05-25 > CVM-1661_rw_app_imp_2021-05-19_2021-05-25,3500.3824527825,101.0,130.0,616,616,False
101,_AlwaysOn_wow_web_view_2021-05-26_2021-05-30 > _AlwaysOn_wow_web_clk_2021-05-26_2021-05-30 > OSP-2373_email_open_2021-05-26_2021-05-30,3679.2839412674,43.0,41.0,196,196,False
102,OSP-2373_rw_app_imp_2021-05-19_2021-05-25 > OSP-2373_rw_app_clk_2021-05-19_2021-05-25 > OSP-2373_email_open_2021-05-26_2021-05-30,5713.3752036803,289.0,233.0,619,619,False
103,_AlwaysOn_wow_web_view_2021-05-26_2021-05-30 > OSP-2373_rw_app_imp_2021-05-19_2021-05-25,873.93232634728,30.0,27.0,130,130,False
104,OSP-2373_rw_app_imp_2021-05-19_2021-05-25 > OSP-2373_rw_app_imp_2021-05-19_2021-05-25 > OSP-2373_rw_app_clk_2021-05-19_2021-05-25,3505.3881962492,143.0,104.0,232,232,False
105,_AlwaysOn_sem_generic_clk_2021-05-26_2021-05-30,-24.305481592159,2.0,5.0,131,131,False
106,OSP-2373_rw_app_imp_2021-05-26_2021-05-30 > OSP-2373_rw_app_imp_2021-05-26_2021-05-30 > OSP-2373_rw_app_imp_2021-05-19_2021-05-25,1129.1470277237,57.0,41.0,157,157,False
107,_AlwaysOn_wow_web_clk_2021-05-19_2021-05-25 > OSP-2373_rw_app_imp_2021-05-26_2021-05-30 > OSP-2373_rw_app_imp_2021-05-19_2021-05-25,3947.3206654101,47.0,19.0,149,149,False
108,OSP-2373_rw_web_oap_clk_2021-05-26_2021-05-30,8615.9774084777,263.0,209.0,2391,2391,False
109,OSP-2373_rw_app_imp_2021-05-26_2021-05-30 > OSP-2373_rw_app_imp_2021-05-19_2021-05-25 > OSP-2373_email_open_2021-05-26_2021-05-30 > OSP-2373_email_clk_2021-05-26_2021-05-30,10626.195315309,338.0,218.0,893,893,False
110,OSP-2373_email_open_2021-05-19_2021-05-25 > OSP-2373_email_clk_2021-05-26_2021-05-30,14097.672099607,466.0,387.0,1616,1616,False
111,OSP-2373_rw_app_imp_2021-05-19_2021-05-25 > OSP-2373_email_open_2021-05-19_2021-05-25,2077.9672144921,78.0,50.0,289,289,False
112,_AlwaysOn_wow_web_view_2021-05-19_2021-05-25 > _AlwaysOn_wow_web_clk_2021-05-19_2021-05-25 > OSP-2373_rw_app_imp_2021-05-19_2021-05-25,4355.1170737902,40.0,6.0,126,126,False
113,_AlwaysOn_wow_web_clk_2021-05-19_2021-05-25 > OSP-2373_email_open_2021-05-26_2021-05-30,5653.3377372006,58.0,24.0,306,306,False
114,OSP-2373_email_open_2021-05-19_2021-05-25 > OSP-2373_email_clk_2021-05-19_2021-05-25,6647.462608844,125.0,68.0,709,709,False
115,_AlwaysOn_wow_web_view_2021-05-26_2021-05-30 > OSP-2373_email_open_2021-05-26_2021-05-30,3957.0598154384,144.0,135.0,710,710,False
116,FB_Impression > _AlwaysOn_wow_web_view_2021-05-19_2021-05-25,4908.8258283321,48.0,21.0,969,969,False
117,_AlwaysOn_wow_web_view_2021-05-19_2021-05-25 > _AlwaysOn_wow_web_clk_2021-05-19_2021-05-25,48189.765302331,440.0,171.0,6079,6079,False
119,OSP-2373_rw_app_clk_2021-05-19_2021-05-25 > OSP-2373_email_open_2021-05-26_2021-05-30 > OSP-2373_email_clk_2021-05-26_2021-05-30,4219.1098220182,89.0,48.0,199,199,False
120,OSP-2373_rw_app_imp_2021-05-26_2021-05-30 > OSP-2373_rw_app_imp_2021-05-19_2021-05-25 > CVM-1661_rw_app_imp_2021-05-19_2021-05-25,2155.8805220484,60.0,43.0,257,257,False
121,OSP-2373_rw_app_imp_2021-05-26_2021-05-30 > OSP-2373_rw_app_imp_2021-05-19_2021-05-25,271122.7209815,8612.0,6319.0,35390,35390,False
122,_AlwaysOn_sem_shopping_clk_2021-05-19_2021-05-25 > OSP-2373_email_open_2021-05-26_2021-05-30 > OSP-2373_email_clk_2021-05-26_2021-05-30,1429.2926865945,23.0,21.0,173,173,False
123,_AlwaysOn_wow_web_view_2021-05-19_2021-05-25 > _AlwaysOn_wow_web_clk_2021-05-19_2021-05-25 > OSP-2373_rw_app_imp_2021-05-26_2021-05-30,3333.3514841539,29.0,13.0,208,208,False
124,_AlwaysOn_wow_web_clk_2021-05-19_2021-05-25 > OSP-2373_rw_app_imp_2021-05-26_2021-05-30,1109.0879987029,39.0,31.0,256,256,False
125,CVM-1661_rw_app_imp_2021-05-19_2021-05-25,6231.3769480517,132.0,116.0,603,603,False
126,OSP-2373_rw_app_imp_2021-05-26_2021-05-30 > OSP-2373_rw_app_imp_2021-05-19_2021-05-25 > OSP-2373_rw_app_clk_2021-05-26_2021-05-30 > OSP-2373_rw_app_clk_2021-05-19_2021-05-25 > OSP-2373_email_open_2021-05-26_2021-05-30,1707.9506456888,82.0,50.0,111,111,False
127,_AlwaysOn_wow_web_clk_2021-05-19_2021-05-25 > OSP-2373_rw_app_imp_2021-05-19_2021-05-25,7112.5560616927,58.0,18.0,182,182,False
128,_AlwaysOn_wow_web_view_2021-05-26_2021-05-30 > _AlwaysOn_wow_web_view_2021-05-19_2021-05-25 > _AlwaysOn_wow_web_clk_2021-05-26_2021-05-30,5026.5741493217,39.0,21.0,419,419,False
129,OSP-2373_rw_app_imp_2021-05-19_2021-05-25,468342.41973286,16656.0,14693.0,87240,87240,False
130,FB_Impression > _AlwaysOn_wow_web_view_2021-05-26_2021-05-30 > _AlwaysOn_wow_web_view_2021-05-19_2021-05-25,2409.484584569,13.0,4.0,178,178,False
131,_AlwaysOn_wow_web_clk_2021-05-26_2021-05-30 > OSP-2373_rw_app_imp_2021-05-26_2021-05-30,7083.0808653088,178.0,163.0,538,538,False
132,OSP-2373_email_open_2021-05-26_2021-05-30 > CVM-1661_rw_app_imp_2021-05-26_2021-05-30,2045.0475351972,81.0,75.0,293,293,False
133,OSP-2373_email_clk_2021-05-19_2021-05-25,4551.9877634938,86.0,61.0,493,493,False
134,_AlwaysOn_wow_web_view_2021-05-19_2021-05-25,56310.241452631,760.0,517.0,31256,31256,False
135,_AlwaysOn_wow_web_view_2021-05-26_2021-05-30 > _AlwaysOn_wow_web_view_2021-05-19_2021-05-25 > _AlwaysOn_wow_web_clk_2021-05-26_2021-05-30 > _AlwaysOn_wow_web_clk_2021-05-19_2021-05-25,1488.9698162194,16.0,8.0,152,152,False
136,FB_Impression > OSP-2373_rw_app_imp_2021-05-26_2021-05-30 > OSP-2373_rw_app_clk_2021-05-26_2021-05-30,742.93428587751,40.0,38.0,113,113,False
137,OSP-2373_rw_app_imp_2021-05-19_2021-05-25 > OSP-2373_rw_app_clk_2021-05-26_2021-05-30 > OSP-2373_email_open_2021-05-26_2021-05-30,8208.968075622,281.0,210.0,517,517,False
138,OSP-2373_rw_app_clk_2021-05-19_2021-05-25,29452.662413397,813.0,592.0,2764,2764,False
139,_AlwaysOn_display_imp_2021-05-26_2021-05-30,202.87067197484,8.0,17.0,442,442,False
140,OSP-2373_rw_app_imp_2021-05-19_2021-05-25 > OSP-2373_email_open_2021-05-26_2021-05-30 > CVM-1661_rw_app_imp_2021-05-19_2021-05-25,2719.6071638369,54.0,39.0,219,219,False
141,OSP-2373_rw_app_imp_2021-05-26_2021-05-30 > OSP-2373_rw_app_imp_2021-05-19_2021-05-25 > OSP-2373_rw_app_clk_2021-05-26_2021-05-30 > OSP-2373_rw_app_clk_2021-05-19_2021-05-25,17116.739513101,406.0,263.0,633,633,False
142,OSP-2373_rw_app_imp_2021-05-26_2021-05-30 > OSP-2373_rw_app_imp_2021-05-19_2021-05-25 > OSP-2373_email_open_2021-05-19_2021-05-25,985.60848067294,38.0,24.0,128,128,False
143,_AlwaysOn_wow_web_view_2021-05-26_2021-05-30 > OSP-2373_email_open_2021-05-26_2021-05-30 > OSP-2373_email_clk_2021-05-26_2021-05-30,7220.0951393112,142.0,119.0,373,373,False
144,_AlwaysOn_wow_web_clk_2021-05-19_2021-05-25,56645.633250677,507.0,220.0,4138,4138,False
145,CVM-1661_email_clk_2021-05-26_2021-05-30,64.915759879839,3.0,3.0,442,442,False
146,OSP-2373_rw_app_imp_2021-05-19_2021-05-25 > OSP-2373_email_open_2021-05-26_2021-05-30,38580.623202688,1954.0,1749.0,6858,6858,False
147,_AlwaysOn_sem_shopping_clk_2021-05-19_2021-05-25 > OSP-2373_rw_app_imp_2021-05-26_2021-05-30 > OSP-2373_rw_app_imp_2021-05-19_2021-05-25,927.3367007798,20.0,17.0,124,124,False
148,OSP-2373_email_open_2021-05-26_2021-05-30 > OSP-2373_email_open_2021-05-26_2021-05-30,3130.2716957644,148.0,135.0,485,485,False
149,OSP-2373_rw_app_imp_2021-05-19_2021-05-25 > OSP-2373_rw_app_clk_2021-05-19_2021-05-25,69906.307707449,2093.0,1639.0,5680,5680,False
150,OSP-2373_rw_app_imp_2021-05-19_2021-05-25 > OSP-2373_rw_app_clk_2021-05-19_2021-05-25 > OSP-2373_email_open_2021-05-26_2021-05-30 > OSP-2373_email_clk_2021-05-26_2021-05-30,3471.8117099038,131.0,95.0,241,241,False
151,_AlwaysOn_video_imp_2021-05-19_2021-05-25,434.84098943344,6.0,6.0,386,386,False
152,_AlwaysOn_wow_web_view_2021-05-19_2021-05-25 > OSP-2373_rw_app_imp_2021-05-26_2021-05-30 > OSP-2373_rw_app_imp_2021-05-19_2021-05-25,3314.9138404052,44.0,34.0,252,252,False
153,FB_Impression > OSP-2373_rw_app_imp_2021-05-26_2021-05-30 > OSP-2373_email_open_2021-05-26_2021-05-30,1189.8904102497,51.0,42.0,176,176,False
154,OSP-2373_rw_app_imp_2021-05-26_2021-05-30 > OSP-2373_email_open_2021-05-26_2021-05-30 > OSP-2373_email_open_2021-05-19_2021-05-25,1431.9229081897,36.0,24.0,227,227,False
155,_AlwaysOn_wow_web_view_2021-05-19_2021-05-25 > OSP-2373_email_open_2021-05-26_2021-05-30 > OSP-2373_email_clk_2021-05-26_2021-05-30,7672.2913700518,86.0,49.0,473,473,False
156,_AlwaysOn_sem_shopping_clk_2021-05-19_2021-05-25 > OSP-2373_email_open_2021-05-26_2021-05-30,716.7744482025,23.0,11.0,316,316,False
