,channel_name,total_conversions,total_conversion_value,normalised_conversion_value
0,_AlwaysOn_wow_web_view_2021-12-01_2021-12-07,2176.930235020114,1139467.386045846,0.009528046783203301
1,OSP-2373_email_open_2021-12-08_2021-12-12,82759.03631166632,26042326.837396808,0.21776183459822532
2,OSP-2373_email_clk_2021-12-08_2021-12-12,75853.5281071353,26587810.49373022,0.22232308300310807
3,OSP-2373_rw_app_imp_2021-12-01_2021-12-07,41575.79875079399,14745921.46121265,0.12330307235157915
4,OSP-2373_rw_app_clk_2021-12-01_2021-12-07,5888.4178488249,3337819.357090644,0.02791031966136646
5,_AlwaysOn_wow_web_clk_2021-12-01_2021-12-07,660.2165466864282,526127.6090383444,0.004399396186536002
6,_AlwaysOn_sem_shopping_clk_2021-12-08_2021-12-12,446.09226127461363,173731.62393200104,0.0014527164715878818
7,OSP-2373_rw_app_imp_2021-12-08_2021-12-12,43110.35612957866,15271088.498907588,0.12769443639185923
8,OSP-2373_rw_app_clk_2021-12-08_2021-12-12,73837.19108617405,27686553.02119983,0.23151059493423434
9,_AlwaysOn_wow_web_view_2021-12-08_2021-12-12,3122.6458289222956,1415376.088731745,0.01183515189150028
10,_AlwaysOn_wow_web_clk_2021-12-08_2021-12-12,1712.9942832945162,778771.5294131681,0.006511964850020643
11,FB_Impression_MobileFeed,1195.5272602159644,393119.7414038295,0.003287205349943878
12,FB_Click_MobileFeed,0.0,0.0,0.0
13,OSP-2373_email_open_2021-12-01_2021-12-07,3996.9866610205377,1340520.6992731835,0.011209222916726288
14,_AlwaysOn_sem_shopping_clk_2021-12-01_2021-12-07,249.8116663137836,102003.73880329543,0.0008529391953481897
15,_AlwaysOn_sem_brand_clk_2021-12-01_2021-12-07,17.843690450984543,6140.853817135391,5.1348852257649826e-05
16,FB_Impression_Instagram,178.43690450984542,50887.88335108355,0.0004255164642753612
17,OSP-2373_email_clk_2021-12-01_2021-12-07,321.1864281177218,-6798.729104004122,-5.684990177215199e-05
