,channel_name,total_conversions,total_conversion_value,normalised_conversion_value
0,OSP-2373_rw_app_imp_2021-12-15_2021-12-21,46721.17083854818,9651907.501742473,0.15770796172443957
1,OSP-2373_email_open_2021-12-22_2021-12-26,72468.39252190238,11734119.556436623,0.1917303991508849
2,OSP-2373_email_clk_2021-12-22_2021-12-26,62447.6813204005,11624745.89681713,0.18994328122400683
3,_AlwaysOn_wow_web_view_2021-12-15_2021-12-21,2671.135951188986,1009703.4936270628,0.01649811499926022
4,OSP-2373_rw_app_imp_2021-12-22_2021-12-26,37095.598091364205,7678565.665361228,0.1254644162133512
5,OSP-2373_rw_app_clk_2021-12-22_2021-12-26,64850.12312265332,14353176.76148208,0.23452465234621017
6,OSP-2373_rw_app_clk_2021-12-15_2021-12-21,5437.105131414268,2091547.6243855597,0.034174976566227075
7,_AlwaysOn_sem_shopping_clk_2021-12-15_2021-12-21,331.91630162703376,66725.47655619233,0.0010902652041442805
8,_AlwaysOn_wow_web_clk_2021-12-15_2021-12-21,2275.997496871089,848726.1914231451,0.013867816044375316
9,FB_Impression_MobileFeed,1912.4701188986232,313917.8283074465,0.005129280491176727
10,FB_Impression_Instagram,63.22215269086358,10590.387828261426,0.00017304232121628828
11,_AlwaysOn_wow_web_view_2021-12-22_2021-12-26,1659.5815081351689,538737.3775055059,0.008802733935838563
12,FB_Click_MobileFeed,31.61107634543179,4716.34405331138,7.706300617827503e-05
13,_AlwaysOn_wow_web_clk_2021-12-22_2021-12-26,1248.6375156445556,675795.714744945,0.011042207428458605
14,OSP-2373_email_open_2021-12-15_2021-12-21,3445.6073216520654,534508.4589220039,0.008733635249389039
15,OSP-2373_email_clk_2021-12-15_2021-12-21,316.1107634543179,46900.92445249282,0.0007663406634449452
16,_AlwaysOn_sem_brand_clk_2021-12-15_2021-12-21,15.805538172715895,2348.8326337227504,3.837890147925557e-05
17,_AlwaysOn_sem_shopping_clk_2021-12-22_2021-12-26,94.83322903629538,14408.862308815102,0.00023543452991868122
18,FB_Impression_WebFeed,0.0,0.0,0.0
19,FB_Impression_SuggestedVideo,0.0,0.0,0.0
