,channel_name,total_conversions,total_conversion_value,normalised_conversion_value
0,OSP-2373_rw_app_imp_2021-11-17_2021-11-23,24307.819839734733,12285571.376864526,0.10330965465163046
1,OSP-2373_email_open_2021-11-24_2021-11-28,67869.99171041725,33689008.81807704,0.28329165651223676
2,OSP-2373_email_clk_2021-11-24_2021-11-28,38871.18909459335,19804735.843074206,0.16653848304261293
3,OSP-2373_rw_app_imp_2021-11-24_2021-11-28,56632.95569678549,28799426.331905097,0.242175043980211
4,OSP-2373_rw_app_clk_2021-11-24_2021-11-28,29297.319701575023,16175278.982035356,0.13601829611886812
5,OSP-2373_rw_app_clk_2021-11-17_2021-11-23,2899.8802615823893,1675985.4881661898,0.01409340084171021
6,_AlwaysOn_wow_web_view_2021-11-17_2021-11-23,3646.1729759602104,2762203.618600008,0.02322743429356721
7,_AlwaysOn_wow_web_clk_2021-11-17_2021-11-23,63.96794694667035,57758.45177866377,0.00048569216061886415
8,_AlwaysOn_wow_web_view_2021-11-24_2021-11-28,2046.9743022934513,690323.8862062829,0.00580494957003325
9,FB_Impression_MobileFeed,3326.3332412268583,1786050.094156297,0.015018936666248126
10,FB_Impression_WebFeed,469.09827760891596,198108.07017424697,0.001665895356885371
11,_AlwaysOn_wow_web_clk_2021-11-24_2021-11-28,85.29059592889381,12830.379899729209,0.00010789096215633521
12,OSP-2373_email_open_2021-11-17_2021-11-23,1727.1345675600996,879447.0828562536,0.00739529091706365
13,OSP-2373_email_clk_2021-11-17_2021-11-23,149.25854287556416,66776.3371151841,0.0005615237675686489
14,FB_Click_MobileFeed,85.29059592889381,37048.61617509702,0.0003115426726979724
15,FB_Impression_Instagram,21.322648982223452,-676.8341551644713,-5.6915141088305814e-06
