,channel_name,total_conversions,total_conversion_value,normalised_conversion_value
0,OSP-2373_rw_app_imp_2021-05-26_2021-05-30,22626.53821178821,586458.3575143764,0.1638252398130722
1,OSP-2373_rw_app_imp_2021-05-19_2021-05-25,26686.95729270729,794388.0709509483,0.22190973077741952
2,OSP-2373_rw_app_clk_2021-05-19_2021-05-25,4089.842407592407,129659.34987975932,0.036219918798817516
3,OSP-2373_email_open_2021-05-26_2021-05-30,26260.319055944055,700394.3486620281,0.19565288935363917
4,_AlwaysOn_wow_web_view_2021-05-26_2021-05-30,1721.2646103896104,81255.81109929731,0.022698547252302994
5,OSP-2373_rw_app_clk_2021-05-26_2021-05-30,6208.321928071928,197035.05605929444,0.05504110376618641
6,_AlwaysOn_wow_web_clk_2021-05-26_2021-05-30,1721.2646103896104,120181.3996017923,0.03357228413332252
7,OSP-2373_email_clk_2021-05-26_2021-05-30,20669.88698801199,607105.9934050807,0.16959308992216493
8,_AlwaysOn_wow_web_view_2021-05-19_2021-05-25,1309.338036963037,99481.81808628111,0.027789923182441657
9,_AlwaysOn_wow_web_clk_2021-05-19_2021-05-25,970.9697802197802,94919.58664943806,0.026515478629564385
10,FB_Impression,1971.362887112887,66874.4640833903,0.018681164613744174
11,OSP-2373_email_open_2021-05-19_2021-05-25,2133.191183816184,56482.649132413506,0.015778244816245835
12,CVM-1661_rw_app_imp_2021-05-26_2021-05-30,353.0799200799201,10893.27833022591,0.0030430019658404393
13,OSP-2373_rw_web_oap_clk_2021-05-26_2021-05-30,250.09827672327674,7648.01236244226,0.0021364474447612075
14,CVM-1661_email_open_2021-05-26_2021-05-30,0.0,0.0,0.0
15,_AlwaysOn_sem_brand_clk_2021-05-19_2021-05-25,14.711663336663337,753.8175145816346,0.00021057647745876482
16,_AlwaysOn_sem_brand_clk_2021-05-26_2021-05-30,0.0,0.0,0.0
17,_AlwaysOn_sem_shopping_clk_2021-05-26_2021-05-30,176.53996003996005,2547.0547943996357,0.0007115114946577032
18,CVM-1661_email_open_2021-05-19_2021-05-25,14.711663336663337,603.7618242639661,0.00016865890712043863
19,_AlwaysOn_display_imp_2021-05-19_2021-05-25,14.711663336663337,-1221.4893524184313,-0.00034121908832062005
20,_AlwaysOn_sem_shopping_clk_2021-05-19_2021-05-25,147.11663336663338,5688.505138794824,0.0015890654581013632
21,_AlwaysOn_sem_other_clk_2021-05-26_2021-05-30,0.0,0.0,0.0
22,OSP-2373_email_clk_2021-05-19_2021-05-25,132.40497002997003,6707.5488233928,0.0018737320058113047
23,_AlwaysOn_sem_generic_clk_2021-05-19_2021-05-25,14.711663336663337,-105.95857173785377,-2.9599183305660333e-05
24,OSP-2373_rw_web_oap_clk_2021-05-19_2021-05-25,88.26998001998003,2517.460077757916,0.0007032443065634305
25,CVM-1661_rw_app_imp_2021-05-19_2021-05-25,205.96328671328672,8828.679695491779,0.0024662630343899325
26,_AlwaysOn_sem_other_clk_2021-05-19_2021-05-25,0.0,0.0,0.0
27,_AlwaysOn_sem_generic_clk_2021-05-26_2021-05-30,0.0,0.0,0.0
28,_AlwaysOn_display_imp_2021-05-26_2021-05-30,14.711663336663337,368.35548536758574,0.00010289890996280333
29,CVM-1661_email_clk_2021-05-26_2021-05-30,14.711663336663337,314.31618979418005,8.780320803749543e-05
30,_AlwaysOn_video_imp_2021-05-19_2021-05-25,0.0,0.0,0.0
