,channel_name,total_conversions,total_conversion_value,normalised_conversion_value
0,_AlwaysOn_wow_web_clk_2021-09-29_2021-10-05,334.790676416819,517835.83448227885,0.004846114098798283
1,_AlwaysOn_wow_web_clk_2021-10-06_2021-10-10,1060.170475319927,1519289.4588210965,0.014218116198755439
2,OSP-2373_email_open_2021-10-06_2021-10-10,28945.443898537476,23333636.171610042,0.2183654658440574
3,_AlwaysOn_wow_web_view_2021-10-06_2021-10-10,1478.6588208409505,1826839.1391257155,0.017096288666860526
4,OSP-2373_rw_app_imp_2021-10-06_2021-10-10,21524.25057129799,18760712.824102398,0.17557022682929002
5,FB_Impression_MobileFeed,9667.08078153565,8360926.23520743,0.0782448795726163
6,FB_Impression_InstagramStory,1269.4146480804388,1113485.4347046674,0.010420440426498692
7,FB_Impression_FacebookStory,362.6898994515539,317834.8681046068,0.00297442535422708
8,_AlwaysOn_sem_shopping_clk_2021-10-06_2021-10-10,209.24417276051187,175769.01110730783,0.001644916450617143
9,OSP-2373_email_open_2021-09-29_2021-10-05,3124.712979890311,2659979.07627782,0.024893144208426757
10,OSP-2373_rw_app_clk_2021-10-06_2021-10-10,8788.2552559415,7394899.75713569,0.06920441882529017
11,OSP-2373_email_clk_2021-10-06_2021-10-10,22375.176873857406,20375210.50080929,0.19067933947188775
12,OSP-2373_rw_app_imp_2021-09-29_2021-10-05,18943.57244058501,16008715.126554249,0.1498159356932159
13,FB_Impression_InStream,209.24417276051187,190621.62233950477,0.0017839131053547991
14,_AlwaysOn_wow_web_view_2021-09-29_2021-10-05,934.6239716636197,1542007.9870920873,0.014430725239742469
15,FB_Impression_Instagram,13.949611517367458,9573.688415498247,8.959439134650224e-05
16,OSP-2373_email_clk_2021-09-29_2021-10-05,320.8410648994515,485211.2839776671,0.004540800554158363
17,FB_Impression_WebFeed,404.53873400365626,308295.8768203333,0.0028851556724615287
18,OSP-2373_rw_app_clk_2021-09-29_2021-10-05,1938.9960009140768,1799658.1625921265,0.01684191825672809
19,FB_Impression_SuggestedVideo,13.949611517367458,10255.928858114323,9.597906928413015e-05
20,_AlwaysOn_sem_brand_clk_2021-09-29_2021-10-05,27.899223034734916,28992.043610994504,0.00027131909756048997
21,_AlwaysOn_sem_shopping_clk_2021-09-29_2021-10-05,97.64728062157222,111440.52854260097,0.0010429048756113314
22,_AlwaysOn_sem_brand_clk_2021-10-06_2021-10-10,41.848834552102375,4699.318712600976,4.397809721038441e-05
23,FB_Click_MobileFeed,0.0,0.0,0.0
