,channel_name,total_conversions,total_conversion_value,normalised_conversion_value
0,FB_Impression_MobileFeed,6518.8661381447055,1559186.2266175775,0.02953938855412154
1,_AlwaysOn_wow_web_view_2021-11-10_2021-11-16,1083.1952797521415,457158.6645802474,0.008661048432434254
2,OSP-2373_email_open_2021-11-10_2021-11-16,3151.1135410971388,758203.213835606,0.014364454325036156
3,FB_Impression_Instagram,196.94459631857117,42627.80711797893,0.0008076003598362802
4,OSP-2373_rw_app_imp_2021-11-17_2021-11-21,25110.436030617824,5862679.3537896015,0.11107073705717975
5,OSP-2373_rw_app_clk_2021-11-17_2021-11-21,43839.86714051394,10279505.769528635,0.19474922872373282
6,_AlwaysOn_sem_shopping_clk_2021-11-10_2021-11-16,177.25013668671403,71185.65620326332,0.0013486399008474938
7,_AlwaysOn_wow_web_clk_2021-11-10_2021-11-16,452.97257153271374,278200.49637693615,0.005270616439612381
8,OSP-2373_email_open_2021-11-17_2021-11-21,51304.06734098779,11954615.983754378,0.2264848422407501
9,OSP-2373_email_clk_2021-11-17_2021-11-21,53490.15236012393,13771513.641365243,0.26090667393411354
10,OSP-2373_rw_app_imp_2021-11-10_2021-11-16,24086.32412976125,5746518.080147688,0.10887001661822751
11,OSP-2373_rw_app_clk_2021-11-10_2021-11-16,3407.141516311281,1205754.404788456,0.022843485438654793
12,_AlwaysOn_wow_web_view_2021-11-17_2021-11-21,1122.5841990158558,268645.59292188805,0.005089595083126905
13,_AlwaysOn_sem_shopping_clk_2021-11-17_2021-11-21,137.86121742299983,47514.80128251763,0.0009001863620877227
14,OSP-2373_email_clk_2021-11-10_2021-11-16,275.72243484599966,73078.40984102926,0.0013844988535426349
15,_AlwaysOn_sem_brand_clk_2021-11-10_2021-11-16,39.388919263714236,12175.646055144953,0.00023067234277756237
16,FB_Impression_WebFeed,1004.417441224713,225684.00652498475,0.004275671145232312
17,_AlwaysOn_wow_web_clk_2021-11-17_2021-11-21,354.50027337342806,85542.07727520708,0.0016206278731955453
18,FB_Impression_SuggestedVideo,137.86121742299983,34797.09090633103,0.0006592444002439944
19,FB_Impression_FacebookStory,0.0,0.0,0.0
20,FB_Click_MobileFeed,236.3335155822854,48706.941171983846,0.0009227719152465676
21,FB_Impression_InstagramStory,0.0,0.0,0.0
22,_AlwaysOn_sem_brand_clk_2021-11-17_2021-11-21,0.0,0.0,0.0
