,channel_name,total_conversions,total_conversion_value,normalised_conversion_value
0,_AlwaysOn_wow_web_view_2021-08-18_2021-08-22,1190.4823085846867,500336.44715524727,0.00975775084864781
1,OSP-2373_email_open_2021-08-11_2021-08-17,21943.08749033256,7154362.980666636,0.13952709590327556
2,OSP-2373_email_clk_2021-08-11_2021-08-17,19077.111562258317,6786589.929481697,0.13235464659898546
3,FB_Impression_MobileFeed,8186.40303557618,2544737.9416274317,0.049628442922121714
4,FB_Impression_InstagramStory,1984.1371809744778,622273.0570944055,0.012135804787912149
5,OSP-2373_email_open_2021-08-18_2021-08-22,25308.772041763343,7829476.733680131,0.15269341995153585
6,OSP-2373_rw_app_imp_2021-08-11_2021-08-17,21663.838553750968,7163763.151991001,0.13971042160389016
7,OSP-2373_rw_app_imp_2021-08-18_2021-08-22,18768.468000773395,6398417.895060999,0.12478436859940042
8,OSP-2373_rw_app_clk_2021-08-11_2021-08-17,2880.673240525909,924702.2089291883,0.018033892624107754
9,_AlwaysOn_sem_brand_clk_2021-08-11_2021-08-17,14.6973124516628,605.5158582206443,1.1808999550234414e-05
10,OSP-2373_email_clk_2021-08-18_2021-08-22,22633.861175560713,7575950.949999937,0.14774906411872576
11,_AlwaysOn_wow_web_view_2021-08-11_2021-08-17,837.7468097447795,490462.5077893219,0.0095651855442908
12,OSP-2373_rw_app_clk_2021-08-18_2021-08-22,5540.886794276876,2151744.1983268997,0.041964130130185164
13,_AlwaysOn_wow_web_clk_2021-08-11_2021-08-17,514.405935808198,402887.635399508,0.007857267222048766
14,OSP-2373_rw_web_oap_clk_2021-08-11_2021-08-17,58.7892498066512,27278.127462560496,0.0005319883708466537
15,FB_Impression_SuggestedVideo,0.0,0.0,0.0
16,_AlwaysOn_wow_web_clk_2021-08-18_2021-08-22,984.7199342614076,533598.1987384397,0.010406434122840112
17,_AlwaysOn_sem_shopping_clk_2021-08-18_2021-08-22,29.3946249033256,7163.486102507128,0.00013970501847994875
18,FB_Impression_WebFeed,102.8811871616396,11615.660098170938,0.0002265330015931527
19,FB_Impression_InStream,44.091937354988396,12457.136991173034,0.00024294380259214728
20,_AlwaysOn_sem_brand_clk_2021-08-18_2021-08-22,29.3946249033256,8695.711746802494,0.00016958706318396757
21,FB_Impression_FacebookStory,58.7892498066512,17483.406294810153,0.00034096800978703016
22,_AlwaysOn_sem_shopping_clk_2021-08-11_2021-08-17,29.3946249033256,35072.39176012693,0.0006839950645356417
23,OSP-2373_rw_web_oap_clk_2021-08-18_2021-08-22,132.27581206496518,71165.4255960537,0.0013878950773074676
24,FB_Impression_Instagram,14.6973124516628,4955.8372264738055,9.665061415639873e-05
