,channel_name,total_conversions,total_conversion_value,normalised_conversion_value
0,_AlwaysOn_wow_web_view_2021-11-24_2021-11-30,1258.868006570683,1901003.880269884,0.01925388118033537
1,OSP-2373_rw_app_imp_2021-12-01_2021-12-05,20997.918349598993,11469840.727802193,0.11616964742813804
2,OSP-2373_rw_app_clk_2021-12-01_2021-12-05,35718.28157309885,20232914.556258302,0.2049244280042024
3,OSP-2373_email_open_2021-12-01_2021-12-05,40619.47434534738,20777593.72699669,0.2104410858835707
4,_AlwaysOn_sem_brand_clk_2021-11-24_2021-11-30,0.0,0.0,0.0
5,_AlwaysOn_wow_web_clk_2021-12-01_2021-12-05,1460.2868876219925,1674611.8385529194,0.016960921383339517
6,_AlwaysOn_sem_shopping_clk_2021-11-24_2021-11-30,201.4188810513093,197999.71775010755,0.0020053946648227183
7,_AlwaysOn_wow_web_clk_2021-11-24_2021-11-30,453.1924823654459,895869.2582572651,0.009073606019758224
8,OSP-2373_rw_app_imp_2021-11-24_2021-11-30,22777.118465552227,12556649.953598289,0.1271771450541816
9,OSP-2373_email_clk_2021-12-01_2021-12-05,40921.60266692434,22658676.89532679,0.22949320470839638
10,FB_Impression_WebFeed,201.4188810513093,121072.27363246928,0.0012262527157081175
11,OSP-2373_email_open_2021-11-24_2021-11-30,2467.3812928785387,1262764.0107097188,0.012789615251893621
12,OSP-2373_rw_app_clk_2021-11-24_2021-11-30,3071.637936032467,2867004.897431308,0.029037800612350752
13,FB_Impression_MobileFeed,1611.3510484104745,868157.2431214943,0.008792931239327983
14,_AlwaysOn_wow_web_view_2021-12-01_2021-12-05,1477.0717943762684,1007560.0913861005,0.01020484097004668
15,FB_Impression_Instagram,0.0,0.0,0.0
16,_AlwaysOn_sem_shopping_clk_2021-12-01_2021-12-05,285.3434148226882,119477.75868682237,0.0012101030373079893
17,_AlwaysOn_sem_brand_clk_2021-12-01_2021-12-05,0.0,0.0,0.0
18,OSP-2373_email_clk_2021-11-24_2021-11-30,184.63397429703355,122344.86317673173,0.0012391418466198797
19,FB_Click_MobileFeed,0.0,0.0,0.0
