,channel_name,total_conversions,total_conversion_value,normalised_conversion_value
0,FB_Impression_FacebookStory,173.5505275974026,100632.07081829837,0.001278839721092862
1,FB_Impression_MobileFeed,9118.077719155845,5642638.9985555,0.07170706937125157
2,_AlwaysOn_sem_shopping_clk_2021-09-08_2021-09-14,106.80032467532469,135318.66995141303,0.0017196395615447823
3,FB_Impression_InStream,226.95068993506493,164685.18172525597,0.0020928313424646156
4,OSP-2373_rw_app_imp_2021-09-15_2021-09-19,26686.731128246756,17233794.603171427,0.21900832313672236
5,OSP-2373_rw_app_imp_2021-09-08_2021-09-14,18650.006696428572,10446258.636207432,0.13275181929737523
6,OSP-2373_email_open_2021-09-08_2021-09-14,23709.672077922078,12455363.776832731,0.15828367446830452
7,_AlwaysOn_sem_shopping_clk_2021-09-15_2021-09-19,53.400162337662344,22170.1151085475,0.000281739445402093
8,OSP-2373_email_open_2021-09-15_2021-09-19,7609.523133116883,4359776.182903802,0.055404354818843614
9,OSP-2373_email_clk_2021-09-15_2021-09-19,4846.064732142857,2880941.2997891367,0.03661121289016862
10,FB_Impression_InstagramStory,1241.5537743506495,777428.3900854326,0.009879616880205814
11,FB_Impression_WebFeed,440.5513392857143,220293.3748377297,0.002799504330431221
12,_AlwaysOn_wow_web_view_2021-09-15_2021-09-19,1602.0048701298701,1318047.6653429873,0.01674984619741949
13,OSP-2373_rw_app_clk_2021-09-08_2021-09-14,1762.205357142857,844917.5536114611,0.010737274109741063
14,OSP-2373_rw_app_clk_2021-09-15_2021-09-19,10226.131087662337,7046373.288911001,0.08954582747062574
15,FB_Impression_SuggestedVideo,13.350040584415586,6490.782509306315,8.248533918042326e-05
16,OSP-2373_email_clk_2021-09-08_2021-09-14,22521.518465909092,12773779.284814037,0.16233012204815908
17,_AlwaysOn_wow_web_view_2021-09-08_2021-09-14,1335.0040584415585,1219262.5526567553,0.015494477755445457
18,_AlwaysOn_sem_brand_clk_2021-09-08_2021-09-14,53.400162337662344,25630.101795993054,0.0003257092094581986
19,_AlwaysOn_sem_brand_clk_2021-09-15_2021-09-19,13.350040584415586,8679.659038304044,0.00011030174231202982
20,_AlwaysOn_wow_web_clk_2021-09-15_2021-09-19,760.9523133116884,587671.1041605776,0.007468167402577113
21,_AlwaysOn_wow_web_clk_2021-09-08_2021-09-14,427.20129870129875,419982.11546385684,0.005337163461274291
22,FB_Impression_Instagram,0.0,0.0,0.0
