,channel_name,total_conversions,total_conversion_value,normalised_conversion_value
0,OSP-2373_rw_app_imp_2021-04-14_2021-04-20,22578.79732875873,943748.3826530139,0.1726773222874447
1,OSP-2373_email_open_2021-04-21_2021-04-25,31563.762038965815,1216058.1220770464,0.22250174318271435
2,OSP-2373_email_open_2021-04-14_2021-04-20,3010.506310501164,137608.89608772498,0.0251782531616757
3,OSP-2373_rw_app_imp_2021-04-21_2021-04-25,18901.01384634236,780048.2054798905,0.14272515625271018
4,OSP-2373_email_clk_2021-04-21_2021-04-25,27948.050851611322,1194664.7330354743,0.2185874020275354
5,_AlwaysOn_wow_web_clk_2021-04-21_2021-04-25,1800.0965567945104,143803.8843195016,0.026311748062571045
6,CVM-1661_rw_app_imp_2021-04-21_2021-04-25,775.903688273496,33804.45914172791,0.006185190452522429
7,_AlwaysOn_sem_shopping_clk_2021-04-14_2021-04-20,124.14459012375934,8205.968803828886,0.0015014433358138612
8,CVM-1661_rw_app_imp_2021-04-14_2021-04-20,651.7590981497366,21521.551316069053,0.003937790963184086
9,_AlwaysOn_wow_web_view_2021-04-14_2021-04-20,1194.8916799411836,105385.56265535807,0.019282360745272578
10,_AlwaysOn_wow_web_clk_2021-04-14_2021-04-20,884.5302046317853,92950.4973427431,0.017007121052023413
11,_AlwaysOn_wow_web_view_2021-04-21_2021-04-25,1877.68692562186,115479.48019609964,0.02112924142275329
12,FB_Impression,5617.54270310011,229934.96996763124,0.04207112366395723
13,FB_Click,62.07229506187967,2385.7725938518547,0.0004365240043484953
14,OSP-2373_rw_web_oap_clk_2021-04-14_2021-04-20,232.77110648204876,9215.173897731498,0.0016860972504134952
15,_AlwaysOn_sem_shopping_clk_2021-04-21_2021-04-25,139.66266388922926,2041.695376542517,0.0003735683123047438
16,CVM-1661_email_open_2021-04-14_2021-04-20,62.07229506187967,2131.8661616154754,0.00039006683034319
17,OSP-2373_rw_app_clk_2021-04-21_2021-04-25,5027.855900012253,217081.55784714423,0.03971933919680576
18,CVM-1661_email_open_2021-04-21_2021-04-25,15.518073765469918,1102.0652689186516,0.00020164450940609796
19,OSP-2373_rw_app_clk_2021-04-14_2021-04-20,3181.205121921333,153185.84865271082,0.028028362902535776
20,_AlwaysOn_video_imp_2021-04-14_2021-04-20,0.0,0.0,0.0
21,CVM-1661_rw_app_clk_2021-04-21_2021-04-25,0.0,0.0,0.0
22,OSP-2373_email_clk_2021-04-14_2021-04-20,589.6868030878569,39266.53342129537,0.007184584335539666
23,_AlwaysOn_sem_brand_clk_2021-04-21_2021-04-25,0.0,0.0,0.0
24,_AlwaysOn_google_other_imp_2021-04-21_2021-04-25,62.07229506187967,3255.62000951262,0.0005956796917073574
25,_AlwaysOn_sem_generic_clk_2021-04-14_2021-04-20,0.0,0.0,0.0
26,_AlwaysOn_google_other_imp_2021-04-14_2021-04-20,0.0,0.0,0.0
27,_AlwaysOn_display_imp_2021-04-14_2021-04-20,0.0,0.0,0.0
28,CVM-1661_email_clk_2021-04-21_2021-04-25,15.518073765469918,-94.50869731772848,-1.7292224374280196e-05
29,_AlwaysOn_sem_brand_clk_2021-04-14_2021-04-20,15.518073765469918,-387.8962957374664,-7.097325399898585e-05
30,OSP-2373_rw_web_oap_clk_2021-04-21_2021-04-25,310.3614753093983,12988.502098855197,0.0023765018347901993
