,channel_from,channel_to,transition_probability
0,(start),OSP-2373_email_clk_2021-05-05_2021-05-11,0.0013334485696294741
1,(start),FB_Impression,0.121251219241169
2,(start),_AlwaysOn_sem_generic_clk_2021-05-05_2021-05-11,1.8520119022631586e-05
3,(start),_AlwaysOn_wow_web_view_2021-05-12_2021-05-16,0.017341004778190706
4,(start),_AlwaysOn_sem_shopping_clk_2021-05-12_2021-05-16,0.002407615472942106
5,(start),_AlwaysOn_sem_other_clk_2021-05-12_2021-05-16,4.93869840603509e-05
6,(start),OSP-2373_rw_app_clk_2021-05-05_2021-05-11,0.01735952489721334
7,(start),_AlwaysOn_sem_generic_clk_2021-05-12_2021-05-16,1.8520119022631586e-05
8,(start),OSP-2373_rw_app_imp_2021-05-05_2021-05-11,0.34981418147247295
9,(start),OSP-2373_email_open_2021-05-05_2021-05-11,0.022477251120467202
10,(start),_AlwaysOn_wow_web_view_2021-05-05_2021-05-11,0.019285617275567025
11,(start),OSP-2373_rw_app_imp_2021-05-12_2021-05-16,0.2707764868568889
12,(start),_AlwaysOn_video_imp_2021-05-12_2021-05-16,2.469349203017545e-05
13,(start),_AlwaysOn_sem_shopping_clk_2021-05-05_2021-05-11,0.003358314916103861
14,(start),OSP-2373_email_open_2021-05-12_2021-05-16,0.1089229933451039
15,(start),OSP-2373_rw_web_oap_clk_2021-05-05_2021-05-11,0.00062351067376193
16,(start),_AlwaysOn_wow_web_clk_2021-05-05_2021-05-11,0.005895571222204388
17,(start),CVM-1661_email_clk_2021-05-12_2021-05-16,1.2346746015087724e-05
18,(start),_AlwaysOn_wow_web_clk_2021-05-12_2021-05-16,0.007611768918301582
19,(start),OSP-2373_rw_app_clk_2021-05-12_2021-05-16,0.017668193547590534
20,(start),OSP-2373_email_clk_2021-05-12_2021-05-16,0.028064153692294397
21,(start),OSP-2373_rw_web_oap_clk_2021-05-12_2021-05-16,0.0010865136493277197
22,(start),CVM-1661_email_open_2021-05-12_2021-05-16,0.0002098946822564913
23,(start),_AlwaysOn_sem_other_clk_2021-05-05_2021-05-11,3.704023804526317e-05
24,(start),CVM-1661_rw_app_imp_2021-05-12_2021-05-16,0.0011791142444408777
25,(start),FB_Click,0.0007469781339128073
26,(start),_AlwaysOn_sem_brand_clk_2021-05-12_2021-05-16,0.00011112071413578952
27,(start),CVM-1661_rw_app_imp_2021-05-05_2021-05-11,0.0016174237279764918
28,(start),CVM-1661_email_open_2021-05-05_2021-05-11,0.00015433432518859654
29,(start),_AlwaysOn_video_imp_2021-05-05_2021-05-11,6.173373007543862e-05
30,(start),_AlwaysOn_display_imp_2021-05-05_2021-05-11,2.469349203017545e-05
31,(start),_AlwaysOn_sem_brand_clk_2021-05-05_2021-05-11,0.00045682960255824577
32,OSP-2373_email_clk_2021-05-05_2021-05-11,(conversion),0.6252465483234714
33,OSP-2373_email_clk_2021-05-05_2021-05-11,(null),0.3747534516765286
34,FB_Impression,OSP-2373_rw_app_imp_2021-05-12_2021-05-16,0.20577617328519857
35,FB_Impression,OSP-2373_rw_app_imp_2021-05-05_2021-05-11,0.0899559863508234
36,FB_Impression,OSP-2373_email_open_2021-05-05_2021-05-11,0.004253004302457841
37,FB_Impression,FB_Click,0.03338113842045398
38,FB_Impression,(conversion),0.29469363532960785
39,FB_Impression,(null),0.27065921566688095
40,FB_Impression,_AlwaysOn_wow_web_view_2021-05-05_2021-05-11,0.027842342119578655
41,FB_Impression,OSP-2373_email_open_2021-05-12_2021-05-16,0.0402057267197468
42,FB_Impression,_AlwaysOn_wow_web_view_2021-05-12_2021-05-16,0.029771030117204885
43,FB_Impression,_AlwaysOn_sem_shopping_clk_2021-05-05_2021-05-11,0.0018297809208248851
44,FB_Impression,_AlwaysOn_sem_shopping_clk_2021-05-12_2021-05-16,0.0016319667672221947
45,OSP-2373_rw_app_imp_2021-05-12_2021-05-16,OSP-2373_rw_app_imp_2021-05-05_2021-05-11,0.5210227619454446
46,OSP-2373_rw_app_imp_2021-05-12_2021-05-16,OSP-2373_rw_app_clk_2021-05-12_2021-05-16,0.04226927849311446
47,OSP-2373_rw_app_imp_2021-05-12_2021-05-16,(conversion),0.23001973108765078
48,OSP-2373_rw_app_imp_2021-05-12_2021-05-16,(null),0.18876751896828786
49,OSP-2373_rw_app_imp_2021-05-12_2021-05-16,CVM-1661_rw_app_imp_2021-05-12_2021-05-16,0.0017086715079026058
50,OSP-2373_rw_app_imp_2021-05-12_2021-05-16,OSP-2373_email_open_2021-05-12_2021-05-16,0.013181180203820102
51,OSP-2373_rw_app_imp_2021-05-12_2021-05-16,OSP-2373_rw_app_imp_2021-05-12_2021-05-16,0.0017900368178027299
52,OSP-2373_rw_app_imp_2021-05-12_2021-05-16,OSP-2373_email_open_2021-05-05_2021-05-11,0.0012408209759768923
53,OSP-2373_rw_app_imp_2021-05-05_2021-05-11,(conversion),0.42153728542636737
54,OSP-2373_rw_app_imp_2021-05-05_2021-05-11,(null),0.3421942687701253
55,OSP-2373_rw_app_imp_2021-05-05_2021-05-11,OSP-2373_rw_app_clk_2021-05-12_2021-05-16,0.08045497718164339
56,OSP-2373_rw_app_imp_2021-05-05_2021-05-11,OSP-2373_rw_app_clk_2021-05-05_2021-05-11,0.09742395811615355
57,OSP-2373_rw_app_imp_2021-05-05_2021-05-11,OSP-2373_rw_app_imp_2021-05-05_2021-05-11,0.019412977505965205
58,OSP-2373_rw_app_imp_2021-05-05_2021-05-11,OSP-2373_email_open_2021-05-05_2021-05-11,0.004482590868024185
59,OSP-2373_rw_app_imp_2021-05-05_2021-05-11,OSP-2373_email_open_2021-05-12_2021-05-16,0.0291542150253666
60,OSP-2373_rw_app_imp_2021-05-05_2021-05-11,CVM-1661_rw_app_imp_2021-05-05_2021-05-11,0.004227766580953043
61,OSP-2373_rw_app_imp_2021-05-05_2021-05-11,CVM-1661_rw_app_imp_2021-05-12_2021-05-16,0.0011119605254013482
62,OSP-2373_rw_app_clk_2021-05-12_2021-05-16,(conversion),0.4829210836277974
63,OSP-2373_rw_app_clk_2021-05-12_2021-05-16,(null),0.33375399629816593
64,OSP-2373_rw_app_clk_2021-05-12_2021-05-16,OSP-2373_email_open_2021-05-12_2021-05-16,0.03213865051320882
65,OSP-2373_rw_app_clk_2021-05-12_2021-05-16,OSP-2373_rw_app_clk_2021-05-05_2021-05-11,0.15118626956082787
66,_AlwaysOn_sem_generic_clk_2021-05-05_2021-05-11,(conversion),0.3333333333333333
67,_AlwaysOn_sem_generic_clk_2021-05-05_2021-05-11,(null),0.6666666666666666
68,_AlwaysOn_wow_web_view_2021-05-12_2021-05-16,OSP-2373_rw_app_imp_2021-05-12_2021-05-16,0.07299912049252419
69,_AlwaysOn_wow_web_view_2021-05-12_2021-05-16,_AlwaysOn_wow_web_view_2021-05-05_2021-05-11,0.04309586631486367
70,_AlwaysOn_wow_web_view_2021-05-12_2021-05-16,_AlwaysOn_wow_web_clk_2021-05-12_2021-05-16,0.41952506596306066
71,_AlwaysOn_wow_web_view_2021-05-12_2021-05-16,_AlwaysOn_sem_shopping_clk_2021-05-12_2021-05-16,0.0055702140134857815
72,_AlwaysOn_wow_web_view_2021-05-12_2021-05-16,(conversion),0.21606566989152742
73,_AlwaysOn_wow_web_view_2021-05-12_2021-05-16,(null),0.20697742597478747
74,_AlwaysOn_wow_web_view_2021-05-12_2021-05-16,OSP-2373_rw_app_imp_2021-05-05_2021-05-11,0.014072119613016711
75,_AlwaysOn_wow_web_view_2021-05-12_2021-05-16,OSP-2373_email_open_2021-05-12_2021-05-16,0.021694517736734097
76,_AlwaysOn_sem_shopping_clk_2021-05-12_2021-05-16,OSP-2373_rw_app_imp_2021-05-05_2021-05-11,0.06561085972850679
77,_AlwaysOn_sem_shopping_clk_2021-05-12_2021-05-16,_AlwaysOn_sem_shopping_clk_2021-05-05_2021-05-11,0.013574660633484163
78,_AlwaysOn_sem_shopping_clk_2021-05-12_2021-05-16,(conversion),0.39819004524886875
79,_AlwaysOn_sem_shopping_clk_2021-05-12_2021-05-16,(null),0.416289592760181
80,_AlwaysOn_sem_shopping_clk_2021-05-12_2021-05-16,OSP-2373_rw_app_imp_2021-05-12_2021-05-16,0.10633484162895927
81,_AlwaysOn_sem_other_clk_2021-05-12_2021-05-16,(conversion),0.75
82,_AlwaysOn_sem_other_clk_2021-05-12_2021-05-16,(null),0.25
83,OSP-2373_rw_app_clk_2021-05-05_2021-05-11,(conversion),0.5456989247311828
84,OSP-2373_rw_app_clk_2021-05-05_2021-05-11,(null),0.4250384024577573
85,OSP-2373_rw_app_clk_2021-05-05_2021-05-11,OSP-2373_email_open_2021-05-12_2021-05-16,0.029262672811059907
86,_AlwaysOn_sem_generic_clk_2021-05-12_2021-05-16,(conversion),0.6666666666666666
87,_AlwaysOn_sem_generic_clk_2021-05-12_2021-05-16,(null),0.3333333333333333
88,OSP-2373_email_open_2021-05-05_2021-05-11,(conversion),0.47743119266055045
89,OSP-2373_email_open_2021-05-05_2021-05-11,(null),0.39871559633027526
90,OSP-2373_email_open_2021-05-05_2021-05-11,OSP-2373_email_clk_2021-05-12_2021-05-16,0.0691743119266055
91,OSP-2373_email_open_2021-05-05_2021-05-11,OSP-2373_email_clk_2021-05-05_2021-05-11,0.05339449541284404
92,OSP-2373_email_open_2021-05-05_2021-05-11,CVM-1661_email_open_2021-05-05_2021-05-11,0.0012844036697247706
93,_AlwaysOn_wow_web_view_2021-05-05_2021-05-11,OSP-2373_rw_app_imp_2021-05-12_2021-05-16,0.05519564654055455
94,_AlwaysOn_wow_web_view_2021-05-05_2021-05-11,OSP-2373_email_open_2021-05-05_2021-05-11,0.005182689816014512
95,_AlwaysOn_wow_web_view_2021-05-05_2021-05-11,_AlwaysOn_wow_web_clk_2021-05-05_2021-05-11,0.3332469551697331
96,_AlwaysOn_wow_web_view_2021-05-05_2021-05-11,_AlwaysOn_wow_web_clk_2021-05-12_2021-05-16,0.036537963202902306
97,_AlwaysOn_wow_web_view_2021-05-05_2021-05-11,_AlwaysOn_sem_shopping_clk_2021-05-05_2021-05-11,0.007774034724021767
98,_AlwaysOn_wow_web_view_2021-05-05_2021-05-11,(conversion),0.2948950505312257
99,_AlwaysOn_wow_web_view_2021-05-05_2021-05-11,(null),0.18813164032132676
100,_AlwaysOn_wow_web_view_2021-05-05_2021-05-11,OSP-2373_email_open_2021-05-12_2021-05-16,0.011920186576833377
101,_AlwaysOn_wow_web_view_2021-05-05_2021-05-11,OSP-2373_rw_app_imp_2021-05-05_2021-05-11,0.060637470847369784
102,_AlwaysOn_wow_web_view_2021-05-05_2021-05-11,_AlwaysOn_wow_web_view_2021-05-05_2021-05-11,0.0064783622700181395
103,_AlwaysOn_wow_web_clk_2021-05-05_2021-05-11,OSP-2373_email_open_2021-05-12_2021-05-16,0.009615384615384616
104,_AlwaysOn_wow_web_clk_2021-05-05_2021-05-11,(conversion),0.5585664335664335
105,_AlwaysOn_wow_web_clk_2021-05-05_2021-05-11,(null),0.2530594405594406
106,_AlwaysOn_wow_web_clk_2021-05-05_2021-05-11,OSP-2373_rw_app_imp_2021-05-12_2021-05-16,0.08784965034965035
107,_AlwaysOn_wow_web_clk_2021-05-05_2021-05-11,OSP-2373_rw_app_imp_2021-05-05_2021-05-11,0.09090909090909091
108,OSP-2373_email_open_2021-05-12_2021-05-16,(conversion),0.40203167280308744
109,OSP-2373_email_open_2021-05-12_2021-05-16,(null),0.35212704608969525
110,OSP-2373_email_open_2021-05-12_2021-05-16,OSP-2373_email_open_2021-05-05_2021-05-11,0.055671383578050834
111,OSP-2373_email_open_2021-05-12_2021-05-16,OSP-2373_email_clk_2021-05-12_2021-05-16,0.18977066051545935
112,OSP-2373_email_open_2021-05-12_2021-05-16,CVM-1661_email_open_2021-05-12_2021-05-16,0.00039923701370713746
113,CVM-1661_rw_app_imp_2021-05-12_2021-05-16,(conversion),0.5579514824797843
114,CVM-1661_rw_app_imp_2021-05-12_2021-05-16,(null),0.4420485175202156
115,_AlwaysOn_video_imp_2021-05-12_2021-05-16,(null),1.0
116,_AlwaysOn_wow_web_clk_2021-05-12_2021-05-16,_AlwaysOn_wow_web_clk_2021-05-05_2021-05-11,0.01675579322638146
117,_AlwaysOn_wow_web_clk_2021-05-12_2021-05-16,(conversion),0.5561497326203209
118,_AlwaysOn_wow_web_clk_2021-05-12_2021-05-16,(null),0.3408199643493761
119,_AlwaysOn_wow_web_clk_2021-05-12_2021-05-16,OSP-2373_rw_app_imp_2021-05-12_2021-05-16,0.08627450980392157
120,_AlwaysOn_sem_shopping_clk_2021-05-05_2021-05-11,OSP-2373_rw_app_imp_2021-05-12_2021-05-16,0.15883306320907617
121,_AlwaysOn_sem_shopping_clk_2021-05-05_2021-05-11,(conversion),0.47811993517017826
122,_AlwaysOn_sem_shopping_clk_2021-05-05_2021-05-11,(null),0.2706645056726094
123,_AlwaysOn_sem_shopping_clk_2021-05-05_2021-05-11,OSP-2373_rw_app_imp_2021-05-05_2021-05-11,0.06645056726094004
124,_AlwaysOn_sem_shopping_clk_2021-05-05_2021-05-11,OSP-2373_email_open_2021-05-12_2021-05-16,0.02593192868719611
125,OSP-2373_email_clk_2021-05-12_2021-05-16,(conversion),0.5579828279534833
126,OSP-2373_email_clk_2021-05-12_2021-05-16,(null),0.4420171720465167
127,FB_Click,FB_Impression,0.7286432160804021
128,FB_Click,(conversion),0.13944723618090452
129,FB_Click,(null),0.13190954773869346
130,OSP-2373_rw_web_oap_clk_2021-05-05_2021-05-11,(conversion),0.6336633663366337
131,OSP-2373_rw_web_oap_clk_2021-05-05_2021-05-11,(null),0.36633663366336633
132,CVM-1661_rw_app_imp_2021-05-05_2021-05-11,(conversion),0.532695374800638
133,CVM-1661_rw_app_imp_2021-05-05_2021-05-11,(null),0.46730462519936206
134,CVM-1661_email_clk_2021-05-12_2021-05-16,(conversion),0.5
135,CVM-1661_email_clk_2021-05-12_2021-05-16,(null),0.5
136,OSP-2373_rw_web_oap_clk_2021-05-12_2021-05-16,(conversion),0.6761363636363636
137,OSP-2373_rw_web_oap_clk_2021-05-12_2021-05-16,(null),0.32386363636363635
138,CVM-1661_email_open_2021-05-12_2021-05-16,(conversion),0.5581395348837209
139,CVM-1661_email_open_2021-05-12_2021-05-16,(null),0.4418604651162791
140,_AlwaysOn_sem_other_clk_2021-05-05_2021-05-11,(conversion),0.8333333333333334
141,_AlwaysOn_sem_other_clk_2021-05-05_2021-05-11,(null),0.16666666666666666
142,_AlwaysOn_sem_brand_clk_2021-05-12_2021-05-16,(conversion),0.5555555555555556
143,_AlwaysOn_sem_brand_clk_2021-05-12_2021-05-16,(null),0.4444444444444444
144,CVM-1661_email_open_2021-05-05_2021-05-11,(conversion),0.34375
145,CVM-1661_email_open_2021-05-05_2021-05-11,(null),0.65625
146,_AlwaysOn_video_imp_2021-05-05_2021-05-11,(conversion),0.4
147,_AlwaysOn_video_imp_2021-05-05_2021-05-11,(null),0.6
148,_AlwaysOn_display_imp_2021-05-05_2021-05-11,(conversion),0.75
149,_AlwaysOn_display_imp_2021-05-05_2021-05-11,(null),0.25
150,_AlwaysOn_sem_brand_clk_2021-05-05_2021-05-11,(conversion),0.5540540540540541
151,_AlwaysOn_sem_brand_clk_2021-05-05_2021-05-11,(null),0.44594594594594594
