event,channel_prob_norm_AL,channel_prob_norm_shanglin,attributed_inc_sales_AL,attributed_inc_sales_shanglin
AlwaysOn_sem_generic_clk,8.877161166374402e-05,0.0,669.2369235349382,0.0
AlwaysOn_sem_shopping_clk,0.0033584192771502035,0.017025091308275092,8706.25683644791,10831.357632392966
WCV-4954_FB_impsclicks,-1.0,0.0,331763.1572760757,0.0
WCV-4954_IG_impsclicks,-1.0,0.0,44220.997671255085,0.0
WCV-4954_display_imp,0.0,0.0011340723879500738,0.0,234.05755995631006
WCV-4954_email_clk,0.23906940085673536,0.14954847972619376,276700.1433270342,216831.12359756452
WCV-4954_email_open,0.2257614877824465,0.2613468577739308,1364504.7416378157,1613337.8216254273
WCV-4954_rw_app_clk,0.2231338125884862,0.14328178527288582,238593.01024780193,165874.65579335098
WCV-4954_rw_app_imp,0.29952085505526016,0.40949764666747845,1154492.925064446,1407412.937182412
WCV-4954_rw_web_oap_clk,0.008942697208945787,0.017025091308275092,34197.75877838262,38782.64154163488
WCV-4954_video_imp,0.00012455561931215371,0.0011340723879500738,212.50421976908004,154.89851948565985
Total,-1.0,0.9999930968329391,3454060.7319825627,3453459.4934522244
