event,channel_prob_norm_AL,channel_prob_norm_shanglin,attributed_inc_sales_AL,attributed_inc_sales_shanglin
AlwaysOn_sem_shopping_clk,0.014524129854761501,0.014524129854761501,-240.7154590675511,-13.696675617497647
AlwaysOn_wow_web_clk,0.00438505596661033,0.01804652358826102,2279.5930951986247,1579.8862248181852
AlwaysOn_wow_web_view,0.0037537307139354627,0.046756902024130825,5386.974553977,11487.067166081726
CAT-5112_display_clk,0.0022562305815401478,0.001116317374324249,596.7804906168523,-283.02814389264944
CAT-5112_display_imp,0.0011235037280553333,0.0,342.3230969939336,0.0
CAT-5112_email_clk,0.2086085371428393,0.17942388325347547,104405.19920779299,119324.92917787653
CAT-5112_email_open,0.41981913724295766,0.2607982838368361,426120.6346528965,369844.117064244
CAT-5112_rw_app_clk,0.0685023646643514,0.03351943957992051,60366.139011392435,26001.76630703578
CAT-5112_rw_app_imp,0.21552569922349538,0.3351943957992051,216042.87680353317,284390.0983322292
CAT-5112_rw_app_push_clk,0.031043386989679487,0.05750712645650072,6093.604974336047,9219.018592960856
CAT-5112_rw_app_push_imp,0.04481370998735092,0.05087168878844294,16305.961449029695,16127.55357069229
CAT-5112_rw_web_oap_clk,0.00040819545538207203,0.002233635211277277,688.5258256121531,710.1860858812886
Total,1.014763681550959,0.9999923257671357,838387.8977023119,838387.8977023099
