,campaign_code,campaign_start_date,channel,medium,event,channel_event,channel_prob_norm_AL,channel_prob_norm_shanglin,attributed_inc_sales_AL,attributed_inc_sales_shanglin,count_AL,count_shanglin
0,WCV-4697,2021-07-15,WCV-4697_email,WCV-4697_email,WCV-4697_email_clk,WCV-4697_email_clk,0.030598203056296736,0.17321755219641508,187208.69497322352,257265.76985737082,12358.0,12358
1,WCV-4697,2021-07-15,WCV-4697_email,WCV-4697_email,WCV-4697_email_open,DEFAULT,,,553506.040557329,553506.0405573255,7680.0,7680
2,WCV-4697,2021-07-15,WCV-4697_email,WCV-4697_email,WCV-4697_email_open,WCV-4697_email_open,0.07116682481666001,0.2898461032768699,612217.4934729564,666120.3860103702,17503.0,17503
3,WCV-4697,2021-07-15,WCV-4697_rw_app,WCV-4697_rw_app,WCV-4697_rw_app_clk,WCV-4697_rw_app_clk,0.3911552806715849,0.12688639145374223,264036.0070093699,144165.86949790633,8569.0,8569
4,WCV-4697,2021-07-15,WCV-4697_rw_app,WCV-4697_rw_app,WCV-4697_rw_app_imp,WCV-4697_rw_app_imp,0.48993419339912636,0.35381782232293507,1247076.7983156606,1245329.057578797,22743.0,22743
5,WCV-4697,2021-07-15,WCV-4697_rw_web_oap,WCV-4697_rw_web_oap,WCV-4697_rw_web_oap_clk,WCV-4697_rw_web_oap_clk,0.017145498056331972,0.03638265148915486,36234.34729827451,32936.083857563244,1580.0,1580
6,WCV-4697,2021-07-15,AlwaysOn_sem,AlwaysOn_sem_brand,AlwaysOn_sem_brand_clk,_AlwaysOn_sem_brand_clk,,0.001101200395399976,,141.8047915632892,,28
7,WCV-4697,2021-07-15,AlwaysOn_sem_other,AlwaysOn_sem_other,AlwaysOn_sem_other_clk,_AlwaysOn_sem_other_clk,,0.0011015344895417324,,185.9622250579102,,15
8,WCV-4697,2021-07-15,AlwaysOn_sem,AlwaysOn_sem_shopping,AlwaysOn_sem_shopping_clk,_AlwaysOn_sem_shopping_clk,,0.01764089270129974,,5784.263308106585,,347
