,path,total_conversion_value,conversions,non_conversions,cnt,ppl,Converted
0,CAT-5039_video_imp_2021-09-27_2021-10-10,-3644.0397951248,46.0,46.0,485,485,False
1,FB_Impression_WebFeed > _AlwaysOn_wow_web_view_2021-09-27_2021-10-10,-1139.7208043362,2.0,3.0,135,135,False
2,FB_Impression_MobileFeed > FB_Click_MobileFeed > FB_Impression_MobileFeed,21324.827603428,290.0,225.0,1290,1290,False
3,FB_Impression_MobileFeed > FB_Impression_WebFeed > FB_Impression_MobileFeed,952.27210922884,102.0,90.0,605,605,False
4,FB_Impression_MobileFeed > FB_Impression_FacebookStory > FB_Impression_MobileFeed,10022.30349186,75.0,47.0,403,403,False
5,FB_Impression_Instagram > FB_Impression_InstagramStory,5101.8340263015,52.0,58.0,637,637,False
6,FB_Impression_FacebookStory,31044.62177224,235.0,155.0,1940,1940,False
7,_AlwaysOn_wow_web_view_2021-09-27_2021-10-10 > _AlwaysOn_wow_web_clk_2021-09-27_2021-10-10 > CAT-5039_rw_app_imp_2021-09-27_2021-10-10,-7992.4420361009,16.0,8.0,101,101,False
8,FB_Impression_WebFeed > CAT-5039_rw_app_imp_2021-09-27_2021-10-10,-8201.943144133,67.0,42.0,279,279,False
9,_AlwaysOn_sem_shopping_clk_2021-09-27_2021-10-10,1509.6429990284,17.0,11.0,4092,4092,False
10,_AlwaysOn_wow_web_clk_2021-09-27_2021-10-10,5677.7498079226,60.0,33.0,4543,4543,False
11,_AlwaysOn_wow_web_view_2021-09-27_2021-10-10,28000.207032029,138.0,102.0,36535,36535,False
12,FB_Impression_InstagramStory,60528.601927495,607.0,443.0,7303,7303,False
13,_AlwaysOn_sem_brand_clk_2021-09-27_2021-10-10,-25.670801501047,1.0,1.0,237,237,False
14,FB_Impression_Instagram,56611.292437485,700.0,543.0,9780,9780,False
15,FB_Impression_Instagram > FB_Impression_MobileFeed,-3005.3116689031,96.0,73.0,866,866,False
16,FB_Impression_MobileFeed > FB_Click_MobileFeed > FB_Impression_MobileFeed > CAT-5039_rw_app_imp_2021-09-27_2021-10-10,8345.5630240749,38.0,21.0,110,110,False
17,CAT-5039_display_imp_2021-09-27_2021-10-10,-10989.019967823,318.0,253.0,3036,3036,False
18,CAT-5039_rw_web_oap_clk_2021-09-27_2021-10-10,2038.8270060037,66.0,52.0,304,304,False
19,FB_Impression_MobileFeed > _AlwaysOn_wow_web_view_2021-09-27_2021-10-10 > _AlwaysOn_wow_web_clk_2021-09-27_2021-10-10,5380.7121046557,9.0,4.0,279,279,False
20,_AlwaysOn_wow_web_view_2021-09-27_2021-10-10 > _AlwaysOn_wow_web_clk_2021-09-27_2021-10-10,4194.7204461753,33.0,17.0,6761,6761,False
21,FB_Impression_WebFeed > FB_Impression_MobileFeed > FB_Impression_WebFeed,1606.7337838301,74.0,53.0,448,448,False
22,FB_Impression_MobileFeed > FB_Impression_FacebookStory,5786.6622127005,68.0,50.0,466,466,False
23,CAT-5039_rw_app_clk_2021-09-27_2021-10-10,-53119.12532438,674.0,384.0,1782,1782,False
24,FB_Impression_MobileFeed > CAT-5039_display_imp_2021-09-27_2021-10-10,5935.2801606427,44.0,26.0,180,180,False
25,FB_Impression_FacebookStory > FB_Impression_MobileFeed,905.9472186161,67.0,56.0,444,444,False
26,_AlwaysOn_wow_web_view_2021-09-27_2021-10-10 > _AlwaysOn_sem_shopping_clk_2021-09-27_2021-10-10,268.19691603613,4.0,0.0,217,217,False
27,_AlwaysOn_wow_web_view_2021-09-27_2021-10-10 > CAT-5039_rw_app_imp_2021-09-27_2021-10-10,1687.7297228298,29.0,16.0,235,235,False
28,FB_Click_MobileFeed > FB_Impression_MobileFeed,2155.1079508962,76.0,48.0,335,335,False
29,FB_Impression_MobileFeed > CAT-5039_rw_app_imp_2021-09-27_2021-10-10 > CAT-5039_rw_app_clk_2021-09-27_2021-10-10,7014.7529427677,76.0,43.0,196,196,False
30,FB_Impression_MobileFeed,405241.85700931,9231.0,7478.0,75098,75098,False
31,FB_Impression_InstagramStory > _AlwaysOn_wow_web_view_2021-09-27_2021-10-10,-126.6949686264,0.0,2.0,128,128,False
32,FB_Impression_Instagram > _AlwaysOn_wow_web_view_2021-09-27_2021-10-10,-14.749913205173,0.0,1.0,100,100,False
33,FB_Impression_MobileFeed > FB_Impression_WebFeed,27056.766452054,100.0,104.0,802,802,False
34,FB_Impression_InstagramStory > CAT-5039_rw_app_imp_2021-09-27_2021-10-10,-16110.100220616,55.0,40.0,293,293,False
35,FB_Impression_WebFeed > FB_Impression_MobileFeed,1721.4559361459,138.0,110.0,933,933,False
36,FB_Impression_MobileFeed > CAT-5039_rw_app_imp_2021-09-27_2021-10-10,30078.429898022,898.0,487.0,3644,3644,False
37,FB_Impression_Instagram > CAT-5039_rw_app_imp_2021-09-27_2021-10-10,-17220.008047399,65.0,45.0,367,367,False
38,FB_Impression_MobileFeed > FB_Click_MobileFeed,6121.3031788393,105.0,71.0,496,496,False
39,CAT-5039_rw_app_imp_2021-09-27_2021-10-10 > CAT-5039_rw_app_clk_2021-09-27_2021-10-10,-2563.6060334641,320.0,166.0,1032,1032,False
40,FB_Impression_MobileFeed > FB_Impression_Instagram > FB_Impression_MobileFeed,12967.951038802,120.0,92.0,775,775,False
42,_AlwaysOn_wow_web_clk_2021-09-27_2021-10-10 > CAT-5039_rw_app_imp_2021-09-27_2021-10-10,-11522.117604228,29.0,17.0,111,111,False
43,FB_Impression_MobileFeed > FB_Impression_Instagram,4035.2080006999,101.0,84.0,820,820,False
44,CAT-5039_rw_app_imp_2021-09-27_2021-10-10,-49971.672737502,5665.0,3232.0,45438,45438,False
45,FB_Impression_WebFeed,45620.99613559,1506.0,1352.0,15125,15125,False
46,FB_Impression_MobileFeed > _AlwaysOn_wow_web_view_2021-09-27_2021-10-10,2297.0239795105,22.0,16.0,850,850,False
