,campaign_code,campaign_start_date,channel,medium,event,channel_event,channel_prob_norm_AL,channel_prob_norm_shanglin,attributed_inc_sales_AL,attributed_inc_sales_shanglin,count_AL,count_shanglin
0,CAT-4909,2021-09-13,CAT-4909_display,CAT-4909_display,CAT-4909_display_imp,CAT-4909_display_imp,0.006072661807567391,0.0011604388998039403,5273.882760770467,5003.860545216776,439,439.0
1,CAT-4909,2021-09-13,CAT-4909_email,CAT-4909_email,CAT-4909_email_clk,CAT-4909_email_clk,0.12592709816012837,0.08311312051363959,81807.37025608936,70956.37672158348,7590,7590.0
2,CAT-4909,2021-09-13,CAT-4909_email,CAT-4909_email,CAT-4909_email_open,CAT-4909_email_open,0.14743297043717127,0.123622036394237,270493.1671471168,278064.87168474833,16564,16564.0
3,CAT-4909,2021-09-13,CAT-4909_email,CAT-4909_email,CAT-4909_email_open,DEFAULT,,,2834983.824324635,2834983.824324617,118451,118451.0
4,CAT-4909,2021-09-13,CAT-4909_rw_app,CAT-4909_rw_app,CAT-4909_rw_app_clk,CAT-4909_rw_app_clk,0.10618638573665197,0.05691215480626819,36451.57064161379,23066.42183725599,8074,8074.0
5,CAT-4909,2021-09-13,CAT-4909_rw_app,CAT-4909_rw_app,CAT-4909_rw_app_imp,CAT-4909_rw_app_imp,0.5681114598987523,0.6689862725340582,1339043.6184818186,1354209.3527868032,58999,58999.0
6,CAT-4909,2021-09-13,CAT-4909_rw_web_oap,CAT-4909_rw_web_oap,CAT-4909_rw_web_oap_clk,CAT-4909_rw_web_oap_clk,0.004284108784723056,0.0023218780752544675,14846.40926151955,14866.024007187501,849,849.0
7,CAT-4909,2021-09-13,CAT-4909_video,CAT-4909_video,CAT-4909_video_imp,CAT-4909_video_imp,0.002941270886603648,0.0011604388998039403,4793.346418718498,4847.513635245026,344,344.0
8,CAT-4909,2021-09-13,AlwaysOn_sem,AlwaysOn_sem_brand,AlwaysOn_sem_brand_clk,_AlwaysOn_sem_brand_clk,0.00036920086771005607,,452.5409862885468,,93,
9,CAT-4909,2021-09-13,AlwaysOn_sem,AlwaysOn_sem_shopping,AlwaysOn_sem_shopping_clk,_AlwaysOn_sem_shopping_clk,0.0008424610845591436,0.004644756288795407,2884.105256195043,3113.1784251068225,195,195.0
10,CAT-4909,2021-09-13,AlwaysOn_wow_web,AlwaysOn_wow_web,AlwaysOn_wow_web_clk,_AlwaysOn_wow_web_clk,0.013241273582730338,0.014077807076027021,6283.416747158077,4698.801087684853,627,627.0
11,CAT-4909,2021-09-13,AlwaysOn_wow_web,AlwaysOn_wow_web,AlwaysOn_wow_web_view,_AlwaysOn_wow_web_view,0.02459110875340232,0.04399314711258444,42606.10972547798,45768.550713679,2223,2223.0
