,campaign_code,campaign_start_date,channel,medium,event,channel_event,channel_prob_norm_AL,channel_prob_norm_shanglin,attributed_inc_sales_AL,attributed_inc_sales_shanglin,count_AL,count_shanglin
0,CAT-4909,2021-09-13,CAT-4909_display,CAT-4909_display,CAT-4909_display_imp,CAT-4909_display_imp,0.0015815504673529599,0.0023409182085401916,-996.9107043671678,-932.7687098465128,1139.0,1139
1,CAT-4909,2021-09-13,CAT-4909_email,CAT-4909_email,CAT-4909_email_clk,CAT-4909_email_clk,0.35396906663081973,0.09388922474464055,334614.6764071901,195273.7223825559,45026.0,45026
2,CAT-4909,2021-09-13,CAT-4909_email,CAT-4909_email,CAT-4909_email_open,CAT-4909_email_open,0.1602474483853115,0.1356177690755919,55042.964304536305,182293.03948350137,153681.0,153681
3,CAT-4909,2021-09-13,CAT-4909_email,CAT-4909_email,CAT-4909_email_open,DEFAULT,,,184924.80780710658,184924.80780710833,82708.0,82708
4,CAT-4909,2021-09-13,CAT-4909_rw_app,CAT-4909_rw_app,CAT-4909_rw_app_clk,CAT-4909_rw_app_clk,0.06103701623592458,0.05237768987642351,1984.620554597172,893.2106343613918,12219.0,12219
5,CAT-4909,2021-09-13,CAT-4909_rw_app,CAT-4909_rw_app,CAT-4909_rw_app_imp,CAT-4909_rw_app_imp,0.3841822482366371,0.6525387197104427,415314.86193953216,425960.819788708,98351.0,98351
6,CAT-4909,2021-09-13,CAT-4909_rw_web_oap,CAT-4909_rw_web_oap,CAT-4909_rw_web_oap_clk,CAT-4909_rw_web_oap_clk,0.003586062301037846,0.0023409182085401916,-2666.500189130682,-2680.1193064606,1475.0,1475
7,CAT-4909,2021-09-13,CAT-4909_video,CAT-4909_video,CAT-4909_video_imp,CAT-4909_video_imp,0.0021485547088998984,0.0023409182085401916,-3015.796662243315,-3162.2837232364204,1031.0,1031
8,CAT-4909,2021-09-13,AlwaysOn_sem,AlwaysOn_sem_brand,AlwaysOn_sem_brand_clk,_AlwaysOn_sem_brand_clk,,0.0023410561856768318,,74.96999723128428,,144
9,CAT-4909,2021-09-13,AlwaysOn_sem,AlwaysOn_sem_shopping,AlwaysOn_sem_shopping_clk,_AlwaysOn_sem_shopping_clk,0.0015747757164753177,0.007025616876744166,1631.7626906511068,2007.4950553841818,405.0,405
10,CAT-4909,2021-09-13,AlwaysOn_wow_web,AlwaysOn_wow_web,AlwaysOn_wow_web_clk,_AlwaysOn_wow_web_clk,0.0036358776219162395,0.013173022604852808,659.2047854153222,2139.311293036063,1224.0,1224
11,CAT-4909,2021-09-13,AlwaysOn_wow_web,AlwaysOn_wow_web,AlwaysOn_wow_web_view,_AlwaysOn_wow_web_view,0.02803739969562494,0.03600626178659767,12775.45304655636,13606.628456575832,4401.0,4401
