,path,total_conversion_value,conversions,non_conversions,cnt,ppl,Converted
0,_AlwaysOn_wow_web_view_2021-09-30_2021-10-24 > _AlwaysOn_wow_web_clk_2021-09-30_2021-10-24,16518.418679845,48.0,20.0,11226,11226,False
1,FB_Impression_MobileFeed > FB_Impression_Instagram,-9581.0736526282,616.0,497.0,1850,1850,False
2,_AlwaysOn_wow_web_clk_2021-09-30_2021-10-24 > _AlwaysOn_sem_shopping_clk_2021-09-30_2021-10-24,38.186287708729,1.0,0.0,367,367,False
3,FB_Impression_MobileFeed > FB_Impression_WebFeed,5025.5348398451,70.0,43.0,251,251,False
4,FB_Impression_MobileFeed > CVM-5052_rw_app_imp_2021-09-30_2021-10-24,-18906.948835987,1864.0,1595.0,4261,4261,False
5,FB_Impression_InStream > FB_Impression_MobileFeed,-8535.9993386228,138.0,96.0,407,407,False
6,FB_Impression_MobileFeed > CVM-5052_rw_app_imp_2021-09-30_2021-10-24 > CVM-5052_rw_app_clk_2021-09-30_2021-10-24,12458.66753013,60.0,37.0,112,112,False
7,FB_Impression_WebFeed,35854.951473886,434.0,317.0,2993,2993,False
8,CVM-5052_rw_web_oap_clk_2021-09-30_2021-10-24,15152.581023243,101.0,56.0,326,326,False
9,_AlwaysOn_sem_shopping_clk_2021-09-30_2021-10-24,4892.1289028206,19.0,12.0,6882,6882,False
10,_AlwaysOn_sem_brand_clk_2021-09-30_2021-10-24,23.527154599316,1.0,0.0,161,161,False
11,_AlwaysOn_sem_shopping_clk_2021-09-30_2021-10-24 > _AlwaysOn_sem_shopping_clk_2021-09-30_2021-10-24,79.1134583963,2.0,0.0,696,696,False
12,_AlwaysOn_wow_web_view_2021-09-30_2021-10-24,25721.561461667,156.0,111.0,96809,96809,False
13,FB_Impression_Instagram,14163.103371652,1900.0,1659.0,9718,9718,False
14,FB_Impression_Instagram > FB_Impression_MobileFeed,-20252.14346815,884.0,764.0,2677,2677,False
15,_AlwaysOn_wow_web_clk_2021-09-30_2021-10-24 > _AlwaysOn_sem_shopping_clk_2021-09-30_2021-10-24 > _AlwaysOn_sem_shopping_clk_2021-09-30_2021-10-24,84.187328111176,1.0,0.0,113,113,False
16,CVM-5052_rw_app_imp_2021-09-30_2021-10-24,71778.12524469,4986.0,3754.0,29206,29206,False
17,FB_Impression_MobileFeed > FB_Impression_InStream,4312.1325730694,92.0,72.0,249,249,False
18,FB_Impression_MobileFeed > FB_Click_MobileFeed,-6781.099198769,54.0,51.0,184,184,False
19,CVM-5052_rw_app_clk_2021-09-30_2021-10-24,86516.205937457,1031.0,799.0,2080,2080,False
20,_AlwaysOn_wow_web_clk_2021-09-30_2021-10-24,2291.8380724898,43.0,42.0,6803,6803,False
21,FB_Impression_Other,-1897.0158396065,182.0,160.0,847,847,False
22,FB_Impression_Instagram > FB_Impression_MobileFeed > CVM-5052_rw_app_imp_2021-09-30_2021-10-24,-3377.6176989493,188.0,150.0,374,374,False
23,FB_Impression_MobileFeed > _AlwaysOn_wow_web_view_2021-09-30_2021-10-24,4374.4443590673,19.0,14.0,310,310,False
24,FB_Impression_Other > FB_Impression_Instagram,11448.029197424,64.0,58.0,292,292,False
26,FB_Impression_MobileFeed,117485.45942987,9583.0,7862.0,36224,36224,False
27,FB_Impression_InStream,-5669.3814762847,292.0,267.0,901,901,False
28,_AlwaysOn_wow_web_view_2021-09-30_2021-10-24 > CVM-5052_rw_app_imp_2021-09-30_2021-10-24,7466.2530507801,10.0,9.0,252,252,False
29,_AlwaysOn_wow_web_view_2021-09-30_2021-10-24 > _AlwaysOn_google_other_clk_2021-09-30_2021-10-24,-1413.6572206349,0.0,3.0,130,130,False
30,_AlwaysOn_wow_web_view_2021-09-30_2021-10-24 > _AlwaysOn_wow_web_clk_2021-09-30_2021-10-24 > _AlwaysOn_sem_shopping_clk_2021-09-30_2021-10-24,764.89751186511,2.0,0.0,451,451,False
31,CVM-5052_rw_app_imp_2021-09-30_2021-10-24 > CVM-5052_rw_app_clk_2021-09-30_2021-10-24,87435.871754179,660.0,460.0,1418,1418,False
32,FB_Impression_WebFeed > CVM-5052_rw_app_imp_2021-09-30_2021-10-24,-6026.8719414706,46.0,52.0,159,159,False
33,_AlwaysOn_google_other_clk_2021-09-30_2021-10-24,1314.3014464052,13.0,11.0,232,232,False
34,FB_Impression_MobileFeed > FB_Impression_Instagram > FB_Impression_MobileFeed,3998.0153329752,119.0,87.0,371,371,False
35,FB_Impression_WebFeed > FB_Impression_MobileFeed,-4330.4119926438,99.0,95.0,370,370,False
36,FB_Impression_MobileFeed > FB_Impression_Instagram > CVM-5052_rw_app_imp_2021-09-30_2021-10-24,9621.0250086311,123.0,97.0,255,255,False
37,FB_Impression_Instagram > CVM-5052_rw_app_imp_2021-09-30_2021-10-24,-17086.247973241,325.0,279.0,710,710,False
38,FB_Impression_Instagram > FB_Impression_MobileFeed > FB_Impression_Instagram,16058.439956825,70.0,50.0,183,183,False
39,_AlwaysOn_wow_web_view_2021-09-30_2021-10-24 > _AlwaysOn_sem_shopping_clk_2021-09-30_2021-10-24,5957.5718186636,10.0,4.0,4966,4966,False
