,path,total_conversion_value,conversions,non_conversions,cnt,ppl,Converted
0,CVM-5052_rw_app_clk_2021-09-30_2021-10-24,6795.6999346919,791.0,558.0,1766,1766,False
1,FB_Impression_Instagram > CVM-5052_rw_app_imp_2021-09-30_2021-10-24,-19119.082871753,220.0,207.0,514,514,False
2,_AlwaysOn_wow_web_view_2021-09-30_2021-10-24 > _AlwaysOn_wow_web_clk_2021-09-30_2021-10-24,224.6455163304,12.0,11.0,4568,4568,False
3,FB_Impression_Instagram > FB_Impression_MobileFeed > FB_Impression_Instagram,14907.806838335,76.0,56.0,190,190,False
4,FB_Impression_MobileFeed > FB_Impression_Instagram,-3753.047318681,682.0,540.0,1908,1908,False
5,FB_Impression_Other > FB_Impression_Instagram,10489.404883098,69.0,62.0,295,295,False
6,CVM-5052_rw_web_oap_clk_2021-09-30_2021-10-24,4961.9636195342,63.0,45.0,221,221,False
7,FB_Impression_WebFeed,34784.116899043,465.0,346.0,3091,3091,False
8,FB_Impression_WebFeed > CVM-5052_rw_app_imp_2021-09-30_2021-10-24,-5648.7455389426,34.0,41.0,129,129,False
9,FB_Impression_MobileFeed,117050.62492542,10430.0,8576.0,37184,37184,False
10,FB_Impression_MobileFeed > CVM-5052_rw_app_imp_2021-09-30_2021-10-24,-29436.336772825,1471.0,1252.0,3388,3388,False
11,FB_Impression_MobileFeed > FB_Impression_WebFeed,3762.5257463502,74.0,46.0,256,256,False
12,CVM-5052_rw_app_imp_2021-09-30_2021-10-24,156478.44121689,4174.0,3154.0,24576,24576,False
13,FB_Impression_MobileFeed > FB_Impression_Instagram > FB_Impression_MobileFeed,7003.1264728153,138.0,97.0,389,389,False
14,FB_Impression_Other,-6307.0744058974,203.0,178.0,871,871,False
15,_AlwaysOn_wow_web_clk_2021-09-30_2021-10-24,20465.876215978,35.0,14.0,2614,2614,False
16,FB_Impression_Instagram > FB_Impression_MobileFeed,-20911.13647134,955.0,838.0,2757,2757,False
17,_AlwaysOn_wow_web_view_2021-09-30_2021-10-24 > _AlwaysOn_sem_shopping_clk_2021-09-30_2021-10-24,29.574301587054,1.0,0.0,176,176,False
18,CVM-5052_rw_app_imp_2021-09-30_2021-10-24 > CVM-5052_rw_app_clk_2021-09-30_2021-10-24,44534.894118389,470.0,284.0,1210,1210,False
19,FB_Impression_InStream > FB_Impression_MobileFeed,-10264.67566477,151.0,115.0,413,413,False
20,FB_Impression_Instagram,11380.352166273,2044.0,1780.0,9914,9914,False
21,FB_Impression_WebFeed > FB_Impression_MobileFeed,-7968.1295566035,101.0,104.0,379,379,False
22,FB_Impression_MobileFeed > FB_Impression_InStream,2083.1957123792,103.0,78.0,254,254,False
23,FB_Impression_MobileFeed > FB_Impression_Instagram > CVM-5052_rw_app_imp_2021-09-30_2021-10-24,11476.508359242,88.0,71.0,187,187,False
24,FB_Impression_InStream,-3446.1555914801,317.0,274.0,918,918,False
25,_AlwaysOn_sem_shopping_clk_2021-09-30_2021-10-24,7137.9343074818,12.0,4.0,3753,3753,False
26,FB_Impression_MobileFeed > FB_Click_MobileFeed,-6398.2307118826,59.0,56.0,187,187,False
28,_AlwaysOn_wow_web_view_2021-09-30_2021-10-24,1688.8332396387,43.0,39.0,29204,29204,False
29,_AlwaysOn_sem_brand_clk_2021-09-30_2021-10-24,1.7022164933797,1.0,0.0,152,152,False
30,FB_Impression_MobileFeed > CVM-5052_rw_app_imp_2021-09-30_2021-10-24 > CVM-5052_rw_app_clk_2021-09-30_2021-10-24,27344.307180914,183.0,149.0,379,379,False
31,FB_Impression_Instagram > FB_Impression_MobileFeed > CVM-5052_rw_app_imp_2021-09-30_2021-10-24,-5441.8006261873,143.0,123.0,294,294,False
