event,channel_prob_norm_AL,channel_prob_norm_shanglin,attributed_inc_sales_AL,attributed_inc_sales_shanglin
AlwaysOn_sem_brand_clk,0.0018161373345155685,0.009767309294514142,602.377318954298,690.3173409990045
AlwaysOn_sem_generic_clk,0.0012032370582103194,0.0009791943568470656,14.005336435736023,16.1483682441807
AlwaysOn_sem_shopping_clk,0.012251037946365489,0.03899772024825476,2541.6124051526695,3094.1239605011615
AlwaysOn_wow_web_clk,0.07243848736474492,0.12653409010597402,5769.175301797847,4948.862106285326
AlwaysOn_wow_web_view,0.16248604163739866,0.3607730926831749,50936.94645319307,54901.90567520149
CVM-1661_FB_impsclicks,-2.0,0.7981323814951673,1540466.5010074882,1566067.7057966755
CVM-1661_display_imp,0.10523370274083406,0.08223142356097723,35190.72842137022,27597.55515709108
CVM-1661_email_clk,0.05208225997144268,0.10673653519294912,1624.69608261251,1275.8153055882963
CVM-1661_email_open,0.44201381988978333,1.137930339095919,1572631.3578570408,1397176.0860995902
CVM-1661_rw_app_clk,0.008722394400672991,0.012002073996500641,197.37101910330898,202.04497840238616
CVM-1661_rw_app_imp,0.14175288165603203,0.12403640488486811,45921.95147100922,36923.88388730716
Total,-1.0,2.798120564915146,3255896.722674158,3092894.4486758863
