,channel_from,channel_to,transition_probability
0,(start),CAT-4753_email_open_2021-07-28_2021-08-01,0.17992996840037578
1,(start),FB_Impression_InstagramStory,0.0008198821419420958
2,(start),CAT-4753_rw_app_push_imp_2021-07-28_2021-08-01,0.0010077717994704928
3,(start),CVM-1661_rw_app_imp_2021-07-28_2021-08-01,6.832351182850799e-05
4,(start),CVM-1661_email_open_2021-07-28_2021-08-01,5.124263387138099e-05
5,(start),FB_Impression_MobileFeed,0.018925612776496712
6,(start),CAT-4753_rw_web_oap_clk_2021-07-28_2021-08-01,0.006490733623708259
7,(start),CAT-4753_display_imp_2021-07-28_2021-08-01,0.0027500213510974463
8,(start),CAT-4753_rw_app_push_clk_2021-07-28_2021-08-01,0.005773336749508925
9,(start),_AlwaysOn_wow_web_clk_2021-07-28_2021-08-01,0.004936373729609702
10,(start),FB_Impression_Instagram,0.0006319924844136989
11,(start),_AlwaysOn_wow_web_view_2021-07-28_2021-08-01,0.01108548979417542
12,(start),CAT-4753_rw_app_clk_2021-07-28_2021-08-01,0.06610299769408147
13,(start),CAT-4753_rw_app_imp_2021-07-28_2021-08-01,0.6124690409087027
14,(start),_AlwaysOn_sem_shopping_clk_2021-07-28_2021-08-01,0.0009736100435562388
15,(start),CVM-1661_email_clk_2021-07-28_2021-08-01,5.124263387138099e-05
16,(start),CVM-1661_rw_app_clk_2021-07-28_2021-08-01,3.4161755914253996e-05
17,(start),_AlwaysOn_sem_brand_clk_2021-07-28_2021-08-01,0.00010248526774276198
18,(start),CAT-4753_email_clk_2021-07-28_2021-08-01,0.08779571269963277
19,CAT-4753_email_open_2021-07-28_2021-08-01,(conversion),0.48710849627963315
20,CAT-4753_email_open_2021-07-28_2021-08-01,(null),0.21673299878871777
21,CAT-4753_email_open_2021-07-28_2021-08-01,CAT-4753_email_clk_2021-07-28_2021-08-01,0.2961585049316491
22,FB_Impression_InstagramStory,CAT-4753_rw_app_imp_2021-07-28_2021-08-01,1.0
23,CAT-4753_rw_app_imp_2021-07-28_2021-08-01,(conversion),0.6331697796090976
24,CAT-4753_rw_app_imp_2021-07-28_2021-08-01,(null),0.2736588142806799
25,CAT-4753_rw_app_imp_2021-07-28_2021-08-01,CAT-4753_rw_app_clk_2021-07-28_2021-08-01,0.0727317086394318
26,CAT-4753_rw_app_imp_2021-07-28_2021-08-01,CAT-4753_email_open_2021-07-28_2021-08-01,0.02043969747079075
27,CAT-4753_rw_app_push_imp_2021-07-28_2021-08-01,(conversion),0.3220338983050847
28,CAT-4753_rw_app_push_imp_2021-07-28_2021-08-01,(null),0.23728813559322035
29,CAT-4753_rw_app_push_imp_2021-07-28_2021-08-01,CAT-4753_rw_app_imp_2021-07-28_2021-08-01,0.4406779661016949
30,CVM-1661_rw_app_imp_2021-07-28_2021-08-01,(conversion),0.25
31,CVM-1661_rw_app_imp_2021-07-28_2021-08-01,CAT-4753_rw_app_imp_2021-07-28_2021-08-01,0.75
32,CVM-1661_email_open_2021-07-28_2021-08-01,(conversion),0.3333333333333333
33,CVM-1661_email_open_2021-07-28_2021-08-01,(null),0.6666666666666666
34,FB_Impression_MobileFeed,_AlwaysOn_wow_web_view_2021-07-28_2021-08-01,0.007220216606498195
35,FB_Impression_MobileFeed,(conversion),0.3447653429602888
36,FB_Impression_MobileFeed,(null),0.18682310469314078
37,FB_Impression_MobileFeed,CAT-4753_rw_app_imp_2021-07-28_2021-08-01,0.4611913357400722
38,_AlwaysOn_wow_web_view_2021-07-28_2021-08-01,(conversion),0.3318112633181126
39,_AlwaysOn_wow_web_view_2021-07-28_2021-08-01,(null),0.1171993911719939
40,_AlwaysOn_wow_web_view_2021-07-28_2021-08-01,_AlwaysOn_sem_shopping_clk_2021-07-28_2021-08-01,0.0015220700152207
41,_AlwaysOn_wow_web_view_2021-07-28_2021-08-01,CAT-4753_email_open_2021-07-28_2021-08-01,0.0517503805175038
42,_AlwaysOn_wow_web_view_2021-07-28_2021-08-01,_AlwaysOn_wow_web_clk_2021-07-28_2021-08-01,0.2922374429223744
43,_AlwaysOn_wow_web_view_2021-07-28_2021-08-01,CAT-4753_rw_app_imp_2021-07-28_2021-08-01,0.2054794520547945
44,CAT-4753_rw_web_oap_clk_2021-07-28_2021-08-01,(conversion),0.6710526315789473
45,CAT-4753_rw_web_oap_clk_2021-07-28_2021-08-01,(null),0.26052631578947366
46,CAT-4753_rw_web_oap_clk_2021-07-28_2021-08-01,CAT-4753_email_open_2021-07-28_2021-08-01,0.06842105263157895
47,CAT-4753_display_imp_2021-07-28_2021-08-01,(conversion),0.6894409937888198
48,CAT-4753_display_imp_2021-07-28_2021-08-01,(null),0.3105590062111801
49,CAT-4753_rw_app_push_clk_2021-07-28_2021-08-01,CAT-4753_rw_app_imp_2021-07-28_2021-08-01,0.40828402366863903
50,CAT-4753_rw_app_push_clk_2021-07-28_2021-08-01,(conversion),0.30177514792899407
51,CAT-4753_rw_app_push_clk_2021-07-28_2021-08-01,(null),0.16272189349112426
52,CAT-4753_rw_app_push_clk_2021-07-28_2021-08-01,CAT-4753_rw_app_clk_2021-07-28_2021-08-01,0.12721893491124261
53,_AlwaysOn_wow_web_clk_2021-07-28_2021-08-01,(conversion),0.5488565488565489
54,_AlwaysOn_wow_web_clk_2021-07-28_2021-08-01,(null),0.19750519750519752
55,_AlwaysOn_wow_web_clk_2021-07-28_2021-08-01,CAT-4753_rw_app_imp_2021-07-28_2021-08-01,0.23076923076923078
56,_AlwaysOn_wow_web_clk_2021-07-28_2021-08-01,CAT-4753_email_open_2021-07-28_2021-08-01,0.02286902286902287
57,FB_Impression_Instagram,CAT-4753_rw_app_imp_2021-07-28_2021-08-01,1.0
58,_AlwaysOn_sem_shopping_clk_2021-07-28_2021-08-01,(conversion),0.41379310344827586
59,_AlwaysOn_sem_shopping_clk_2021-07-28_2021-08-01,(null),0.1896551724137931
60,_AlwaysOn_sem_shopping_clk_2021-07-28_2021-08-01,CAT-4753_rw_app_imp_2021-07-28_2021-08-01,0.39655172413793105
61,CAT-4753_rw_app_clk_2021-07-28_2021-08-01,CAT-4753_email_open_2021-07-28_2021-08-01,0.030169799878714373
62,CAT-4753_rw_app_clk_2021-07-28_2021-08-01,(conversion),0.6807155852031535
63,CAT-4753_rw_app_clk_2021-07-28_2021-08-01,(null),0.28911461491813223
64,CVM-1661_email_clk_2021-07-28_2021-08-01,(conversion),0.3333333333333333
65,CVM-1661_email_clk_2021-07-28_2021-08-01,(null),0.6666666666666666
66,CVM-1661_rw_app_clk_2021-07-28_2021-08-01,(conversion),0.5
67,CVM-1661_rw_app_clk_2021-07-28_2021-08-01,(null),0.5
68,CAT-4753_email_clk_2021-07-28_2021-08-01,(conversion),0.7095644049982482
69,CAT-4753_email_clk_2021-07-28_2021-08-01,(null),0.2904355950017517
70,_AlwaysOn_sem_brand_clk_2021-07-28_2021-08-01,(conversion),0.5
71,_AlwaysOn_sem_brand_clk_2021-07-28_2021-08-01,(null),0.5
