,path,total_conversion_value,conversions,non_conversions,cnt,ppl,Converted
0,CVM-3509_rw_app_push_imp_2022-02-14_2022-02-20 > CVM-3509_rw_app_push_clk_2022-02-14_2022-02-20,21520.745503938,122.0,0.0,121,121,False
1,CVM-3509_rw_app_imp_2022-02-14_2022-02-20 > CVM-3509_rw_app_push_clk_2022-02-14_2022-02-20,19363.75588779,547.0,0.0,542,542,False
2,CVM-3509_rw_app_push_clk_2022-02-14_2022-02-20,87099.210814447,2084.0,0.0,2081,2081,False
3,_AlwaysOn_wow_web_view_2022-02-14_2022-02-20 > CVM-3509_rw_app_imp_2022-02-14_2022-02-20 > CVM-3509_rw_app_clk_2022-02-14_2022-02-20,88479.487393734,411.0,0.0,409,409,False
4,FB_Impression_InstagramStory,24537.227161743,408.0,0.0,407,407,False
5,CVM-3509_email_open_2022-02-14_2022-02-20 > CVM-3509_rw_app_imp_2022-02-14_2022-02-20 > CVM-3509_rw_app_clk_2022-02-14_2022-02-20 > CVM-3509_email_open_2022-02-14_2022-02-20,30424.355513305,119.0,0.0,117,117,False
6,CVM-3509_rw_app_push_imp_2022-02-14_2022-02-20 > CVM-3509_email_open_2022-02-14_2022-02-20,70965.161394934,448.0,0.0,445,445,False
7,CVM-3509_rw_app_imp_2022-02-14_2022-02-20 > CVM-3509_rw_app_clk_2022-02-14_2022-02-20 > CVM-3509_rw_app_imp_2022-02-14_2022-02-20,111448.3562245,1406.0,0.0,1402,1402,False
8,CVM-3509_rw_app_imp_2022-02-14_2022-02-20 > CVM-3509_rw_app_push_clk_2022-02-14_2022-02-20 > CVM-3509_rw_app_imp_2022-02-14_2022-02-20,5345.0468475271,120.0,0.0,120,120,False
9,CVM-3509_rw_app_imp_2022-02-14_2022-02-20 > CVM-3509_rw_app_push_imp_2022-02-14_2022-02-20,115698.67529638,1035.0,0.0,1032,1032,False
10,FB_Impression_MobileFeed > CVM-3509_rw_app_imp_2022-02-14_2022-02-20 > FB_Impression_MobileFeed,4387.1072593819,197.0,0.0,197,197,False
11,_AlwaysOn_wow_web_view_2022-02-14_2022-02-20,300987.64785021,923.0,0.0,920,920,False
12,CVM-3509_email_open_2022-02-14_2022-02-20 > CVM-3509_email_clk_2022-02-14_2022-02-20 > FB_Impression_MobileFeed,16007.393054142,156.0,0.0,155,155,False
13,FB_Impression_Instagram,51883.387163991,408.0,0.0,408,408,False
14,CVM-3509_rw_app_push_clk_2022-02-14_2022-02-20 > CVM-3509_email_open_2022-02-14_2022-02-20,11501.465249082,353.0,0.0,350,350,False
15,FB_Impression_WebFeed,35002.146444893,519.0,0.0,518,518,False
16,CVM-3509_rw_app_imp_2022-02-14_2022-02-20 > CVM-3509_rw_app_clk_2022-02-14_2022-02-20 > CVM-3509_rw_app_push_imp_2022-02-14_2022-02-20 > CVM-3509_rw_app_imp_2022-02-14_2022-02-20,6458.9680534625,110.0,0.0,110,110,False
17,_AlwaysOn_wow_web_view_2022-02-14_2022-02-20 > _AlwaysOn_wow_web_clk_2022-02-14_2022-02-20,84075.944700309,273.0,0.0,273,273,False
18,CVM-3509_email_open_2022-02-14_2022-02-20,2130635.5413585,22397.0,0.0,22337,22337,False
19,CVM-3509_email_open_2022-02-14_2022-02-20 > _AlwaysOn_wow_web_view_2022-02-14_2022-02-20,21198.395935775,116.0,0.0,115,115,False
20,_AlwaysOn_wow_web_view_2022-02-14_2022-02-20 > CVM-3509_email_open_2022-02-14_2022-02-20 > CVM-3509_email_clk_2022-02-14_2022-02-20,38527.926508836,165.0,0.0,163,163,False
21,CVM-3509_rw_app_imp_2022-02-14_2022-02-20 > CVM-3509_rw_app_clk_2022-02-14_2022-02-20 > CVM-3509_rw_app_imp_2022-02-14_2022-02-20 > CVM-3509_rw_app_push_imp_2022-02-14_2022-02-20,10049.56370728,119.0,0.0,119,119,False
22,CVM-3509_rw_app_imp_2022-02-14_2022-02-20 > CVM-3509_rw_app_push_imp_2022-02-14_2022-02-20 > CVM-3509_email_open_2022-02-14_2022-02-20,-2632.7592879754,140.0,0.0,139,139,False
23,FB_Impression_SuggestedVideo,59752.428551159,595.0,0.0,594,594,False
24,FB_Impression_SuggestedVideo > FB_Impression_MobileFeed > FB_Impression_SuggestedVideo,12813.073834467,105.0,0.0,105,105,False
25,FB_Impression_Other,-15040.061855947,185.0,0.0,185,185,False
26,FB_Impression_MobileFeed > CVM-3509_rw_app_imp_2022-02-14_2022-02-20 > CVM-3509_rw_app_clk_2022-02-14_2022-02-20 > FB_Impression_MobileFeed,13140.805500223,338.0,0.0,337,337,False
28,FB_Impression_MobileFeed > FB_Impression_FacebookStory,27708.71204134,150.0,0.0,150,150,False
29,FB_Impression_MobileFeed > CVM-3509_rw_app_push_imp_2022-02-14_2022-02-20 > FB_Impression_MobileFeed,30365.345623918,199.0,0.0,199,199,False
30,CVM-3509_email_clk_2022-02-14_2022-02-20,26270.298426827,252.0,0.0,251,251,False
31,CVM-3509_rw_app_imp_2022-02-14_2022-02-20 > CVM-3509_rw_app_clk_2022-02-14_2022-02-20 > CVM-3509_email_open_2022-02-14_2022-02-20,95732.489492394,1040.0,0.0,1036,1036,False
32,CVM-3509_email_open_2022-02-14_2022-02-20 > CVM-3509_rw_app_imp_2022-02-14_2022-02-20,28595.84376056,395.0,0.0,393,393,False
33,FB_Impression_MobileFeed > FB_Impression_Instagram > FB_Impression_MobileFeed,66147.265638375,257.0,0.0,256,256,False
34,_AlwaysOn_wow_web_view_2022-02-14_2022-02-20 > _AlwaysOn_wow_web_clk_2022-02-14_2022-02-20 > _AlwaysOn_wow_web_view_2022-02-14_2022-02-20,21422.004192097,127.0,0.0,126,126,False
35,FB_Impression_MobileFeed > FB_Impression_FacebookStory > FB_Impression_MobileFeed,11752.898007455,212.0,0.0,212,212,False
36,CVM-3509_rw_app_imp_2022-02-14_2022-02-20 > CVM-3509_rw_app_clk_2022-02-14_2022-02-20 > FB_Impression_MobileFeed,27852.96296073,299.0,0.0,299,299,False
37,FB_Impression_FacebookStory,32917.951893007,160.0,0.0,160,160,False
38,FB_Impression_MobileFeed > FB_Impression_SuggestedVideo,8413.3873082634,163.0,0.0,163,163,False
39,CVM-3509_email_open_2022-02-14_2022-02-20 > CVM-3509_email_clk_2022-02-14_2022-02-20 > CVM-3509_email_open_2022-02-14_2022-02-20 > CVM-3509_email_clk_2022-02-14_2022-02-20,82324.407152993,588.0,0.0,586,586,False
40,CVM-3509_rw_app_imp_2022-02-14_2022-02-20 > CVM-3509_email_open_2022-02-14_2022-02-20 > CVM-3509_rw_app_imp_2022-02-14_2022-02-20,22200.267040736,113.0,0.0,112,112,False
41,CVM-3509_rw_app_imp_2022-02-14_2022-02-20 > CVM-3509_rw_app_clk_2022-02-14_2022-02-20 > CVM-3509_email_open_2022-02-14_2022-02-20 > CVM-3509_email_clk_2022-02-14_2022-02-20,-4604.6908166404,133.0,0.0,130,130,False
42,CVM-3509_email_open_2022-02-14_2022-02-20 > CVM-3509_rw_app_push_imp_2022-02-14_2022-02-20,11890.831617376,167.0,0.0,166,166,False
43,FB_Impression_MobileFeed > CVM-3509_email_open_2022-02-14_2022-02-20 > FB_Impression_MobileFeed,38723.078958274,840.0,0.0,837,837,False
44,CVM-3509_rw_app_imp_2022-02-14_2022-02-20 > CVM-3509_rw_app_push_imp_2022-02-14_2022-02-20 > CVM-3509_rw_app_imp_2022-02-14_2022-02-20,1183.406963662,296.0,0.0,294,294,False
45,FB_Impression_Instagram > FB_Impression_MobileFeed,-8569.4176100486,194.0,0.0,194,194,False
46,CVM-3509_rw_app_imp_2022-02-14_2022-02-20,399616.89424257,5897.0,0.0,5884,5884,False
47,CVM-3509_email_open_2022-02-14_2022-02-20 > CVM-3509_email_clk_2022-02-14_2022-02-20 > CVM-3509_email_open_2022-02-14_2022-02-20 > CVM-3509_email_clk_2022-02-14_2022-02-20 > CVM-3509_email_open_2022-02-14_2022-02-20,10836.97036421,120.0,0.0,119,119,False
48,CVM-3509_rw_app_imp_2022-02-14_2022-02-20 > CVM-3509_rw_app_clk_2022-02-14_2022-02-20 > CVM-3509_rw_app_push_imp_2022-02-14_2022-02-20,98956.470203252,631.0,0.0,631,631,False
49,CVM-3509_email_open_2022-02-14_2022-02-20 > CVM-3509_rw_app_push_clk_2022-02-14_2022-02-20,14313.832533404,112.0,0.0,112,112,False
50,CVM-3509_rw_app_push_clk_2022-02-14_2022-02-20 > CVM-3509_rw_app_imp_2022-02-14_2022-02-20 > CVM-3509_rw_app_clk_2022-02-14_2022-02-20,-3196.4120154004,275.0,0.0,274,274,False
51,CVM-3509_rw_app_clk_2022-02-14_2022-02-20 > CVM-3509_rw_app_imp_2022-02-14_2022-02-20,-1719.1115812985,105.0,0.0,105,105,False
52,CVM-3509_email_open_2022-02-14_2022-02-20 > CVM-3509_rw_app_imp_2022-02-14_2022-02-20 > CVM-3509_rw_app_clk_2022-02-14_2022-02-20,44683.637530578,369.0,0.0,365,365,False
53,CVM-3509_email_open_2022-02-14_2022-02-20 > FB_Impression_MobileFeed,80892.061800561,383.0,0.0,383,383,False
54,CVM-3509_email_open_2022-02-14_2022-02-20 > CVM-3509_rw_app_imp_2022-02-14_2022-02-20 > CVM-3509_email_open_2022-02-14_2022-02-20,16356.749541341,145.0,0.0,144,144,False
55,CVM-3509_rw_app_imp_2022-02-14_2022-02-20 > CVM-3509_email_open_2022-02-14_2022-02-20,49211.255839808,998.0,0.0,995,995,False
56,CVM-3509_rw_app_push_imp_2022-02-14_2022-02-20 > CVM-3509_rw_app_imp_2022-02-14_2022-02-20,-22.449448113472,321.0,0.0,320,320,False
57,FB_Impression_MobileFeed > CVM-3509_email_open_2022-02-14_2022-02-20 > CVM-3509_email_clk_2022-02-14_2022-02-20 > FB_Impression_MobileFeed,39973.877385209,229.0,0.0,228,228,False
58,FB_Impression_MobileFeed > FB_Impression_Instagram,4125.7961129854,117.0,0.0,116,116,False
59,FB_Impression_MobileFeed > CVM-3509_email_open_2022-02-14_2022-02-20,18803.170957784,263.0,0.0,261,261,False
60,FB_Impression_MobileFeed > CVM-3509_email_open_2022-02-14_2022-02-20 > CVM-3509_email_clk_2022-02-14_2022-02-20,-20629.304041752,165.0,0.0,165,165,False
61,FB_Impression_SuggestedVideo > FB_Impression_MobileFeed,4035.2131736161,302.0,0.0,302,302,False
62,CVM-3509_rw_app_imp_2022-02-14_2022-02-20 > FB_Impression_MobileFeed,38664.743805029,158.0,0.0,158,158,False
63,CVM-3509_rw_app_imp_2022-02-14_2022-02-20 > CVM-3509_rw_app_clk_2022-02-14_2022-02-20 > CVM-3509_rw_app_push_clk_2022-02-14_2022-02-20,35249.290465923,251.0,0.0,249,249,False
64,CVM-3509_email_clk_2022-02-14_2022-02-20 > CVM-3509_email_open_2022-02-14_2022-02-20,30283.222525446,171.0,0.0,171,171,False
65,CVM-3509_rw_app_push_imp_2022-02-14_2022-02-20 > CVM-3509_rw_app_imp_2022-02-14_2022-02-20 > CVM-3509_rw_app_clk_2022-02-14_2022-02-20,29185.795125725,330.0,0.0,330,330,False
66,FB_Impression_MobileFeed > FB_Impression_SuggestedVideo > FB_Impression_MobileFeed,1250.0180907623,203.0,0.0,203,203,False
67,FB_Impression_Instagram > FB_Impression_InstagramStory,5562.2466186265,133.0,0.0,132,132,False
68,CVM-3509_rw_app_push_imp_2022-02-14_2022-02-20,181535.72157058,2865.0,0.0,2857,2857,False
69,CVM-3509_email_open_2022-02-14_2022-02-20 > CVM-3509_email_clk_2022-02-14_2022-02-20,717584.4422115,5859.0,0.0,5833,5833,False
70,CVM-3509_rw_app_clk_2022-02-14_2022-02-20,7631.4552817407,454.0,0.0,453,453,False
71,CVM-3509_rw_app_imp_2022-02-14_2022-02-20 > CVM-3509_rw_app_clk_2022-02-14_2022-02-20,922456.51624324,7992.0,0.0,7982,7982,False
72,FB_Impression_MobileFeed > CVM-3509_rw_app_push_clk_2022-02-14_2022-02-20 > FB_Impression_MobileFeed,9079.3534037784,127.0,0.0,126,126,False
73,FB_Impression_MobileFeed,543517.98882513,4769.0,0.0,4762,4762,False
74,CVM-3509_email_open_2022-02-14_2022-02-20 > CVM-3509_email_clk_2022-02-14_2022-02-20 > CVM-3509_email_open_2022-02-14_2022-02-20,226323.30802453,1936.0,0.0,1927,1927,False
75,_AlwaysOn_wow_web_view_2022-02-14_2022-02-20 > CVM-3509_email_open_2022-02-14_2022-02-20,29528.39264983,130.0,0.0,130,130,False
76,CVM-3509_rw_app_imp_2022-02-14_2022-02-20 > CVM-3509_email_open_2022-02-14_2022-02-20 > CVM-3509_email_clk_2022-02-14_2022-02-20,19695.659257815,158.0,0.0,157,157,False
77,CVM-3509_rw_app_push_clk_2022-02-14_2022-02-20 > CVM-3509_rw_app_imp_2022-02-14_2022-02-20,17784.670657302,303.0,0.0,302,302,False
