,path,total_conversion_value,conversions,non_conversions,cnt,ppl,Converted
0,CVM-3509_rw_app_imp_2021-12-20_2021-12-26 > CVM-3509_email_open_2021-12-20_2021-12-26 > CVM-3509_rw_app_push_imp_2021-12-20_2021-12-26,63528.659532969,74.0,32.0,106,106,False
1,CVM-3509_email_open_2021-12-20_2021-12-26 > CVM-3509_email_clk_2021-12-20_2021-12-26 > CVM-3509_rw_app_imp_2021-12-20_2021-12-26 > CVM-3509_rw_app_push_imp_2021-12-20_2021-12-26,57949.877697528,67.0,36.0,103,103,False
2,CVM-3509_rw_app_imp_2021-12-20_2021-12-26 > CVM-3509_rw_app_clk_2021-12-20_2021-12-26 > CVM-3509_rw_app_push_clk_2021-12-20_2021-12-26,178164.6279482,261.0,155.0,416,416,False
3,CVM-3509_rw_app_imp_2021-12-20_2021-12-26 > CVM-3509_rw_app_clk_2021-12-20_2021-12-26 > CVM-3509_email_open_2021-12-20_2021-12-26,716685.06481515,871.0,508.0,1378,1378,False
4,CVM-3509_rw_app_imp_2021-12-20_2021-12-26 > CVM-3509_email_open_2021-12-20_2021-12-26 > CVM-3509_rw_app_imp_2021-12-20_2021-12-26 > CVM-3509_email_open_2021-12-20_2021-12-26,49663.09367868,66.0,47.0,113,113,False
5,CVM-3509_rw_app_imp_2021-12-20_2021-12-26 > CVM-3509_rw_app_clk_2021-12-20_2021-12-26 > CVM-3509_rw_app_imp_2021-12-20_2021-12-26 > CVM-3509_rw_app_push_imp_2021-12-20_2021-12-26,201380.91342705,136.0,72.0,208,208,False
6,CVM-3509_email_open_2021-12-20_2021-12-26 > CVM-3509_email_clk_2021-12-20_2021-12-26 > CVM-3509_rw_app_imp_2021-12-20_2021-12-26 > CVM-3509_email_open_2021-12-20_2021-12-26 > CVM-3509_rw_app_imp_2021-12-20_2021-12-26,-19726.366327131,72.0,64.0,135,135,False
7,FB_Impression_WebFeed,113249.72757641,112.0,81.0,193,193,False
8,CVM-3509_rw_app_imp_2021-12-20_2021-12-26 > CVM-3509_rw_app_clk_2021-12-20_2021-12-26 > CVM-3509_rw_app_imp_2021-12-20_2021-12-26,1079777.6544122,1275.0,746.0,2018,2018,False
9,_AlwaysOn_wow_web_view_2021-12-20_2021-12-26 > CVM-3509_email_open_2021-12-20_2021-12-26 > CVM-3509_email_clk_2021-12-20_2021-12-26 > CVM-3509_email_open_2021-12-20_2021-12-26,351131.98849647,417.0,256.0,673,673,False
10,CVM-3509_email_open_2021-12-20_2021-12-26 > CVM-3509_rw_app_imp_2021-12-20_2021-12-26 > CVM-3509_email_open_2021-12-20_2021-12-26,37441.140209904,401.0,299.0,699,699,False
11,CVM-3509_email_open_2021-12-20_2021-12-26 > CVM-3509_rw_app_push_clk_2021-12-20_2021-12-26 > CVM-3509_email_open_2021-12-20_2021-12-26,-71363.540306764,82.0,55.0,137,137,False
12,CVM-3509_rw_app_imp_2021-12-20_2021-12-26 > CVM-3509_rw_app_clk_2021-12-20_2021-12-26 > CVM-3509_rw_app_push_imp_2021-12-20_2021-12-26 > CVM-3509_rw_app_imp_2021-12-20_2021-12-26,60535.54027644,80.0,60.0,140,140,False
13,CVM-3509_email_open_2021-12-20_2021-12-26 > CVM-3509_email_clk_2021-12-20_2021-12-26 > FB_Impression_InstagramStory,97095.992713257,73.0,39.0,112,112,False
14,CVM-3509_rw_app_imp_2021-12-20_2021-12-26 > CVM-3509_rw_app_clk_2021-12-20_2021-12-26 > CVM-3509_email_open_2021-12-20_2021-12-26 > CVM-3509_rw_app_imp_2021-12-20_2021-12-26 > CVM-3509_email_open_2021-12-20_2021-12-26,30490.826906629,79.0,42.0,121,121,False
15,FB_Impression_MobileFeed,584259.87638396,1098.0,786.0,1884,1884,False
16,CVM-3509_email_open_2021-12-20_2021-12-26 > CVM-3509_rw_app_imp_2021-12-20_2021-12-26,118577.92983703,263.0,193.0,456,456,False
17,CVM-3509_rw_app_push_imp_2021-12-20_2021-12-26 > CVM-3509_rw_app_imp_2021-12-20_2021-12-26,6234.8869616693,120.0,102.0,222,222,False
18,CVM-3509_email_open_2021-12-20_2021-12-26 > CVM-3509_email_clk_2021-12-20_2021-12-26 > CVM-3509_email_open_2021-12-20_2021-12-26 > CVM-3509_email_clk_2021-12-20_2021-12-26 > CVM-3509_email_open_2021-12-20_2021-12-26,862497.79688949,1374.0,952.0,2272,2272,False
19,FB_Impression_MobileFeed > CVM-3509_email_open_2021-12-20_2021-12-26 > FB_Impression_MobileFeed,85077.090757082,88.0,64.0,152,152,False
20,CVM-3509_email_open_2021-12-20_2021-12-26 > CVM-3509_email_clk_2021-12-20_2021-12-26 > FB_Impression_Instagram > FB_Impression_MobileFeed,87066.323447307,71.0,53.0,124,124,False
21,CVM-3509_rw_app_imp_2021-12-20_2021-12-26 > CVM-3509_rw_app_clk_2021-12-20_2021-12-26 > CVM-3509_email_open_2021-12-20_2021-12-26 > CVM-3509_email_clk_2021-12-20_2021-12-26,161518.21920636,236.0,110.0,346,346,False
22,CVM-3509_rw_app_imp_2021-12-20_2021-12-26 > CVM-3509_rw_app_clk_2021-12-20_2021-12-26 > FB_Impression_MobileFeed,369287.88435709,416.0,272.0,688,688,False
23,CVM-3509_rw_app_imp_2021-12-20_2021-12-26 > CVM-3509_email_open_2021-12-20_2021-12-26,201246.54668815,399.0,249.0,648,648,False
24,CVM-3509_rw_app_push_clk_2021-12-20_2021-12-26 > CVM-3509_rw_app_imp_2021-12-20_2021-12-26,46768.159738725,77.0,55.0,131,131,False
25,_AlwaysOn_wow_web_view_2021-12-20_2021-12-26 > CVM-3509_email_open_2021-12-20_2021-12-26 > CVM-3509_email_clk_2021-12-20_2021-12-26,381085.22412412,311.0,174.0,484,484,False
26,CVM-3509_rw_app_imp_2021-12-20_2021-12-26 > CVM-3509_rw_app_push_clk_2021-12-20_2021-12-26 > CVM-3509_rw_app_imp_2021-12-20_2021-12-26,381.42098564996,86.0,58.0,143,143,False
27,CVM-3509_email_open_2021-12-20_2021-12-26 > CVM-3509_email_clk_2021-12-20_2021-12-26 > CVM-3509_rw_app_imp_2021-12-20_2021-12-26,399649.66782987,469.0,272.0,738,738,False
28,CVM-3509_rw_app_imp_2021-12-20_2021-12-26 > CVM-3509_rw_app_clk_2021-12-20_2021-12-26 > CVM-3509_email_open_2021-12-20_2021-12-26 > CVM-3509_rw_app_imp_2021-12-20_2021-12-26,137486.42348883,65.0,43.0,108,108,False
29,CVM-3509_email_open_2021-12-20_2021-12-26 > CVM-3509_rw_app_imp_2021-12-20_2021-12-26 > CVM-3509_rw_app_clk_2021-12-20_2021-12-26 > CVM-3509_rw_app_imp_2021-12-20_2021-12-26 > CVM-3509_email_open_2021-12-20_2021-12-26,51215.580711698,119.0,79.0,197,197,False
30,CVM-3509_email_open_2021-12-20_2021-12-26 > FB_Impression_MobileFeed > CVM-3509_email_open_2021-12-20_2021-12-26 > FB_Impression_MobileFeed,115394.16033374,229.0,163.0,392,392,False
31,CVM-3509_email_open_2021-12-20_2021-12-26 > CVM-3509_email_clk_2021-12-20_2021-12-26 > FB_Impression_Instagram,68164.380122472,122.0,95.0,217,217,False
32,CVM-3509_email_open_2021-12-20_2021-12-26 > CVM-3509_email_clk_2021-12-20_2021-12-26 > CVM-3509_email_open_2021-12-20_2021-12-26 > CVM-3509_email_clk_2021-12-20_2021-12-26 > CVM-3509_email_open_2021-12-20_2021-12-26 > CVM-3509_email_clk_2021-12-20_2021-12-26 > CVM-3509_email_open_2021-12-20_2021-12-26,60669.078089586,132.0,88.0,207,207,False
33,CVM-3509_rw_app_imp_2021-12-20_2021-12-26 > CVM-3509_rw_app_push_clk_2021-12-20_2021-12-26,388621.9815632,350.0,224.0,574,574,False
34,CVM-3509_email_open_2021-12-20_2021-12-26 > CVM-3509_email_clk_2021-12-20_2021-12-26 > CVM-3509_rw_app_push_clk_2021-12-20_2021-12-26 > CVM-3509_email_open_2021-12-20_2021-12-26,141725.88427465,198.0,131.0,327,327,False
35,CVM-3509_email_open_2021-12-20_2021-12-26 > CVM-3509_email_clk_2021-12-20_2021-12-26 > FB_Impression_WebFeed > CVM-3509_email_open_2021-12-20_2021-12-26 > FB_Impression_WebFeed,-38287.409247235,53.0,52.0,105,105,False
36,CVM-3509_email_open_2021-12-20_2021-12-26 > CVM-3509_rw_app_imp_2021-12-20_2021-12-26 > CVM-3509_rw_app_clk_2021-12-20_2021-12-26 > CVM-3509_rw_app_imp_2021-12-20_2021-12-26,4474.3770638074,78.0,58.0,136,136,False
37,CVM-3509_email_open_2021-12-20_2021-12-26 > CVM-3509_email_clk_2021-12-20_2021-12-26 > CVM-3509_email_open_2021-12-20_2021-12-26 > CVM-3509_rw_app_push_imp_2021-12-20_2021-12-26 > CVM-3509_email_open_2021-12-20_2021-12-26,120670.46972011,89.0,48.0,136,136,False
38,FB_Impression_InstagramStory,28499.1324311,59.0,58.0,117,117,False
39,CVM-3509_email_open_2021-12-20_2021-12-26 > CVM-3509_email_clk_2021-12-20_2021-12-26 > FB_Impression_MobileFeed > CVM-3509_email_open_2021-12-20_2021-12-26 > CVM-3509_email_clk_2021-12-20_2021-12-26 > FB_Impression_MobileFeed,141241.9453712,249.0,144.0,393,393,False
40,CVM-3509_rw_app_imp_2021-12-20_2021-12-26 > CVM-3509_rw_app_push_imp_2021-12-20_2021-12-26 > CVM-3509_rw_app_imp_2021-12-20_2021-12-26,80622.297729186,150.0,104.0,254,254,False
41,CVM-3509_email_open_2021-12-20_2021-12-26 > FB_Impression_MobileFeed > CVM-3509_email_open_2021-12-20_2021-12-26 > CVM-3509_email_clk_2021-12-20_2021-12-26 > FB_Impression_MobileFeed,18128.214464929,85.0,64.0,149,149,False
42,CVM-3509_email_open_2021-12-20_2021-12-26 > CVM-3509_email_clk_2021-12-20_2021-12-26,6999102.1826992,10456.0,7355.0,17797,17797,False
43,CVM-3509_rw_app_push_imp_2021-12-20_2021-12-26 > CVM-3509_rw_app_imp_2021-12-20_2021-12-26 > CVM-3509_rw_app_clk_2021-12-20_2021-12-26,96729.081761357,191.0,123.0,314,314,False
44,CVM-3509_email_open_2021-12-20_2021-12-26 > CVM-3509_email_clk_2021-12-20_2021-12-26 > CVM-3509_email_open_2021-12-20_2021-12-26 > CVM-3509_email_clk_2021-12-20_2021-12-26,1312304.9747088,3252.0,2364.0,5604,5604,False
45,CVM-3509_email_open_2021-12-20_2021-12-26 > CVM-3509_email_clk_2021-12-20_2021-12-26 > CVM-3509_email_open_2021-12-20_2021-12-26 > CVM-3509_rw_app_imp_2021-12-20_2021-12-26 > CVM-3509_email_open_2021-12-20_2021-12-26,128951.79652802,197.0,119.0,315,315,False
46,CVM-3509_email_open_2021-12-20_2021-12-26 > _AlwaysOn_wow_web_view_2021-12-20_2021-12-26 > CVM-3509_email_open_2021-12-20_2021-12-26 > CVM-3509_email_clk_2021-12-20_2021-12-26,-44250.830998006,84.0,68.0,152,152,False
47,FB_Impression_MobileFeed > FB_Click_MobileFeed,104478.06397261,79.0,38.0,117,117,False
48,CVM-3509_email_open_2021-12-20_2021-12-26 > CVM-3509_rw_app_push_imp_2021-12-20_2021-12-26 > CVM-3509_email_open_2021-12-20_2021-12-26,96975.570347688,138.0,75.0,213,213,False
49,CVM-3509_rw_app_imp_2021-12-20_2021-12-26,1116732.2015991,2560.0,1833.0,4391,4391,False
50,FB_Impression_MobileFeed > CVM-3509_rw_app_imp_2021-12-20_2021-12-26 > CVM-3509_rw_app_clk_2021-12-20_2021-12-26 > FB_Impression_MobileFeed,109934.54902948,116.0,59.0,175,175,False
51,CVM-3509_email_open_2021-12-20_2021-12-26 > CVM-3509_email_clk_2021-12-20_2021-12-26 > FB_Impression_Instagram > CVM-3509_email_open_2021-12-20_2021-12-26 > FB_Impression_Instagram,26922.095259708,70.0,47.0,117,117,False
52,CVM-3509_email_open_2021-12-20_2021-12-26 > CVM-3509_email_clk_2021-12-20_2021-12-26 > FB_Impression_SuggestedVideo,43844.325414431,73.0,50.0,123,123,False
53,CVM-3509_rw_app_imp_2021-12-20_2021-12-26 > FB_Impression_MobileFeed,154485.18735156,179.0,114.0,293,293,False
54,CVM-3509_email_open_2021-12-20_2021-12-26 > CVM-3509_email_clk_2021-12-20_2021-12-26 > FB_Impression_MobileFeed > CVM-3509_email_open_2021-12-20_2021-12-26,109075.99576531,102.0,64.0,166,166,False
55,CVM-3509_email_open_2021-12-20_2021-12-26 > CVM-3509_email_clk_2021-12-20_2021-12-26 > FB_Impression_MobileFeed > FB_Impression_Instagram > FB_Impression_MobileFeed,64838.433305409,65.0,54.0,119,119,False
56,CVM-3509_rw_app_clk_2021-12-20_2021-12-26,74048.077105696,95.0,48.0,143,143,False
57,CVM-3509_email_open_2021-12-20_2021-12-26 > FB_Impression_WebFeed,7946.7320772597,55.0,48.0,103,103,False
58,CVM-3509_rw_app_imp_2021-12-20_2021-12-26 > CVM-3509_email_open_2021-12-20_2021-12-26 > CVM-3509_email_clk_2021-12-20_2021-12-26 > CVM-3509_rw_app_imp_2021-12-20_2021-12-26 > CVM-3509_email_open_2021-12-20_2021-12-26,142753.75288869,77.0,48.0,125,125,False
59,CVM-3509_email_open_2021-12-20_2021-12-26 > CVM-3509_email_clk_2021-12-20_2021-12-26 > CVM-3509_email_open_2021-12-20_2021-12-26 > FB_Impression_Instagram,36677.980197006,88.0,71.0,158,158,False
61,CVM-3509_email_open_2021-12-20_2021-12-26 > CVM-3509_email_clk_2021-12-20_2021-12-26 > CVM-3509_email_open_2021-12-20_2021-12-26 > CVM-3509_email_clk_2021-12-20_2021-12-26 > CVM-3509_email_open_2021-12-20_2021-12-26 > CVM-3509_email_clk_2021-12-20_2021-12-26,153476.420868,210.0,121.0,323,323,False
62,CVM-3509_email_open_2021-12-20_2021-12-26 > _AlwaysOn_wow_web_view_2021-12-20_2021-12-26 > CVM-3509_email_open_2021-12-20_2021-12-26,28542.775195582,67.0,33.0,100,100,False
63,_AlwaysOn_wow_web_view_2021-12-20_2021-12-26 > CVM-3509_rw_app_imp_2021-12-20_2021-12-26 > CVM-3509_rw_app_clk_2021-12-20_2021-12-26,254614.33600754,235.0,122.0,357,357,False
64,_AlwaysOn_wow_web_view_2021-12-20_2021-12-26,401643.58878648,338.0,184.0,521,521,False
65,CVM-3509_rw_app_push_clk_2021-12-20_2021-12-26 > CVM-3509_rw_app_imp_2021-12-20_2021-12-26 > CVM-3509_rw_app_clk_2021-12-20_2021-12-26,150931.54582186,199.0,134.0,333,333,False
66,CVM-3509_rw_app_imp_2021-12-20_2021-12-26 > CVM-3509_rw_app_push_imp_2021-12-20_2021-12-26,845521.33394575,734.0,446.0,1180,1180,False
67,_AlwaysOn_wow_web_view_2021-12-20_2021-12-26 > CVM-3509_email_open_2021-12-20_2021-12-26,188938.67478857,131.0,71.0,202,202,False
68,FB_Impression_MobileFeed > CVM-3509_email_open_2021-12-20_2021-12-26 > CVM-3509_email_clk_2021-12-20_2021-12-26,160521.28793134,87.0,43.0,130,130,False
69,CVM-3509_email_open_2021-12-20_2021-12-26 > CVM-3509_email_clk_2021-12-20_2021-12-26 > CVM-3509_rw_app_imp_2021-12-20_2021-12-26 > CVM-3509_email_open_2021-12-20_2021-12-26 > CVM-3509_email_clk_2021-12-20_2021-12-26,54771.792069772,86.0,54.0,139,139,False
70,CVM-3509_email_open_2021-12-20_2021-12-26 > CVM-3509_rw_app_imp_2021-12-20_2021-12-26 > CVM-3509_rw_app_clk_2021-12-20_2021-12-26 > CVM-3509_email_open_2021-12-20_2021-12-26 > CVM-3509_email_clk_2021-12-20_2021-12-26,10965.058670483,82.0,63.0,145,145,False
71,CVM-3509_email_open_2021-12-20_2021-12-26 > CVM-3509_email_clk_2021-12-20_2021-12-26 > CVM-3509_rw_app_imp_2021-12-20_2021-12-26 > CVM-3509_email_open_2021-12-20_2021-12-26 > CVM-3509_rw_app_push_imp_2021-12-20_2021-12-26,101664.39130854,92.0,61.0,153,153,False
72,CVM-3509_rw_app_imp_2021-12-20_2021-12-26 > CVM-3509_rw_app_clk_2021-12-20_2021-12-26,4209162.6174175,5252.0,3363.0,8610,8610,False
73,CVM-3509_rw_app_push_clk_2021-12-20_2021-12-26,207326.15032941,744.0,585.0,1328,1328,False
74,CVM-3509_email_open_2021-12-20_2021-12-26 > CVM-3509_email_clk_2021-12-20_2021-12-26 > FB_Impression_MobileFeed > CVM-3509_email_open_2021-12-20_2021-12-26 > FB_Impression_MobileFeed,678893.22392113,1262.0,913.0,2175,2175,False
75,CVM-3509_email_open_2021-12-20_2021-12-26 > CVM-3509_email_clk_2021-12-20_2021-12-26 > CVM-3509_rw_app_imp_2021-12-20_2021-12-26 > CVM-3509_email_open_2021-12-20_2021-12-26,273870.90984679,852.0,591.0,1440,1440,False
76,_AlwaysOn_wow_web_view_2021-12-20_2021-12-26 > _AlwaysOn_wow_web_clk_2021-12-20_2021-12-26,276223.01981669,149.0,90.0,239,239,False
77,FB_Impression_MobileFeed > CVM-3509_email_open_2021-12-20_2021-12-26 > CVM-3509_email_clk_2021-12-20_2021-12-26 > FB_Impression_MobileFeed,127859.42003885,122.0,55.0,177,177,False
78,CVM-3509_rw_app_imp_2021-12-20_2021-12-26 > CVM-3509_rw_app_clk_2021-12-20_2021-12-26 > CVM-3509_email_open_2021-12-20_2021-12-26 > CVM-3509_email_clk_2021-12-20_2021-12-26 > CVM-3509_email_open_2021-12-20_2021-12-26,133103.52089624,204.0,114.0,315,315,False
79,CVM-3509_email_open_2021-12-20_2021-12-26 > CVM-3509_email_clk_2021-12-20_2021-12-26 > CVM-3509_rw_app_push_imp_2021-12-20_2021-12-26 > CVM-3509_email_open_2021-12-20_2021-12-26,190248.53044074,167.0,95.0,261,261,False
80,CVM-3509_email_open_2021-12-20_2021-12-26 > CVM-3509_email_clk_2021-12-20_2021-12-26 > CVM-3509_email_open_2021-12-20_2021-12-26 > CVM-3509_email_clk_2021-12-20_2021-12-26 > FB_Impression_MobileFeed,72996.347228407,112.0,61.0,173,173,False
81,FB_Impression_MobileFeed > CVM-3509_rw_app_push_clk_2021-12-20_2021-12-26 > FB_Impression_MobileFeed,84254.807589789,75.0,51.0,126,126,False
82,CVM-3509_email_open_2021-12-20_2021-12-26 > CVM-3509_rw_app_imp_2021-12-20_2021-12-26 > CVM-3509_rw_app_clk_2021-12-20_2021-12-26,331927.46878904,457.0,314.0,771,771,False
83,FB_Impression_Instagram,88136.456631459,107.0,65.0,172,172,False
84,CVM-3509_email_open_2021-12-20_2021-12-26,3863394.8799768,6284.0,4482.0,10751,10751,False
85,CVM-3509_rw_app_imp_2021-12-20_2021-12-26 > CVM-3509_email_open_2021-12-20_2021-12-26 > CVM-3509_rw_app_imp_2021-12-20_2021-12-26,46073.54020566,60.0,46.0,105,105,False
86,FB_Impression_MobileFeed > FB_Impression_Instagram > FB_Impression_MobileFeed,-421.00699526528,59.0,47.0,106,106,False
87,CVM-3509_email_open_2021-12-20_2021-12-26 > CVM-3509_email_clk_2021-12-20_2021-12-26 > CVM-3509_rw_app_push_clk_2021-12-20_2021-12-26,-142161.48016216,182.0,191.0,371,371,False
88,CVM-3509_email_open_2021-12-20_2021-12-26 > CVM-3509_email_clk_2021-12-20_2021-12-26 > FB_Impression_SuggestedVideo > FB_Impression_MobileFeed,75841.14789513,88.0,50.0,137,137,False
89,CVM-3509_email_open_2021-12-20_2021-12-26 > CVM-3509_email_clk_2021-12-20_2021-12-26 > CVM-3509_email_open_2021-12-20_2021-12-26 > CVM-3509_rw_app_push_imp_2021-12-20_2021-12-26,162186.91661724,343.0,211.0,554,554,False
90,CVM-3509_rw_app_imp_2021-12-20_2021-12-26 > CVM-3509_rw_app_clk_2021-12-20_2021-12-26 > CVM-3509_rw_app_push_imp_2021-12-20_2021-12-26,765607.09796235,577.0,278.0,852,852,False
91,CVM-3509_email_open_2021-12-20_2021-12-26 > CVM-3509_email_clk_2021-12-20_2021-12-26 > FB_Impression_WebFeed,-2637.9247443836,79.0,60.0,139,139,False
92,CVM-3509_email_open_2021-12-20_2021-12-26 > CVM-3509_email_clk_2021-12-20_2021-12-26 > CVM-3509_email_open_2021-12-20_2021-12-26 > FB_Impression_MobileFeed,390836.88317194,544.0,412.0,956,956,False
93,FB_Impression_SuggestedVideo > FB_Impression_MobileFeed,24905.653155974,70.0,57.0,127,127,False
94,CVM-3509_email_open_2021-12-20_2021-12-26 > CVM-3509_email_clk_2021-12-20_2021-12-26 > CVM-3509_email_open_2021-12-20_2021-12-26,10380545.157563,18449.0,13522.0,31946,31946,False
95,CVM-3509_email_open_2021-12-20_2021-12-26 > CVM-3509_email_clk_2021-12-20_2021-12-26 > CVM-3509_email_open_2021-12-20_2021-12-26 > FB_Impression_MobileFeed > CVM-3509_email_open_2021-12-20_2021-12-26 > FB_Impression_MobileFeed,88486.176280459,237.0,200.0,437,437,False
96,CVM-3509_email_open_2021-12-20_2021-12-26 > CVM-3509_email_clk_2021-12-20_2021-12-26 > CVM-3509_rw_app_push_imp_2021-12-20_2021-12-26,384907.29014814,279.0,160.0,438,438,False
97,CVM-3509_email_open_2021-12-20_2021-12-26 > CVM-3509_email_clk_2021-12-20_2021-12-26 > CVM-3509_email_open_2021-12-20_2021-12-26 > FB_Impression_SuggestedVideo,76862.016100507,69.0,44.0,113,113,False
98,CVM-3509_email_open_2021-12-20_2021-12-26 > CVM-3509_email_clk_2021-12-20_2021-12-26 > CVM-3509_email_open_2021-12-20_2021-12-26 > CVM-3509_rw_app_push_clk_2021-12-20_2021-12-26 > CVM-3509_email_open_2021-12-20_2021-12-26,113157.29622788,76.0,45.0,121,121,False
99,CVM-3509_email_open_2021-12-20_2021-12-26 > CVM-3509_email_clk_2021-12-20_2021-12-26 > FB_Impression_MobileFeed,813943.81839949,1296.0,959.0,2254,2254,False
100,CVM-3509_email_open_2021-12-20_2021-12-26 > CVM-3509_rw_app_imp_2021-12-20_2021-12-26 > CVM-3509_rw_app_clk_2021-12-20_2021-12-26 > CVM-3509_email_open_2021-12-20_2021-12-26,384455.44535715,746.0,488.0,1234,1234,False
101,CVM-3509_rw_app_imp_2021-12-20_2021-12-26 > CVM-3509_email_open_2021-12-20_2021-12-26 > CVM-3509_email_clk_2021-12-20_2021-12-26,363458.89068738,236.0,127.0,362,362,False
102,CVM-3509_rw_app_push_imp_2021-12-20_2021-12-26,859975.8148419,1147.0,771.0,1917,1917,False
103,CVM-3509_rw_app_imp_2021-12-20_2021-12-26 > CVM-3509_email_open_2021-12-20_2021-12-26 > CVM-3509_email_clk_2021-12-20_2021-12-26 > CVM-3509_email_open_2021-12-20_2021-12-26,260092.15341414,285.0,171.0,455,455,False
104,FB_Impression_MobileFeed > CVM-3509_rw_app_push_imp_2021-12-20_2021-12-26 > FB_Impression_MobileFeed,138774.49856,118.0,74.0,191,191,False
105,CVM-3509_rw_app_imp_2021-12-20_2021-12-26 > CVM-3509_rw_app_clk_2021-12-20_2021-12-26 > CVM-3509_rw_app_imp_2021-12-20_2021-12-26 > CVM-3509_email_open_2021-12-20_2021-12-26,125776.31120558,126.0,58.0,183,183,False
106,CVM-3509_email_open_2021-12-20_2021-12-26 > CVM-3509_email_clk_2021-12-20_2021-12-26 > CVM-3509_email_open_2021-12-20_2021-12-26 > CVM-3509_rw_app_imp_2021-12-20_2021-12-26,225749.38867195,189.0,131.0,319,319,False
107,CVM-3509_email_open_2021-12-20_2021-12-26 > FB_Impression_MobileFeed,295006.78053496,292.0,190.0,482,482,False
108,CVM-3509_email_open_2021-12-20_2021-12-26 > CVM-3509_rw_app_imp_2021-12-20_2021-12-26 > CVM-3509_email_open_2021-12-20_2021-12-26 > CVM-3509_email_clk_2021-12-20_2021-12-26,137688.78716265,122.0,59.0,181,181,False
109,CVM-3509_email_open_2021-12-20_2021-12-26 > CVM-3509_rw_app_push_clk_2021-12-20_2021-12-26,67918.138419625,131.0,84.0,215,215,False
110,CVM-3509_email_open_2021-12-20_2021-12-26 > CVM-3509_rw_app_push_imp_2021-12-20_2021-12-26,-41705.904245953,267.0,223.0,490,490,False
111,CVM-3509_email_open_2021-12-20_2021-12-26 > CVM-3509_email_clk_2021-12-20_2021-12-26 > CVM-3509_email_open_2021-12-20_2021-12-26 > CVM-3509_rw_app_push_clk_2021-12-20_2021-12-26,40450.364448605,185.0,156.0,338,338,False
112,_AlwaysOn_wow_web_view_2021-12-20_2021-12-26 > CVM-3509_email_open_2021-12-20_2021-12-26 > CVM-3509_email_clk_2021-12-20_2021-12-26 > CVM-3509_email_open_2021-12-20_2021-12-26 > CVM-3509_email_clk_2021-12-20_2021-12-26,207965.89865003,141.0,80.0,219,219,False
