,path,total_conversion_value,conversions,non_conversions,cnt,ppl,Converted
0,CVM-3509_email_open_2021-10-25_2021-10-31 > CVM-3509_email_clk_2021-10-25_2021-10-31 > CVM-3509_display_imp_2021-10-25_2021-10-31,18258.680214624,91.0,69.0,206,206,False
1,_AlwaysOn_wow_web_view_2021-10-25_2021-10-31 > _AlwaysOn_wow_web_clk_2021-10-25_2021-10-31,3367.5882120366,14.0,13.0,6770,6770,False
2,CVM-3509_display_imp_2021-10-25_2021-10-31 > CVM-3509_display_imp_2021-10-25_2021-10-31,1076.0022996463,77.0,63.0,285,285,False
3,FB_Impression_InstagramStory > CVM-3509_email_open_2021-10-25_2021-10-31,654.54455796707,34.0,39.0,401,401,False
4,_AlwaysOn_wow_web_view_2021-10-25_2021-10-31 > CVM-3509_email_open_2021-10-25_2021-10-31,4016.5854218737,12.0,4.0,420,420,False
5,CVM-3509_rw_app_push_clk_2021-10-25_2021-10-31,34315.64076527,427.0,349.0,1460,1460,False
6,FB_Impression_MobileFeed > CVM-3509_rw_app_imp_2021-10-25_2021-10-31,38485.659812627,332.0,228.0,1210,1210,False
7,FB_Impression_MobileFeed > FB_Impression_Instagram > FB_Impression_MobileFeed,963.13466038959,76.0,57.0,2196,2196,False
8,CVM-3509_rw_app_push_imp_2021-10-25_2021-10-31 > CVM-3509_email_open_2021-10-25_2021-10-31,5269.6725202019,128.0,95.0,355,355,False
9,FB_Impression_MobileFeed > CVM-3509_rw_app_push_imp_2021-10-25_2021-10-31 > CVM-3509_rw_app_imp_2021-10-25_2021-10-31,-5800.168196401,57.0,72.0,222,222,False
10,CVM-3509_rw_app_imp_2021-10-25_2021-10-31 > CVM-3509_email_open_2021-10-25_2021-10-31 > CVM-3509_email_clk_2021-10-25_2021-10-31,48862.756123534,184.0,128.0,415,415,False
11,CVM-3509_email_clk_2021-10-25_2021-10-31 > CVM-3509_display_imp_2021-10-25_2021-10-31 > CVM-3509_display_imp_2021-10-25_2021-10-31,-950.98292333186,32.0,35.0,108,108,False
12,FB_Impression_MobileFeed > CVM-3509_rw_app_push_clk_2021-10-25_2021-10-31 > CVM-3509_rw_app_imp_2021-10-25_2021-10-31,1002.1076324287,43.0,26.0,123,123,False
13,CVM-3509_display_imp_2021-10-25_2021-10-31,155562.64881302,879.0,612.0,6096,6096,False
14,FB_Impression_WebFeed,18912.279268119,120.0,93.0,3903,3903,False
15,_AlwaysOn_wow_web_view_2021-10-25_2021-10-31 > CVM-3509_rw_app_imp_2021-10-25_2021-10-31,4892.7078528717,21.0,12.0,101,101,False
16,CVM-3509_rw_app_push_clk_2021-10-25_2021-10-31 > CVM-3509_rw_app_imp_2021-10-25_2021-10-31,50125.717655076,192.0,140.0,680,680,False
17,CVM-3509_rw_app_imp_2021-10-25_2021-10-31 > CVM-3509_rw_app_clk_2021-10-25_2021-10-31,78545.385387019,323.0,200.0,727,727,False
18,CVM-3509_email_open_2021-10-25_2021-10-31,1088983.2842902,11553.0,8991.0,97086,97086,False
19,CVM-3509_rw_app_imp_2021-10-25_2021-10-31 > CVM-3509_email_open_2021-10-25_2021-10-31,41196.207381888,889.0,740.0,2839,2839,False
20,FB_Impression_MobileFeed > _AlwaysOn_wow_web_view_2021-10-25_2021-10-31 > _AlwaysOn_wow_web_clk_2021-10-25_2021-10-31,894.0534949384,2.0,0.0,157,157,False
21,CVM-3509_rw_app_clk_2021-10-25_2021-10-31 > CVM-3509_email_open_2021-10-25_2021-10-31,29466.641701796,113.0,74.0,227,227,False
22,FB_Impression_Instagram > FB_Impression_MobileFeed > CVM-3509_email_open_2021-10-25_2021-10-31,281.53155230262,46.0,40.0,245,245,False
23,_AlwaysOn_wow_web_view_2021-10-25_2021-10-31,15705.501736733,58.0,34.0,36956,36956,False
24,CVM-3509_email_open_2021-10-25_2021-10-31 > CVM-3509_email_clk_2021-10-25_2021-10-31,568636.88913302,3481.0,2493.0,9212,9212,False
25,FB_Impression_SuggestedVideo,4322.778661291,64.0,45.0,1854,1854,False
26,FB_Impression_MobileFeed > CVM-3509_rw_app_push_clk_2021-10-25_2021-10-31,11519.305523573,49.0,37.0,137,137,False
27,CVM-3509_rw_app_imp_2021-10-25_2021-10-31,416237.97961466,3606.0,2640.0,18118,18118,False
28,FB_Impression_MobileFeed > _AlwaysOn_wow_web_view_2021-10-25_2021-10-31,1861.0424674016,8.0,4.0,534,534,False
29,FB_Impression_MobileFeed > CVM-3509_email_open_2021-10-25_2021-10-31 > CVM-3509_display_imp_2021-10-25_2021-10-31,11673.251281001,35.0,25.0,129,129,False
30,FB_Impression_MobileFeed > CVM-3509_display_imp_2021-10-25_2021-10-31,10399.804721144,36.0,27.0,427,427,False
31,FB_Impression_MobileFeed > CVM-3509_email_open_2021-10-25_2021-10-31 > CVM-3509_email_clk_2021-10-25_2021-10-31,74801.324183774,648.0,543.0,1603,1603,False
32,FB_Impression_MobileFeed > FB_Click_MobileFeed > FB_Impression_MobileFeed > CVM-3509_email_open_2021-10-25_2021-10-31,-1826.6499528226,17.0,18.0,119,119,False
34,_AlwaysOn_wow_web_clk_2021-10-25_2021-10-31 > CVM-3509_email_open_2021-10-25_2021-10-31,2657.944999328,13.0,11.0,129,129,False
35,CVM-3509_rw_app_push_imp_2021-10-25_2021-10-31,110157.80201968,513.0,381.0,2577,2577,False
36,FB_Impression_Instagram > FB_Impression_MobileFeed,-8082.6393376763,64.0,60.0,2012,2012,False
37,FB_Impression_WebFeed > CVM-3509_email_open_2021-10-25_2021-10-31 > CVM-3509_email_clk_2021-10-25_2021-10-31,10653.911624864,44.0,41.0,119,119,False
38,_AlwaysOn_wow_web_view_2021-10-25_2021-10-31 > _AlwaysOn_wow_web_clk_2021-10-25_2021-10-31 > CVM-3509_email_open_2021-10-25_2021-10-31,1295.9267784422,4.0,3.0,108,108,False
39,FB_Impression_MobileFeed > CVM-3509_rw_app_imp_2021-10-25_2021-10-31 > CVM-3509_email_open_2021-10-25_2021-10-31,4088.0008477843,91.0,77.0,305,305,False
40,FB_Impression_MobileFeed > CVM-3509_email_open_2021-10-25_2021-10-31,108623.01280412,1023.0,815.0,6932,6932,False
41,_AlwaysOn_sem_brand_clk_2021-10-25_2021-10-31,0.1413202752022,1.0,0.0,221,221,False
42,FB_Impression_Instagram,12294.131945458,82.0,78.0,14743,14743,False
43,CVM-3509_email_clk_2021-10-25_2021-10-31,791387.09584455,5836.0,4386.0,12855,12855,False
44,FB_Impression_SuggestedVideo > CVM-3509_email_open_2021-10-25_2021-10-31,9945.3894747229,54.0,46.0,259,259,False
45,FB_Impression_WebFeed > CVM-3509_email_open_2021-10-25_2021-10-31,4474.9172096844,115.0,98.0,615,615,False
46,FB_Impression_MobileFeed > FB_Impression_SuggestedVideo > FB_Impression_MobileFeed > CVM-3509_email_open_2021-10-25_2021-10-31,6055.1125685997,46.0,42.0,227,227,False
47,CVM-3509_rw_app_push_clk_2021-10-25_2021-10-31 > CVM-3509_email_open_2021-10-25_2021-10-31,24265.936813691,150.0,112.0,334,334,False
48,_AlwaysOn_wow_web_view_2021-10-25_2021-10-31 > _AlwaysOn_sem_shopping_clk_2021-10-25_2021-10-31,936.51872783846,3.0,0.0,280,280,False
49,FB_Impression_Instagram > FB_Impression_InstagramStory > CVM-3509_email_open_2021-10-25_2021-10-31,1337.9656919719,18.0,15.0,110,110,False
50,_AlwaysOn_wow_web_clk_2021-10-25_2021-10-31,10638.676975751,18.0,14.0,4370,4370,False
51,CVM-3509_rw_app_push_imp_2021-10-25_2021-10-31 > CVM-3509_rw_app_imp_2021-10-25_2021-10-31 > CVM-3509_email_open_2021-10-25_2021-10-31,-4871.0413259489,54.0,60.0,195,195,False
52,_AlwaysOn_sem_shopping_clk_2021-10-25_2021-10-31,-7230.7897861901,2.0,11.0,5310,5310,False
53,FB_Impression_Instagram > CVM-3509_email_open_2021-10-25_2021-10-31 > CVM-3509_email_clk_2021-10-25_2021-10-31,11529.467618544,45.0,35.0,121,121,False
54,FB_Impression_MobileFeed > FB_Impression_SuggestedVideo > CVM-3509_email_open_2021-10-25_2021-10-31,7448.2742874339,27.0,19.0,123,123,False
55,CVM-3509_rw_web_oap_clk_2021-10-25_2021-10-31,3186.941037077,22.0,11.0,103,103,False
56,FB_Impression_MobileFeed > FB_Impression_Instagram > FB_Impression_MobileFeed > CVM-3509_email_open_2021-10-25_2021-10-31,1356.8152278897,65.0,45.0,251,251,False
57,FB_Impression_SuggestedVideo > FB_Impression_MobileFeed > CVM-3509_email_open_2021-10-25_2021-10-31,3156.5266211995,61.0,43.0,209,209,False
58,FB_Impression_Instagram > CVM-3509_email_open_2021-10-25_2021-10-31,-225.72127183411,71.0,66.0,449,449,False
59,CVM-3509_rw_app_push_clk_2021-10-25_2021-10-31 > CVM-3509_rw_app_imp_2021-10-25_2021-10-31 > CVM-3509_email_open_2021-10-25_2021-10-31,-3738.4872086514,60.0,51.0,172,172,False
60,FB_Impression_InstagramStory,19561.554072737,63.0,40.0,9306,9306,False
61,CVM-3509_rw_app_push_imp_2021-10-25_2021-10-31 > CVM-3509_rw_app_imp_2021-10-25_2021-10-31,-2785.7887656578,261.0,198.0,969,969,False
62,FB_Impression_MobileFeed,120268.89870419,1176.0,971.0,56281,56281,False
63,CVM-3509_rw_app_imp_2021-10-25_2021-10-31 > CVM-3509_rw_app_clk_2021-10-25_2021-10-31 > CVM-3509_email_open_2021-10-25_2021-10-31,11854.282417983,92.0,57.0,185,185,False
64,CVM-3509_rw_app_imp_2021-10-25_2021-10-31 > CVM-3509_display_imp_2021-10-25_2021-10-31,5405.132844163,60.0,50.0,169,169,False
65,FB_Impression_MobileFeed > FB_Impression_FacebookStory > FB_Impression_MobileFeed > CVM-3509_email_open_2021-10-25_2021-10-31,8743.7839342722,34.0,24.0,126,126,False
66,CVM-3509_rw_app_clk_2021-10-25_2021-10-31,89086.88185881,398.0,220.0,920,920,False
67,CVM-3509_email_open_2021-10-25_2021-10-31 > CVM-3509_display_imp_2021-10-25_2021-10-31,42090.330444401,285.0,195.0,875,875,False
68,FB_Impression_MobileFeed > CVM-3509_rw_app_push_imp_2021-10-25_2021-10-31,6986.0736387886,72.0,71.0,245,245,False
69,CVM-3509_email_clk_2021-10-25_2021-10-31 > CVM-3509_display_imp_2021-10-25_2021-10-31,17334.396707461,220.0,167.0,479,479,False
70,FB_Impression_MobileFeed > FB_Impression_InstagramStory > FB_Impression_MobileFeed > CVM-3509_email_open_2021-10-25_2021-10-31,-4420.7058933933,13.0,15.0,101,101,False
