,path,total_conversion_value,conversions,non_conversions,cnt,ppl,Converted
0,FB_Impression_MobileFeed > CVM-3509_rw_app_imp_2022-01-03_2022-01-09 > CVM-3509_rw_app_clk_2022-01-03_2022-01-09 > CVM-3509_email_open_2022-01-03_2022-01-09,29103.656509936,191.0,0.0,221,221,False
1,FB_Impression_MobileFeed > FB_Impression_Instagram > FB_Impression_MobileFeed > CVM-3509_email_open_2022-01-03_2022-01-09,5198.51104672,123.0,0.0,335,335,False
3,FB_Impression_FacebookStory > FB_Impression_MobileFeed > CVM-3509_email_open_2022-01-03_2022-01-09,6552.8922430937,39.0,0.0,142,142,False
4,FB_Impression_InstagramStory,14851.95511089,101.0,0.0,6552,6552,False
5,_AlwaysOn_wow_web_view_2022-01-03_2022-01-09 > CVM-3509_email_open_2022-01-03_2022-01-09 > CVM-3509_email_clk_2022-01-03_2022-01-09,24447.965997554,99.0,0.0,195,195,False
6,FB_Impression_Instagram > CVM-3509_email_open_2022-01-03_2022-01-09,9749.3255432089,147.0,0.0,696,696,False
7,_AlwaysOn_wow_web_view_2022-01-03_2022-01-09 > _AlwaysOn_wow_web_clk_2022-01-03_2022-01-09,68099.577845536,263.0,0.0,18009,18009,False
8,FB_Impression_SuggestedVideo > FB_Impression_MobileFeed > CVM-3509_email_open_2022-01-03_2022-01-09,3564.3601205799,86.0,0.0,297,297,False
9,FB_Impression_MobileFeed > CVM-3509_rw_app_imp_2022-01-03_2022-01-09,31994.488640707,384.0,0.0,1301,1301,False
10,_AlwaysOn_wow_web_view_2022-01-03_2022-01-09 > _AlwaysOn_wow_web_clk_2022-01-03_2022-01-09 > CVM-3509_email_open_2022-01-03_2022-01-09,10019.744765987,57.0,0.0,329,329,False
11,_AlwaysOn_wow_web_clk_2022-01-03_2022-01-09 > CVM-3509_email_open_2022-01-03_2022-01-09,24379.143349786,100.0,0.0,327,327,False
12,FB_Impression_MobileFeed > FB_Impression_SuggestedVideo > CVM-3509_email_open_2022-01-03_2022-01-09,-6187.4267553783,47.0,0.0,181,181,False
13,FB_Impression_WebFeed > CVM-3509_email_open_2022-01-03_2022-01-09,1698.6751666815,182.0,0.0,891,891,False
14,CVM-3509_rw_app_imp_2022-01-03_2022-01-09 > CVM-3509_email_open_2022-01-03_2022-01-09 > CVM-3509_email_clk_2022-01-03_2022-01-09,51407.233059736,182.0,0.0,225,225,False
15,_AlwaysOn_sem_brand_clk_2022-01-03_2022-01-09,1004.9473409068,1.0,0.0,413,413,False
16,CVM-3509_rw_app_clk_2022-01-03_2022-01-09 > CVM-3509_email_open_2022-01-03_2022-01-09 > CVM-3509_email_clk_2022-01-03_2022-01-09,36884.861038119,167.0,0.0,190,190,False
17,FB_Impression_MobileFeed > FB_Impression_SuggestedVideo > FB_Impression_MobileFeed > CVM-3509_email_open_2022-01-03_2022-01-09,975.942668591,86.0,0.0,339,339,False
18,CVM-3509_email_open_2022-01-03_2022-01-09 > CVM-3509_email_clk_2022-01-03_2022-01-09,505685.10466187,4146.0,0.0,6539,6539,False
19,_AlwaysOn_wow_web_clk_2022-01-03_2022-01-09 > _AlwaysOn_sem_shopping_clk_2022-01-03_2022-01-09,-3054.3818012432,3.0,0.0,257,257,False
20,CVM-3509_rw_app_clk_2022-01-03_2022-01-09,308652.98645225,3510.0,0.0,4139,4139,False
21,FB_Impression_MobileFeed > FB_Impression_Instagram > CVM-3509_email_open_2022-01-03_2022-01-09,16725.792231883,49.0,0.0,138,138,False
22,CVM-3509_rw_app_imp_2022-01-03_2022-01-09 > CVM-3509_rw_app_clk_2022-01-03_2022-01-09 > CVM-3509_email_open_2022-01-03_2022-01-09,51065.69781604,478.0,0.0,623,623,False
23,CVM-3509_rw_app_imp_2022-01-03_2022-01-09 > CVM-3509_rw_app_clk_2022-01-03_2022-01-09,366040.32824394,2200.0,0.0,2950,2950,False
24,FB_Impression_FacebookStory > CVM-3509_email_open_2022-01-03_2022-01-09,-15086.783073609,27.0,0.0,164,164,False
25,FB_Impression_WebFeed > _AlwaysOn_wow_web_view_2022-01-03_2022-01-09,-1153.0010084276,7.0,0.0,185,185,False
26,FB_Impression_MobileFeed > FB_Impression_FacebookStory > FB_Impression_MobileFeed,43766.44120699,142.0,0.0,2763,2763,False
27,FB_Impression_MobileFeed > CVM-3509_rw_app_imp_2022-01-03_2022-01-09 > CVM-3509_email_open_2022-01-03_2022-01-09 > CVM-3509_email_clk_2022-01-03_2022-01-09,490.7253746883,89.0,0.0,111,111,False
28,FB_Impression_SuggestedVideo > CVM-3509_email_open_2022-01-03_2022-01-09,-1201.9725894484,95.0,0.0,417,417,False
29,FB_Impression_MobileFeed > FB_Click_MobileFeed > FB_Impression_MobileFeed > CVM-3509_email_open_2022-01-03_2022-01-09,4595.0914051841,38.0,0.0,148,148,False
30,FB_Impression_MobileFeed,192655.60365811,1831.0,0.0,66301,66301,False
31,FB_Impression_Instagram > CVM-3509_email_open_2022-01-03_2022-01-09 > CVM-3509_email_clk_2022-01-03_2022-01-09,6500.7002182224,95.0,0.0,163,163,False
32,FB_Impression_InstagramStory > _AlwaysOn_wow_web_view_2022-01-03_2022-01-09,-720.91058330428,4.0,0.0,107,107,False
33,FB_Impression_MobileFeed > CVM-3509_rw_app_imp_2022-01-03_2022-01-09 > CVM-3509_rw_app_clk_2022-01-03_2022-01-09,46943.098117973,633.0,0.0,765,765,False
34,_AlwaysOn_wow_web_clk_2022-01-03_2022-01-09,30892.091014486,358.0,0.0,9618,9618,False
35,FB_Impression_MobileFeed > FB_Impression_FacebookStory > FB_Impression_MobileFeed > CVM-3509_email_open_2022-01-03_2022-01-09,5777.9331517955,128.0,0.0,344,344,False
36,FB_Impression_Instagram > FB_Impression_MobileFeed > CVM-3509_email_open_2022-01-03_2022-01-09,3712.5831045315,72.0,0.0,273,273,False
37,FB_Impression_Instagram,4434.1822358428,139.0,0.0,17003,17003,False
38,CVM-3509_rw_app_clk_2022-01-03_2022-01-09 > CVM-3509_email_open_2022-01-03_2022-01-09,133874.41316235,1064.0,0.0,1285,1285,False
39,CVM-3509_rw_app_imp_2022-01-03_2022-01-09,96257.710800731,2142.0,0.0,12957,12957,False
40,_AlwaysOn_wow_web_view_2022-01-03_2022-01-09 > _AlwaysOn_sem_shopping_clk_2022-01-03_2022-01-09,339.08282574093,2.0,0.0,3145,3145,False
41,_AlwaysOn_wow_web_view_2022-01-03_2022-01-09 > CVM-3509_rw_app_imp_2022-01-03_2022-01-09 > CVM-3509_rw_app_clk_2022-01-03_2022-01-09,-9653.5172408284,78.0,0.0,108,108,False
42,FB_Impression_MobileFeed > FB_Impression_Instagram > FB_Impression_MobileFeed,-19848.911012084,151.0,0.0,2522,2522,False
43,CVM-3509_email_clk_2022-01-03_2022-01-09,537031.47214985,5350.0,0.0,7086,7086,False
44,FB_Impression_MobileFeed > _AlwaysOn_wow_web_view_2022-01-03_2022-01-09 > _AlwaysOn_wow_web_clk_2022-01-03_2022-01-09,14946.93822904,67.0,0.0,427,427,False
45,CVM-3509_rw_app_imp_2022-01-03_2022-01-09 > CVM-3509_email_open_2022-01-03_2022-01-09,103090.12224594,983.0,0.0,2553,2553,False
46,FB_Impression_WebFeed > CVM-3509_email_open_2022-01-03_2022-01-09 > CVM-3509_email_clk_2022-01-03_2022-01-09,20895.88587916,94.0,0.0,133,133,False
47,FB_Impression_MobileFeed > CVM-3509_email_open_2022-01-03_2022-01-09 > CVM-3509_email_clk_2022-01-03_2022-01-09,107961.3992983,1217.0,0.0,1747,1747,False
48,FB_Impression_MobileFeed > _AlwaysOn_wow_web_view_2022-01-03_2022-01-09,20697.69188245,54.0,0.0,1738,1738,False
49,FB_Impression_WebFeed > FB_Impression_MobileFeed > CVM-3509_email_open_2022-01-03_2022-01-09,2523.1888502156,28.0,0.0,218,218,False
50,_AlwaysOn_sem_shopping_clk_2022-01-03_2022-01-09,995.84783540135,10.0,0.0,5284,5284,False
51,FB_Impression_InstagramStory > CVM-3509_email_open_2022-01-03_2022-01-09,6608.2472438439,74.0,0.0,310,310,False
52,FB_Impression_MobileFeed > CVM-3509_rw_app_imp_2022-01-03_2022-01-09 > CVM-3509_email_open_2022-01-03_2022-01-09,4423.8816424241,261.0,0.0,551,551,False
53,CVM-3509_email_open_2022-01-03_2022-01-09,1142080.6837343,11279.0,0.0,102087,102087,False
54,_AlwaysOn_wow_web_view_2022-01-03_2022-01-09,23864.22136746,232.0,0.0,134493,134493,False
55,_AlwaysOn_wow_web_view_2022-01-03_2022-01-09 > CVM-3509_email_open_2022-01-03_2022-01-09,14595.417709596,53.0,0.0,1481,1481,False
56,FB_Impression_SuggestedVideo,33119.769461539,103.0,0.0,3682,3682,False
57,FB_Impression_MobileFeed > FB_Impression_WebFeed > FB_Impression_MobileFeed > CVM-3509_email_open_2022-01-03_2022-01-09,4041.0234767181,42.0,0.0,154,154,False
58,FB_Impression_Instagram > _AlwaysOn_wow_web_view_2022-01-03_2022-01-09,459.21773539752,4.0,0.0,189,189,False
59,FB_Impression_Instagram > FB_Impression_InstagramStory > CVM-3509_email_open_2022-01-03_2022-01-09,-1167.2590872346,35.0,0.0,114,114,False
60,FB_Impression_MobileFeed > CVM-3509_email_open_2022-01-03_2022-01-09,193236.75464332,1962.0,0.0,9927,9927,False
61,_AlwaysOn_wow_web_view_2022-01-03_2022-01-09 > _AlwaysOn_wow_web_clk_2022-01-03_2022-01-09 > _AlwaysOn_sem_shopping_clk_2022-01-03_2022-01-09,-5764.51845555,6.0,0.0,284,284,False
62,FB_Impression_MobileFeed > _AlwaysOn_wow_web_view_2022-01-03_2022-01-09 > CVM-3509_email_open_2022-01-03_2022-01-09,6729.3297353352,19.0,0.0,280,280,False
63,FB_Impression_MobileFeed > FB_Impression_FacebookStory > CVM-3509_email_open_2022-01-03_2022-01-09,7086.0622467,57.0,0.0,203,203,False
64,_AlwaysOn_wow_web_view_2022-01-03_2022-01-09 > CVM-3509_rw_app_imp_2022-01-03_2022-01-09,2548.9535391263,22.0,0.0,209,209,False
65,FB_Impression_WebFeed,20736.222497494,150.0,0.0,6147,6147,False
