,channel_name,total_conversions,total_conversion_value,normalised_conversion_value
0,FB_Impression_MobileFeed,8932.692278813665,1282884.9643474354,0.13393155596007708
1,CVM-3509_rw_app_imp_2021-10-11_2021-10-17,9498.373169816045,1722911.1445932963,0.17986972861102488
2,CVM-3509_rw_app_clk_2021-10-11_2021-10-17,1224.2347641096233,307823.88000031956,0.032136420923041954
3,FB_Impression_InstagramStory,515.0229007633587,67440.80084076856,0.007040733692277967
4,_AlwaysOn_wow_web_view_2021-10-11_2021-10-17,160.4169690902265,72771.58405945219,0.0075972606692133755
5,FB_Click_MobileFeed,109.75897885120762,57074.3571505697,0.005958490177243017
6,CVM-3509_rw_app_push_clk_2021-10-11_2021-10-17,1705.4856713803028,223427.5124577797,0.023325547667464766
7,CVM-3509_email_open_2021-10-11_2021-10-17,27110.46777624828,2961124.3345468915,0.30913760823352177
8,FB_Impression_FacebookStory,160.4169690902265,20603.967266510983,0.002151027934416549
9,FB_Impression_Instagram,827.413840570642,92821.02230655932,0.009690396480440568
10,CVM-3509_email_clk_2021-10-11_2021-10-17,12867.1295207108,2167891.7467739503,0.22632513660033138
11,CVM-3509_rw_app_push_imp_2021-10-11_2021-10-17,2279.60956075585,313220.0846764153,0.032699777816788206
12,FB_Impression_SuggestedVideo,1308.6647478413215,156003.918239274,0.016286610324630846
13,_AlwaysOn_sem_brand_clk_2021-10-11_2021-10-17,0.0,0.0,0.0
14,FB_Impression_WebFeed,523.4658991365286,64661.26344231651,0.006750553528841982
15,CVM-3509_rw_web_oap_clk_2021-10-11_2021-10-17,8.442998373169816,2522.3864731843655,0.00026333393443275387
16,_AlwaysOn_wow_web_clk_2021-10-11_2021-10-17,109.75897885120762,52653.524066713675,0.005496960835162216
17,_AlwaysOn_sem_shopping_clk_2021-10-11_2021-10-17,0.0,0.0,0.0
18,FB_Impression_Other,126.64497559754724,12824.453531303625,0.0013388566110905276
