,channel_name,total_conversions,total_conversion_value,normalised_conversion_value
0,CVM-3509_rw_app_imp_2021-12-20_2021-12-26,17756.5868746638,8097229.47021755,0.1460007392922929
1,CVM-3509_rw_app_clk_2021-12-20_2021-12-26,9518.923238300162,4773282.851866565,0.0860668241880786
2,CVM-3509_email_open_2021-12-20_2021-12-26,53966.09736417429,21803119.079336423,0.3931309488226087
3,CVM-3509_email_clk_2021-12-20_2021-12-26,30241.90462614309,12423302.06149831,0.22400393765566431
4,FB_Impression_SuggestedVideo,188.0109198493814,98981.60239914873,0.0017847323185992455
5,FB_Impression_MobileFeed,8335.15077998924,3479183.6219296874,0.06273298574576819
6,_AlwaysOn_wow_web_view_2021-12-20_2021-12-26,1518.014093598709,882528.0947302168,0.015912819903493303
7,FB_Impression_WebFeed,341.2050026896181,70379.55142842501,0.0012690101691454135
8,FB_Impression_Instagram,605.8129639591178,216808.33912619008,0.003909260311021845
9,CVM-3509_rw_app_push_imp_2021-12-20_2021-12-26,4129.276869284562,2474764.620772379,0.04462235700941184
10,CVM-3509_rw_app_push_clk_2021-12-20_2021-12-26,2506.8122646584184,811968.2212720382,0.01464055835685494
11,_AlwaysOn_wow_web_clk_2021-12-20_2021-12-26,125.34061323292093,171474.58634662913,0.0030918496837135253
12,FB_Impression_InstagramStory,146.23071543840774,87988.84517970443,0.0015865224633885547
13,FB_Click_MobileFeed,69.6336740182894,69184.04651885753,0.0012474540799588083
