,channel_from,channel_to,transition_probability
0,(start),CVM-3509_rw_app_push_imp_2021-11-22_2021-11-28,0.036074854975457385
1,(start),FB_Impression_MobileFeed,0.039891045664138036
2,(start),CVM-3509_rw_app_imp_2021-11-22_2021-11-28,0.24924233972928753
3,(start),CVM-3509_rw_app_clk_2021-11-22_2021-11-28,0.006000855272943626
4,(start),CVM-3509_email_open_2021-11-22_2021-11-28,0.6045245798006842
5,(start),FB_Impression_SuggestedVideo,0.007186152015469284
6,(start),CVM-3509_rw_app_push_clk_2021-11-22_2021-11-28,0.029330284099360403
7,(start),_AlwaysOn_wow_web_view_2021-11-22_2021-11-28,0.00846906143090882
8,(start),CVM-3509_email_clk_2021-11-22_2021-11-28,0.0032072735385988396
9,(start),FB_Impression_Instagram,0.004132269820020824
10,(start),FB_Impression_Other,0.0012271307452030344
11,(start),CVM-3509_display_clk_2021-11-22_2021-11-28,0.004225234270414993
12,(start),FB_Impression_InstagramStory,0.0033420719916703854
13,(start),FB_Impression_WebFeed,0.00314684664584263
14,CVM-3509_rw_app_push_imp_2021-11-22_2021-11-28,(conversion),0.30707688687569856
15,CVM-3509_rw_app_push_imp_2021-11-22_2021-11-28,(null),0.33625507382787223
16,CVM-3509_rw_app_push_imp_2021-11-22_2021-11-28,CVM-3509_rw_app_imp_2021-11-22_2021-11-28,0.1564209659391729
17,CVM-3509_rw_app_push_imp_2021-11-22_2021-11-28,CVM-3509_email_open_2021-11-22_2021-11-28,0.17048061650685334
18,CVM-3509_rw_app_push_imp_2021-11-22_2021-11-28,FB_Impression_MobileFeed,0.01158891699511736
19,CVM-3509_rw_app_push_imp_2021-11-22_2021-11-28,CVM-3509_rw_app_push_clk_2021-11-22_2021-11-28,0.018177539855285606
20,CVM-3509_rw_app_imp_2021-11-22_2021-11-28,CVM-3509_rw_app_clk_2021-11-22_2021-11-28,0.472210330523612
21,CVM-3509_rw_app_imp_2021-11-22_2021-11-28,CVM-3509_rw_app_push_clk_2021-11-22_2021-11-28,0.03290474011307775
22,CVM-3509_rw_app_imp_2021-11-22_2021-11-28,CVM-3509_rw_app_push_imp_2021-11-22_2021-11-28,0.059137007130098465
23,CVM-3509_rw_app_imp_2021-11-22_2021-11-28,(conversion),0.13485186224000237
24,CVM-3509_rw_app_imp_2021-11-22_2021-11-28,(null),0.1433400746962696
25,CVM-3509_rw_app_imp_2021-11-22_2021-11-28,CVM-3509_email_open_2021-11-22_2021-11-28,0.14936301501306445
26,CVM-3509_rw_app_imp_2021-11-22_2021-11-28,FB_Impression_MobileFeed,0.00819297028387535
27,CVM-3509_rw_app_clk_2021-11-22_2021-11-28,(conversion),0.29411941464587277
28,CVM-3509_rw_app_clk_2021-11-22_2021-11-28,(null),0.3112773821328766
29,CVM-3509_rw_app_clk_2021-11-22_2021-11-28,FB_Impression_InstagramStory,0.0039063673788274885
30,CVM-3509_rw_app_clk_2021-11-22_2021-11-28,CVM-3509_email_open_2021-11-22_2021-11-28,0.145407013431894
31,CVM-3509_rw_app_clk_2021-11-22_2021-11-28,CVM-3509_rw_app_imp_2021-11-22_2021-11-28,0.13494996844857118
32,CVM-3509_rw_app_clk_2021-11-22_2021-11-28,CVM-3509_rw_app_push_clk_2021-11-22_2021-11-28,0.025511583881727216
33,CVM-3509_rw_app_clk_2021-11-22_2021-11-28,CVM-3509_rw_app_push_imp_2021-11-22_2021-11-28,0.05826497190420385
34,CVM-3509_rw_app_clk_2021-11-22_2021-11-28,FB_Impression_SuggestedVideo,0.003816220439316085
35,CVM-3509_rw_app_clk_2021-11-22_2021-11-28,FB_Impression_MobileFeed,0.02274707773671084
36,FB_Impression_MobileFeed,CVM-3509_email_open_2021-11-22_2021-11-28,0.28295544826743263
37,FB_Impression_MobileFeed,(conversion),0.32549043573916764
38,FB_Impression_MobileFeed,(null),0.3209069241581617
39,FB_Impression_MobileFeed,FB_Impression_SuggestedVideo,0.014361669620485242
40,FB_Impression_MobileFeed,CVM-3509_rw_app_push_imp_2021-11-22_2021-11-28,0.012039357086108904
41,FB_Impression_MobileFeed,FB_Impression_FacebookStory,0.006600256676648536
42,FB_Impression_MobileFeed,CVM-3509_rw_app_imp_2021-11-22_2021-11-28,0.01723400354458229
43,FB_Impression_MobileFeed,FB_Impression_Instagram,0.01338385381653731
44,FB_Impression_MobileFeed,FB_Click_MobileFeed,0.007028051090875756
45,CVM-3509_email_open_2021-11-22_2021-11-28,FB_Impression_MobileFeed,0.024358443825925277
46,CVM-3509_email_open_2021-11-22_2021-11-28,(conversion),0.3126576609771721
47,CVM-3509_email_open_2021-11-22_2021-11-28,(null),0.3115919436303548
48,CVM-3509_email_open_2021-11-22_2021-11-28,CVM-3509_email_clk_2021-11-22_2021-11-28,0.2993928812348716
49,CVM-3509_email_open_2021-11-22_2021-11-28,FB_Impression_Instagram,0.0014115086136037686
50,CVM-3509_email_open_2021-11-22_2021-11-28,FB_Impression_Other,0.0005725396384497214
51,CVM-3509_email_open_2021-11-22_2021-11-28,CVM-3509_rw_app_push_imp_2021-11-22_2021-11-28,0.015311183796561361
52,CVM-3509_email_open_2021-11-22_2021-11-28,CVM-3509_rw_app_imp_2021-11-22_2021-11-28,0.021960579795586344
53,CVM-3509_email_open_2021-11-22_2021-11-28,FB_Impression_WebFeed,0.0023921953210473508
54,CVM-3509_email_open_2021-11-22_2021-11-28,FB_Impression_InstagramStory,0.001967042124178746
55,CVM-3509_email_open_2021-11-22_2021-11-28,CVM-3509_rw_app_push_clk_2021-11-22_2021-11-28,0.0029023791572896766
56,CVM-3509_email_open_2021-11-22_2021-11-28,FB_Impression_SuggestedVideo,0.003350207191324607
57,CVM-3509_email_open_2021-11-22_2021-11-28,_AlwaysOn_wow_web_view_2021-11-22_2021-11-28,0.0011394105676078613
58,CVM-3509_email_open_2021-11-22_2021-11-28,CVM-3509_display_clk_2021-11-22_2021-11-28,0.000992024126026745
59,CVM-3509_rw_app_push_clk_2021-11-22_2021-11-28,CVM-3509_email_open_2021-11-22_2021-11-28,0.24056147144240078
60,CVM-3509_rw_app_push_clk_2021-11-22_2021-11-28,(conversion),0.2713455953533398
61,CVM-3509_rw_app_push_clk_2021-11-22_2021-11-28,(null),0.30464666021297193
62,CVM-3509_rw_app_push_clk_2021-11-22_2021-11-28,CVM-3509_rw_app_imp_2021-11-22_2021-11-28,0.18344627299128752
63,CVM-3509_email_clk_2021-11-22_2021-11-28,CVM-3509_email_open_2021-11-22_2021-11-28,0.34669657041398
64,CVM-3509_email_clk_2021-11-22_2021-11-28,FB_Impression_SuggestedVideo,0.003345481730679376
65,CVM-3509_email_clk_2021-11-22_2021-11-28,FB_Impression_MobileFeed,0.02437155406036819
66,CVM-3509_email_clk_2021-11-22_2021-11-28,(conversion),0.306943276329315
67,CVM-3509_email_clk_2021-11-22_2021-11-28,(null),0.2939912157742267
68,CVM-3509_email_clk_2021-11-22_2021-11-28,CVM-3509_rw_app_push_imp_2021-11-22_2021-11-28,0.0073824876179796285
69,CVM-3509_email_clk_2021-11-22_2021-11-28,CVM-3509_rw_app_imp_2021-11-22_2021-11-28,0.013026819923371647
70,CVM-3509_email_clk_2021-11-22_2021-11-28,FB_Impression_InstagramStory,0.0019811232595084573
71,CVM-3509_email_clk_2021-11-22_2021-11-28,CVM-3509_rw_app_push_clk_2021-11-22_2021-11-28,0.002261470890570975
72,FB_Impression_SuggestedVideo,(conversion),0.31105302464525764
73,FB_Impression_SuggestedVideo,(null),0.31366691560866317
74,FB_Impression_SuggestedVideo,FB_Impression_MobileFeed,0.17064973861090366
75,FB_Impression_SuggestedVideo,CVM-3509_email_open_2021-11-22_2021-11-28,0.2046303211351755
76,FB_Impression_Instagram,(conversion),0.2711864406779661
77,FB_Impression_Instagram,(null),0.28076639646278556
78,FB_Impression_Instagram,CVM-3509_email_open_2021-11-22_2021-11-28,0.19528371407516582
79,FB_Impression_Instagram,FB_Impression_InstagramStory,0.0950626381724392
80,FB_Impression_Instagram,FB_Impression_MobileFeed,0.15770081061164334
81,FB_Impression_InstagramStory,(conversion),0.4060097833682739
82,FB_Impression_InstagramStory,(null),0.4381551362683438
83,FB_Impression_InstagramStory,CVM-3509_email_open_2021-11-22_2021-11-28,0.15583508036338226
84,FB_Impression_Other,(conversion),0.4438356164383562
85,FB_Impression_Other,(null),0.5561643835616439
86,_AlwaysOn_wow_web_view_2021-11-22_2021-11-28,CVM-3509_email_open_2021-11-22_2021-11-28,0.5565991102323282
87,_AlwaysOn_wow_web_view_2021-11-22_2021-11-28,CVM-3509_rw_app_imp_2021-11-22_2021-11-28,0.10973801285219971
88,_AlwaysOn_wow_web_view_2021-11-22_2021-11-28,(conversion),0.17004448838358874
89,_AlwaysOn_wow_web_view_2021-11-22_2021-11-28,(null),0.16361838853188335
90,FB_Impression_FacebookStory,(conversion),0.4722222222222222
91,FB_Impression_FacebookStory,(null),0.5277777777777778
92,FB_Impression_WebFeed,(conversion),0.3994540491355778
93,FB_Impression_WebFeed,(null),0.3921747042766151
94,FB_Impression_WebFeed,CVM-3509_email_open_2021-11-22_2021-11-28,0.2083712465878071
95,CVM-3509_display_clk_2021-11-22_2021-11-28,CVM-3509_email_open_2021-11-22_2021-11-28,0.40682656826568264
96,CVM-3509_display_clk_2021-11-22_2021-11-28,(conversion),0.2924354243542435
97,CVM-3509_display_clk_2021-11-22_2021-11-28,(null),0.3007380073800738
98,FB_Click_MobileFeed,(conversion),0.5391304347826087
99,FB_Click_MobileFeed,(null),0.4608695652173913
