,path,total_conversion_value,conversions,non_conversions,cnt,ppl,Converted
0,WCT-5002_rw_app_push_imp_2021-09-09_2021-09-12 > WCT-5002_email_open_2021-09-09_2021-09-12 > WCT-5002_email_clk_2021-09-09_2021-09-12,775.77742001438,4.0,0.0,161,161,False
1,FB_Impression_MobileFeed > WCT-5002_email_open_2021-09-09_2021-09-12,409.65893654449,1.0,0.0,436,436,False
2,WCT-5002_rw_app_push_clk_2021-09-09_2021-09-12,125381.36249388,208.0,11.0,14468,14468,False
3,FB_Impression_MobileFeed > FB_Impression_InstagramStory > WCT-5002_rw_app_imp_2021-09-09_2021-09-12,2963.1940593311,4.0,0.0,109,109,False
4,FB_Impression_MobileFeed > WCT-5002_rw_app_push_clk_2021-09-09_2021-09-12 > WCT-5002_rw_app_imp_2021-09-09_2021-09-12 > WCT-5002_rw_app_clk_2021-09-09_2021-09-12,6117.2543616396,9.0,0.0,101,101,False
5,WCT-5002_rw_app_push_clk_2021-09-09_2021-09-12 > WCT-5002_rw_app_imp_2021-09-09_2021-09-12 > WCT-5002_email_open_2021-09-09_2021-09-12,3429.5104644354,9.0,0.0,395,395,False
6,_AlwaysOn_sem_shopping_clk_2021-09-09_2021-09-12 > WCT-5002_rw_app_imp_2021-09-09_2021-09-12,-1239.6378417439,2.0,1.0,100,100,False
7,FB_Impression_MobileFeed > FB_Impression_Instagram > WCT-5002_rw_app_imp_2021-09-09_2021-09-12,431.0197239483,2.0,0.0,110,110,False
8,FB_Impression_InstagramStory > WCT-5002_rw_app_imp_2021-09-09_2021-09-12,3606.2531492729,8.0,1.0,507,507,False
9,FB_Impression_MobileFeed > WCT-5002_rw_app_imp_2021-09-09_2021-09-12,51113.052907205,84.0,6.0,5627,5627,False
10,FB_Impression_MobileFeed > FB_Click_MobileFeed > FB_Impression_MobileFeed > WCT-5002_rw_app_push_clk_2021-09-09_2021-09-12 > WCT-5002_rw_app_imp_2021-09-09_2021-09-12,1585.0874708586,4.0,0.0,113,113,False
11,FB_Impression_MobileFeed > WCT-5002_email_open_2021-09-09_2021-09-12 > WCT-5002_email_clk_2021-09-09_2021-09-12,339.43169026923,1.0,0.0,129,129,False
12,WCT-5002_rw_app_imp_2021-09-09_2021-09-12,1034176.715701,1609.0,124.0,105269,105269,False
13,WCT-5002_rw_web_oap_clk_2021-09-09_2021-09-12,23197.776712129,33.0,1.0,635,635,False
14,WCT-5002_rw_app_clk_2021-09-09_2021-09-12,128382.05768367,219.0,14.0,2055,2055,False
15,WCT-5002_rw_app_push_imp_2021-09-09_2021-09-12 > WCT-5002_rw_app_imp_2021-09-09_2021-09-12,82545.246833607,133.0,11.0,12699,12699,False
16,FB_Impression_Instagram > WCT-5002_rw_app_push_imp_2021-09-09_2021-09-12 > WCT-5002_rw_app_imp_2021-09-09_2021-09-12,440.44187947805,3.0,1.0,259,259,False
17,WCT-5002_rw_app_imp_2021-09-09_2021-09-12 > WCT-5002_email_open_2021-09-09_2021-09-12,23634.861196665,47.0,6.0,3452,3452,False
18,FB_Impression_MobileFeed > FB_Impression_Instagram > FB_Impression_MobileFeed > WCT-5002_rw_app_imp_2021-09-09_2021-09-12,3410.5694440883,6.0,0.0,253,253,False
19,FB_Impression_Instagram > WCT-5002_rw_app_imp_2021-09-09_2021-09-12,4632.8897937851,8.0,0.0,691,691,False
20,FB_Impression_Instagram > WCT-5002_rw_app_push_clk_2021-09-09_2021-09-12 > WCT-5002_rw_app_imp_2021-09-09_2021-09-12,922.96158402563,2.0,0.0,208,208,False
21,FB_Impression_MobileFeed > WCT-5002_rw_app_push_clk_2021-09-09_2021-09-12 > WCT-5002_rw_app_imp_2021-09-09_2021-09-12,24450.4404942,35.0,2.0,1740,1740,False
22,WCT-5002_rw_app_imp_2021-09-09_2021-09-12 > WCT-5002_rw_app_clk_2021-09-09_2021-09-12,245245.23054033,394.0,28.0,3767,3767,False
23,WCT-5002_rw_app_push_clk_2021-09-09_2021-09-12 > WCT-5002_email_open_2021-09-09_2021-09-12 > WCT-5002_email_clk_2021-09-09_2021-09-12,9604.212393225,10.0,0.0,265,265,False
24,FB_Impression_MobileFeed > WCT-5002_rw_app_push_imp_2021-09-09_2021-09-12,10032.225079956,17.0,1.0,1283,1283,False
25,FB_Impression_MobileFeed > FB_Click_MobileFeed > FB_Impression_MobileFeed > WCT-5002_rw_app_imp_2021-09-09_2021-09-12,1277.843268447,6.0,1.0,342,342,False
26,WCT-5002_rw_app_push_imp_2021-09-09_2021-09-12 > WCT-5002_rw_app_imp_2021-09-09_2021-09-12 > WCT-5002_email_open_2021-09-09_2021-09-12,2028.2636058721,5.0,2.0,438,438,False
27,WCT-5002_email_open_2021-09-09_2021-09-12 > WCT-5002_email_clk_2021-09-09_2021-09-12,169496.85795609,299.0,12.0,17137,17137,False
28,WCT-5002_rw_app_imp_2021-09-09_2021-09-12 > WCT-5002_rw_app_imp_2021-09-09_2021-09-12,902.51961344102,6.0,1.0,293,293,False
29,FB_Impression_Instagram > FB_Impression_MobileFeed > WCT-5002_rw_app_imp_2021-09-09_2021-09-12,2046.9846455862,5.0,1.0,238,238,False
30,FB_Impression_MobileFeed > WCT-5002_rw_app_push_clk_2021-09-09_2021-09-12,6442.7906883742,16.0,2.0,687,687,False
31,WCT-5002_rw_app_push_clk_2021-09-09_2021-09-12 > WCT-5002_rw_app_imp_2021-09-09_2021-09-12,123985.61439174,185.0,18.0,11467,11467,False
32,WCT-5002_rw_app_imp_2021-09-09_2021-09-12 > WCT-5002_email_open_2021-09-09_2021-09-12 > WCT-5002_email_clk_2021-09-09_2021-09-12,18472.264612918,34.0,2.0,829,829,False
33,WCT-5002_email_open_2021-09-09_2021-09-12,182290.38002481,344.0,21.0,113485,113485,False
34,WCT-5002_email_clk_2021-09-09_2021-09-12,315007.87962336,573.0,29.0,15025,15025,False
35,WCT-5002_rw_app_push_imp_2021-09-09_2021-09-12,108596.25514588,181.0,20.0,20233,20233,False
36,FB_Impression_MobileFeed > FB_Click_MobileFeed > FB_Impression_MobileFeed > WCT-5002_rw_app_push_imp_2021-09-09_2021-09-12 > WCT-5002_rw_app_imp_2021-09-09_2021-09-12,6987.8650358118,13.0,0.0,160,160,False
38,WCT-5002_rw_app_imp_2021-09-09_2021-09-12 > WCT-5002_rw_app_clk_2021-09-09_2021-09-12 > WCT-5002_email_open_2021-09-09_2021-09-12,9374.1087720981,20.0,0.0,173,173,False
39,WCT-5002_rw_app_clk_2021-09-09_2021-09-12 > WCT-5002_email_open_2021-09-09_2021-09-12,10626.00967797,18.0,0.0,134,134,False
40,FB_Impression_MobileFeed > WCT-5002_rw_app_push_imp_2021-09-09_2021-09-12 > WCT-5002_rw_app_push_clk_2021-09-09_2021-09-12 > WCT-5002_rw_app_imp_2021-09-09_2021-09-12,3802.0670628062,5.0,1.0,169,169,False
41,_AlwaysOn_sem_shopping_clk_2021-09-09_2021-09-12,23358.933123574,29.0,2.0,4254,4254,False
42,FB_Impression_MobileFeed > FB_Impression_InstagramStory > FB_Impression_MobileFeed > WCT-5002_rw_app_imp_2021-09-09_2021-09-12,2127.5929482417,3.0,0.0,130,130,False
43,FB_Impression_MobileFeed > _AlwaysOn_sem_shopping_clk_2021-09-09_2021-09-12,714.60446443571,1.0,0.0,211,211,False
44,WCT-5002_rw_app_push_imp_2021-09-09_2021-09-12 > WCT-5002_rw_app_push_clk_2021-09-09_2021-09-12,3924.2399984247,8.0,0.0,285,285,False
45,WCT-5002_rw_app_push_clk_2021-09-09_2021-09-12 > WCT-5002_email_open_2021-09-09_2021-09-12,4954.1988474291,10.0,0.0,369,369,False
46,FB_Impression_Instagram > WCT-5002_rw_app_push_imp_2021-09-09_2021-09-12,804.95411124973,2.0,0.0,166,166,False
47,WCT-5002_rw_app_push_clk_2021-09-09_2021-09-12 > WCT-5002_rw_app_imp_2021-09-09_2021-09-12 > WCT-5002_email_open_2021-09-09_2021-09-12 > WCT-5002_email_clk_2021-09-09_2021-09-12,2173.4163169389,5.0,0.0,155,155,False
48,FB_Impression_MobileFeed > WCT-5002_rw_app_push_imp_2021-09-09_2021-09-12 > WCT-5002_rw_app_imp_2021-09-09_2021-09-12,42418.054274242,66.0,2.0,2401,2401,False
49,WCT-5002_rw_app_push_imp_2021-09-09_2021-09-12 > WCT-5002_rw_app_push_clk_2021-09-09_2021-09-12 > WCT-5002_rw_app_imp_2021-09-09_2021-09-12,7361.6610138901,12.0,1.0,618,618,False
50,FB_Impression_MobileFeed > WCT-5002_rw_app_push_imp_2021-09-09_2021-09-12 > WCT-5002_rw_app_imp_2021-09-09_2021-09-12 > WCT-5002_rw_app_clk_2021-09-09_2021-09-12,12939.077406966,22.0,3.0,136,136,False
51,WCT-5002_rw_app_push_clk_2021-09-09_2021-09-12 > WCT-5002_rw_app_imp_2021-09-09_2021-09-12 > WCT-5002_rw_app_clk_2021-09-09_2021-09-12,38788.337495039,56.0,3.0,699,699,False
52,FB_Impression_MobileFeed > WCT-5002_rw_app_imp_2021-09-09_2021-09-12 > WCT-5002_rw_app_clk_2021-09-09_2021-09-12,21246.729983221,32.0,2.0,242,242,False
53,WCT-5002_rw_app_push_imp_2021-09-09_2021-09-12 > WCT-5002_email_open_2021-09-09_2021-09-12,755.48243750236,3.0,0.0,354,354,False
54,WCT-5002_rw_app_push_imp_2021-09-09_2021-09-12 > WCT-5002_rw_app_imp_2021-09-09_2021-09-12 > WCT-5002_rw_app_clk_2021-09-09_2021-09-12,28654.812436202,43.0,3.0,486,486,False
