,channel_name,total_conversions,total_conversion_value,normalised_conversion_value
0,WCT-5002_rw_app_push_clk_2021-09-09_2021-09-19,11.334604904632153,1576.973479563967,0.0019025105283865288
1,WCT-5002_email_open_2021-09-09_2021-09-19,1735.70583106267,197796.20768685138,0.23862758155147462
2,_AlwaysOn_sem_shopping_clk_2021-09-09_2021-09-19,34.00381471389646,5095.320443612321,0.006147155240781806
3,WCT-5002_rw_app_imp_2021-09-09_2021-09-19,2993.091335149864,353292.4056969307,0.4262230976917018
4,WCT-5002_rw_app_clk_2021-09-09_2021-09-19,1351.0849046321525,145917.9168598473,0.17603997575333283
5,WCT-5002_email_clk_2021-09-09_2021-09-19,700.478583106267,112326.41568872987,0.13551412958626227
6,WCT-5002_rw_web_oap_clk_2021-09-09_2021-09-19,107.3009264305177,12885.563130642178,0.015545549648060283
