,path,total_conversion_value,conversions,non_conversions,cnt,ppl,Converted
0,_AlwaysOn_wow_web_view_2021-11-03_2021-11-09,221388.07494672,709.0,332.0,1015,1015,False
1,OSP-2373_rw_app_imp_2021-11-03_2021-11-09 > OSP-2373_rw_app_clk_2021-11-03_2021-11-09 > OSP-2373_email_open_2021-11-10_2021-11-14,37884.009655705,242.0,138.0,365,365,False
2,OSP-2373_email_open_2021-11-10_2021-11-14 > FB_Impression_MobileFeed,33248.662812625,478.0,475.0,887,887,False
3,_AlwaysOn_wow_web_view_2021-11-10_2021-11-14 > _AlwaysOn_wow_web_clk_2021-11-10_2021-11-14 > _AlwaysOn_wow_web_view_2021-11-10_2021-11-14 > _AlwaysOn_wow_web_clk_2021-11-10_2021-11-14 > _AlwaysOn_wow_web_view_2021-11-10_2021-11-14,109534.50950987,296.0,158.0,381,381,False
4,OSP-2373_rw_app_imp_2021-11-03_2021-11-09 > OSP-2373_rw_app_clk_2021-11-03_2021-11-09 > OSP-2373_rw_app_imp_2021-11-10_2021-11-14 > OSP-2373_rw_app_clk_2021-11-10_2021-11-14,161836.80736737,808.0,483.0,1156,1156,False
5,OSP-2373_rw_app_imp_2021-11-03_2021-11-09 > OSP-2373_email_open_2021-11-10_2021-11-14,56909.297126254,684.0,615.0,1196,1196,False
6,OSP-2373_email_open_2021-11-03_2021-11-09,54219.150992984,437.0,404.0,804,804,False
7,OSP-2373_email_open_2021-11-10_2021-11-14 > OSP-2373_email_clk_2021-11-10_2021-11-14 > OSP-2373_email_open_2021-11-10_2021-11-14 > OSP-2373_email_clk_2021-11-10_2021-11-14 > OSP-2373_rw_app_imp_2021-11-10_2021-11-14,12247.347553993,96.0,78.0,132,132,False
8,OSP-2373_email_open_2021-11-10_2021-11-14 > OSP-2373_email_clk_2021-11-10_2021-11-14 > OSP-2373_email_open_2021-11-10_2021-11-14 > FB_Impression_MobileFeed,52324.573457864,404.0,300.0,604,604,False
9,OSP-2373_rw_app_imp_2021-11-03_2021-11-09 > OSP-2373_rw_app_imp_2021-11-10_2021-11-14 > OSP-2373_rw_app_clk_2021-11-10_2021-11-14 > OSP-2373_rw_app_imp_2021-11-10_2021-11-14 > FB_Impression_MobileFeed,45004.723030701,463.0,344.0,623,623,False
11,_AlwaysOn_wow_web_view_2021-11-03_2021-11-09 > OSP-2373_email_open_2021-11-10_2021-11-14,115940.19194815,582.0,326.0,894,894,False
12,OSP-2373_rw_app_imp_2021-11-03_2021-11-09 > OSP-2373_rw_app_imp_2021-11-10_2021-11-14 > OSP-2373_rw_app_clk_2021-11-10_2021-11-14 > _AlwaysOn_wow_web_view_2021-11-10_2021-11-14,13330.6121431,71.0,52.0,107,107,False
13,OSP-2373_rw_app_imp_2021-11-10_2021-11-14 > OSP-2373_rw_app_clk_2021-11-10_2021-11-14 > OSP-2373_rw_app_imp_2021-11-10_2021-11-14 > OSP-2373_email_open_2021-11-10_2021-11-14 > OSP-2373_email_clk_2021-11-10_2021-11-14 > OSP-2373_rw_app_imp_2021-11-10_2021-11-14,11528.199258975,263.0,160.0,312,312,False
14,OSP-2373_rw_app_imp_2021-11-03_2021-11-09 > OSP-2373_rw_app_imp_2021-11-10_2021-11-14 > OSP-2373_rw_app_clk_2021-11-10_2021-11-14 > OSP-2373_email_open_2021-11-10_2021-11-14,37420.580748456,489.0,410.0,741,741,False
15,OSP-2373_rw_app_imp_2021-11-10_2021-11-14 > OSP-2373_rw_app_clk_2021-11-10_2021-11-14 > OSP-2373_email_open_2021-11-10_2021-11-14 > OSP-2373_email_clk_2021-11-10_2021-11-14 > OSP-2373_email_open_2021-11-10_2021-11-14 > OSP-2373_rw_app_imp_2021-11-10_2021-11-14,11221.36471376,146.0,120.0,196,196,False
16,_AlwaysOn_wow_web_view_2021-11-03_2021-11-09 > OSP-2373_rw_app_imp_2021-11-10_2021-11-14,16185.370765392,81.0,44.0,123,123,False
17,OSP-2373_email_open_2021-11-03_2021-11-09 > OSP-2373_rw_app_imp_2021-11-10_2021-11-14 > OSP-2373_rw_app_clk_2021-11-10_2021-11-14 > OSP-2373_email_open_2021-11-10_2021-11-14,16079.027127203,84.0,49.0,112,112,False
18,OSP-2373_email_open_2021-11-10_2021-11-14 > _AlwaysOn_wow_web_view_2021-11-10_2021-11-14,105838.08301378,980.0,830.0,1592,1592,False
19,OSP-2373_rw_app_imp_2021-11-10_2021-11-14 > OSP-2373_rw_app_clk_2021-11-10_2021-11-14 > OSP-2373_rw_app_imp_2021-11-10_2021-11-14 > OSP-2373_email_open_2021-11-10_2021-11-14,66362.400457578,636.0,505.0,939,939,False
20,OSP-2373_rw_app_imp_2021-11-10_2021-11-14 > OSP-2373_email_open_2021-11-10_2021-11-14 > OSP-2373_email_clk_2021-11-10_2021-11-14 > OSP-2373_email_open_2021-11-10_2021-11-14 > OSP-2373_rw_app_imp_2021-11-10_2021-11-14,6702.7712592172,85.0,60.0,115,115,False
21,OSP-2373_email_open_2021-11-10_2021-11-14 > _AlwaysOn_wow_web_view_2021-11-10_2021-11-14 > _AlwaysOn_wow_web_clk_2021-11-10_2021-11-14 > _AlwaysOn_wow_web_view_2021-11-10_2021-11-14,41165.240934209,143.0,86.0,190,190,False
22,_AlwaysOn_wow_web_view_2021-11-10_2021-11-14 > OSP-2373_rw_app_imp_2021-11-10_2021-11-14 > OSP-2373_rw_app_clk_2021-11-10_2021-11-14,46480.528434609,202.0,123.0,247,247,False
23,OSP-2373_rw_app_imp_2021-11-03_2021-11-09 > OSP-2373_email_open_2021-11-10_2021-11-14 > OSP-2373_rw_app_imp_2021-11-10_2021-11-14 > OSP-2373_rw_app_clk_2021-11-10_2021-11-14 > OSP-2373_email_open_2021-11-10_2021-11-14 > OSP-2373_rw_app_imp_2021-11-10_2021-11-14,7034.2868110838,70.0,64.0,100,100,False
24,OSP-2373_email_open_2021-11-03_2021-11-09 > OSP-2373_email_open_2021-11-10_2021-11-14 > OSP-2373_email_clk_2021-11-10_2021-11-14,97382.868468389,764.0,565.0,1143,1143,False
25,OSP-2373_email_open_2021-11-10_2021-11-14 > OSP-2373_email_clk_2021-11-10_2021-11-14 > OSP-2373_rw_app_imp_2021-11-10_2021-11-14 > OSP-2373_email_open_2021-11-10_2021-11-14,10109.534765936,120.0,134.0,213,213,False
26,FB_Impression_MobileFeed,99998.78937174,801.0,879.0,1550,1550,False
27,OSP-2373_email_open_2021-11-03_2021-11-09 > OSP-2373_rw_app_imp_2021-11-10_2021-11-14 > OSP-2373_rw_app_clk_2021-11-10_2021-11-14,14093.859243691,86.0,59.0,120,120,False
28,OSP-2373_rw_app_imp_2021-11-03_2021-11-09 > OSP-2373_rw_app_imp_2021-11-10_2021-11-14 > OSP-2373_rw_app_clk_2021-11-10_2021-11-14 > OSP-2373_rw_app_imp_2021-11-10_2021-11-14 > _AlwaysOn_wow_web_view_2021-11-10_2021-11-14 > OSP-2373_rw_app_imp_2021-11-10_2021-11-14,24164.589675754,190.0,123.0,227,227,False
29,OSP-2373_email_open_2021-11-10_2021-11-14 > OSP-2373_email_clk_2021-11-10_2021-11-14 > OSP-2373_rw_app_imp_2021-11-10_2021-11-14 > FB_Impression_MobileFeed,14948.653139205,127.0,98.0,178,178,False
30,OSP-2373_rw_app_imp_2021-11-10_2021-11-14 > FB_Impression_MobileFeed,12389.739275809,118.0,114.0,207,207,False
31,OSP-2373_rw_app_imp_2021-11-03_2021-11-09 > OSP-2373_rw_app_imp_2021-11-10_2021-11-14,165459.53373027,1906.0,1626.0,3124,3124,False
32,OSP-2373_rw_app_imp_2021-11-03_2021-11-09 > OSP-2373_rw_app_imp_2021-11-10_2021-11-14 > OSP-2373_email_open_2021-11-10_2021-11-14,13031.256061635,107.0,93.0,177,177,False
33,OSP-2373_rw_app_imp_2021-11-03_2021-11-09 > OSP-2373_rw_app_clk_2021-11-03_2021-11-09 > OSP-2373_rw_app_imp_2021-11-03_2021-11-09 > OSP-2373_rw_app_imp_2021-11-10_2021-11-14 > OSP-2373_rw_app_clk_2021-11-10_2021-11-14 > OSP-2373_rw_app_imp_2021-11-10_2021-11-14,48163.762085307,361.0,199.0,467,467,False
34,OSP-2373_rw_app_imp_2021-11-10_2021-11-14 > OSP-2373_rw_app_clk_2021-11-10_2021-11-14 > FB_Impression_MobileFeed,33855.836744477,435.0,381.0,701,701,False
35,OSP-2373_email_open_2021-11-10_2021-11-14 > OSP-2373_rw_app_imp_2021-11-10_2021-11-14 > OSP-2373_rw_app_clk_2021-11-10_2021-11-14 > OSP-2373_rw_app_imp_2021-11-10_2021-11-14,219395.99749149,1886.0,1256.0,2583,2583,False
36,_AlwaysOn_wow_web_view_2021-11-10_2021-11-14 > OSP-2373_rw_app_imp_2021-11-10_2021-11-14,14808.566180499,104.0,67.0,130,130,False
37,OSP-2373_email_open_2021-11-10_2021-11-14 > OSP-2373_email_clk_2021-11-10_2021-11-14 > OSP-2373_rw_app_imp_2021-11-10_2021-11-14 > OSP-2373_rw_app_clk_2021-11-10_2021-11-14,29672.787166079,379.0,326.0,559,559,False
38,OSP-2373_rw_app_imp_2021-11-03_2021-11-09 > OSP-2373_email_open_2021-11-10_2021-11-14 > OSP-2373_email_clk_2021-11-10_2021-11-14 > OSP-2373_email_open_2021-11-10_2021-11-14 > OSP-2373_rw_app_imp_2021-11-10_2021-11-14,9061.0727974282,219.0,170.0,311,311,False
39,OSP-2373_email_open_2021-11-03_2021-11-09 > OSP-2373_email_open_2021-11-10_2021-11-14 > OSP-2373_email_clk_2021-11-10_2021-11-14 > OSP-2373_email_open_2021-11-10_2021-11-14,108201.80321149,996.0,760.0,1462,1462,False
40,OSP-2373_email_open_2021-11-03_2021-11-09 > OSP-2373_rw_app_imp_2021-11-10_2021-11-14 > OSP-2373_rw_app_clk_2021-11-10_2021-11-14 > OSP-2373_rw_app_imp_2021-11-10_2021-11-14,9985.8306657529,89.0,53.0,115,115,False
41,OSP-2373_email_open_2021-11-10_2021-11-14 > OSP-2373_email_clk_2021-11-10_2021-11-14 > OSP-2373_rw_app_imp_2021-11-10_2021-11-14 > OSP-2373_rw_app_clk_2021-11-10_2021-11-14 > OSP-2373_rw_app_imp_2021-11-10_2021-11-14,18830.060374219,195.0,155.0,270,270,False
42,OSP-2373_email_open_2021-11-10_2021-11-14 > OSP-2373_email_clk_2021-11-10_2021-11-14 > _AlwaysOn_wow_web_view_2021-11-10_2021-11-14 > OSP-2373_email_open_2021-11-10_2021-11-14,44682.995787827,244.0,149.0,302,302,False
43,OSP-2373_rw_app_imp_2021-11-10_2021-11-14 > OSP-2373_email_open_2021-11-10_2021-11-14 > OSP-2373_rw_app_imp_2021-11-10_2021-11-14 > OSP-2373_rw_app_clk_2021-11-10_2021-11-14,23866.55255657,184.0,139.0,282,282,False
44,OSP-2373_rw_app_imp_2021-11-10_2021-11-14 > OSP-2373_email_open_2021-11-10_2021-11-14 > OSP-2373_rw_app_imp_2021-11-10_2021-11-14,22792.214853165,333.0,309.0,570,570,False
45,_AlwaysOn_wow_web_view_2021-11-10_2021-11-14 > OSP-2373_email_open_2021-11-10_2021-11-14 > OSP-2373_email_clk_2021-11-10_2021-11-14 > _AlwaysOn_wow_web_view_2021-11-10_2021-11-14,21844.908830306,114.0,70.0,138,138,False
46,OSP-2373_rw_app_imp_2021-11-10_2021-11-14 > OSP-2373_rw_app_clk_2021-11-10_2021-11-14 > OSP-2373_email_open_2021-11-10_2021-11-14 > _AlwaysOn_wow_web_view_2021-11-10_2021-11-14,7528.1647579322,69.0,56.0,106,106,False
47,OSP-2373_email_open_2021-11-10_2021-11-14 > OSP-2373_email_clk_2021-11-10_2021-11-14 > _AlwaysOn_wow_web_view_2021-11-10_2021-11-14,290274.49901596,1888.0,1347.0,2575,2575,False
48,_AlwaysOn_wow_web_view_2021-11-10_2021-11-14 > OSP-2373_email_open_2021-11-10_2021-11-14,52191.138165174,315.0,190.0,383,383,False
49,OSP-2373_email_open_2021-11-10_2021-11-14 > OSP-2373_email_clk_2021-11-10_2021-11-14,4657575.3730703,35038.0,28532.0,53205,53205,False
50,OSP-2373_email_open_2021-11-10_2021-11-14,1893390.3034828,21811.0,22558.0,40797,40797,False
51,OSP-2373_rw_app_imp_2021-11-03_2021-11-09 > OSP-2373_rw_app_imp_2021-11-10_2021-11-14 > OSP-2373_rw_app_clk_2021-11-10_2021-11-14 > OSP-2373_rw_app_imp_2021-11-10_2021-11-14 > OSP-2373_email_open_2021-11-10_2021-11-14 > OSP-2373_email_clk_2021-11-10_2021-11-14 > OSP-2373_rw_app_imp_2021-11-10_2021-11-14,42864.314065478,513.0,347.0,613,613,False
52,OSP-2373_email_open_2021-11-10_2021-11-14 > OSP-2373_email_clk_2021-11-10_2021-11-14 > OSP-2373_email_open_2021-11-10_2021-11-14,1725205.6083882,12872.0,10242.0,19262,19262,False
53,OSP-2373_email_open_2021-11-10_2021-11-14 > _AlwaysOn_wow_web_view_2021-11-10_2021-11-14 > OSP-2373_email_open_2021-11-10_2021-11-14,16766.399635347,115.0,75.0,144,144,False
54,OSP-2373_rw_app_imp_2021-11-03_2021-11-09 > OSP-2373_rw_app_imp_2021-11-10_2021-11-14 > OSP-2373_rw_app_clk_2021-11-10_2021-11-14,340381.60065119,3309.0,2604.0,5030,5030,False
55,OSP-2373_rw_app_imp_2021-11-10_2021-11-14 > OSP-2373_rw_app_clk_2021-11-10_2021-11-14 > OSP-2373_rw_app_imp_2021-11-10_2021-11-14 > OSP-2373_email_open_2021-11-10_2021-11-14 > OSP-2373_email_clk_2021-11-10_2021-11-14,15946.036054181,218.0,162.0,293,293,False
56,OSP-2373_rw_app_imp_2021-11-10_2021-11-14 > OSP-2373_email_open_2021-11-10_2021-11-14 > OSP-2373_rw_app_imp_2021-11-10_2021-11-14 > OSP-2373_rw_app_clk_2021-11-10_2021-11-14 > OSP-2373_rw_app_imp_2021-11-10_2021-11-14,20791.712554392,192.0,111.0,242,242,False
57,OSP-2373_email_open_2021-11-10_2021-11-14 > OSP-2373_rw_app_imp_2021-11-10_2021-11-14 > OSP-2373_rw_app_clk_2021-11-10_2021-11-14,288073.1930327,2457.0,1875.0,3697,3697,False
58,OSP-2373_rw_app_imp_2021-11-03_2021-11-09 > OSP-2373_email_open_2021-11-10_2021-11-14 > OSP-2373_rw_app_imp_2021-11-10_2021-11-14 > OSP-2373_rw_app_clk_2021-11-10_2021-11-14,42314.584365336,453.0,384.0,718,718,False
59,_AlwaysOn_wow_web_view_2021-11-10_2021-11-14 > OSP-2373_email_open_2021-11-10_2021-11-14 > OSP-2373_email_clk_2021-11-10_2021-11-14,94068.841976484,500.0,324.0,599,599,False
60,OSP-2373_email_open_2021-11-03_2021-11-09 > OSP-2373_email_open_2021-11-10_2021-11-14,127596.90461632,1296.0,1156.0,2222,2222,False
61,OSP-2373_email_open_2021-11-03_2021-11-09 > OSP-2373_email_clk_2021-11-03_2021-11-09 > OSP-2373_email_open_2021-11-10_2021-11-14 > OSP-2373_email_clk_2021-11-10_2021-11-14,25835.901348401,147.0,91.0,214,214,False
62,OSP-2373_rw_app_imp_2021-11-03_2021-11-09 > OSP-2373_email_open_2021-11-10_2021-11-14 > OSP-2373_email_clk_2021-11-10_2021-11-14 > OSP-2373_rw_app_imp_2021-11-10_2021-11-14,96112.637579883,1018.0,714.0,1346,1346,False
63,OSP-2373_rw_app_imp_2021-11-03_2021-11-09 > OSP-2373_rw_app_imp_2021-11-10_2021-11-14 > OSP-2373_rw_app_clk_2021-11-10_2021-11-14 > OSP-2373_rw_app_imp_2021-11-10_2021-11-14 > OSP-2373_email_open_2021-11-10_2021-11-14 > OSP-2373_rw_app_imp_2021-11-10_2021-11-14 > OSP-2373_email_open_2021-11-10_2021-11-14 > OSP-2373_rw_app_imp_2021-11-10_2021-11-14,16574.2393237,191.0,137.0,214,214,False
64,OSP-2373_email_open_2021-11-10_2021-11-14 > OSP-2373_email_clk_2021-11-10_2021-11-14 > FB_Impression_WebFeed,17518.272796232,268.0,235.0,419,419,False
65,OSP-2373_email_open_2021-11-10_2021-11-14 > OSP-2373_email_clk_2021-11-10_2021-11-14 > OSP-2373_rw_app_imp_2021-11-10_2021-11-14 > OSP-2373_email_open_2021-11-10_2021-11-14 > OSP-2373_rw_app_imp_2021-11-10_2021-11-14,6299.5523697191,91.0,56.0,108,108,False
66,OSP-2373_rw_app_imp_2021-11-03_2021-11-09 > OSP-2373_rw_app_imp_2021-11-10_2021-11-14 > OSP-2373_rw_app_clk_2021-11-10_2021-11-14 > OSP-2373_rw_app_imp_2021-11-10_2021-11-14,1159975.7838261,13101.0,10058.0,17700,17700,False
67,OSP-2373_rw_app_imp_2021-11-10_2021-11-14 > OSP-2373_rw_app_clk_2021-11-10_2021-11-14 > OSP-2373_email_open_2021-11-10_2021-11-14,186564.04899348,1978.0,1607.0,3026,3026,False
68,FB_Impression_WebFeed,13632.603461625,145.0,168.0,294,294,False
69,_AlwaysOn_sem_shopping_clk_2021-11-10_2021-11-14 > _AlwaysOn_wow_web_view_2021-11-10_2021-11-14 > _AlwaysOn_sem_shopping_clk_2021-11-10_2021-11-14,14154.382746128,66.0,53.0,111,111,False
70,OSP-2373_rw_app_imp_2021-11-03_2021-11-09 > OSP-2373_rw_app_imp_2021-11-10_2021-11-14 > OSP-2373_rw_app_clk_2021-11-10_2021-11-14 > FB_Impression_MobileFeed,14676.230488858,100.0,78.0,148,148,False
71,_AlwaysOn_wow_web_view_2021-11-10_2021-11-14 > OSP-2373_email_open_2021-11-10_2021-11-14 > OSP-2373_email_clk_2021-11-10_2021-11-14 > OSP-2373_email_open_2021-11-10_2021-11-14,27687.398343237,192.0,132.0,227,227,False
72,OSP-2373_rw_app_imp_2021-11-10_2021-11-14 > OSP-2373_rw_app_clk_2021-11-10_2021-11-14 > _AlwaysOn_wow_web_view_2021-11-10_2021-11-14 > OSP-2373_rw_app_imp_2021-11-10_2021-11-14,22107.239730941,167.0,99.0,208,208,False
73,OSP-2373_rw_app_imp_2021-11-03_2021-11-09 > OSP-2373_rw_app_imp_2021-11-10_2021-11-14 > OSP-2373_rw_app_clk_2021-11-10_2021-11-14 > OSP-2373_rw_app_imp_2021-11-10_2021-11-14 > FB_Impression_MobileFeed > OSP-2373_rw_app_imp_2021-11-10_2021-11-14 > FB_Impression_MobileFeed,8376.687767022,81.0,66.0,105,105,False
74,_AlwaysOn_wow_web_view_2021-11-03_2021-11-09 > OSP-2373_email_open_2021-11-10_2021-11-14 > _AlwaysOn_wow_web_view_2021-11-10_2021-11-14,33290.765212084,110.0,35.0,143,143,False
75,OSP-2373_rw_app_imp_2021-11-10_2021-11-14 > OSP-2373_rw_app_clk_2021-11-10_2021-11-14 > OSP-2373_email_open_2021-11-10_2021-11-14 > OSP-2373_rw_app_imp_2021-11-10_2021-11-14,133615.71971056,1585.0,1167.0,2189,2189,False
76,OSP-2373_email_open_2021-11-10_2021-11-14 > OSP-2373_rw_app_imp_2021-11-10_2021-11-14 > OSP-2373_email_open_2021-11-10_2021-11-14,2223.7361064641,106.0,111.0,194,194,False
77,OSP-2373_rw_app_imp_2021-11-10_2021-11-14 > OSP-2373_rw_app_clk_2021-11-10_2021-11-14 > OSP-2373_rw_app_imp_2021-11-10_2021-11-14 > OSP-2373_rw_app_clk_2021-11-10_2021-11-14,72488.247413576,461.0,316.0,647,647,False
78,OSP-2373_rw_app_imp_2021-11-03_2021-11-09 > OSP-2373_rw_app_clk_2021-11-03_2021-11-09 > OSP-2373_rw_app_imp_2021-11-10_2021-11-14 > OSP-2373_rw_app_clk_2021-11-10_2021-11-14 > OSP-2373_rw_app_imp_2021-11-10_2021-11-14,126731.20321701,641.0,326.0,847,847,False
79,OSP-2373_rw_app_imp_2021-11-03_2021-11-09 > OSP-2373_rw_app_imp_2021-11-10_2021-11-14 > OSP-2373_rw_app_clk_2021-11-10_2021-11-14 > OSP-2373_rw_app_imp_2021-11-10_2021-11-14 > OSP-2373_email_open_2021-11-10_2021-11-14 > OSP-2373_rw_app_imp_2021-11-10_2021-11-14,139865.63683386,2118.0,1636.0,2642,2642,False
80,OSP-2373_email_open_2021-11-10_2021-11-14 > OSP-2373_email_clk_2021-11-10_2021-11-14 > OSP-2373_email_open_2021-11-10_2021-11-14 > FB_Impression_WebFeed,10381.360050977,78.0,68.0,116,116,False
81,OSP-2373_rw_app_imp_2021-11-03_2021-11-09 > OSP-2373_rw_app_imp_2021-11-10_2021-11-14 > OSP-2373_rw_app_clk_2021-11-10_2021-11-14 > OSP-2373_rw_app_imp_2021-11-10_2021-11-14 > OSP-2373_email_open_2021-11-10_2021-11-14,1029.9022946267,269.0,238.0,391,391,False
82,_AlwaysOn_wow_web_view_2021-11-03_2021-11-09 > OSP-2373_email_open_2021-11-10_2021-11-14 > OSP-2373_email_clk_2021-11-10_2021-11-14 > OSP-2373_rw_app_imp_2021-11-10_2021-11-14,20403.244620506,93.0,49.0,139,139,False
83,OSP-2373_rw_app_imp_2021-11-03_2021-11-09 > OSP-2373_email_open_2021-11-10_2021-11-14 > OSP-2373_rw_app_imp_2021-11-10_2021-11-14,44192.344073872,600.0,475.0,905,905,False
84,_AlwaysOn_wow_web_view_2021-11-03_2021-11-09 > OSP-2373_rw_app_imp_2021-11-10_2021-11-14 > OSP-2373_rw_app_clk_2021-11-10_2021-11-14,51355.010384028,249.0,103.0,345,345,False
85,OSP-2373_rw_app_imp_2021-11-10_2021-11-14 > OSP-2373_email_open_2021-11-10_2021-11-14,21439.35500895,464.0,488.0,859,859,False
86,OSP-2373_rw_app_imp_2021-11-10_2021-11-14 > OSP-2373_rw_app_clk_2021-11-10_2021-11-14 > OSP-2373_email_open_2021-11-10_2021-11-14 > OSP-2373_email_clk_2021-11-10_2021-11-14 > OSP-2373_rw_app_imp_2021-11-10_2021-11-14,43141.052260649,454.0,352.0,636,636,False
87,OSP-2373_email_open_2021-11-03_2021-11-09 > OSP-2373_email_open_2021-11-10_2021-11-14 > OSP-2373_rw_app_imp_2021-11-10_2021-11-14,6994.4479928346,64.0,46.0,101,101,False
88,_AlwaysOn_wow_web_view_2021-11-03_2021-11-09 > OSP-2373_rw_app_imp_2021-11-03_2021-11-09 > OSP-2373_rw_app_imp_2021-11-10_2021-11-14 > OSP-2373_rw_app_clk_2021-11-10_2021-11-14 > OSP-2373_rw_app_imp_2021-11-10_2021-11-14,18427.178146916,83.0,35.0,116,116,False
89,OSP-2373_rw_app_imp_2021-11-10_2021-11-14 > OSP-2373_rw_app_clk_2021-11-10_2021-11-14 > OSP-2373_email_open_2021-11-10_2021-11-14 > OSP-2373_email_clk_2021-11-10_2021-11-14,61427.11286002,813.0,661.0,1192,1192,False
90,_AlwaysOn_wow_web_view_2021-11-03_2021-11-09 > OSP-2373_email_open_2021-11-10_2021-11-14 > OSP-2373_email_clk_2021-11-10_2021-11-14,326983.18050332,1354.0,665.0,1987,1987,False
91,OSP-2373_email_open_2021-11-10_2021-11-14 > OSP-2373_rw_app_imp_2021-11-10_2021-11-14 > OSP-2373_email_clk_2021-11-10_2021-11-14 > OSP-2373_rw_app_clk_2021-11-10_2021-11-14,7302.950760482,67.0,60.0,106,106,False
92,_AlwaysOn_wow_web_view_2021-11-03_2021-11-09 > _AlwaysOn_wow_web_clk_2021-11-03_2021-11-09 > _AlwaysOn_wow_web_view_2021-11-03_2021-11-09,40726.067263075,108.0,40.0,147,147,False
93,OSP-2373_email_open_2021-11-10_2021-11-14 > OSP-2373_email_clk_2021-11-10_2021-11-14 > _AlwaysOn_wow_web_view_2021-11-10_2021-11-14 > _AlwaysOn_wow_web_clk_2021-11-10_2021-11-14 > _AlwaysOn_wow_web_view_2021-11-10_2021-11-14,39622.854508617,210.0,127.0,275,275,False
94,OSP-2373_rw_app_imp_2021-11-03_2021-11-09 > _AlwaysOn_wow_web_view_2021-11-03_2021-11-09 > OSP-2373_rw_app_imp_2021-11-10_2021-11-14 > OSP-2373_rw_app_clk_2021-11-10_2021-11-14 > OSP-2373_rw_app_imp_2021-11-10_2021-11-14,16926.79746058,82.0,39.0,116,116,False
95,OSP-2373_rw_app_imp_2021-11-10_2021-11-14 > OSP-2373_rw_app_clk_2021-11-10_2021-11-14 > OSP-2373_rw_app_imp_2021-11-10_2021-11-14 > OSP-2373_email_open_2021-11-10_2021-11-14 > OSP-2373_email_clk_2021-11-10_2021-11-14 > OSP-2373_email_open_2021-11-10_2021-11-14,5256.7686831294,87.0,73.0,129,129,False
96,OSP-2373_rw_app_imp_2021-11-03_2021-11-09 > OSP-2373_rw_app_imp_2021-11-10_2021-11-14 > OSP-2373_rw_app_clk_2021-11-10_2021-11-14 > _AlwaysOn_wow_web_view_2021-11-10_2021-11-14 > OSP-2373_rw_app_imp_2021-11-10_2021-11-14,6476.1619891456,115.0,80.0,126,126,False
97,OSP-2373_rw_app_imp_2021-11-10_2021-11-14 > OSP-2373_rw_app_clk_2021-11-10_2021-11-14 > OSP-2373_email_open_2021-11-10_2021-11-14 > FB_Impression_MobileFeed,1843.1705797085,70.0,68.0,112,112,False
98,OSP-2373_email_open_2021-11-03_2021-11-09 > OSP-2373_email_open_2021-11-10_2021-11-14 > OSP-2373_email_clk_2021-11-10_2021-11-14 > OSP-2373_email_open_2021-11-10_2021-11-14 > OSP-2373_email_clk_2021-11-10_2021-11-14 > OSP-2373_email_open_2021-11-10_2021-11-14,22105.407277084,149.0,108.0,199,199,False
99,OSP-2373_rw_app_imp_2021-11-03_2021-11-09 > OSP-2373_email_open_2021-11-10_2021-11-14 > OSP-2373_email_clk_2021-11-10_2021-11-14 > OSP-2373_rw_app_imp_2021-11-10_2021-11-14 > OSP-2373_rw_app_clk_2021-11-10_2021-11-14 > OSP-2373_rw_app_imp_2021-11-10_2021-11-14,-3671.4579091223,96.0,67.0,127,127,False
100,_AlwaysOn_wow_web_view_2021-11-10_2021-11-14,519516.82087533,2217.0,1682.0,3415,3415,False
101,OSP-2373_rw_app_imp_2021-11-03_2021-11-09 > OSP-2373_email_open_2021-11-10_2021-11-14 > OSP-2373_email_clk_2021-11-10_2021-11-14 > OSP-2373_email_open_2021-11-10_2021-11-14,21749.522340204,326.0,259.0,494,494,False
102,_AlwaysOn_wow_web_view_2021-11-03_2021-11-09 > OSP-2373_email_open_2021-11-10_2021-11-14 > OSP-2373_email_clk_2021-11-10_2021-11-14 > OSP-2373_email_open_2021-11-10_2021-11-14 > OSP-2373_email_clk_2021-11-10_2021-11-14,29471.692403149,122.0,58.0,169,169,False
103,OSP-2373_email_open_2021-11-10_2021-11-14 > OSP-2373_rw_app_imp_2021-11-10_2021-11-14,71361.730619707,1668.0,1567.0,2860,2860,False
104,OSP-2373_rw_app_imp_2021-11-10_2021-11-14 > OSP-2373_rw_app_clk_2021-11-10_2021-11-14 > OSP-2373_email_open_2021-11-10_2021-11-14 > OSP-2373_email_clk_2021-11-10_2021-11-14 > OSP-2373_email_open_2021-11-10_2021-11-14,39199.641771896,304.0,244.0,438,438,False
105,OSP-2373_email_open_2021-11-03_2021-11-09 > OSP-2373_email_clk_2021-11-03_2021-11-09 > OSP-2373_email_open_2021-11-10_2021-11-14,9561.3438343405,61.0,44.0,102,102,False
106,OSP-2373_rw_app_imp_2021-11-03_2021-11-09 > _AlwaysOn_wow_web_view_2021-11-10_2021-11-14 > OSP-2373_rw_app_imp_2021-11-10_2021-11-14 > OSP-2373_rw_app_clk_2021-11-10_2021-11-14 > OSP-2373_rw_app_imp_2021-11-10_2021-11-14,16200.67486645,107.0,75.0,113,113,False
107,OSP-2373_email_open_2021-11-10_2021-11-14 > OSP-2373_rw_app_imp_2021-11-10_2021-11-14 > OSP-2373_rw_app_clk_2021-11-10_2021-11-14 > OSP-2373_email_open_2021-11-10_2021-11-14,30614.09715555,218.0,165.0,323,323,False
108,OSP-2373_email_open_2021-11-10_2021-11-14 > OSP-2373_email_clk_2021-11-10_2021-11-14 > OSP-2373_email_open_2021-11-10_2021-11-14 > OSP-2373_email_clk_2021-11-10_2021-11-14 > OSP-2373_email_open_2021-11-10_2021-11-14 > OSP-2373_email_clk_2021-11-10_2021-11-14 > OSP-2373_email_open_2021-11-10_2021-11-14,19642.449607077,152.0,93.0,196,196,False
109,OSP-2373_rw_app_imp_2021-11-10_2021-11-14 > OSP-2373_rw_app_clk_2021-11-10_2021-11-14 > OSP-2373_rw_app_imp_2021-11-10_2021-11-14 > OSP-2373_rw_app_clk_2021-11-10_2021-11-14 > OSP-2373_rw_app_imp_2021-11-10_2021-11-14,44143.920301621,417.0,283.0,543,543,False
110,OSP-2373_rw_app_imp_2021-11-03_2021-11-09 > OSP-2373_rw_app_clk_2021-11-03_2021-11-09,190916.2271135,1031.0,550.0,1533,1533,False
111,OSP-2373_email_open_2021-11-10_2021-11-14 > OSP-2373_email_clk_2021-11-10_2021-11-14 > OSP-2373_email_open_2021-11-10_2021-11-14 > OSP-2373_rw_app_imp_2021-11-10_2021-11-14,47126.884425241,638.0,500.0,912,912,False
112,OSP-2373_rw_app_imp_2021-11-03_2021-11-09 > OSP-2373_rw_app_clk_2021-11-03_2021-11-09 > OSP-2373_rw_app_imp_2021-11-03_2021-11-09 > OSP-2373_email_open_2021-11-10_2021-11-14,8301.1848550952,69.0,46.0,112,112,False
113,OSP-2373_email_open_2021-11-10_2021-11-14 > OSP-2373_email_clk_2021-11-10_2021-11-14 > OSP-2373_email_open_2021-11-10_2021-11-14 > OSP-2373_email_clk_2021-11-10_2021-11-14 > OSP-2373_email_open_2021-11-10_2021-11-14 > OSP-2373_email_clk_2021-11-10_2021-11-14,27802.178188859,199.0,154.0,262,262,False
114,OSP-2373_email_open_2021-11-10_2021-11-14 > OSP-2373_rw_app_imp_2021-11-10_2021-11-14 > OSP-2373_rw_app_clk_2021-11-10_2021-11-14 > OSP-2373_email_open_2021-11-10_2021-11-14 > OSP-2373_rw_app_imp_2021-11-10_2021-11-14,5796.8337430229,110.0,71.0,148,148,False
115,OSP-2373_rw_app_imp_2021-11-03_2021-11-09 > OSP-2373_rw_app_clk_2021-11-03_2021-11-09 > OSP-2373_rw_app_imp_2021-11-03_2021-11-09,49244.312694247,329.0,200.0,509,509,False
116,OSP-2373_email_open_2021-11-10_2021-11-14 > OSP-2373_email_clk_2021-11-10_2021-11-14 > OSP-2373_email_open_2021-11-10_2021-11-14 > OSP-2373_email_clk_2021-11-10_2021-11-14 > _AlwaysOn_wow_web_view_2021-11-10_2021-11-14,30603.702247646,233.0,166.0,294,294,False
117,OSP-2373_rw_app_imp_2021-11-10_2021-11-14 > OSP-2373_email_open_2021-11-10_2021-11-14 > OSP-2373_email_clk_2021-11-10_2021-11-14 > OSP-2373_rw_app_imp_2021-11-10_2021-11-14,35191.919768636,296.0,244.0,431,431,False
118,_AlwaysOn_wow_web_view_2021-11-03_2021-11-09 > OSP-2373_email_open_2021-11-10_2021-11-14 > OSP-2373_email_clk_2021-11-10_2021-11-14 > _AlwaysOn_wow_web_view_2021-11-10_2021-11-14,58943.344865152,261.0,99.0,354,354,False
119,_AlwaysOn_wow_web_view_2021-11-03_2021-11-09 > OSP-2373_rw_app_imp_2021-11-10_2021-11-14 > OSP-2373_rw_app_clk_2021-11-10_2021-11-14 > OSP-2373_rw_app_imp_2021-11-10_2021-11-14,45883.466937025,262.0,117.0,367,367,False
120,OSP-2373_rw_app_imp_2021-11-10_2021-11-14,355246.79269102,4662.0,4750.0,8578,8578,False
121,OSP-2373_rw_app_imp_2021-11-10_2021-11-14 > OSP-2373_rw_app_clk_2021-11-10_2021-11-14 > OSP-2373_rw_app_imp_2021-11-10_2021-11-14 > _AlwaysOn_wow_web_view_2021-11-10_2021-11-14 > OSP-2373_rw_app_imp_2021-11-10_2021-11-14,-10573.559088206,95.0,88.0,135,135,False
122,OSP-2373_rw_app_imp_2021-11-10_2021-11-14 > OSP-2373_email_open_2021-11-10_2021-11-14 > OSP-2373_email_clk_2021-11-10_2021-11-14 > OSP-2373_email_open_2021-11-10_2021-11-14,30267.142788474,222.0,190.0,347,347,False
123,OSP-2373_email_open_2021-11-10_2021-11-14 > OSP-2373_email_clk_2021-11-10_2021-11-14 > OSP-2373_email_open_2021-11-10_2021-11-14 > _AlwaysOn_wow_web_view_2021-11-10_2021-11-14,76925.809507856,457.0,326.0,642,642,False
124,_AlwaysOn_wow_web_view_2021-11-10_2021-11-14 > OSP-2373_rw_app_imp_2021-11-10_2021-11-14 > OSP-2373_rw_app_clk_2021-11-10_2021-11-14 > _AlwaysOn_wow_web_view_2021-11-10_2021-11-14,16757.65011958,113.0,70.0,144,144,False
125,OSP-2373_rw_app_imp_2021-11-10_2021-11-14 > _AlwaysOn_wow_web_view_2021-11-10_2021-11-14,12085.516874352,106.0,121.0,208,208,False
126,OSP-2373_rw_app_imp_2021-11-03_2021-11-09,176419.19314268,1655.0,1594.0,3074,3074,False
127,OSP-2373_rw_app_imp_2021-11-03_2021-11-09 > OSP-2373_rw_app_imp_2021-11-10_2021-11-14 > OSP-2373_email_open_2021-11-10_2021-11-14 > OSP-2373_email_clk_2021-11-10_2021-11-14 > OSP-2373_rw_app_imp_2021-11-10_2021-11-14,17737.213890082,220.0,170.0,304,304,False
128,OSP-2373_rw_app_imp_2021-11-10_2021-11-14 > OSP-2373_rw_app_clk_2021-11-10_2021-11-14 > OSP-2373_rw_app_imp_2021-11-10_2021-11-14 > _AlwaysOn_wow_web_view_2021-11-10_2021-11-14,21275.337307827,159.0,141.0,263,263,False
129,OSP-2373_rw_app_imp_2021-11-03_2021-11-09 > OSP-2373_rw_app_clk_2021-11-03_2021-11-09 > OSP-2373_rw_app_imp_2021-11-10_2021-11-14,70660.075800457,402.0,217.0,596,596,False
130,_AlwaysOn_wow_web_view_2021-11-03_2021-11-09 > OSP-2373_email_open_2021-11-10_2021-11-14 > OSP-2373_email_clk_2021-11-10_2021-11-14 > OSP-2373_email_open_2021-11-10_2021-11-14,121268.69488827,530.0,261.0,769,769,False
131,_AlwaysOn_wow_web_view_2021-11-03_2021-11-09 > _AlwaysOn_wow_web_view_2021-11-10_2021-11-14 > OSP-2373_email_open_2021-11-10_2021-11-14 > OSP-2373_email_clk_2021-11-10_2021-11-14,34694.450166792,118.0,45.0,163,163,False
132,OSP-2373_rw_app_imp_2021-11-03_2021-11-09 > OSP-2373_email_open_2021-11-10_2021-11-14 > OSP-2373_email_clk_2021-11-10_2021-11-14,60993.588146822,841.0,686.0,1325,1325,False
133,OSP-2373_rw_app_imp_2021-11-03_2021-11-09 > OSP-2373_rw_app_imp_2021-11-10_2021-11-14 > OSP-2373_rw_app_clk_2021-11-10_2021-11-14 > OSP-2373_email_open_2021-11-10_2021-11-14 > OSP-2373_rw_app_imp_2021-11-10_2021-11-14 > OSP-2373_email_open_2021-11-10_2021-11-14 > OSP-2373_rw_app_imp_2021-11-10_2021-11-14,5226.4087058308,116.0,86.0,144,144,False
134,_AlwaysOn_wow_web_view_2021-11-10_2021-11-14 > OSP-2373_rw_app_imp_2021-11-10_2021-11-14 > OSP-2373_rw_app_clk_2021-11-10_2021-11-14 > OSP-2373_rw_app_imp_2021-11-10_2021-11-14,38061.416163512,208.0,105.0,229,229,False
135,_AlwaysOn_wow_web_view_2021-11-10_2021-11-14 > _AlwaysOn_wow_web_clk_2021-11-10_2021-11-14 > _AlwaysOn_wow_web_view_2021-11-10_2021-11-14,244602.9965296,730.0,406.0,959,959,False
136,OSP-2373_rw_app_imp_2021-11-03_2021-11-09 > OSP-2373_rw_app_imp_2021-11-10_2021-11-14 > OSP-2373_email_open_2021-11-10_2021-11-14 > OSP-2373_email_clk_2021-11-10_2021-11-14,11807.24187223,131.0,83.0,186,186,False
137,OSP-2373_rw_app_imp_2021-11-10_2021-11-14 > OSP-2373_rw_app_clk_2021-11-10_2021-11-14 > _AlwaysOn_wow_web_view_2021-11-10_2021-11-14,13938.286172945,380.0,307.0,580,580,False
138,OSP-2373_rw_app_imp_2021-11-03_2021-11-09 > OSP-2373_rw_app_imp_2021-11-10_2021-11-14 > OSP-2373_rw_app_clk_2021-11-10_2021-11-14 > OSP-2373_email_open_2021-11-10_2021-11-14 > OSP-2373_email_clk_2021-11-10_2021-11-14 > OSP-2373_email_open_2021-11-10_2021-11-14 > OSP-2373_rw_app_imp_2021-11-10_2021-11-14,9389.4294289056,126.0,85.0,154,154,False
139,OSP-2373_email_open_2021-11-10_2021-11-14 > OSP-2373_email_clk_2021-11-10_2021-11-14 > _AlwaysOn_wow_web_view_2021-11-10_2021-11-14 > OSP-2373_rw_app_imp_2021-11-10_2021-11-14,4940.7390564814,80.0,59.0,100,100,False
140,OSP-2373_rw_app_imp_2021-11-10_2021-11-14 > OSP-2373_rw_app_clk_2021-11-10_2021-11-14 > OSP-2373_rw_app_imp_2021-11-10_2021-11-14 > OSP-2373_email_open_2021-11-10_2021-11-14 > OSP-2373_rw_app_imp_2021-11-10_2021-11-14,58164.422118219,802.0,576.0,1049,1049,False
141,OSP-2373_rw_app_imp_2021-11-10_2021-11-14 > OSP-2373_email_open_2021-11-10_2021-11-14 > OSP-2373_email_clk_2021-11-10_2021-11-14,65239.816291116,616.0,539.0,960,960,False
142,OSP-2373_rw_app_imp_2021-11-03_2021-11-09 > OSP-2373_rw_app_imp_2021-11-10_2021-11-14 > OSP-2373_rw_app_clk_2021-11-10_2021-11-14 > OSP-2373_rw_app_imp_2021-11-10_2021-11-14 > OSP-2373_email_open_2021-11-10_2021-11-14 > OSP-2373_rw_app_imp_2021-11-10_2021-11-14 > FB_Impression_MobileFeed,4423.7759458778,91.0,63.0,106,106,False
143,OSP-2373_rw_app_imp_2021-11-03_2021-11-09 > OSP-2373_rw_app_imp_2021-11-10_2021-11-14 > OSP-2373_rw_app_clk_2021-11-10_2021-11-14 > OSP-2373_rw_app_imp_2021-11-10_2021-11-14 > OSP-2373_email_open_2021-11-10_2021-11-14 > OSP-2373_email_clk_2021-11-10_2021-11-14 > OSP-2373_email_open_2021-11-10_2021-11-14 > OSP-2373_rw_app_imp_2021-11-10_2021-11-14,12141.949896205,145.0,94.0,168,168,False
144,OSP-2373_rw_app_imp_2021-11-03_2021-11-09 > OSP-2373_rw_app_imp_2021-11-10_2021-11-14 > OSP-2373_rw_app_clk_2021-11-10_2021-11-14 > OSP-2373_email_open_2021-11-10_2021-11-14 > OSP-2373_rw_app_imp_2021-11-10_2021-11-14,152876.90295461,1577.0,1181.0,2108,2108,False
145,OSP-2373_rw_app_imp_2021-11-03_2021-11-09 > OSP-2373_rw_app_clk_2021-11-03_2021-11-09 > OSP-2373_rw_app_imp_2021-11-03_2021-11-09 > OSP-2373_rw_app_imp_2021-11-10_2021-11-14,29317.280507951,236.0,150.0,374,374,False
146,OSP-2373_rw_app_imp_2021-11-03_2021-11-09 > OSP-2373_rw_app_imp_2021-11-10_2021-11-14 > OSP-2373_email_open_2021-11-10_2021-11-14 > OSP-2373_rw_app_imp_2021-11-10_2021-11-14,22151.502376417,371.0,301.0,549,549,False
147,OSP-2373_rw_app_imp_2021-11-10_2021-11-14 > OSP-2373_rw_app_clk_2021-11-10_2021-11-14 > OSP-2373_rw_app_imp_2021-11-10_2021-11-14 > FB_Impression_MobileFeed,52298.156684757,491.0,374.0,701,701,False
148,OSP-2373_rw_app_imp_2021-11-10_2021-11-14 > OSP-2373_rw_app_clk_2021-11-10_2021-11-14,1841346.9903593,16406.0,12500.0,24649,24649,False
149,OSP-2373_email_open_2021-11-10_2021-11-14 > OSP-2373_email_clk_2021-11-10_2021-11-14 > OSP-2373_email_open_2021-11-10_2021-11-14 > OSP-2373_email_clk_2021-11-10_2021-11-14,282642.11136518,2090.0,1641.0,2914,2914,False
150,OSP-2373_rw_app_imp_2021-11-03_2021-11-09 > OSP-2373_rw_app_clk_2021-11-03_2021-11-09 > OSP-2373_email_open_2021-11-10_2021-11-14 > OSP-2373_email_clk_2021-11-10_2021-11-14,16338.893669149,107.0,58.0,154,154,False
151,_AlwaysOn_wow_web_view_2021-11-03_2021-11-09 > _AlwaysOn_wow_web_view_2021-11-10_2021-11-14,107093.82835134,258.0,98.0,349,349,False
152,OSP-2373_email_open_2021-11-03_2021-11-09 > OSP-2373_email_clk_2021-11-03_2021-11-09,12380.273665708,104.0,69.0,165,165,False
153,_AlwaysOn_wow_web_view_2021-11-10_2021-11-14 > _AlwaysOn_wow_web_clk_2021-11-10_2021-11-14 > _AlwaysOn_wow_web_view_2021-11-10_2021-11-14 > _AlwaysOn_wow_web_clk_2021-11-10_2021-11-14 > _AlwaysOn_wow_web_view_2021-11-10_2021-11-14 > _AlwaysOn_wow_web_clk_2021-11-10_2021-11-14 > _AlwaysOn_wow_web_view_2021-11-10_2021-11-14,37418.746897547,110.0,55.0,138,138,False
154,OSP-2373_email_open_2021-11-10_2021-11-14 > OSP-2373_email_clk_2021-11-10_2021-11-14 > OSP-2373_email_open_2021-11-10_2021-11-14 > OSP-2373_email_clk_2021-11-10_2021-11-14 > OSP-2373_email_open_2021-11-10_2021-11-14,163978.87838381,1131.0,833.0,1567,1567,False
155,OSP-2373_email_open_2021-11-03_2021-11-09 > OSP-2373_email_open_2021-11-10_2021-11-14 > OSP-2373_rw_app_imp_2021-11-10_2021-11-14 > OSP-2373_rw_app_clk_2021-11-10_2021-11-14,9784.421834743,79.0,56.0,118,118,False
156,OSP-2373_email_open_2021-11-10_2021-11-14 > OSP-2373_email_clk_2021-11-10_2021-11-14 > FB_Impression_MobileFeed,171938.24838882,1111.0,919.0,1710,1710,False
157,OSP-2373_rw_app_imp_2021-11-03_2021-11-09 > OSP-2373_rw_app_clk_2021-11-03_2021-11-09 > OSP-2373_email_open_2021-11-10_2021-11-14 > OSP-2373_rw_app_imp_2021-11-10_2021-11-14 > OSP-2373_rw_app_clk_2021-11-10_2021-11-14,16753.577762163,105.0,59.0,148,148,False
158,OSP-2373_rw_app_imp_2021-11-03_2021-11-09 > OSP-2373_rw_app_imp_2021-11-10_2021-11-14 > OSP-2373_rw_app_clk_2021-11-10_2021-11-14 > OSP-2373_rw_app_imp_2021-11-10_2021-11-14 > _AlwaysOn_wow_web_view_2021-11-10_2021-11-14,6231.4100275112,99.0,102.0,177,177,False
159,OSP-2373_email_open_2021-11-10_2021-11-14 > OSP-2373_email_clk_2021-11-10_2021-11-14 > OSP-2373_email_open_2021-11-10_2021-11-14 > OSP-2373_email_clk_2021-11-10_2021-11-14 > _AlwaysOn_wow_web_view_2021-11-10_2021-11-14 > OSP-2373_email_open_2021-11-10_2021-11-14,16423.153596823,93.0,60.0,115,115,False
160,_AlwaysOn_wow_web_view_2021-11-03_2021-11-09 > _AlwaysOn_wow_web_view_2021-11-10_2021-11-14 > _AlwaysOn_wow_web_clk_2021-11-10_2021-11-14 > _AlwaysOn_wow_web_view_2021-11-10_2021-11-14,32021.708264859,79.0,28.0,106,106,False
161,OSP-2373_rw_app_imp_2021-11-03_2021-11-09 > OSP-2373_rw_app_imp_2021-11-10_2021-11-14 > OSP-2373_email_open_2021-11-10_2021-11-14 > OSP-2373_rw_app_imp_2021-11-10_2021-11-14 > OSP-2373_rw_app_clk_2021-11-10_2021-11-14 > OSP-2373_rw_app_imp_2021-11-10_2021-11-14,12971.106380125,191.0,134.0,262,262,False
162,OSP-2373_rw_app_imp_2021-11-03_2021-11-09 > OSP-2373_rw_app_clk_2021-11-03_2021-11-09 > OSP-2373_rw_app_imp_2021-11-03_2021-11-09 > OSP-2373_rw_app_imp_2021-11-10_2021-11-14 > OSP-2373_rw_app_clk_2021-11-10_2021-11-14,42362.46409748,203.0,119.0,288,288,False
163,OSP-2373_email_open_2021-11-10_2021-11-14 > OSP-2373_email_clk_2021-11-10_2021-11-14 > OSP-2373_rw_app_imp_2021-11-10_2021-11-14 > OSP-2373_rw_app_clk_2021-11-10_2021-11-14 > OSP-2373_email_open_2021-11-10_2021-11-14,17665.608725749,89.0,85.0,147,147,False
164,OSP-2373_rw_app_imp_2021-11-03_2021-11-09 > OSP-2373_rw_app_imp_2021-11-10_2021-11-14 > OSP-2373_rw_app_clk_2021-11-10_2021-11-14 > OSP-2373_email_open_2021-11-10_2021-11-14 > OSP-2373_email_clk_2021-11-10_2021-11-14 > OSP-2373_rw_app_imp_2021-11-10_2021-11-14,14994.375517973,383.0,293.0,501,501,False
165,OSP-2373_rw_app_imp_2021-11-03_2021-11-09 > OSP-2373_rw_app_imp_2021-11-10_2021-11-14 > OSP-2373_rw_app_clk_2021-11-10_2021-11-14 > OSP-2373_rw_app_imp_2021-11-10_2021-11-14 > OSP-2373_rw_app_clk_2021-11-10_2021-11-14 > OSP-2373_rw_app_imp_2021-11-10_2021-11-14,61928.731996247,609.0,442.0,726,726,False
166,OSP-2373_rw_app_imp_2021-11-03_2021-11-09 > OSP-2373_email_open_2021-11-10_2021-11-14 > OSP-2373_rw_app_imp_2021-11-10_2021-11-14 > OSP-2373_rw_app_clk_2021-11-10_2021-11-14 > OSP-2373_rw_app_imp_2021-11-10_2021-11-14,72587.909713909,948.0,699.0,1310,1310,False
167,OSP-2373_rw_app_imp_2021-11-10_2021-11-14 > OSP-2373_rw_app_clk_2021-11-10_2021-11-14 > OSP-2373_rw_app_imp_2021-11-10_2021-11-14,1858555.8911635,16787.0,12013.0,23468,23468,False
168,OSP-2373_rw_app_imp_2021-11-03_2021-11-09 > OSP-2373_rw_app_imp_2021-11-10_2021-11-14 > OSP-2373_rw_app_clk_2021-11-10_2021-11-14 > OSP-2373_email_open_2021-11-10_2021-11-14 > OSP-2373_email_clk_2021-11-10_2021-11-14,8819.4401448025,128.0,95.0,181,181,False
169,OSP-2373_rw_app_imp_2021-11-03_2021-11-09 > OSP-2373_rw_app_imp_2021-11-10_2021-11-14 > OSP-2373_email_open_2021-11-10_2021-11-14 > OSP-2373_rw_app_imp_2021-11-10_2021-11-14 > OSP-2373_rw_app_clk_2021-11-10_2021-11-14,16572.020112222,83.0,57.0,119,119,False
170,OSP-2373_email_open_2021-11-10_2021-11-14 > OSP-2373_email_clk_2021-11-10_2021-11-14 > OSP-2373_email_open_2021-11-10_2021-11-14 > OSP-2373_email_clk_2021-11-10_2021-11-14 > FB_Impression_MobileFeed,7677.5451616378,69.0,60.0,101,101,False
171,OSP-2373_email_open_2021-11-03_2021-11-09 > OSP-2373_email_open_2021-11-10_2021-11-14 > OSP-2373_email_clk_2021-11-10_2021-11-14 > OSP-2373_email_open_2021-11-10_2021-11-14 > OSP-2373_email_clk_2021-11-10_2021-11-14,13904.046085268,109.0,93.0,157,157,False
172,OSP-2373_email_open_2021-11-10_2021-11-14 > FB_Impression_WebFeed,10412.170805412,203.0,199.0,346,346,False
173,OSP-2373_email_open_2021-11-10_2021-11-14 > OSP-2373_email_clk_2021-11-10_2021-11-14 > OSP-2373_rw_app_imp_2021-11-10_2021-11-14,207002.07018154,2443.0,1899.0,3507,3507,False
174,OSP-2373_rw_app_imp_2021-11-03_2021-11-09 > OSP-2373_rw_app_imp_2021-11-10_2021-11-14 > OSP-2373_rw_app_clk_2021-11-10_2021-11-14 > OSP-2373_rw_app_imp_2021-11-10_2021-11-14 > OSP-2373_rw_app_clk_2021-11-10_2021-11-14,23167.53813738,193.0,153.0,280,280,False
