,path,total_conversion_value,conversions,non_conversions,cnt,ppl,Converted
0,_AlwaysOn_wow_web_view_2021-12-15_2021-12-21 > _AlwaysOn_wow_web_view_2021-12-15_2021-12-21 > _AlwaysOn_wow_web_clk_2021-12-15_2021-12-21,1877.5516169696,17.0,4.0,475,475,False
1,FB_Impression_MobileFeed > _AlwaysOn_wow_web_view_2021-12-15_2021-12-21 > _AlwaysOn_wow_web_clk_2021-12-15_2021-12-21 > OSP-2373_email_open_2021-12-22_2021-12-26,382.56454829172,6.0,1.0,131,131,False
2,OSP-2373_rw_app_clk_2021-12-15_2021-12-21 > OSP-2373_email_open_2021-12-22_2021-12-26,10237.80235249,325.0,235.0,3391,3391,False
3,OSP-2373_rw_app_imp_2021-12-15_2021-12-21 > OSP-2373_rw_app_clk_2021-12-15_2021-12-21 > OSP-2373_email_open_2021-12-22_2021-12-26,17591.251400593,350.0,228.0,3403,3403,False
4,_AlwaysOn_wow_web_view_2021-12-15_2021-12-21 > OSP-2373_email_open_2021-12-22_2021-12-26 > OSP-2373_email_open_2021-12-15_2021-12-21,-115.44254830669,5.0,5.0,275,275,False
5,OSP-2373_rw_app_clk_2021-12-15_2021-12-21 > OSP-2373_email_open_2021-12-22_2021-12-26 > OSP-2373_email_open_2021-12-15_2021-12-21,1015.1733894392,13.0,11.0,104,104,False
6,OSP-2373_rw_app_imp_2021-12-15_2021-12-21 > OSP-2373_email_open_2021-12-22_2021-12-26 > OSP-2373_email_open_2021-12-22_2021-12-26 > OSP-2373_email_clk_2021-12-22_2021-12-26,5188.5950893667,120.0,78.0,382,382,False
7,OSP-2373_email_clk_2021-12-15_2021-12-21,2133.4263541286,49.0,31.0,255,255,False
8,FB_Impression_Instagram > OSP-2373_email_open_2021-12-22_2021-12-26 > OSP-2373_email_clk_2021-12-22_2021-12-26,136.32609647235,33.0,23.0,159,159,False
9,FB_Impression_MobileFeed > OSP-2373_rw_app_imp_2021-12-15_2021-12-21,-99.718695694232,7.0,9.0,284,284,False
10,OSP-2373_rw_app_imp_2021-12-22_2021-12-26 > OSP-2373_rw_app_imp_2021-12-15_2021-12-21 > OSP-2373_rw_app_clk_2021-12-22_2021-12-26,271490.55257509,8751.0,7237.0,33740,33740,False
11,_AlwaysOn_wow_web_view_2021-12-15_2021-12-21 > OSP-2373_rw_app_imp_2021-12-22_2021-12-26,4176.8753706506,43.0,27.0,1939,1939,False
12,_AlwaysOn_wow_web_view_2021-12-22_2021-12-26 > _AlwaysOn_wow_web_view_2021-12-15_2021-12-21 > OSP-2373_email_open_2021-12-22_2021-12-26,-82.430687595336,14.0,8.0,495,495,False
13,_AlwaysOn_wow_web_clk_2021-12-22_2021-12-26 > OSP-2373_rw_app_imp_2021-12-22_2021-12-26 > OSP-2373_rw_app_imp_2021-12-15_2021-12-21 > OSP-2373_rw_app_clk_2021-12-22_2021-12-26,3003.0617723346,63.0,49.0,116,116,False
14,_AlwaysOn_wow_web_view_2021-12-15_2021-12-21 > _AlwaysOn_sem_shopping_clk_2021-12-15_2021-12-21 > OSP-2373_email_open_2021-12-22_2021-12-26,309.24333490436,7.0,3.0,580,580,False
15,_AlwaysOn_sem_shopping_clk_2021-12-22_2021-12-26 > OSP-2373_email_open_2021-12-22_2021-12-26,490.43332615503,11.0,14.0,127,127,False
16,OSP-2373_email_open_2021-12-15_2021-12-21 > OSP-2373_email_clk_2021-12-15_2021-12-21,3909.5778736278,79.0,47.0,579,579,False
17,OSP-2373_rw_app_imp_2021-12-15_2021-12-21 > OSP-2373_rw_app_clk_2021-12-22_2021-12-26 > OSP-2373_email_open_2021-12-22_2021-12-26 > OSP-2373_email_open_2021-12-22_2021-12-26,-229.71579587303,77.0,60.0,295,295,False
18,_AlwaysOn_wow_web_view_2021-12-15_2021-12-21 > OSP-2373_rw_app_imp_2021-12-22_2021-12-26 > OSP-2373_rw_app_clk_2021-12-22_2021-12-26 > OSP-2373_email_open_2021-12-22_2021-12-26,5624.0062718589,64.0,21.0,470,470,False
19,OSP-2373_rw_app_imp_2021-12-22_2021-12-26 > OSP-2373_email_open_2021-12-22_2021-12-26 > OSP-2373_email_open_2021-12-15_2021-12-21 > OSP-2373_email_clk_2021-12-22_2021-12-26,-28.597502141914,32.0,29.0,147,147,False
20,_AlwaysOn_wow_web_view_2021-12-22_2021-12-26 > _AlwaysOn_wow_web_view_2021-12-15_2021-12-21 > OSP-2373_email_open_2021-12-22_2021-12-26 > OSP-2373_email_clk_2021-12-22_2021-12-26,833.47274078534,18.0,16.0,205,205,False
21,FB_Impression_SuggestedVideo > OSP-2373_email_open_2021-12-22_2021-12-26,47.702888055961,2.0,1.0,173,173,False
22,_AlwaysOn_wow_web_view_2021-12-15_2021-12-21 > _AlwaysOn_wow_web_clk_2021-12-15_2021-12-21 > OSP-2373_rw_app_imp_2021-12-22_2021-12-26,1852.2401043661,18.0,8.0,494,494,False
23,OSP-2373_email_clk_2021-12-22_2021-12-26 > OSP-2373_email_clk_2021-12-22_2021-12-26,941.1993468813,52.0,61.0,107,107,False
24,OSP-2373_email_open_2021-12-22_2021-12-26 > OSP-2373_email_open_2021-12-22_2021-12-26,4.6520630209949,54.0,56.0,458,458,False
25,_AlwaysOn_wow_web_view_2021-12-15_2021-12-21 > OSP-2373_rw_app_imp_2021-12-22_2021-12-26 > OSP-2373_rw_app_imp_2021-12-15_2021-12-21 > OSP-2373_rw_app_clk_2021-12-22_2021-12-26,11389.259625832,127.0,63.0,870,870,False
26,_AlwaysOn_wow_web_clk_2021-12-15_2021-12-21 > OSP-2373_rw_app_imp_2021-12-22_2021-12-26 > OSP-2373_rw_app_imp_2021-12-15_2021-12-21 > OSP-2373_email_open_2021-12-22_2021-12-26 > OSP-2373_email_clk_2021-12-22_2021-12-26,5469.2313432692,73.0,19.0,367,367,False
27,_AlwaysOn_wow_web_view_2021-12-15_2021-12-21 > _AlwaysOn_wow_web_clk_2021-12-15_2021-12-21 > OSP-2373_email_open_2021-12-22_2021-12-26 > OSP-2373_email_clk_2021-12-22_2021-12-26,6526.7281076809,204.0,100.0,1586,1586,False
28,OSP-2373_rw_app_imp_2021-12-15_2021-12-21 > OSP-2373_rw_app_imp_2021-12-15_2021-12-21 > OSP-2373_rw_app_clk_2021-12-22_2021-12-26 > OSP-2373_email_open_2021-12-22_2021-12-26,4318.8801039138,177.0,184.0,600,600,False
29,FB_Impression_Instagram > FB_Impression_MobileFeed > OSP-2373_email_open_2021-12-22_2021-12-26,322.11922695621,9.0,10.0,232,232,False
30,FB_Impression_WebFeed > OSP-2373_email_open_2021-12-22_2021-12-26,-383.45336231019,11.0,17.0,321,321,False
31,_AlwaysOn_sem_shopping_clk_2021-12-15_2021-12-21 > OSP-2373_email_open_2021-12-22_2021-12-26,561.84785660956,23.0,15.0,1220,1220,False
32,_AlwaysOn_wow_web_view_2021-12-22_2021-12-26 > _AlwaysOn_wow_web_view_2021-12-15_2021-12-21 > _AlwaysOn_wow_web_clk_2021-12-22_2021-12-26,3670.8761597073,32.0,13.0,326,326,False
33,OSP-2373_email_open_2021-12-22_2021-12-26,190258.27851174,15035.0,16311.0,714106,714106,False
34,OSP-2373_email_open_2021-12-22_2021-12-26 > OSP-2373_email_open_2021-12-22_2021-12-26 > OSP-2373_email_open_2021-12-15_2021-12-21 > OSP-2373_email_clk_2021-12-22_2021-12-26,1101.6439480855,32.0,29.0,192,192,False
35,OSP-2373_rw_app_clk_2021-12-22_2021-12-26 > OSP-2373_email_open_2021-12-22_2021-12-26 > OSP-2373_email_open_2021-12-22_2021-12-26,4346.8727465432,86.0,75.0,269,269,False
36,_AlwaysOn_wow_web_view_2021-12-22_2021-12-26 > _AlwaysOn_wow_web_clk_2021-12-22_2021-12-26,26121.299272913,237.0,128.0,1871,1871,False
37,OSP-2373_rw_app_clk_2021-12-22_2021-12-26 > OSP-2373_email_open_2021-12-22_2021-12-26 > OSP-2373_email_open_2021-12-15_2021-12-21 > OSP-2373_email_clk_2021-12-22_2021-12-26,290.3640145984,60.0,51.0,194,194,False
38,OSP-2373_rw_app_imp_2021-12-15_2021-12-21 > OSP-2373_rw_app_clk_2021-12-22_2021-12-26 > OSP-2373_email_open_2021-12-15_2021-12-21,3347.70604613,36.0,36.0,123,123,False
39,_AlwaysOn_wow_web_view_2021-12-22_2021-12-26 > OSP-2373_rw_app_imp_2021-12-22_2021-12-26 > OSP-2373_email_open_2021-12-22_2021-12-26,169.77438705259,17.0,15.0,124,124,False
40,_AlwaysOn_wow_web_view_2021-12-15_2021-12-21 > OSP-2373_rw_app_imp_2021-12-22_2021-12-26 > OSP-2373_rw_app_imp_2021-12-15_2021-12-21 > OSP-2373_rw_app_clk_2021-12-22_2021-12-26 > OSP-2373_rw_app_clk_2021-12-15_2021-12-21,957.49136550469,21.0,14.0,132,132,False
41,FB_Impression_MobileFeed > _AlwaysOn_wow_web_view_2021-12-15_2021-12-21 > OSP-2373_email_open_2021-12-22_2021-12-26 > OSP-2373_email_clk_2021-12-22_2021-12-26,1142.5232209781,19.0,17.0,198,198,False
42,_AlwaysOn_wow_web_view_2021-12-22_2021-12-26 > OSP-2373_email_open_2021-12-22_2021-12-26,1650.1463474876,185.0,159.0,2083,2083,False
43,OSP-2373_rw_app_imp_2021-12-22_2021-12-26 > OSP-2373_rw_app_imp_2021-12-22_2021-12-26 > OSP-2373_rw_app_imp_2021-12-15_2021-12-21 > OSP-2373_email_open_2021-12-22_2021-12-26,-338.87461670503,17.0,11.0,142,142,False
44,OSP-2373_rw_app_imp_2021-12-22_2021-12-26 > OSP-2373_email_open_2021-12-22_2021-12-26 > OSP-2373_email_open_2021-12-15_2021-12-21,-54.953255380772,21.0,29.0,331,331,False
45,OSP-2373_rw_app_imp_2021-12-22_2021-12-26 > OSP-2373_rw_app_imp_2021-12-15_2021-12-21 > OSP-2373_rw_app_clk_2021-12-15_2021-12-21,9851.0012278391,262.0,169.0,2581,2581,False
46,OSP-2373_email_open_2021-12-22_2021-12-26 > OSP-2373_email_clk_2021-12-22_2021-12-26,554849.58670251,21265.0,18488.0,126256,126256,False
47,OSP-2373_rw_app_clk_2021-12-22_2021-12-26 > OSP-2373_email_open_2021-12-22_2021-12-26 > OSP-2373_email_open_2021-12-15_2021-12-21,2192.8890578373,95.0,102.0,408,408,False
48,OSP-2373_rw_app_imp_2021-12-15_2021-12-21 > OSP-2373_email_open_2021-12-15_2021-12-21,384.00989750138,22.0,20.0,245,245,False
49,_AlwaysOn_wow_web_view_2021-12-15_2021-12-21 > _AlwaysOn_wow_web_clk_2021-12-15_2021-12-21 > _AlwaysOn_sem_shopping_clk_2021-12-15_2021-12-21 > OSP-2373_email_open_2021-12-22_2021-12-26,200.00083123923,6.0,0.0,116,116,False
50,_AlwaysOn_wow_web_view_2021-12-15_2021-12-21,63970.644056128,592.0,332.0,101265,101265,False
51,_AlwaysOn_wow_web_view_2021-12-15_2021-12-21 > _AlwaysOn_wow_web_clk_2021-12-22_2021-12-26 > _AlwaysOn_wow_web_clk_2021-12-15_2021-12-21,6091.9900741422,56.0,20.0,229,229,False
52,_AlwaysOn_wow_web_view_2021-12-15_2021-12-21 > OSP-2373_rw_app_imp_2021-12-22_2021-12-26 > OSP-2373_rw_app_imp_2021-12-15_2021-12-21 > OSP-2373_rw_app_clk_2021-12-22_2021-12-26 > OSP-2373_email_open_2021-12-22_2021-12-26,1042.612675151,51.0,37.0,349,349,False
53,OSP-2373_rw_app_imp_2021-12-15_2021-12-21 > OSP-2373_rw_app_clk_2021-12-22_2021-12-26 > OSP-2373_email_open_2021-12-22_2021-12-26 > OSP-2373_email_open_2021-12-15_2021-12-21 > OSP-2373_email_clk_2021-12-22_2021-12-26,282.91840364442,41.0,30.0,112,112,False
54,OSP-2373_email_open_2021-12-22_2021-12-26 > OSP-2373_email_open_2021-12-22_2021-12-26 > OSP-2373_email_clk_2021-12-22_2021-12-26,10535.507765646,357.0,307.0,1388,1388,False
55,_AlwaysOn_wow_web_clk_2021-12-15_2021-12-21 > OSP-2373_email_open_2021-12-22_2021-12-26,9940.8326159681,162.0,82.0,5426,5426,False
56,OSP-2373_rw_app_imp_2021-12-22_2021-12-26 > OSP-2373_rw_app_imp_2021-12-22_2021-12-26 > OSP-2373_rw_app_imp_2021-12-15_2021-12-21,1057.3180356043,19.0,17.0,162,162,False
57,OSP-2373_rw_app_imp_2021-12-15_2021-12-21 > OSP-2373_rw_app_imp_2021-12-15_2021-12-21 > OSP-2373_email_open_2021-12-22_2021-12-26,1698.0100611881,34.0,36.0,184,184,False
58,OSP-2373_rw_app_imp_2021-12-15_2021-12-21 > OSP-2373_email_open_2021-12-22_2021-12-26 > OSP-2373_email_open_2021-12-15_2021-12-21,1169.8675347134,44.0,37.0,459,459,False
59,OSP-2373_rw_app_imp_2021-12-22_2021-12-26 > OSP-2373_rw_app_clk_2021-12-22_2021-12-26 > OSP-2373_email_open_2021-12-22_2021-12-26,75997.887528995,2614.0,2073.0,13630,13630,False
60,_AlwaysOn_sem_shopping_clk_2021-12-15_2021-12-21 > OSP-2373_rw_app_imp_2021-12-22_2021-12-26 > OSP-2373_rw_app_imp_2021-12-15_2021-12-21,49.339068733167,3.0,1.0,162,162,False
61,OSP-2373_rw_app_imp_2021-12-15_2021-12-21 > OSP-2373_rw_app_clk_2021-12-22_2021-12-26 > OSP-2373_email_open_2021-12-22_2021-12-26 > OSP-2373_email_open_2021-12-15_2021-12-21,-1449.8583755011,115.0,113.0,333,333,False
62,_AlwaysOn_wow_web_view_2021-12-15_2021-12-21 > _AlwaysOn_wow_web_clk_2021-12-15_2021-12-21 > _AlwaysOn_sem_shopping_clk_2021-12-15_2021-12-21,916.06381035872,9.0,3.0,557,557,False
63,_AlwaysOn_wow_web_view_2021-12-15_2021-12-21 > _AlwaysOn_wow_web_clk_2021-12-15_2021-12-21 > OSP-2373_email_open_2021-12-22_2021-12-26,11454.055842554,115.0,47.0,3856,3856,False
64,_AlwaysOn_sem_shopping_clk_2021-12-15_2021-12-21 > _AlwaysOn_sem_shopping_clk_2021-12-15_2021-12-21 > OSP-2373_email_open_2021-12-22_2021-12-26,57.66181818,1.0,0.0,109,109,False
65,_AlwaysOn_sem_shopping_clk_2021-12-15_2021-12-21 > OSP-2373_rw_app_imp_2021-12-15_2021-12-21,350.95306244729,3.0,2.0,197,197,False
66,OSP-2373_rw_app_imp_2021-12-15_2021-12-21 > OSP-2373_rw_app_clk_2021-12-22_2021-12-26 > OSP-2373_email_open_2021-12-22_2021-12-26,82658.721637221,4155.0,3601.0,12975,12975,False
67,_AlwaysOn_wow_web_clk_2021-12-22_2021-12-26 > OSP-2373_email_open_2021-12-22_2021-12-26,15730.379353265,164.0,88.0,524,524,False
68,OSP-2373_rw_app_imp_2021-12-22_2021-12-26 > OSP-2373_rw_app_clk_2021-12-22_2021-12-26 > OSP-2373_email_open_2021-12-15_2021-12-21,-448.61590977152,30.0,22.0,133,133,False
69,_AlwaysOn_wow_web_clk_2021-12-15_2021-12-21 > _AlwaysOn_sem_shopping_clk_2021-12-15_2021-12-21 > OSP-2373_email_open_2021-12-22_2021-12-26,928.31689039094,4.0,4.0,116,116,False
70,OSP-2373_rw_app_imp_2021-12-22_2021-12-26 > OSP-2373_rw_app_imp_2021-12-15_2021-12-21 > OSP-2373_rw_app_clk_2021-12-22_2021-12-26 > OSP-2373_email_open_2021-12-15_2021-12-21,2088.1486303782,30.0,25.0,129,129,False
71,FB_Impression_MobileFeed > _AlwaysOn_wow_web_view_2021-12-15_2021-12-21 > _AlwaysOn_sem_shopping_clk_2021-12-15_2021-12-21,249.323636362,1.0,0.0,350,350,False
72,OSP-2373_email_clk_2021-12-22_2021-12-26,596978.59154351,24993.0,23028.0,96337,96337,False
73,_AlwaysOn_wow_web_view_2021-12-15_2021-12-21 > OSP-2373_email_open_2021-12-22_2021-12-26 > OSP-2373_email_clk_2021-12-22_2021-12-26,25613.655913502,473.0,276.0,5500,5500,False
74,_AlwaysOn_wow_web_view_2021-12-15_2021-12-21 > OSP-2373_rw_app_imp_2021-12-22_2021-12-26 > OSP-2373_rw_app_imp_2021-12-15_2021-12-21 > OSP-2373_email_open_2021-12-22_2021-12-26,555.01386152025,16.0,3.0,302,302,False
75,OSP-2373_rw_app_imp_2021-12-22_2021-12-26 > OSP-2373_rw_app_imp_2021-12-22_2021-12-26 > OSP-2373_rw_app_imp_2021-12-15_2021-12-21 > OSP-2373_rw_app_clk_2021-12-22_2021-12-26 > OSP-2373_email_open_2021-12-22_2021-12-26 > OSP-2373_email_clk_2021-12-22_2021-12-26,2085.897544959,42.0,19.0,142,142,False
76,_AlwaysOn_wow_web_view_2021-12-22_2021-12-26 > OSP-2373_rw_app_imp_2021-12-15_2021-12-21,79.988897613353,22.0,14.0,199,199,False
77,_AlwaysOn_wow_web_clk_2021-12-15_2021-12-21 > OSP-2373_rw_app_imp_2021-12-22_2021-12-26 > OSP-2373_rw_app_imp_2021-12-15_2021-12-21 > OSP-2373_rw_app_clk_2021-12-22_2021-12-26 > OSP-2373_email_open_2021-12-22_2021-12-26,2272.4512770175,48.0,22.0,334,334,False
78,OSP-2373_rw_app_imp_2021-12-22_2021-12-26 > OSP-2373_rw_app_clk_2021-12-22_2021-12-26 > OSP-2373_email_open_2021-12-22_2021-12-26 > OSP-2373_email_clk_2021-12-22_2021-12-26,27124.768432161,1016.0,808.0,4430,4430,False
79,_AlwaysOn_wow_web_view_2021-12-15_2021-12-21 > _AlwaysOn_sem_shopping_clk_2021-12-15_2021-12-21 > OSP-2373_rw_app_imp_2021-12-15_2021-12-21,-45.247647477677,0.0,1.0,103,103,False
80,_AlwaysOn_wow_web_view_2021-12-22_2021-12-26 > _AlwaysOn_sem_shopping_clk_2021-12-22_2021-12-26,810.31381699655,21.0,18.0,549,549,False
81,_AlwaysOn_wow_web_clk_2021-12-15_2021-12-21 > OSP-2373_rw_app_imp_2021-12-22_2021-12-26,2109.2004151991,21.0,11.0,644,644,False
82,OSP-2373_rw_app_imp_2021-12-15_2021-12-21 > OSP-2373_rw_app_clk_2021-12-22_2021-12-26 > OSP-2373_rw_app_clk_2021-12-15_2021-12-21 > OSP-2373_email_open_2021-12-22_2021-12-26,17151.82451664,374.0,250.0,1847,1847,False
83,FB_Impression_MobileFeed > FB_Click_MobileFeed > FB_Impression_MobileFeed > OSP-2373_email_open_2021-12-22_2021-12-26,550.57805826324,24.0,21.0,381,381,False
84,OSP-2373_rw_app_imp_2021-12-15_2021-12-21 > OSP-2373_email_open_2021-12-22_2021-12-26 > OSP-2373_email_open_2021-12-22_2021-12-26,885.90562772987,25.0,26.0,189,189,False
85,FB_Impression_MobileFeed > _AlwaysOn_wow_web_view_2021-12-15_2021-12-21 > OSP-2373_email_open_2021-12-22_2021-12-26,132.07383245796,6.0,7.0,571,571,False
86,FB_Impression_MobileFeed > OSP-2373_email_open_2021-12-15_2021-12-21,210.55150334905,3.0,0.0,239,239,False
87,OSP-2373_rw_app_imp_2021-12-15_2021-12-21 > OSP-2373_email_open_2021-12-22_2021-12-26 > OSP-2373_email_clk_2021-12-22_2021-12-26,80712.702083352,2993.0,2423.0,11158,11158,False
88,_AlwaysOn_wow_web_view_2021-12-15_2021-12-21 > OSP-2373_rw_app_imp_2021-12-22_2021-12-26 > OSP-2373_rw_app_clk_2021-12-22_2021-12-26 > OSP-2373_email_open_2021-12-22_2021-12-26 > OSP-2373_email_clk_2021-12-22_2021-12-26,3010.2584222068,38.0,24.0,262,262,False
89,OSP-2373_rw_app_imp_2021-12-22_2021-12-26 > OSP-2373_rw_app_imp_2021-12-15_2021-12-21 > OSP-2373_rw_app_clk_2021-12-22_2021-12-26 > OSP-2373_rw_app_clk_2021-12-15_2021-12-21,42210.383493691,631.0,385.0,3511,3511,False
90,_AlwaysOn_wow_web_view_2021-12-15_2021-12-21 > OSP-2373_rw_app_imp_2021-12-15_2021-12-21 > OSP-2373_email_open_2021-12-22_2021-12-26 > OSP-2373_email_clk_2021-12-22_2021-12-26,1226.4976247157,30.0,16.0,288,288,False
91,FB_Impression_MobileFeed > OSP-2373_email_open_2021-12-22_2021-12-26,7757.8265683479,387.0,407.0,14593,14593,False
92,_AlwaysOn_wow_web_view_2021-12-15_2021-12-21 > _AlwaysOn_wow_web_view_2021-12-15_2021-12-21,938.22588407393,6.0,2.0,383,383,False
93,OSP-2373_rw_app_imp_2021-12-15_2021-12-21 > OSP-2373_email_open_2021-12-22_2021-12-26,19144.404078244,1481.0,1427.0,17458,17458,False
94,_AlwaysOn_wow_web_clk_2021-12-22_2021-12-26 > OSP-2373_rw_app_imp_2021-12-22_2021-12-26 > OSP-2373_rw_app_clk_2021-12-22_2021-12-26,8552.2833135153,106.0,58.0,209,209,False
95,OSP-2373_email_open_2021-12-15_2021-12-21 > OSP-2373_email_clk_2021-12-22_2021-12-26 > OSP-2373_email_clk_2021-12-15_2021-12-21,2089.9861579001,144.0,131.0,534,534,False
96,_AlwaysOn_wow_web_view_2021-12-22_2021-12-26 > _AlwaysOn_wow_web_view_2021-12-15_2021-12-21,6584.7741849549,54.0,17.0,2760,2760,False
97,_AlwaysOn_wow_web_view_2021-12-15_2021-12-21 > _AlwaysOn_sem_shopping_clk_2021-12-15_2021-12-21,1619.9106358565,17.0,11.0,4663,4663,False
98,_AlwaysOn_wow_web_clk_2021-12-15_2021-12-21 > _AlwaysOn_sem_shopping_clk_2021-12-15_2021-12-21 > OSP-2373_email_open_2021-12-22_2021-12-26 > OSP-2373_email_clk_2021-12-22_2021-12-26,-75.247382043417,14.0,9.0,105,105,False
99,_AlwaysOn_wow_web_clk_2021-12-15_2021-12-21 > OSP-2373_rw_app_imp_2021-12-15_2021-12-21,-251.80933728252,17.0,16.0,497,497,False
100,_AlwaysOn_wow_web_view_2021-12-22_2021-12-26 > OSP-2373_rw_app_imp_2021-12-22_2021-12-26 > OSP-2373_rw_app_clk_2021-12-22_2021-12-26,8200.4738532314,133.0,88.0,409,409,False
101,FB_Impression_MobileFeed > OSP-2373_rw_app_imp_2021-12-22_2021-12-26 > OSP-2373_rw_app_imp_2021-12-15_2021-12-21,-282.25255316302,5.0,11.0,206,206,False
102,_AlwaysOn_wow_web_clk_2021-12-15_2021-12-21 > OSP-2373_rw_app_imp_2021-12-22_2021-12-26 > OSP-2373_rw_app_imp_2021-12-15_2021-12-21,1499.7887848245,21.0,12.0,342,342,False
104,_AlwaysOn_wow_web_view_2021-12-15_2021-12-21 > _AlwaysOn_wow_web_clk_2021-12-22_2021-12-26 > OSP-2373_email_open_2021-12-22_2021-12-26,2818.2812901547,23.0,6.0,110,110,False
105,OSP-2373_rw_app_imp_2021-12-22_2021-12-26 > OSP-2373_rw_app_imp_2021-12-15_2021-12-21 > OSP-2373_email_open_2021-12-22_2021-12-26 > OSP-2373_email_clk_2021-12-22_2021-12-26,31036.509743269,1350.0,1109.0,5282,5282,False
106,FB_Impression_MobileFeed > OSP-2373_rw_app_imp_2021-12-22_2021-12-26,-1077.810862721,15.0,21.0,710,710,False
107,_AlwaysOn_wow_web_view_2021-12-15_2021-12-21 > OSP-2373_rw_app_imp_2021-12-22_2021-12-26 > OSP-2373_email_open_2021-12-22_2021-12-26,66.230949812112,19.0,19.0,705,705,False
108,_AlwaysOn_sem_shopping_clk_2021-12-15_2021-12-21 > OSP-2373_email_open_2021-12-22_2021-12-26 > OSP-2373_email_clk_2021-12-22_2021-12-26,6397.1250583974,87.0,43.0,740,740,False
109,OSP-2373_rw_app_imp_2021-12-15_2021-12-21 > OSP-2373_rw_app_imp_2021-12-15_2021-12-21 > OSP-2373_email_open_2021-12-22_2021-12-26 > OSP-2373_email_clk_2021-12-22_2021-12-26,3592.5793956644,129.0,97.0,359,359,False
110,_AlwaysOn_wow_web_view_2021-12-15_2021-12-21 > _AlwaysOn_sem_shopping_clk_2021-12-15_2021-12-21 > OSP-2373_rw_app_imp_2021-12-22_2021-12-26 > OSP-2373_rw_app_clk_2021-12-22_2021-12-26,725.6475061151,10.0,5.0,130,130,False
111,_AlwaysOn_wow_web_view_2021-12-15_2021-12-21 > OSP-2373_rw_app_imp_2021-12-15_2021-12-21 > OSP-2373_rw_app_clk_2021-12-15_2021-12-21,1314.0740381714,25.0,25.0,406,406,False
112,_AlwaysOn_wow_web_clk_2021-12-15_2021-12-21 > _AlwaysOn_sem_shopping_clk_2021-12-15_2021-12-21,659.87895384308,10.0,1.0,455,455,False
113,_AlwaysOn_wow_web_clk_2021-12-15_2021-12-21 > OSP-2373_rw_app_imp_2021-12-22_2021-12-26 > OSP-2373_rw_app_imp_2021-12-15_2021-12-21 > OSP-2373_rw_app_clk_2021-12-22_2021-12-26,3883.9296865254,90.0,43.0,630,630,False
114,OSP-2373_rw_app_imp_2021-12-22_2021-12-26 > OSP-2373_rw_app_imp_2021-12-22_2021-12-26 > OSP-2373_rw_app_imp_2021-12-15_2021-12-21 > OSP-2373_rw_app_clk_2021-12-22_2021-12-26,11178.568767601,207.0,129.0,841,841,False
115,_AlwaysOn_wow_web_clk_2021-12-15_2021-12-21 > OSP-2373_rw_app_imp_2021-12-22_2021-12-26 > OSP-2373_rw_app_imp_2021-12-15_2021-12-21 > OSP-2373_email_open_2021-12-22_2021-12-26,506.05942094055,16.0,8.0,225,225,False
116,_AlwaysOn_wow_web_clk_2021-12-15_2021-12-21 > OSP-2373_rw_app_imp_2021-12-15_2021-12-21 > OSP-2373_email_open_2021-12-22_2021-12-26 > OSP-2373_email_clk_2021-12-22_2021-12-26,2173.5293407775,38.0,15.0,272,272,False
117,_AlwaysOn_wow_web_view_2021-12-22_2021-12-26 > _AlwaysOn_wow_web_view_2021-12-15_2021-12-21 > _AlwaysOn_wow_web_clk_2021-12-15_2021-12-21,1054.616651553,12.0,4.0,396,396,False
118,_AlwaysOn_wow_web_view_2021-12-15_2021-12-21 > _AlwaysOn_wow_web_clk_2021-12-15_2021-12-21 > OSP-2373_rw_app_imp_2021-12-22_2021-12-26 > OSP-2373_email_open_2021-12-22_2021-12-26 > OSP-2373_email_clk_2021-12-22_2021-12-26,1151.3073795185,20.0,5.0,182,182,False
119,OSP-2373_rw_app_imp_2021-12-22_2021-12-26 > OSP-2373_email_open_2021-12-22_2021-12-26,13102.339806424,1137.0,1116.0,19484,19484,False
120,_AlwaysOn_wow_web_clk_2021-12-15_2021-12-21 > OSP-2373_email_open_2021-12-22_2021-12-26 > OSP-2373_email_clk_2021-12-22_2021-12-26,25251.674224936,425.0,231.0,3894,3894,False
121,OSP-2373_rw_app_imp_2021-12-15_2021-12-21 > OSP-2373_rw_app_imp_2021-12-15_2021-12-21 > OSP-2373_rw_app_clk_2021-12-22_2021-12-26 > OSP-2373_email_open_2021-12-22_2021-12-26 > OSP-2373_email_clk_2021-12-22_2021-12-26,872.32854285279,41.0,34.0,113,113,False
122,_AlwaysOn_wow_web_clk_2021-12-15_2021-12-21 > OSP-2373_rw_app_imp_2021-12-22_2021-12-26 > OSP-2373_rw_app_imp_2021-12-15_2021-12-21 > OSP-2373_rw_app_clk_2021-12-22_2021-12-26 > OSP-2373_rw_app_clk_2021-12-15_2021-12-21,1741.9046855879,21.0,8.0,123,123,False
123,_AlwaysOn_wow_web_view_2021-12-22_2021-12-26 > _AlwaysOn_wow_web_view_2021-12-15_2021-12-21 > _AlwaysOn_wow_web_clk_2021-12-15_2021-12-21 > OSP-2373_email_open_2021-12-22_2021-12-26,572.66639619127,8.0,1.0,100,100,False
124,OSP-2373_rw_app_imp_2021-12-15_2021-12-21 > OSP-2373_rw_app_clk_2021-12-22_2021-12-26,297075.86639056,10830.0,9256.0,34615,34615,False
125,_AlwaysOn_sem_shopping_clk_2021-12-22_2021-12-26,1079.6267040873,42.0,52.0,1017,1017,False
126,_AlwaysOn_wow_web_clk_2021-12-15_2021-12-21 > OSP-2373_rw_app_imp_2021-12-22_2021-12-26 > OSP-2373_rw_app_clk_2021-12-22_2021-12-26 > OSP-2373_email_open_2021-12-22_2021-12-26,1102.0840566477,30.0,22.0,337,337,False
127,OSP-2373_rw_app_imp_2021-12-22_2021-12-26 > OSP-2373_rw_app_imp_2021-12-15_2021-12-21 > OSP-2373_email_open_2021-12-22_2021-12-26 > OSP-2373_email_open_2021-12-15_2021-12-21 > OSP-2373_email_clk_2021-12-22_2021-12-26,1004.2360338532,36.0,23.0,119,119,False
128,OSP-2373_rw_app_imp_2021-12-22_2021-12-26,61347.01991549,2916.0,3232.0,114631,114631,False
129,OSP-2373_rw_app_imp_2021-12-15_2021-12-21 > OSP-2373_rw_app_clk_2021-12-15_2021-12-21,67907.591481195,1253.0,803.0,12992,12992,False
130,_AlwaysOn_wow_web_clk_2021-12-15_2021-12-21 > OSP-2373_rw_app_imp_2021-12-22_2021-12-26 > OSP-2373_email_open_2021-12-22_2021-12-26 > OSP-2373_email_clk_2021-12-22_2021-12-26,2945.4201923813,63.0,31.0,442,442,False
131,_AlwaysOn_wow_web_view_2021-12-15_2021-12-21 > _AlwaysOn_wow_web_clk_2021-12-15_2021-12-21 > OSP-2373_rw_app_imp_2021-12-15_2021-12-21 > OSP-2373_rw_app_clk_2021-12-15_2021-12-21,134.86317970172,13.0,9.0,180,180,False
132,_AlwaysOn_wow_web_view_2021-12-15_2021-12-21 > _AlwaysOn_wow_web_clk_2021-12-15_2021-12-21 > OSP-2373_rw_app_imp_2021-12-15_2021-12-21 > OSP-2373_email_open_2021-12-22_2021-12-26,1496.1343020406,13.0,1.0,204,204,False
133,_AlwaysOn_wow_web_view_2021-12-15_2021-12-21 > _AlwaysOn_sem_brand_clk_2021-12-15_2021-12-21,-189.68016202393,4.0,2.0,470,470,False
134,FB_Impression_MobileFeed > OSP-2373_rw_app_imp_2021-12-22_2021-12-26 > OSP-2373_email_open_2021-12-22_2021-12-26,322.3005551212,16.0,14.0,207,207,False
135,_AlwaysOn_wow_web_clk_2021-12-15_2021-12-21 > OSP-2373_rw_app_imp_2021-12-22_2021-12-26 > OSP-2373_rw_app_imp_2021-12-22_2021-12-26 > OSP-2373_rw_app_imp_2021-12-15_2021-12-21 > OSP-2373_rw_app_clk_2021-12-22_2021-12-26,1430.4064655102,15.0,6.0,100,100,False
136,_AlwaysOn_sem_shopping_clk_2021-12-22_2021-12-26 > OSP-2373_email_open_2021-12-22_2021-12-26 > OSP-2373_email_clk_2021-12-22_2021-12-26,-780.73803538351,31.0,28.0,113,113,False
137,OSP-2373_email_open_2021-12-22_2021-12-26 > OSP-2373_email_open_2021-12-15_2021-12-21 > OSP-2373_email_clk_2021-12-15_2021-12-21,-588.04533701728,29.0,28.0,286,286,False
138,OSP-2373_rw_app_imp_2021-12-22_2021-12-26 > OSP-2373_rw_app_imp_2021-12-22_2021-12-26 > OSP-2373_rw_app_imp_2021-12-15_2021-12-21 > OSP-2373_email_open_2021-12-22_2021-12-26 > OSP-2373_email_clk_2021-12-22_2021-12-26,2384.1022353069,47.0,18.0,213,213,False
139,_AlwaysOn_wow_web_view_2021-12-22_2021-12-26 > OSP-2373_rw_app_imp_2021-12-22_2021-12-26 > OSP-2373_rw_app_clk_2021-12-22_2021-12-26 > OSP-2373_email_open_2021-12-22_2021-12-26,1393.0848358152,52.0,49.0,127,127,False
140,_AlwaysOn_sem_shopping_clk_2021-12-15_2021-12-21 > OSP-2373_rw_app_imp_2021-12-22_2021-12-26 > OSP-2373_rw_app_clk_2021-12-22_2021-12-26,2456.0159356547,40.0,16.0,342,342,False
141,_AlwaysOn_wow_web_clk_2021-12-15_2021-12-21 > _AlwaysOn_sem_shopping_clk_2021-12-15_2021-12-21 > _AlwaysOn_sem_shopping_clk_2021-12-15_2021-12-21,428.81180188677,3.0,2.0,145,145,False
142,_AlwaysOn_wow_web_view_2021-12-15_2021-12-21 > OSP-2373_rw_app_imp_2021-12-15_2021-12-21 > OSP-2373_rw_app_clk_2021-12-15_2021-12-21 > OSP-2373_email_open_2021-12-22_2021-12-26,498.98662410407,11.0,7.0,147,147,False
143,OSP-2373_rw_app_clk_2021-12-22_2021-12-26 > OSP-2373_email_open_2021-12-22_2021-12-26 > OSP-2373_email_clk_2021-12-22_2021-12-26,64246.742074567,2335.0,1962.0,8203,8203,False
144,FB_Impression_MobileFeed > _AlwaysOn_wow_web_view_2021-12-15_2021-12-21 > _AlwaysOn_wow_web_clk_2021-12-15_2021-12-21,1610.4173905611,12.0,0.0,586,586,False
145,_AlwaysOn_wow_web_view_2021-12-22_2021-12-26 > OSP-2373_rw_app_imp_2021-12-22_2021-12-26,1397.7910465326,47.0,40.0,459,459,False
146,_AlwaysOn_sem_shopping_clk_2021-12-15_2021-12-21 > OSP-2373_rw_app_imp_2021-12-22_2021-12-26 > OSP-2373_email_open_2021-12-22_2021-12-26,170.05692519387,3.0,2.0,108,108,False
147,OSP-2373_email_open_2021-12-22_2021-12-26 > OSP-2373_email_clk_2021-12-22_2021-12-26 > OSP-2373_email_clk_2021-12-22_2021-12-26,2422.8181808385,69.0,52.0,191,191,False
148,OSP-2373_rw_app_imp_2021-12-22_2021-12-26 > OSP-2373_rw_app_imp_2021-12-15_2021-12-21 > OSP-2373_rw_app_clk_2021-12-22_2021-12-26 > OSP-2373_email_open_2021-12-22_2021-12-26,59848.349739489,3041.0,2468.0,10484,10484,False
149,OSP-2373_rw_app_imp_2021-12-22_2021-12-26 > OSP-2373_rw_app_imp_2021-12-15_2021-12-21 > OSP-2373_rw_app_clk_2021-12-22_2021-12-26 > OSP-2373_rw_app_clk_2021-12-15_2021-12-21 > OSP-2373_email_open_2021-12-22_2021-12-26,9208.5141992413,173.0,82.0,857,857,False
150,_AlwaysOn_wow_web_view_2021-12-22_2021-12-26 > _AlwaysOn_wow_web_view_2021-12-15_2021-12-21 > _AlwaysOn_wow_web_clk_2021-12-22_2021-12-26 > _AlwaysOn_wow_web_clk_2021-12-15_2021-12-21,2444.6485183872,19.0,5.0,127,127,False
151,_AlwaysOn_wow_web_clk_2021-12-15_2021-12-21 > OSP-2373_rw_app_imp_2021-12-22_2021-12-26 > OSP-2373_rw_app_imp_2021-12-15_2021-12-21 > OSP-2373_rw_app_clk_2021-12-22_2021-12-26 > OSP-2373_email_open_2021-12-22_2021-12-26 > OSP-2373_email_clk_2021-12-22_2021-12-26,1176.3067572305,29.0,18.0,156,156,False
152,OSP-2373_email_open_2021-12-15_2021-12-21 > OSP-2373_email_clk_2021-12-22_2021-12-26,25442.685036609,748.0,612.0,2922,2922,False
153,_AlwaysOn_sem_shopping_clk_2021-12-15_2021-12-21,1418.03653988,41.0,35.0,7669,7669,False
154,_AlwaysOn_wow_web_view_2021-12-15_2021-12-21 > OSP-2373_rw_app_imp_2021-12-22_2021-12-26 > OSP-2373_rw_app_imp_2021-12-15_2021-12-21 > OSP-2373_rw_app_clk_2021-12-22_2021-12-26 > OSP-2373_email_open_2021-12-22_2021-12-26 > OSP-2373_email_clk_2021-12-22_2021-12-26,1468.2846586709,20.0,17.0,113,113,False
155,OSP-2373_rw_app_imp_2021-12-22_2021-12-26 > OSP-2373_rw_app_imp_2021-12-15_2021-12-21 > OSP-2373_rw_app_clk_2021-12-22_2021-12-26 > OSP-2373_email_open_2021-12-22_2021-12-26 > OSP-2373_email_open_2021-12-15_2021-12-21,1470.9515175958,71.0,65.0,232,232,False
156,FB_Impression_Instagram > _AlwaysOn_wow_web_view_2021-12-15_2021-12-21,132.892727272,1.0,0.0,159,159,False
157,OSP-2373_rw_app_clk_2021-12-15_2021-12-21,53316.678159548,1120.0,591.0,8017,8017,False
158,_AlwaysOn_wow_web_view_2021-12-15_2021-12-21 > _AlwaysOn_sem_brand_clk_2021-12-15_2021-12-21 > OSP-2373_email_open_2021-12-22_2021-12-26,-36.543585934143,0.0,2.0,108,108,False
159,_AlwaysOn_wow_web_view_2021-12-22_2021-12-26 > OSP-2373_rw_app_imp_2021-12-22_2021-12-26 > OSP-2373_rw_app_imp_2021-12-15_2021-12-21,631.746460753,16.0,14.0,110,110,False
160,_AlwaysOn_sem_brand_clk_2021-12-15_2021-12-21,138.34815234813,6.0,2.0,541,541,False
161,_AlwaysOn_wow_web_clk_2021-12-15_2021-12-21 > OSP-2373_rw_app_imp_2021-12-15_2021-12-21 > OSP-2373_rw_app_clk_2021-12-15_2021-12-21,757.84797848202,12.0,14.0,207,207,False
162,_AlwaysOn_wow_web_view_2021-12-15_2021-12-21 > _AlwaysOn_wow_web_clk_2021-12-15_2021-12-21 > OSP-2373_rw_app_imp_2021-12-22_2021-12-26 > OSP-2373_rw_app_imp_2021-12-15_2021-12-21,1727.3225795534,15.0,3.0,241,241,False
163,OSP-2373_rw_app_imp_2021-12-15_2021-12-21 > OSP-2373_email_open_2021-12-22_2021-12-26 > OSP-2373_email_open_2021-12-15_2021-12-21 > OSP-2373_email_clk_2021-12-22_2021-12-26,1292.6868888048,90.0,76.0,331,331,False
164,OSP-2373_email_open_2021-12-22_2021-12-26 > OSP-2373_email_open_2021-12-15_2021-12-21 > OSP-2373_email_clk_2021-12-22_2021-12-26,8633.1450046102,564.0,531.0,3137,3137,False
165,_AlwaysOn_sem_shopping_clk_2021-12-15_2021-12-21 > _AlwaysOn_sem_shopping_clk_2021-12-15_2021-12-21,-19.667741069217,2.0,4.0,694,694,False
166,FB_Impression_MobileFeed > OSP-2373_rw_app_imp_2021-12-22_2021-12-26 > OSP-2373_rw_app_imp_2021-12-15_2021-12-21 > OSP-2373_rw_app_clk_2021-12-22_2021-12-26,1032.5074717863,34.0,44.0,158,158,False
167,FB_Impression_MobileFeed,12105.739958854,492.0,520.0,113996,113996,False
168,OSP-2373_rw_app_imp_2021-12-22_2021-12-26 > OSP-2373_rw_app_imp_2021-12-15_2021-12-21 > OSP-2373_rw_app_imp_2021-12-15_2021-12-21 > OSP-2373_rw_app_clk_2021-12-22_2021-12-26,832.46984638522,30.0,14.0,191,191,False
169,_AlwaysOn_wow_web_view_2021-12-15_2021-12-21 > OSP-2373_rw_app_imp_2021-12-22_2021-12-26 > OSP-2373_email_open_2021-12-22_2021-12-26 > OSP-2373_email_clk_2021-12-22_2021-12-26,2695.5514410074,52.0,26.0,493,493,False
170,OSP-2373_rw_app_imp_2021-12-22_2021-12-26 > OSP-2373_rw_app_imp_2021-12-15_2021-12-21,28323.539650919,1491.0,1392.0,24241,24241,False
171,OSP-2373_rw_app_clk_2021-12-22_2021-12-26,425336.30750065,12626.0,10529.0,48825,48825,False
172,_AlwaysOn_wow_web_view_2021-12-22_2021-12-26 > _AlwaysOn_wow_web_clk_2021-12-22_2021-12-26 > OSP-2373_email_open_2021-12-22_2021-12-26,4374.8030273867,56.0,36.0,285,285,False
173,_AlwaysOn_wow_web_clk_2021-12-15_2021-12-21 > OSP-2373_rw_app_imp_2021-12-22_2021-12-26 > OSP-2373_email_open_2021-12-22_2021-12-26,-370.08417433801,9.0,10.0,399,399,False
174,_AlwaysOn_wow_web_view_2021-12-15_2021-12-21 > _AlwaysOn_sem_shopping_clk_2021-12-22_2021-12-26,672.12193699132,5.0,1.0,143,143,False
175,_AlwaysOn_wow_web_view_2021-12-15_2021-12-21 > _AlwaysOn_wow_web_clk_2021-12-15_2021-12-21 > OSP-2373_rw_app_imp_2021-12-22_2021-12-26 > OSP-2373_rw_app_imp_2021-12-15_2021-12-21 > OSP-2373_email_open_2021-12-22_2021-12-26,-719.00944814304,3.0,5.0,109,109,False
176,_AlwaysOn_wow_web_view_2021-12-15_2021-12-21 > OSP-2373_email_open_2021-12-22_2021-12-26 > OSP-2373_email_open_2021-12-15_2021-12-21 > OSP-2373_email_clk_2021-12-22_2021-12-26,1028.3879279095,16.0,7.0,137,137,False
177,OSP-2373_rw_app_imp_2021-12-15_2021-12-21 > OSP-2373_rw_app_imp_2021-12-15_2021-12-21 > OSP-2373_rw_app_clk_2021-12-22_2021-12-26,15959.995827186,483.0,439.0,1294,1294,False
178,OSP-2373_rw_app_imp_2021-12-15_2021-12-21,47107.490063357,3694.0,3590.0,72766,72766,False
179,FB_Impression_MobileFeed > _AlwaysOn_wow_web_view_2021-12-22_2021-12-26,312.90006368202,11.0,15.0,452,452,False
180,FB_Impression_MobileFeed > OSP-2373_email_open_2021-12-22_2021-12-26 > OSP-2373_email_clk_2021-12-22_2021-12-26,21928.077993766,498.0,404.0,3022,3022,False
181,FB_Impression_MobileFeed > _AlwaysOn_wow_web_view_2021-12-15_2021-12-21,916.34376271418,11.0,7.0,2399,2399,False
182,FB_Impression_MobileFeed > FB_Impression_Instagram > FB_Impression_MobileFeed > OSP-2373_email_open_2021-12-22_2021-12-26,820.72062061238,8.0,3.0,265,265,False
183,_AlwaysOn_wow_web_clk_2021-12-15_2021-12-21 > OSP-2373_email_open_2021-12-22_2021-12-26 > OSP-2373_email_open_2021-12-22_2021-12-26 > OSP-2373_email_clk_2021-12-22_2021-12-26,1384.6728670883,18.0,7.0,135,135,False
184,_AlwaysOn_wow_web_view_2021-12-22_2021-12-26 > OSP-2373_rw_app_imp_2021-12-22_2021-12-26 > OSP-2373_rw_app_imp_2021-12-15_2021-12-21 > OSP-2373_rw_app_clk_2021-12-22_2021-12-26,2827.9274151345,65.0,51.0,192,192,False
185,OSP-2373_rw_app_imp_2021-12-15_2021-12-21 > OSP-2373_rw_app_clk_2021-12-22_2021-12-26 > OSP-2373_rw_app_clk_2021-12-15_2021-12-21 > OSP-2373_email_open_2021-12-22_2021-12-26 > OSP-2373_email_clk_2021-12-22_2021-12-26,5516.3262008681,67.0,35.0,282,282,False
186,_AlwaysOn_wow_web_view_2021-12-15_2021-12-21 > _AlwaysOn_wow_web_clk_2021-12-22_2021-12-26,10629.165034683,75.0,26.0,446,446,False
187,OSP-2373_rw_app_imp_2021-12-22_2021-12-26 > OSP-2373_email_open_2021-12-15_2021-12-21,125.20996808223,8.0,14.0,200,200,False
188,_AlwaysOn_wow_web_view_2021-12-15_2021-12-21 > OSP-2373_email_open_2021-12-22_2021-12-26,14528.55167901,241.0,140.0,14809,14809,False
189,_AlwaysOn_sem_brand_clk_2021-12-15_2021-12-21 > OSP-2373_email_open_2021-12-22_2021-12-26 > OSP-2373_email_clk_2021-12-22_2021-12-26,1553.259002585,23.0,14.0,200,200,False
190,_AlwaysOn_wow_web_view_2021-12-15_2021-12-21 > OSP-2373_email_open_2021-12-15_2021-12-21,588.65898796241,5.0,2.0,163,163,False
191,OSP-2373_rw_app_imp_2021-12-15_2021-12-21 > OSP-2373_rw_app_clk_2021-12-22_2021-12-26 > OSP-2373_email_open_2021-12-22_2021-12-26 > OSP-2373_email_clk_2021-12-22_2021-12-26,27722.483587499,1213.0,1051.0,3429,3429,False
192,OSP-2373_rw_app_clk_2021-12-22_2021-12-26 > OSP-2373_email_open_2021-12-15_2021-12-21,552.56319532815,37.0,34.0,189,189,False
193,_AlwaysOn_wow_web_clk_2021-12-22_2021-12-26 > OSP-2373_rw_app_imp_2021-12-22_2021-12-26,5244.7656054907,45.0,20.0,124,124,False
194,_AlwaysOn_wow_web_view_2021-12-15_2021-12-21 > _AlwaysOn_sem_shopping_clk_2021-12-22_2021-12-26 > _AlwaysOn_sem_shopping_clk_2021-12-15_2021-12-21,1005.9687101351,6.0,0.0,208,208,False
195,_AlwaysOn_wow_web_view_2021-12-15_2021-12-21 > OSP-2373_rw_app_imp_2021-12-15_2021-12-21 > OSP-2373_email_open_2021-12-22_2021-12-26,1855.3756119928,17.0,10.0,532,532,False
196,OSP-2373_rw_app_clk_2021-12-15_2021-12-21 > OSP-2373_email_open_2021-12-22_2021-12-26 > OSP-2373_email_clk_2021-12-22_2021-12-26,11962.922108948,202.0,131.0,1121,1121,False
197,OSP-2373_rw_app_imp_2021-12-15_2021-12-21 > OSP-2373_rw_app_clk_2021-12-22_2021-12-26 > OSP-2373_rw_app_clk_2021-12-15_2021-12-21,87196.528662079,1296.0,802.0,6299,6299,False
198,_AlwaysOn_sem_brand_clk_2021-12-15_2021-12-21 > OSP-2373_email_open_2021-12-22_2021-12-26,-54.377799555219,3.0,4.0,194,194,False
199,OSP-2373_rw_app_imp_2021-12-15_2021-12-21 > OSP-2373_rw_app_clk_2021-12-22_2021-12-26 > OSP-2373_email_open_2021-12-22_2021-12-26 > OSP-2373_email_open_2021-12-22_2021-12-26 > OSP-2373_email_clk_2021-12-22_2021-12-26,36.03871870713,41.0,31.0,148,148,False
200,_AlwaysOn_wow_web_view_2021-12-15_2021-12-21 > OSP-2373_rw_app_imp_2021-12-15_2021-12-21,4659.0599083408,48.0,16.0,1485,1485,False
201,_AlwaysOn_wow_web_clk_2021-12-15_2021-12-21 > OSP-2373_rw_app_imp_2021-12-22_2021-12-26 > OSP-2373_rw_app_clk_2021-12-22_2021-12-26,7392.7676396603,76.0,31.0,607,607,False
202,_AlwaysOn_wow_web_clk_2021-12-22_2021-12-26,30598.255286098,319.0,189.0,1579,1579,False
203,_AlwaysOn_wow_web_clk_2021-12-15_2021-12-21 > OSP-2373_email_open_2021-12-22_2021-12-26 > OSP-2373_email_open_2021-12-15_2021-12-21 > OSP-2373_email_clk_2021-12-22_2021-12-26,1852.962324094,17.0,2.0,121,121,False
204,_AlwaysOn_wow_web_view_2021-12-22_2021-12-26,32292.022615143,519.0,423.0,19551,19551,False
205,_AlwaysOn_wow_web_clk_2021-12-15_2021-12-21 > OSP-2373_rw_app_imp_2021-12-15_2021-12-21 > OSP-2373_email_open_2021-12-22_2021-12-26,315.77598716586,12.0,9.0,278,278,False
206,FB_Impression_MobileFeed > OSP-2373_rw_app_imp_2021-12-22_2021-12-26 > OSP-2373_rw_app_clk_2021-12-22_2021-12-26,1859.4188015223,56.0,35.0,294,294,False
207,FB_Impression_MobileFeed > OSP-2373_email_open_2021-12-22_2021-12-26 > OSP-2373_email_open_2021-12-15_2021-12-21,153.34546729812,11.0,13.0,357,357,False
208,FB_Impression_MobileFeed > _AlwaysOn_wow_web_clk_2021-12-15_2021-12-21,-2.5581381053182,0.0,1.0,104,104,False
209,OSP-2373_rw_app_imp_2021-12-22_2021-12-26 > OSP-2373_rw_app_imp_2021-12-15_2021-12-21 > OSP-2373_email_open_2021-12-22_2021-12-26 > OSP-2373_email_open_2021-12-15_2021-12-21,311.82652539059,18.0,14.0,133,133,False
210,_AlwaysOn_wow_web_view_2021-12-15_2021-12-21 > OSP-2373_rw_app_imp_2021-12-22_2021-12-26 > OSP-2373_rw_app_imp_2021-12-15_2021-12-21 > OSP-2373_email_open_2021-12-22_2021-12-26 > OSP-2373_email_clk_2021-12-22_2021-12-26,2353.8240207459,30.0,21.0,274,274,False
211,_AlwaysOn_wow_web_clk_2021-12-15_2021-12-21 > OSP-2373_rw_app_imp_2021-12-22_2021-12-26 > OSP-2373_rw_app_clk_2021-12-22_2021-12-26 > OSP-2373_email_open_2021-12-22_2021-12-26 > OSP-2373_email_clk_2021-12-22_2021-12-26,799.54987595534,39.0,22.0,263,263,False
212,_AlwaysOn_wow_web_view_2021-12-15_2021-12-21 > _AlwaysOn_wow_web_clk_2021-12-15_2021-12-21 > OSP-2373_rw_app_imp_2021-12-22_2021-12-26 > OSP-2373_rw_app_imp_2021-12-15_2021-12-21 > OSP-2373_email_open_2021-12-22_2021-12-26 > OSP-2373_email_clk_2021-12-22_2021-12-26,259.90159107747,13.0,7.0,126,126,False
213,_AlwaysOn_sem_shopping_clk_2021-12-15_2021-12-21 > OSP-2373_rw_app_imp_2021-12-22_2021-12-26 > OSP-2373_rw_app_imp_2021-12-15_2021-12-21 > OSP-2373_rw_app_clk_2021-12-22_2021-12-26,2195.1443782431,34.0,15.0,252,252,False
214,_AlwaysOn_wow_web_view_2021-12-15_2021-12-21 > _AlwaysOn_wow_web_clk_2021-12-15_2021-12-21 > OSP-2373_rw_app_imp_2021-12-22_2021-12-26 > OSP-2373_rw_app_clk_2021-12-22_2021-12-26 > OSP-2373_email_open_2021-12-22_2021-12-26,3355.2770089639,28.0,7.0,152,152,False
215,_AlwaysOn_wow_web_view_2021-12-15_2021-12-21 > _AlwaysOn_wow_web_clk_2021-12-15_2021-12-21 > OSP-2373_rw_app_imp_2021-12-22_2021-12-26 > OSP-2373_rw_app_imp_2021-12-15_2021-12-21 > OSP-2373_rw_app_clk_2021-12-22_2021-12-26 > OSP-2373_email_open_2021-12-22_2021-12-26,1740.0246285637,20.0,8.0,164,164,False
216,OSP-2373_email_open_2021-12-15_2021-12-21,8347.5614850787,522.0,601.0,15376,15376,False
217,OSP-2373_rw_app_imp_2021-12-22_2021-12-26 > OSP-2373_rw_app_imp_2021-12-15_2021-12-21 > OSP-2373_email_open_2021-12-22_2021-12-26,13791.640871067,627.0,537.0,6163,6163,False
218,_AlwaysOn_wow_web_clk_2021-12-15_2021-12-21,31226.611707787,289.0,130.0,13547,13547,False
219,_AlwaysOn_wow_web_clk_2021-12-22_2021-12-26 > OSP-2373_email_open_2021-12-22_2021-12-26 > OSP-2373_email_clk_2021-12-22_2021-12-26,5327.8788084843,119.0,85.0,262,262,False
220,FB_Impression_MobileFeed > FB_Impression_Instagram > OSP-2373_email_open_2021-12-22_2021-12-26,95.863989133272,5.0,7.0,201,201,False
221,OSP-2373_rw_app_imp_2021-12-22_2021-12-26 > OSP-2373_rw_app_imp_2021-12-15_2021-12-21 > OSP-2373_rw_app_clk_2021-12-15_2021-12-21 > OSP-2373_email_open_2021-12-22_2021-12-26,2909.0686135172,65.0,39.0,649,649,False
222,_AlwaysOn_wow_web_view_2021-12-15_2021-12-21 > _AlwaysOn_wow_web_clk_2021-12-15_2021-12-21 > OSP-2373_rw_app_imp_2021-12-22_2021-12-26 > OSP-2373_rw_app_clk_2021-12-22_2021-12-26,4959.1067554173,56.0,30.0,395,395,False
223,OSP-2373_rw_app_imp_2021-12-22_2021-12-26 > OSP-2373_email_open_2021-12-22_2021-12-26 > OSP-2373_email_clk_2021-12-22_2021-12-26,47846.965036892,1596.0,1297.0,8134,8134,False
224,_AlwaysOn_wow_web_view_2021-12-15_2021-12-21 > _AlwaysOn_sem_shopping_clk_2021-12-15_2021-12-21 > OSP-2373_email_open_2021-12-22_2021-12-26 > OSP-2373_email_clk_2021-12-22_2021-12-26,2313.7636373212,29.0,10.0,308,308,False
225,_AlwaysOn_wow_web_view_2021-12-22_2021-12-26 > OSP-2373_email_open_2021-12-22_2021-12-26 > OSP-2373_email_clk_2021-12-22_2021-12-26,-866.23132215664,186.0,193.0,799,799,False
226,OSP-2373_rw_app_imp_2021-12-22_2021-12-26 > OSP-2373_rw_app_imp_2021-12-15_2021-12-21 > OSP-2373_rw_app_clk_2021-12-15_2021-12-21 > OSP-2373_email_open_2021-12-22_2021-12-26 > OSP-2373_email_clk_2021-12-22_2021-12-26,3792.2150238271,64.0,22.0,252,252,False
227,_AlwaysOn_wow_web_view_2021-12-15_2021-12-21 > OSP-2373_rw_app_imp_2021-12-22_2021-12-26 > OSP-2373_rw_app_imp_2021-12-15_2021-12-21,2723.8299589406,23.0,3.0,645,645,False
228,OSP-2373_rw_app_imp_2021-12-15_2021-12-21 > OSP-2373_rw_app_imp_2021-12-15_2021-12-21,1393.3793916035,60.0,46.0,233,233,False
229,OSP-2373_rw_app_imp_2021-12-22_2021-12-26 > OSP-2373_rw_app_clk_2021-12-22_2021-12-26,381411.5328702,10118.0,7906.0,60280,60280,False
230,FB_Impression_Instagram > OSP-2373_email_open_2021-12-22_2021-12-26,518.23773402143,23.0,22.0,1086,1086,False
231,OSP-2373_rw_app_imp_2021-12-22_2021-12-26 > OSP-2373_rw_app_imp_2021-12-22_2021-12-26 > OSP-2373_rw_app_clk_2021-12-22_2021-12-26 > OSP-2373_email_open_2021-12-22_2021-12-26,-118.36895501753,33.0,28.0,158,158,False
232,OSP-2373_rw_app_imp_2021-12-15_2021-12-21 > OSP-2373_rw_app_clk_2021-12-15_2021-12-21 > OSP-2373_email_open_2021-12-22_2021-12-26 > OSP-2373_email_clk_2021-12-22_2021-12-26,10261.028013912,177.0,126.0,1071,1071,False
233,OSP-2373_email_open_2021-12-22_2021-12-26 > OSP-2373_email_open_2021-12-15_2021-12-21 > OSP-2373_email_clk_2021-12-22_2021-12-26 > OSP-2373_email_clk_2021-12-15_2021-12-21,2074.1177441024,112.0,95.0,537,537,False
234,_AlwaysOn_wow_web_view_2021-12-15_2021-12-21 > _AlwaysOn_wow_web_clk_2021-12-15_2021-12-21 > OSP-2373_rw_app_imp_2021-12-22_2021-12-26 > OSP-2373_rw_app_imp_2021-12-15_2021-12-21 > OSP-2373_rw_app_clk_2021-12-22_2021-12-26,5558.0476360337,72.0,21.0,395,395,False
235,_AlwaysOn_wow_web_view_2021-12-15_2021-12-21 > _AlwaysOn_wow_web_clk_2021-12-15_2021-12-21 > OSP-2373_rw_app_imp_2021-12-22_2021-12-26 > OSP-2373_email_open_2021-12-22_2021-12-26,832.66356643636,14.0,8.0,235,235,False
236,OSP-2373_rw_app_imp_2021-12-22_2021-12-26 > OSP-2373_rw_app_imp_2021-12-22_2021-12-26 > OSP-2373_rw_app_clk_2021-12-22_2021-12-26,4768.3521249219,87.0,44.0,279,279,False
237,OSP-2373_rw_app_imp_2021-12-22_2021-12-26 > OSP-2373_rw_app_imp_2021-12-22_2021-12-26 > OSP-2373_rw_app_imp_2021-12-15_2021-12-21 > OSP-2373_rw_app_clk_2021-12-22_2021-12-26 > OSP-2373_email_open_2021-12-22_2021-12-26,2276.0473083527,104.0,43.0,430,430,False
238,OSP-2373_rw_app_imp_2021-12-22_2021-12-26 > OSP-2373_rw_app_imp_2021-12-15_2021-12-21 > OSP-2373_rw_app_clk_2021-12-22_2021-12-26 > OSP-2373_rw_app_clk_2021-12-15_2021-12-21 > OSP-2373_email_open_2021-12-22_2021-12-26 > OSP-2373_email_clk_2021-12-22_2021-12-26,707.76196096912,27.0,26.0,141,141,False
239,_AlwaysOn_wow_web_view_2021-12-15_2021-12-21 > OSP-2373_rw_app_imp_2021-12-22_2021-12-26 > OSP-2373_rw_app_clk_2021-12-22_2021-12-26,11125.081599998,147.0,79.0,1508,1508,False
240,OSP-2373_rw_app_clk_2021-12-22_2021-12-26 > OSP-2373_email_open_2021-12-22_2021-12-26 > OSP-2373_email_open_2021-12-22_2021-12-26 > OSP-2373_email_clk_2021-12-22_2021-12-26,2662.6427752564,117.0,113.0,411,411,False
241,OSP-2373_rw_app_imp_2021-12-22_2021-12-26 > OSP-2373_rw_app_clk_2021-12-22_2021-12-26 > OSP-2373_email_open_2021-12-22_2021-12-26 > OSP-2373_email_open_2021-12-15_2021-12-21,2255.0707482166,44.0,30.0,221,221,False
242,_AlwaysOn_wow_web_clk_2021-12-15_2021-12-21 > OSP-2373_email_open_2021-12-22_2021-12-26 > OSP-2373_email_open_2021-12-15_2021-12-21,635.10844201338,9.0,3.0,169,169,False
243,_AlwaysOn_wow_web_view_2021-12-15_2021-12-21 > _AlwaysOn_wow_web_clk_2021-12-15_2021-12-21,40791.029538088,348.0,133.0,18080,18080,False
244,OSP-2373_rw_app_imp_2021-12-22_2021-12-26 > OSP-2373_rw_app_imp_2021-12-15_2021-12-21 > OSP-2373_rw_app_clk_2021-12-22_2021-12-26 > OSP-2373_email_open_2021-12-22_2021-12-26 > OSP-2373_email_clk_2021-12-22_2021-12-26,14958.590985943,768.0,654.0,2491,2491,False
245,OSP-2373_rw_app_imp_2021-12-15_2021-12-21 > OSP-2373_rw_app_imp_2021-12-15_2021-12-21 > OSP-2373_rw_app_clk_2021-12-22_2021-12-26 > OSP-2373_rw_app_clk_2021-12-15_2021-12-21,5035.6433236876,66.0,54.0,232,232,False
246,_AlwaysOn_wow_web_view_2021-12-15_2021-12-21 > _AlwaysOn_wow_web_clk_2021-12-15_2021-12-21 > OSP-2373_rw_app_imp_2021-12-15_2021-12-21 > OSP-2373_email_open_2021-12-22_2021-12-26 > OSP-2373_email_clk_2021-12-22_2021-12-26,802.10491346126,19.0,13.0,127,127,False
247,OSP-2373_email_open_2021-12-22_2021-12-26 > OSP-2373_email_open_2021-12-15_2021-12-21,10753.825887874,406.0,384.0,9855,9855,False
248,_AlwaysOn_wow_web_view_2021-12-15_2021-12-21 > OSP-2373_rw_app_imp_2021-12-22_2021-12-26 > OSP-2373_rw_app_imp_2021-12-15_2021-12-21 > OSP-2373_rw_app_clk_2021-12-15_2021-12-21,110.84533163563,8.0,7.0,113,113,False
249,OSP-2373_rw_app_clk_2021-12-22_2021-12-26 > OSP-2373_email_open_2021-12-22_2021-12-26,143924.10554832,4535.0,3764.0,18791,18791,False
250,_AlwaysOn_wow_web_view_2021-12-15_2021-12-21 > _AlwaysOn_sem_shopping_clk_2021-12-15_2021-12-21 > OSP-2373_rw_app_imp_2021-12-22_2021-12-26,-5.0063682620267,1.0,1.0,175,175,False
251,_AlwaysOn_wow_web_view_2021-12-15_2021-12-21 > _AlwaysOn_wow_web_clk_2021-12-15_2021-12-21 > OSP-2373_rw_app_imp_2021-12-15_2021-12-21,-200.55441948277,11.0,8.0,360,360,False
252,_AlwaysOn_wow_web_view_2021-12-15_2021-12-21 > _AlwaysOn_wow_web_view_2021-12-15_2021-12-21 > OSP-2373_email_open_2021-12-22_2021-12-26,224.45991237361,8.0,2.0,135,135,False
253,_AlwaysOn_sem_shopping_clk_2021-12-15_2021-12-21 > OSP-2373_rw_app_imp_2021-12-22_2021-12-26,-469.59176582649,5.0,7.0,346,346,False
