,event_concat,val,val_type,val_type_2,cnt,ppl
0,FB_Impression_MobileFeed^FB_Impression_FacebookStory^FB_Impression_MobileFeed^CVM-3509_email_open_2021-12-20_2021-12-26^CVM-3509_email_clk_2021-12-20_2021-12-26^^^^^^^^^^^^^^^^,5498.950939212,179.0,118.0,389,389
1,CVM-3509_rw_app_imp_2021-12-20_2021-12-26^CVM-3509_rw_app_clk_2021-12-20_2021-12-26^CVM-3509_email_open_2021-12-20_2021-12-26^CVM-3509_email_clk_2021-12-20_2021-12-26^^^^^^^^^^^^^^^^^,17633.591135739,441.0,266.0,792,792
2,FB_Impression_MobileFeed^FB_Click_MobileFeed^FB_Impression_MobileFeed^CVM-3509_email_open_2021-12-20_2021-12-26^CVM-3509_email_clk_2021-12-20_2021-12-26^^^^^^^^^^^^^^^^,2303.0856574668,54.0,43.0,132,132
3,FB_Impression_WebFeed^CVM-3509_email_open_2021-12-20_2021-12-26^CVM-3509_email_clk_2021-12-20_2021-12-26^^^^^^^^^^^^^^^^^^,8859.8495966004,326.0,230.0,753,753
4,FB_Impression_InstagramStory^FB_Impression_Instagram^FB_Impression_InstagramStory^CVM-3509_email_open_2021-12-20_2021-12-26^CVM-3509_email_clk_2021-12-20_2021-12-26^^^^^^^^^^^^^^^^,-2800.8072854875,42.0,46.0,112,112
5,FB_Impression_Instagram^FB_Impression_MobileFeed^CVM-3509_email_open_2021-12-20_2021-12-26^^^^^^^^^^^^^^^^^^,1454.3690273612,31.0,22.0,600,600
6,FB_Impression_InstagramStory^FB_Impression_Instagram^CVM-3509_email_open_2021-12-20_2021-12-26^^^^^^^^^^^^^^^^^^,-714.59176409625,7.0,12.0,132,132
7,FB_Impression_MobileFeed^CVM-3509_rw_app_imp_2021-12-20_2021-12-26^CVM-3509_email_open_2021-12-20_2021-12-26^CVM-3509_email_clk_2021-12-20_2021-12-26^^^^^^^^^^^^^^^^^,6961.3170087386,400.0,258.0,797,797
8,FB_Impression_SuggestedVideo^FB_Impression_MobileFeed^CVM-3509_email_open_2021-12-20_2021-12-26^^^^^^^^^^^^^^^^^^,777.9775302765,38.0,18.0,502,502
9,FB_Impression_FacebookStory^FB_Impression_MobileFeed^CVM-3509_email_open_2021-12-20_2021-12-26^^^^^^^^^^^^^^^^^^,467.23679646068,14.0,8.0,282,282
10,CVM-3509_rw_app_push_clk_2021-12-20_2021-12-26^CVM-3509_email_open_2021-12-20_2021-12-26^^^^^^^^^^^^^^^^^^^,-235.94452335192,82.0,58.0,231,231
11,FB_Impression_MobileFeed^FB_Impression_SuggestedVideo^FB_Impression_MobileFeed^CVM-3509_email_open_2021-12-20_2021-12-26^^^^^^^^^^^^^^^^^,2494.6873556672,26.0,9.0,358,358
12,FB_Impression_MobileFeed^_AlwaysOn_wow_web_view_2021-12-20_2021-12-26^CVM-3509_email_open_2021-12-20_2021-12-26^^^^^^^^^^^^^^^^^^,2575.6293813761,26.0,13.0,175,175
13,FB_Impression_Instagram^FB_Impression_InstagramStory^CVM-3509_email_open_2021-12-20_2021-12-26^^^^^^^^^^^^^^^^^^,-215.64150800273,4.0,9.0,221,221
14,FB_Impression_MobileFeed^FB_Impression_FacebookStory^FB_Impression_MobileFeed^CVM-3509_email_open_2021-12-20_2021-12-26^^^^^^^^^^^^^^^^^,-342.69881825682,31.0,20.0,405,405
15,FB_Impression_InstagramStory^^^^^^^^^^^^^^^^^^^^,1405.0011213749,59.0,58.0,6350,6350
16,FB_Impression_Instagram^FB_Impression_MobileFeed^FB_Impression_Instagram^CVM-3509_email_open_2021-12-20_2021-12-26^^^^^^^^^^^^^^^^^,-1593.2786317973,11.0,10.0,202,202
17,CVM-3509_rw_app_push_imp_2021-12-20_2021-12-26^CVM-3509_rw_app_imp_2021-12-20_2021-12-26^CVM-3509_rw_app_clk_2021-12-20_2021-12-26^CVM-3509_email_open_2021-12-20_2021-12-26^^^^^^^^^^^^^^^^^,2502.6857988718,75.0,38.0,128,128
18,_AlwaysOn_wow_web_clk_2021-12-20_2021-12-26^CVM-3509_rw_app_imp_2021-12-20_2021-12-26^CVM-3509_rw_app_clk_2021-12-20_2021-12-26^^^^^^^^^^^^^^^^^^,4729.2607672781,67.0,38.0,110,110
19,CVM-3509_email_clk_2021-12-20_2021-12-26^^^^^^^^^^^^^^^^^^^^,562126.55704894,21042.0,15139.0,43296,43296
20,CVM-3509_rw_app_imp_2021-12-20_2021-12-26^^^^^^^^^^^^^^^^^^^^,82308.146407036,2583.0,1779.0,26595,26595
21,FB_Impression_MobileFeed^CVM-3509_email_open_2021-12-20_2021-12-26^^^^^^^^^^^^^^^^^^^,26484.356235804,685.0,469.0,20284,20284
22,CVM-3509_email_open_2021-12-20_2021-12-26^CVM-3509_email_open_2021-12-20_2021-12-26^CVM-3509_email_clk_2021-12-20_2021-12-26^^^^^^^^^^^^^^^^^^,3749.0443828485,359.0,229.0,650,650
23,FB_Impression_MobileFeed^FB_Impression_Instagram^CVM-3509_email_open_2021-12-20_2021-12-26^^^^^^^^^^^^^^^^^^,-25.144269440801,12.0,16.0,314,314
24,FB_Impression_MobileFeed^CVM-3509_rw_app_imp_2021-12-20_2021-12-26^CVM-3509_rw_app_clk_2021-12-20_2021-12-26^^^^^^^^^^^^^^^^^^,37951.619547635,740.0,441.0,1449,1449
25,FB_Impression_MobileFeed^FB_Impression_FacebookStory^CVM-3509_email_open_2021-12-20_2021-12-26^CVM-3509_email_clk_2021-12-20_2021-12-26^^^^^^^^^^^^^^^^^,-574.32344832878,117.0,105.0,294,294
26,CVM-3509_rw_app_imp_2021-12-20_2021-12-26^CVM-3509_email_open_2021-12-20_2021-12-26^CVM-3509_email_open_2021-12-20_2021-12-26^CVM-3509_email_clk_2021-12-20_2021-12-26^^^^^^^^^^^^^^^^^,3796.1573082756,78.0,51.0,138,138
27,CVM-3509_email_open_2021-12-20_2021-12-26^CVM-3509_email_clk_2021-12-20_2021-12-26^CVM-3509_email_clk_2021-12-20_2021-12-26^^^^^^^^^^^^^^^^^^,5045.6425899026,96.0,44.0,153,153
28,FB_Impression_WebFeed^FB_Impression_MobileFeed^FB_Impression_WebFeed^CVM-3509_email_open_2021-12-20_2021-12-26^^^^^^^^^^^^^^^^^,72.918138774943,15.0,7.0,187,187
29,FB_Impression_MobileFeed^FB_Impression_Instagram^FB_Impression_MobileFeed^^^^^^^^^^^^^^^^^^,-20.755554643092,59.0,47.0,2359,2359
30,CVM-3509_rw_app_imp_2021-12-20_2021-12-26^CVM-3509_rw_app_clk_2021-12-20_2021-12-26^^^^^^^^^^^^^^^^^^^,162072.24049758,3705.0,2161.0,7585,7585
31,FB_Impression_MobileFeed^CVM-3509_email_open_2021-12-20_2021-12-26^CVM-3509_email_clk_2021-12-20_2021-12-26^^^^^^^^^^^^^^^^^^,146238.11700782,4747.0,3332.0,10282,10282
32,_AlwaysOn_wow_web_view_2021-12-20_2021-12-26^_AlwaysOn_wow_web_clk_2021-12-20_2021-12-26^^^^^^^^^^^^^^^^^^^,11702.96181394,127.0,58.0,3530,3530
33,FB_Impression_MobileFeed^_AlwaysOn_wow_web_view_2021-12-20_2021-12-26^_AlwaysOn_wow_web_clk_2021-12-20_2021-12-26^^^^^^^^^^^^^^^^^^,2284.0861161649,27.0,20.0,115,115
34,FB_Impression_MobileFeed^CVM-3509_rw_app_push_imp_2021-12-20_2021-12-26^CVM-3509_rw_app_imp_2021-12-20_2021-12-26^CVM-3509_email_open_2021-12-20_2021-12-26^^^^^^^^^^^^^^^^^,1777.6217117839,57.0,37.0,177,177
35,FB_Impression_Instagram^^^^^^^^^^^^^^^^^^^^,4564.6062383161,109.0,65.0,21593,21593
36,_AlwaysOn_sem_shopping_clk_2021-12-20_2021-12-26^CVM-3509_email_open_2021-12-20_2021-12-26^CVM-3509_email_clk_2021-12-20_2021-12-26^^^^^^^^^^^^^^^^^^,2587.0704761684,67.0,46.0,125,125
37,_AlwaysOn_wow_web_view_2021-12-20_2021-12-26^_AlwaysOn_sem_shopping_clk_2021-12-20_2021-12-26^^^^^^^^^^^^^^^^^^^,687.02515824616,11.0,6.0,1412,1412
38,CVM-3509_rw_app_push_imp_2021-12-20_2021-12-26^CVM-3509_email_open_2021-12-20_2021-12-26^^^^^^^^^^^^^^^^^^^,1810.2486507922,101.0,71.0,399,399
39,_AlwaysOn_wow_web_clk_2021-12-20_2021-12-26^_AlwaysOn_sem_shopping_clk_2021-12-20_2021-12-26^^^^^^^^^^^^^^^^^^^,1626.8792111748,6.0,0.0,110,110
40,FB_Impression_InstagramStory^CVM-3509_rw_app_imp_2021-12-20_2021-12-26^^^^^^^^^^^^^^^^^^^,838.52606627418,20.0,10.0,100,100
41,FB_Impression_MobileFeed^FB_Impression_Instagram^FB_Impression_MobileFeed^CVM-3509_email_open_2021-12-20_2021-12-26^CVM-3509_email_clk_2021-12-20_2021-12-26^^^^^^^^^^^^^^^^,6864.5726509429,213.0,161.0,464,464
42,_AlwaysOn_sem_shopping_clk_2021-12-20_2021-12-26^^^^^^^^^^^^^^^^^^^^,1216.8792366319,27.0,10.0,2149,2149
43,_AlwaysOn_wow_web_view_2021-12-20_2021-12-26^CVM-3509_rw_app_imp_2021-12-20_2021-12-26^^^^^^^^^^^^^^^^^^^,762.69133035589,9.0,2.0,114,114
44,CVM-3509_rw_app_clk_2021-12-20_2021-12-26^CVM-3509_email_open_2021-12-20_2021-12-26^^^^^^^^^^^^^^^^^^^,75826.393700938,2082.0,1355.0,4064,4064
45,FB_Impression_WebFeed^^^^^^^^^^^^^^^^^^^^,5583.1872996467,112.0,81.0,8370,8370
46,FB_Impression_WebFeed^FB_Impression_MobileFeed^FB_Impression_WebFeed^FB_Impression_MobileFeed^CVM-3509_email_open_2021-12-20_2021-12-26^^^^^^^^^^^^^^^^,-55.010031072185,6.0,4.0,105,105
47,FB_Impression_MobileFeed^FB_Impression_SuggestedVideo^FB_Impression_MobileFeed^CVM-3509_email_open_2021-12-20_2021-12-26^CVM-3509_email_clk_2021-12-20_2021-12-26^^^^^^^^^^^^^^^^,2.8491266092406,114.0,97.0,277,277
48,CVM-3509_rw_app_push_clk_2021-12-20_2021-12-26^CVM-3509_email_open_2021-12-20_2021-12-26^CVM-3509_email_clk_2021-12-20_2021-12-26^^^^^^^^^^^^^^^^^^,6637.8805476749,152.0,117.0,321,321
49,CVM-3509_email_open_2021-12-20_2021-12-26^CVM-3509_email_open_2021-12-20_2021-12-26^^^^^^^^^^^^^^^^^^^,-1309.6589732095,42.0,35.0,181,181
50,FB_Impression_Instagram^FB_Impression_MobileFeed^CVM-3509_rw_app_imp_2021-12-20_2021-12-26^^^^^^^^^^^^^^^^^^,-1397.4637802896,20.0,20.0,103,103
51,FB_Impression_MobileFeed^CVM-3509_rw_app_push_imp_2021-12-20_2021-12-26^CVM-3509_email_open_2021-12-20_2021-12-26^CVM-3509_email_clk_2021-12-20_2021-12-26^^^^^^^^^^^^^^^^^,7767.7848888475,175.0,92.0,276,276
52,_AlwaysOn_wow_web_clk_2021-12-20_2021-12-26^CVM-3509_email_open_2021-12-20_2021-12-26^^^^^^^^^^^^^^^^^^^,8478.6799752761,89.0,35.0,234,234
53,FB_Impression_SuggestedVideo^CVM-3509_email_open_2021-12-20_2021-12-26^^^^^^^^^^^^^^^^^^^,838.03444171586,24.0,21.0,666,666
54,FB_Impression_Instagram^FB_Impression_MobileFeed^CVM-3509_email_open_2021-12-20_2021-12-26^CVM-3509_email_clk_2021-12-20_2021-12-26^^^^^^^^^^^^^^^^^,10223.693547535,237.0,171.0,509,509
55,FB_Impression_FacebookStory^CVM-3509_email_open_2021-12-20_2021-12-26^CVM-3509_email_clk_2021-12-20_2021-12-26^^^^^^^^^^^^^^^^^^,752.21416867702,63.0,68.0,169,169
56,FB_Impression_MobileFeed^FB_Impression_Instagram^CVM-3509_email_open_2021-12-20_2021-12-26^CVM-3509_email_clk_2021-12-20_2021-12-26^^^^^^^^^^^^^^^^^,5927.4899355474,138.0,93.0,293,293
57,CVM-3509_rw_app_push_imp_2021-12-20_2021-12-26^CVM-3509_rw_app_imp_2021-12-20_2021-12-26^^^^^^^^^^^^^^^^^^^,9127.3810039062,248.0,148.0,1269,1269
58,CVM-3509_rw_app_push_imp_2021-12-20_2021-12-26^CVM-3509_email_open_2021-12-20_2021-12-26^CVM-3509_email_clk_2021-12-20_2021-12-26^^^^^^^^^^^^^^^^^^,10644.693875231,163.0,89.0,289,289
59,FB_Impression_MobileFeed^CVM-3509_rw_app_push_imp_2021-12-20_2021-12-26^^^^^^^^^^^^^^^^^^^,9447.0183921295,151.0,97.0,524,524
60,FB_Impression_SuggestedVideo^CVM-3509_email_open_2021-12-20_2021-12-26^CVM-3509_email_clk_2021-12-20_2021-12-26^^^^^^^^^^^^^^^^^^,8730.0435725433,300.0,189.0,629,629
61,FB_Impression_MobileFeed^CVM-3509_rw_app_imp_2021-12-20_2021-12-26^CVM-3509_email_open_2021-12-20_2021-12-26^^^^^^^^^^^^^^^^^^,6561.4648567271,159.0,120.0,1042,1042
62,FB_Impression_MobileFeed^CVM-3509_rw_app_push_imp_2021-12-20_2021-12-26^CVM-3509_rw_app_imp_2021-12-20_2021-12-26^CVM-3509_rw_app_clk_2021-12-20_2021-12-26^^^^^^^^^^^^^^^^^,18849.048284085,161.0,103.0,293,293
63,CVM-3509_rw_app_clk_2021-12-20_2021-12-26^CVM-3509_email_open_2021-12-20_2021-12-26^CVM-3509_email_open_2021-12-20_2021-12-26^CVM-3509_email_clk_2021-12-20_2021-12-26^^^^^^^^^^^^^^^^^,774.32729350638,56.0,42.0,112,112
64,FB_Impression_MobileFeed^CVM-3509_rw_app_push_imp_2021-12-20_2021-12-26^CVM-3509_rw_app_imp_2021-12-20_2021-12-26^CVM-3509_email_open_2021-12-20_2021-12-26^CVM-3509_email_clk_2021-12-20_2021-12-26^^^^^^^^^^^^^^^^,5418.9254618395,89.0,50.0,156,156
65,CVM-3509_rw_app_imp_2021-12-20_2021-12-26^CVM-3509_rw_app_clk_2021-12-20_2021-12-26^CVM-3509_email_open_2021-12-20_2021-12-26^^^^^^^^^^^^^^^^^^,37747.412220386,1156.0,663.0,2325,2325
66,_AlwaysOn_wow_web_view_2021-12-20_2021-12-26^CVM-3509_rw_app_imp_2021-12-20_2021-12-26^CVM-3509_rw_app_clk_2021-12-20_2021-12-26^^^^^^^^^^^^^^^^^^,7457.2206438856,87.0,35.0,138,138
67,CVM-3509_email_open_2021-12-20_2021-12-26^CVM-3509_email_clk_2021-12-20_2021-12-26^^^^^^^^^^^^^^^^^^^,592798.44230668,17665.0,12384.0,41586,41586
68,CVM-3509_rw_app_push_imp_2021-12-20_2021-12-26^CVM-3509_rw_app_imp_2021-12-20_2021-12-26^CVM-3509_email_open_2021-12-20_2021-12-26^^^^^^^^^^^^^^^^^^,2933.9151031553,83.0,50.0,315,315
69,FB_Impression_Other^CVM-3509_email_open_2021-12-20_2021-12-26^CVM-3509_email_clk_2021-12-20_2021-12-26^^^^^^^^^^^^^^^^^^,-50.81536785669,50.0,36.0,106,106
70,FB_Impression_MobileFeed^FB_Impression_InstagramStory^FB_Impression_MobileFeed^CVM-3509_email_open_2021-12-20_2021-12-26^^^^^^^^^^^^^^^^^,-1131.669485462,7.0,9.0,123,123
71,FB_Impression_Instagram^CVM-3509_email_open_2021-12-20_2021-12-26^^^^^^^^^^^^^^^^^^^,4766.491350603,59.0,34.0,2426,2426
72,FB_Impression_MobileFeed^FB_Impression_FacebookStory^CVM-3509_email_open_2021-12-20_2021-12-26^^^^^^^^^^^^^^^^^^,956.41338903544,16.0,17.0,292,292
73,CVM-3509_rw_app_push_imp_2021-12-20_2021-12-26^CVM-3509_rw_app_imp_2021-12-20_2021-12-26^CVM-3509_email_open_2021-12-20_2021-12-26^CVM-3509_email_clk_2021-12-20_2021-12-26^^^^^^^^^^^^^^^^^,2391.1586717566,89.0,58.0,176,176
74,FB_Impression_Instagram^CVM-3509_email_open_2021-12-20_2021-12-26^CVM-3509_email_clk_2021-12-20_2021-12-26^^^^^^^^^^^^^^^^^^,13526.499349262,429.0,305.0,974,974
75,_AlwaysOn_wow_web_view_2021-12-20_2021-12-26^CVM-3509_email_open_2021-12-20_2021-12-26^^^^^^^^^^^^^^^^^^^,5135.8726341232,77.0,33.0,781,781
76,FB_Impression_FacebookStory^CVM-3509_email_open_2021-12-20_2021-12-26^^^^^^^^^^^^^^^^^^^,-775.02132984218,7.0,9.0,276,276
77,FB_Impression_MobileFeed^CVM-3509_rw_app_push_clk_2021-12-20_2021-12-26^CVM-3509_email_open_2021-12-20_2021-12-26^CVM-3509_email_clk_2021-12-20_2021-12-26^^^^^^^^^^^^^^^^^,313.05733531092,85.0,60.0,160,160
78,FB_Impression_MobileFeed^CVM-3509_rw_app_imp_2021-12-20_2021-12-26^CVM-3509_rw_app_clk_2021-12-20_2021-12-26^CVM-3509_email_open_2021-12-20_2021-12-26^CVM-3509_email_clk_2021-12-20_2021-12-26^^^^^^^^^^^^^^^^,2715.5714349238,110.0,83.0,224,224
79,FB_Impression_MobileFeed^CVM-3509_rw_app_imp_2021-12-20_2021-12-26^CVM-3509_rw_app_clk_2021-12-20_2021-12-26^CVM-3509_email_open_2021-12-20_2021-12-26^^^^^^^^^^^^^^^^^,13335.643510952,334.0,197.0,639,639
80,FB_Impression_MobileFeed^CVM-3509_rw_app_push_clk_2021-12-20_2021-12-26^CVM-3509_rw_app_imp_2021-12-20_2021-12-26^^^^^^^^^^^^^^^^^^,-915.97237009377,37.0,40.0,227,227
81,FB_Impression_MobileFeed^CVM-3509_rw_app_push_imp_2021-12-20_2021-12-26^CVM-3509_email_open_2021-12-20_2021-12-26^^^^^^^^^^^^^^^^^^,2434.471608501,45.0,34.0,127,127
82,FB_Impression_MobileFeed^CVM-3509_rw_app_push_clk_2021-12-20_2021-12-26^^^^^^^^^^^^^^^^^^^,6174.146601093,97.0,60.0,246,246
83,FB_Impression_Instagram^FB_Impression_InstagramStory^CVM-3509_email_open_2021-12-20_2021-12-26^CVM-3509_email_clk_2021-12-20_2021-12-26^^^^^^^^^^^^^^^^^,5744.6504393738,70.0,52.0,154,154
84,FB_Impression_WebFeed^CVM-3509_email_open_2021-12-20_2021-12-26^^^^^^^^^^^^^^^^^^^,2961.135862361,147.0,106.0,2253,2253
85,CVM-3509_rw_app_push_clk_2021-12-20_2021-12-26^CVM-3509_rw_app_imp_2021-12-20_2021-12-26^CVM-3509_email_open_2021-12-20_2021-12-26^^^^^^^^^^^^^^^^^^,4073.4306473834,53.0,30.0,214,214
86,CVM-3509_rw_app_push_imp_2021-12-20_2021-12-26^CVM-3509_rw_app_imp_2021-12-20_2021-12-26^CVM-3509_rw_app_clk_2021-12-20_2021-12-26^^^^^^^^^^^^^^^^^^,10439.042091582,220.0,149.0,465,465
87,CVM-3509_rw_app_imp_2021-12-20_2021-12-26^CVM-3509_rw_app_imp_2021-12-20_2021-12-26^^^^^^^^^^^^^^^^^^^,2560.807726433,51.0,32.0,115,115
88,CVM-3509_rw_app_push_clk_2021-12-20_2021-12-26^CVM-3509_rw_app_imp_2021-12-20_2021-12-26^^^^^^^^^^^^^^^^^^^,9967.1770685441,169.0,87.0,832,832
89,FB_Impression_MobileFeed^FB_Impression_Instagram^FB_Impression_MobileFeed^CVM-3509_email_open_2021-12-20_2021-12-26^^^^^^^^^^^^^^^^^,1691.5075152709,26.0,24.0,388,388
90,FB_Impression_MobileFeed^_AlwaysOn_wow_web_view_2021-12-20_2021-12-26^^^^^^^^^^^^^^^^^^^,3244.7546053486,32.0,24.0,661,661
91,^^^^^^^^^^^^^^^^^^^^,451404.6538391,15419.0,11107.0,26504,26504
92,CVM-3509_rw_app_clk_2021-12-20_2021-12-26^CVM-3509_email_open_2021-12-20_2021-12-26^CVM-3509_email_clk_2021-12-20_2021-12-26^^^^^^^^^^^^^^^^^^,22851.138913455,788.0,460.0,1384,1384
93,FB_Impression_InstagramStory^FB_Impression_MobileFeed^CVM-3509_email_open_2021-12-20_2021-12-26^CVM-3509_email_clk_2021-12-20_2021-12-26^^^^^^^^^^^^^^^^^,4975.9204378022,77.0,47.0,154,154
94,FB_Impression_Instagram^CVM-3509_rw_app_imp_2021-12-20_2021-12-26^CVM-3509_rw_app_clk_2021-12-20_2021-12-26^^^^^^^^^^^^^^^^^^,3275.5630966398,64.0,44.0,147,147
95,FB_Impression_SuggestedVideo^FB_Impression_MobileFeed^^^^^^^^^^^^^^^^^^^,1241.2040962583,71.0,58.0,2773,2773
96,FB_Impression_MobileFeed^FB_Impression_SuggestedVideo^CVM-3509_email_open_2021-12-20_2021-12-26^CVM-3509_email_clk_2021-12-20_2021-12-26^^^^^^^^^^^^^^^^^,980.86535106682,90.0,60.0,187,187
97,_AlwaysOn_wow_web_view_2021-12-20_2021-12-26^_AlwaysOn_wow_web_clk_2021-12-20_2021-12-26^CVM-3509_email_open_2021-12-20_2021-12-26^^^^^^^^^^^^^^^^^^,4052.1071754224,34.0,16.0,150,150
98,FB_Impression_InstagramStory^CVM-3509_email_open_2021-12-20_2021-12-26^CVM-3509_email_clk_2021-12-20_2021-12-26^^^^^^^^^^^^^^^^^^,9970.6723498227,195.0,111.0,381,381
99,FB_Impression_SuggestedVideo^FB_Impression_MobileFeed^CVM-3509_email_open_2021-12-20_2021-12-26^CVM-3509_email_clk_2021-12-20_2021-12-26^^^^^^^^^^^^^^^^^,10447.509864012,294.0,200.0,612,612
100,FB_Impression_MobileFeed^CVM-3509_rw_app_push_clk_2021-12-20_2021-12-26^CVM-3509_rw_app_imp_2021-12-20_2021-12-26^CVM-3509_rw_app_clk_2021-12-20_2021-12-26^^^^^^^^^^^^^^^^^,4231.6825366235,79.0,40.0,157,157
101,CVM-3509_email_open_2021-12-20_2021-12-26^^^^^^^^^^^^^^^^^^^^,173847.27645554,5469.0,3800.0,229535,229535
102,CVM-3509_rw_app_imp_2021-12-20_2021-12-26^CVM-3509_email_open_2021-12-20_2021-12-26^^^^^^^^^^^^^^^^^^^,16805.625081661,865.0,560.0,5550,5550
103,FB_Impression_MobileFeed^FB_Impression_WebFeed^CVM-3509_email_open_2021-12-20_2021-12-26^^^^^^^^^^^^^^^^^^,174.95065898502,6.0,8.0,208,208
104,_AlwaysOn_wow_web_view_2021-12-20_2021-12-26^CVM-3509_email_open_2021-12-20_2021-12-26^CVM-3509_email_clk_2021-12-20_2021-12-26^^^^^^^^^^^^^^^^^^,8401.7913960927,232.0,142.0,486,486
105,CVM-3509_rw_app_clk_2021-12-20_2021-12-26^^^^^^^^^^^^^^^^^^^^,185951.95317289,4604.0,2926.0,8718,8718
106,FB_Impression_WebFeed^FB_Impression_MobileFeed^CVM-3509_email_open_2021-12-20_2021-12-26^CVM-3509_email_clk_2021-12-20_2021-12-26^^^^^^^^^^^^^^^^^,1696.8194271827,71.0,51.0,173,173
107,CVM-3509_rw_app_push_clk_2021-12-20_2021-12-26^CVM-3509_rw_app_imp_2021-12-20_2021-12-26^CVM-3509_email_open_2021-12-20_2021-12-26^CVM-3509_email_clk_2021-12-20_2021-12-26^^^^^^^^^^^^^^^^^,2394.8598778515,87.0,77.0,195,195
108,FB_Impression_Instagram^FB_Impression_MobileFeed^CVM-3509_rw_app_imp_2021-12-20_2021-12-26^CVM-3509_rw_app_clk_2021-12-20_2021-12-26^^^^^^^^^^^^^^^^^,522.98840201656,53.0,39.0,113,113
109,CVM-3509_rw_app_imp_2021-12-20_2021-12-26^CVM-3509_rw_app_imp_2021-12-20_2021-12-26^CVM-3509_email_open_2021-12-20_2021-12-26^^^^^^^^^^^^^^^^^^,2335.5806356751,59.0,19.0,113,113
110,CVM-3509_rw_app_clk_2021-12-20_2021-12-26^CVM-3509_email_open_2021-12-20_2021-12-26^CVM-3509_email_open_2021-12-20_2021-12-26^^^^^^^^^^^^^^^^^^,4803.2746813245,116.0,53.0,191,191
111,FB_Impression_MobileFeed^^^^^^^^^^^^^^^^^^^^,29107.53851468,1099.0,786.0,86469,86469
112,FB_Impression_MobileFeed^FB_Click_MobileFeed^FB_Impression_MobileFeed^CVM-3509_email_open_2021-12-20_2021-12-26^^^^^^^^^^^^^^^^^,2496.1048539332,18.0,6.0,239,239
113,_AlwaysOn_wow_web_clk_2021-12-20_2021-12-26^^^^^^^^^^^^^^^^^^^^,21383.388005018,195.0,106.0,3376,3376
114,FB_Impression_Instagram^CVM-3509_rw_app_imp_2021-12-20_2021-12-26^^^^^^^^^^^^^^^^^^^,-602.2105971854,26.0,4.0,260,260
115,FB_Impression_MobileFeed^FB_Impression_WebFeed^FB_Impression_MobileFeed^CVM-3509_email_open_2021-12-20_2021-12-26^CVM-3509_email_clk_2021-12-20_2021-12-26^^^^^^^^^^^^^^^^,447.21495074265,46.0,33.0,115,115
116,CVM-3509_rw_app_push_clk_2021-12-20_2021-12-26^CVM-3509_rw_app_imp_2021-12-20_2021-12-26^CVM-3509_rw_app_clk_2021-12-20_2021-12-26^^^^^^^^^^^^^^^^^^,9921.6493892992,203.0,108.0,442,442
117,FB_Impression_WebFeed^FB_Impression_MobileFeed^CVM-3509_email_open_2021-12-20_2021-12-26^^^^^^^^^^^^^^^^^^,2830.1623470119,25.0,16.0,510,510
118,FB_Impression_MobileFeed^FB_Impression_WebFeed^FB_Impression_MobileFeed^CVM-3509_email_open_2021-12-20_2021-12-26^^^^^^^^^^^^^^^^^,1682.45768334,17.0,10.0,220,220
119,FB_Impression_MobileFeed^CVM-3509_rw_app_imp_2021-12-20_2021-12-26^^^^^^^^^^^^^^^^^^^,7552.6082259025,282.0,192.0,2158,2158
120,CVM-3509_rw_app_push_clk_2021-12-20_2021-12-26^^^^^^^^^^^^^^^^^^^^,4799.9489812791,424.0,329.0,1605,1605
121,FB_Impression_Instagram^FB_Impression_InstagramStory^FB_Impression_Instagram^CVM-3509_email_open_2021-12-20_2021-12-26^CVM-3509_email_clk_2021-12-20_2021-12-26^^^^^^^^^^^^^^^^,713.89387435585,83.0,53.0,171,171
122,FB_Impression_MobileFeed^FB_Impression_SuggestedVideo^CVM-3509_email_open_2021-12-20_2021-12-26^^^^^^^^^^^^^^^^^^,-299.14314335938,9.0,7.0,202,202
123,FB_Impression_Instagram^CVM-3509_rw_app_imp_2021-12-20_2021-12-26^CVM-3509_email_open_2021-12-20_2021-12-26^^^^^^^^^^^^^^^^^^,-79.424599816272,12.0,9.0,100,100
124,FB_Impression_FacebookStory^FB_Impression_MobileFeed^CVM-3509_email_open_2021-12-20_2021-12-26^CVM-3509_email_clk_2021-12-20_2021-12-26^^^^^^^^^^^^^^^^^,2091.5723659726,88.0,65.0,198,198
125,CVM-3509_rw_app_imp_2021-12-20_2021-12-26^CVM-3509_email_open_2021-12-20_2021-12-26^CVM-3509_email_clk_2021-12-20_2021-12-26^^^^^^^^^^^^^^^^^^,47481.74747655,1529.0,945.0,2951,2951
126,FB_Impression_InstagramStory^FB_Impression_MobileFeed^CVM-3509_email_open_2021-12-20_2021-12-26^^^^^^^^^^^^^^^^^^,1500.3162807952,15.0,11.0,115,115
127,FB_Impression_Instagram^FB_Impression_MobileFeed^FB_Impression_Instagram^FB_Impression_MobileFeed^CVM-3509_email_open_2021-12-20_2021-12-26^^^^^^^^^^^^^^^^,-1417.9870501701,10.0,7.0,132,132
128,FB_Impression_MobileFeed^_AlwaysOn_wow_web_view_2021-12-20_2021-12-26^CVM-3509_email_open_2021-12-20_2021-12-26^CVM-3509_email_clk_2021-12-20_2021-12-26^^^^^^^^^^^^^^^^^,14743.319310084,177.0,111.0,319,319
129,FB_Impression_InstagramStory^CVM-3509_email_open_2021-12-20_2021-12-26^^^^^^^^^^^^^^^^^^^,364.03990220073,29.0,18.0,586,586
130,_AlwaysOn_wow_web_clk_2021-12-20_2021-12-26^CVM-3509_email_open_2021-12-20_2021-12-26^CVM-3509_email_clk_2021-12-20_2021-12-26^^^^^^^^^^^^^^^^^^,27578.236298591,223.0,110.0,347,347
131,FB_Impression_InstagramStory^FB_Impression_Instagram^CVM-3509_email_open_2021-12-20_2021-12-26^CVM-3509_email_clk_2021-12-20_2021-12-26^^^^^^^^^^^^^^^^^,2171.3484933542,80.0,65.0,189,189
132,FB_Impression_MobileFeed^CVM-3509_rw_app_push_imp_2021-12-20_2021-12-26^CVM-3509_rw_app_imp_2021-12-20_2021-12-26^^^^^^^^^^^^^^^^^^,5574.9771560502,118.0,77.0,428,428
133,FB_Impression_Instagram^FB_Impression_InstagramStory^FB_Impression_Instagram^CVM-3509_email_open_2021-12-20_2021-12-26^^^^^^^^^^^^^^^^^,156.94862825354,5.0,6.0,110,110
134,_AlwaysOn_wow_web_view_2021-12-20_2021-12-26^_AlwaysOn_wow_web_clk_2021-12-20_2021-12-26^CVM-3509_email_open_2021-12-20_2021-12-26^CVM-3509_email_clk_2021-12-20_2021-12-26^^^^^^^^^^^^^^^^^,92.718126435081,58.0,36.0,111,111
135,FB_Impression_Instagram^FB_Impression_MobileFeed^FB_Impression_Instagram^CVM-3509_email_open_2021-12-20_2021-12-26^CVM-3509_email_clk_2021-12-20_2021-12-26^^^^^^^^^^^^^^^^,1691.1269383296,100.0,66.0,204,204
136,FB_Impression_Instagram^_AlwaysOn_wow_web_view_2021-12-20_2021-12-26^^^^^^^^^^^^^^^^^^^,1959.0314211775,4.0,5.0,105,105
137,_AlwaysOn_wow_web_view_2021-12-20_2021-12-26^^^^^^^^^^^^^^^^^^^^,11490.017494812,192.0,95.0,43835,43835
138,FB_Impression_MobileFeed^FB_Impression_InstagramStory^FB_Impression_MobileFeed^CVM-3509_email_open_2021-12-20_2021-12-26^CVM-3509_email_clk_2021-12-20_2021-12-26^^^^^^^^^^^^^^^^,3139.5135228187,60.0,41.0,124,124
139,CVM-3509_rw_app_push_imp_2021-12-20_2021-12-26^^^^^^^^^^^^^^^^^^^^,28063.629672601,583.0,358.0,3632,3632
