,Paths,val,val_type,val_type_2,cnt,ppl
0,start > OSP-2373_email_open_2021-11-17_2021-11-23 > OSP-2373_email_open_2021-11-24_2021-11-28 > null,136286.16513942,836.0,832.0,1468,1468
1,start > OSP-2373_rw_app_imp_2021-11-24_2021-11-28 > OSP-2373_email_open_2021-11-24_2021-11-28 > OSP-2373_rw_app_imp_2021-11-24_2021-11-28 > OSP-2373_rw_app_clk_2021-11-24_2021-11-28 > null,28955.093781973,84.0,63.0,119,119
2,start > OSP-2373_email_open_2021-11-24_2021-11-28 > OSP-2373_email_clk_2021-11-24_2021-11-28 > OSP-2373_rw_app_imp_2021-11-24_2021-11-28 > FB_Impression_MobileFeed > null,12084.43360537,113.0,91.0,167,167
3,start > OSP-2373_rw_app_imp_2021-11-17_2021-11-23 > _AlwaysOn_wow_web_view_2021-11-24_2021-11-28 > null,1764.3429255459,51.0,81.0,129,129
4,start > OSP-2373_rw_app_imp_2021-11-24_2021-11-28 > OSP-2373_rw_app_clk_2021-11-24_2021-11-28 > OSP-2373_rw_app_imp_2021-11-24_2021-11-28 > OSP-2373_rw_app_clk_2021-11-24_2021-11-28 > null,145892.36525101,518.0,385.0,722,722
5,start > OSP-2373_rw_app_imp_2021-11-17_2021-11-23 > OSP-2373_email_open_2021-11-24_2021-11-28 > OSP-2373_rw_app_imp_2021-11-24_2021-11-28 > OSP-2373_rw_app_clk_2021-11-24_2021-11-28 > OSP-2373_rw_app_imp_2021-11-24_2021-11-28 > OSP-2373_rw_app_clk_2021-11-24_2021-11-28 > OSP-2373_rw_app_imp_2021-11-24_2021-11-28 > null,16508.171229426,97.0,68.0,106,106
6,start > OSP-2373_rw_app_imp_2021-11-24_2021-11-28 > FB_Impression_MobileFeed > null,25379.06366296,108.0,95.0,183,183
7,start > OSP-2373_rw_app_imp_2021-11-17_2021-11-23 > OSP-2373_email_open_2021-11-24_2021-11-28 > OSP-2373_email_clk_2021-11-24_2021-11-28 > OSP-2373_email_open_2021-11-24_2021-11-28 > OSP-2373_email_clk_2021-11-24_2021-11-28 > OSP-2373_rw_app_imp_2021-11-24_2021-11-28 > null,1275.9761075835,131.0,112.0,166,166
8,start > _AlwaysOn_wow_web_view_2021-11-17_2021-11-23 > _AlwaysOn_wow_web_clk_2021-11-17_2021-11-23 > _AlwaysOn_wow_web_view_2021-11-17_2021-11-23 > null,74269.957593268,121.0,51.0,169,169
9,start > OSP-2373_email_open_2021-11-17_2021-11-23 > OSP-2373_email_clk_2021-11-17_2021-11-23 > OSP-2373_email_open_2021-11-24_2021-11-28 > OSP-2373_email_clk_2021-11-24_2021-11-28 > null,26587.124854055,144.0,108.0,206,206
10,start > OSP-2373_email_open_2021-11-24_2021-11-28 > OSP-2373_email_clk_2021-11-24_2021-11-28 > FB_Impression_WebFeed > null,73409.296954915,424.0,380.0,626,626
11,start > OSP-2373_rw_app_imp_2021-11-24_2021-11-28 > OSP-2373_rw_app_clk_2021-11-24_2021-11-28 > null,4388629.9811008,19551.0,16218.0,29644,29644
12,start > _AlwaysOn_wow_web_view_2021-11-24_2021-11-28 > OSP-2373_rw_app_imp_2021-11-24_2021-11-28 > OSP-2373_rw_app_clk_2021-11-24_2021-11-28 > OSP-2373_rw_app_imp_2021-11-24_2021-11-28 > null,33674.269749416,156.0,108.0,187,187
13,start > OSP-2373_rw_app_imp_2021-11-17_2021-11-23 > null,271008.9067563,2415.0,2638.0,4671,4671
14,start > OSP-2373_rw_app_imp_2021-11-17_2021-11-23 > OSP-2373_rw_app_imp_2021-11-24_2021-11-28 > null,447304.41064668,2915.0,2757.0,4816,4816
15,start > OSP-2373_rw_app_imp_2021-11-24_2021-11-28 > OSP-2373_email_open_2021-11-24_2021-11-28 > null,-4879.5449918887,234.0,222.0,400,400
16,start > OSP-2373_rw_app_imp_2021-11-24_2021-11-28 > OSP-2373_email_open_2021-11-24_2021-11-28 > OSP-2373_email_clk_2021-11-24_2021-11-28 > OSP-2373_rw_app_imp_2021-11-24_2021-11-28 > null,11179.43337802,118.0,94.0,165,165
17,start > OSP-2373_email_open_2021-11-24_2021-11-28 > OSP-2373_email_clk_2021-11-24_2021-11-28 > OSP-2373_rw_app_imp_2021-11-24_2021-11-28 > OSP-2373_email_open_2021-11-24_2021-11-28 > null,29008.44762776,239.0,209.0,372,372
18,start > OSP-2373_rw_app_imp_2021-11-24_2021-11-28 > OSP-2373_email_open_2021-11-24_2021-11-28 > OSP-2373_rw_app_imp_2021-11-24_2021-11-28 > null,15467.610016234,134.0,127.0,229,229
19,start > _AlwaysOn_wow_web_view_2021-11-17_2021-11-23 > OSP-2373_email_open_2021-11-24_2021-11-28 > OSP-2373_rw_app_imp_2021-11-24_2021-11-28 > OSP-2373_rw_app_clk_2021-11-24_2021-11-28 > null,25683.594339269,88.0,57.0,133,133
20,start > OSP-2373_rw_app_imp_2021-11-24_2021-11-28 > OSP-2373_rw_app_clk_2021-11-24_2021-11-28 > OSP-2373_rw_app_imp_2021-11-24_2021-11-28 > OSP-2373_email_open_2021-11-24_2021-11-28 > OSP-2373_email_clk_2021-11-24_2021-11-28 > OSP-2373_rw_app_imp_2021-11-24_2021-11-28 > null,5775.0940262723,84.0,72.0,112,112
21,start > OSP-2373_rw_app_imp_2021-11-17_2021-11-23 > OSP-2373_rw_app_imp_2021-11-24_2021-11-28 > OSP-2373_rw_app_clk_2021-11-24_2021-11-28 > OSP-2373_email_open_2021-11-24_2021-11-28 > null,37925.935376213,256.0,193.0,351,351
22,start > OSP-2373_rw_app_imp_2021-11-24_2021-11-28 > OSP-2373_email_open_2021-11-24_2021-11-28 > OSP-2373_rw_app_imp_2021-11-24_2021-11-28 > OSP-2373_rw_app_clk_2021-11-24_2021-11-28 > OSP-2373_rw_app_imp_2021-11-24_2021-11-28 > null,5395.6966063943,87.0,60.0,118,118
23,start > OSP-2373_rw_app_imp_2021-11-17_2021-11-23 > OSP-2373_email_open_2021-11-24_2021-11-28 > OSP-2373_email_clk_2021-11-24_2021-11-28 > OSP-2373_email_open_2021-11-24_2021-11-28 > OSP-2373_rw_app_imp_2021-11-24_2021-11-28 > null,46318.945831742,482.0,451.0,676,676
24,start > OSP-2373_rw_app_imp_2021-11-17_2021-11-23 > OSP-2373_rw_app_imp_2021-11-24_2021-11-28 > OSP-2373_rw_app_clk_2021-11-24_2021-11-28 > OSP-2373_email_open_2021-11-24_2021-11-28 > OSP-2373_rw_app_imp_2021-11-24_2021-11-28 > null,93873.023268422,1242.0,1120.0,1671,1671
25,start > OSP-2373_rw_app_imp_2021-11-17_2021-11-23 > OSP-2373_rw_app_clk_2021-11-17_2021-11-23 > OSP-2373_email_open_2021-11-24_2021-11-28 > OSP-2373_email_clk_2021-11-24_2021-11-28 > null,31236.161927895,178.0,138.0,282,282
26,start > OSP-2373_rw_app_imp_2021-11-17_2021-11-23 > OSP-2373_rw_app_clk_2021-11-17_2021-11-23 > OSP-2373_rw_app_imp_2021-11-24_2021-11-28 > null,175025.31780496,493.0,307.0,771,771
27,start > OSP-2373_rw_app_imp_2021-11-24_2021-11-28 > OSP-2373_rw_app_clk_2021-11-24_2021-11-28 > OSP-2373_email_open_2021-11-24_2021-11-28 > OSP-2373_email_clk_2021-11-24_2021-11-28 > OSP-2373_rw_app_imp_2021-11-24_2021-11-28 > null,19790.477669932,236.0,183.0,312,312
28,start > OSP-2373_rw_app_imp_2021-11-17_2021-11-23 > OSP-2373_email_open_2021-11-24_2021-11-28 > OSP-2373_rw_app_imp_2021-11-24_2021-11-28 > OSP-2373_rw_app_clk_2021-11-24_2021-11-28 > OSP-2373_email_open_2021-11-24_2021-11-28 > OSP-2373_rw_app_imp_2021-11-24_2021-11-28 > null,20869.308574963,215.0,172.0,279,279
29,start > OSP-2373_rw_app_imp_2021-11-17_2021-11-23 > OSP-2373_rw_app_clk_2021-11-17_2021-11-23 > OSP-2373_email_open_2021-11-24_2021-11-28 > OSP-2373_rw_app_imp_2021-11-24_2021-11-28 > OSP-2373_rw_app_clk_2021-11-24_2021-11-28 > null,66608.028831792,136.0,93.0,205,205
30,start > OSP-2373_rw_app_imp_2021-11-17_2021-11-23 > _AlwaysOn_wow_web_view_2021-11-17_2021-11-23 > OSP-2373_rw_app_imp_2021-11-24_2021-11-28 > OSP-2373_rw_app_clk_2021-11-24_2021-11-28 > OSP-2373_rw_app_imp_2021-11-24_2021-11-28 > null,30471.994636742,111.0,67.0,172,172
31,start > _AlwaysOn_wow_web_view_2021-11-17_2021-11-23 > OSP-2373_email_open_2021-11-24_2021-11-28 > OSP-2373_rw_app_imp_2021-11-24_2021-11-28 > OSP-2373_rw_app_clk_2021-11-24_2021-11-28 > OSP-2373_rw_app_imp_2021-11-24_2021-11-28 > null,20517.611097185,74.0,31.0,102,102
32,start > OSP-2373_rw_app_imp_2021-11-17_2021-11-23 > OSP-2373_rw_app_clk_2021-11-17_2021-11-23 > OSP-2373_email_open_2021-11-24_2021-11-28 > null,62720.37982692,259.0,226.0,460,460
33,start > OSP-2373_email_open_2021-11-24_2021-11-28 > OSP-2373_email_clk_2021-11-24_2021-11-28 > OSP-2373_rw_app_imp_2021-11-24_2021-11-28 > OSP-2373_email_open_2021-11-24_2021-11-28 > OSP-2373_rw_app_imp_2021-11-24_2021-11-28 > null,14855.8640347,133.0,101.0,167,167
34,start > _AlwaysOn_wow_web_view_2021-11-24_2021-11-28 > OSP-2373_email_open_2021-11-24_2021-11-28 > OSP-2373_email_clk_2021-11-24_2021-11-28 > null,44175.858952187,123.0,74.0,140,140
35,start > OSP-2373_email_open_2021-11-24_2021-11-28 > OSP-2373_email_clk_2021-11-24_2021-11-28 > OSP-2373_email_open_2021-11-24_2021-11-28 > OSP-2373_email_clk_2021-11-24_2021-11-28 > OSP-2373_email_open_2021-11-24_2021-11-28 > OSP-2373_rw_app_imp_2021-11-24_2021-11-28 > null,12083.11122172,100.0,74.0,120,120
36,start > _AlwaysOn_wow_web_view_2021-11-17_2021-11-23 > _AlwaysOn_wow_web_view_2021-11-24_2021-11-28 > null,116744.42075897,177.0,71.0,237,237
37,start > OSP-2373_rw_app_imp_2021-11-17_2021-11-23 > OSP-2373_rw_app_imp_2021-11-24_2021-11-28 > OSP-2373_rw_app_clk_2021-11-24_2021-11-28 > OSP-2373_rw_app_imp_2021-11-24_2021-11-28 > OSP-2373_rw_app_clk_2021-11-24_2021-11-28 > OSP-2373_rw_app_imp_2021-11-24_2021-11-28 > null,134562.67381794,743.0,619.0,908,908
38,start > OSP-2373_rw_app_imp_2021-11-17_2021-11-23 > OSP-2373_rw_app_clk_2021-11-17_2021-11-23 > OSP-2373_rw_app_imp_2021-11-17_2021-11-23 > OSP-2373_email_open_2021-11-24_2021-11-28 > null,27038.055640213,90.0,74.0,152,152
39,start > _AlwaysOn_wow_web_view_2021-11-17_2021-11-23 > _AlwaysOn_wow_web_clk_2021-11-17_2021-11-23 > _AlwaysOn_wow_web_view_2021-11-17_2021-11-23 > OSP-2373_email_open_2021-11-24_2021-11-28 > OSP-2373_email_clk_2021-11-24_2021-11-28 > null,40811.854269603,96.0,47.0,139,139
40,start > OSP-2373_rw_app_imp_2021-11-17_2021-11-23 > OSP-2373_rw_app_imp_2021-11-24_2021-11-28 > OSP-2373_rw_app_clk_2021-11-24_2021-11-28 > OSP-2373_rw_app_imp_2021-11-24_2021-11-28 > OSP-2373_email_open_2021-11-24_2021-11-28 > OSP-2373_rw_app_imp_2021-11-24_2021-11-28 > null,113418.10407007,847.0,700.0,1046,1046
41,start > OSP-2373_email_open_2021-11-24_2021-11-28 > OSP-2373_email_clk_2021-11-24_2021-11-28 > _AlwaysOn_wow_web_view_2021-11-24_2021-11-28 > null,-43164.447614655,542.0,683.0,1191,1191
42,start > OSP-2373_email_open_2021-11-24_2021-11-28 > OSP-2373_email_clk_2021-11-24_2021-11-28 > OSP-2373_email_open_2021-11-24_2021-11-28 > OSP-2373_email_clk_2021-11-24_2021-11-28 > OSP-2373_email_open_2021-11-24_2021-11-28 > null,255637.28554488,1705.0,1427.0,2320,2320
43,start > OSP-2373_email_open_2021-11-24_2021-11-28 > OSP-2373_email_clk_2021-11-24_2021-11-28 > OSP-2373_rw_app_imp_2021-11-24_2021-11-28 > OSP-2373_rw_app_clk_2021-11-24_2021-11-28 > OSP-2373_rw_app_imp_2021-11-24_2021-11-28 > null,24284.668779975,434.0,379.0,611,611
44,start > OSP-2373_email_open_2021-11-17_2021-11-23 > OSP-2373_email_open_2021-11-24_2021-11-28 > OSP-2373_email_clk_2021-11-24_2021-11-28 > OSP-2373_email_open_2021-11-24_2021-11-28 > null,128371.95135933,940.0,814.0,1376,1376
45,start > OSP-2373_rw_app_imp_2021-11-17_2021-11-23 > OSP-2373_rw_app_imp_2021-11-24_2021-11-28 > OSP-2373_rw_app_clk_2021-11-24_2021-11-28 > OSP-2373_email_open_2021-11-24_2021-11-28 > OSP-2373_email_clk_2021-11-24_2021-11-28 > OSP-2373_rw_app_imp_2021-11-24_2021-11-28 > null,13408.383354012,321.0,294.0,420,420
46,start > OSP-2373_rw_app_imp_2021-11-24_2021-11-28 > OSP-2373_rw_app_clk_2021-11-24_2021-11-28 > OSP-2373_rw_app_imp_2021-11-24_2021-11-28 > null,4184072.8384913,19368.0,15147.0,27148,27148
47,start > OSP-2373_rw_app_imp_2021-11-17_2021-11-23 > OSP-2373_rw_app_clk_2021-11-17_2021-11-23 > OSP-2373_rw_app_imp_2021-11-17_2021-11-23 > null,105921.4132489,400.0,317.0,682,682
48,start > OSP-2373_email_open_2021-11-17_2021-11-23 > OSP-2373_email_open_2021-11-24_2021-11-28 > OSP-2373_email_clk_2021-11-24_2021-11-28 > OSP-2373_email_open_2021-11-24_2021-11-28 > OSP-2373_email_clk_2021-11-24_2021-11-28 > null,17590.979044294,133.0,90.0,163,163
49,start > OSP-2373_email_open_2021-11-24_2021-11-28 > null,3421419.2664058,23913.0,25157.0,43820,43820
50,start > _AlwaysOn_wow_web_view_2021-11-17_2021-11-23 > OSP-2373_email_open_2021-11-24_2021-11-28 > OSP-2373_email_clk_2021-11-24_2021-11-28 > null,852867.88237586,2210.0,1088.0,3187,3187
51,start > OSP-2373_email_open_2021-11-24_2021-11-28 > OSP-2373_email_clk_2021-11-24_2021-11-28 > OSP-2373_email_open_2021-11-24_2021-11-28 > OSP-2373_rw_app_imp_2021-11-24_2021-11-28 > OSP-2373_email_open_2021-11-24_2021-11-28 > null,15841.151653563,108.0,100.0,155,155
52,start > OSP-2373_rw_app_imp_2021-11-17_2021-11-23 > OSP-2373_rw_app_imp_2021-11-24_2021-11-28 > OSP-2373_rw_app_clk_2021-11-24_2021-11-28 > OSP-2373_rw_app_imp_2021-11-24_2021-11-28 > OSP-2373_rw_app_clk_2021-11-24_2021-11-28 > null,60244.311921433,251.0,209.0,337,337
53,start > OSP-2373_email_open_2021-11-24_2021-11-28 > _AlwaysOn_wow_web_view_2021-11-24_2021-11-28 > _AlwaysOn_wow_web_clk_2021-11-24_2021-11-28 > _AlwaysOn_wow_web_view_2021-11-24_2021-11-28 > null,-73.621283990078,53.0,73.0,121,121
54,start > OSP-2373_rw_app_imp_2021-11-17_2021-11-23 > FB_Impression_MobileFeed > null,-6921.8119600509,47.0,68.0,110,110
55,start > OSP-2373_rw_app_imp_2021-11-24_2021-11-28 > OSP-2373_rw_app_clk_2021-11-24_2021-11-28 > OSP-2373_rw_app_imp_2021-11-24_2021-11-28 > _AlwaysOn_wow_web_view_2021-11-24_2021-11-28 > null,-31583.597283631,98.0,120.0,216,216
56,start > OSP-2373_email_open_2021-11-24_2021-11-28 > OSP-2373_email_clk_2021-11-24_2021-11-28 > OSP-2373_email_open_2021-11-24_2021-11-28 > OSP-2373_email_clk_2021-11-24_2021-11-28 > null,608565.08477533,2993.0,2491.0,4040,4040
57,start > FB_Impression_MobileFeed > OSP-2373_rw_app_imp_2021-11-24_2021-11-28 > OSP-2373_rw_app_clk_2021-11-24_2021-11-28 > FB_Impression_MobileFeed > null,13424.777027462,128.0,108.0,197,197
58,start > OSP-2373_rw_app_imp_2021-11-17_2021-11-23 > OSP-2373_rw_app_imp_2021-11-24_2021-11-28 > OSP-2373_rw_app_clk_2021-11-24_2021-11-28 > OSP-2373_rw_app_imp_2021-11-24_2021-11-28 > OSP-2373_email_open_2021-11-24_2021-11-28 > null,6671.8619976818,123.0,97.0,176,176
59,start > OSP-2373_rw_app_imp_2021-11-17_2021-11-23 > OSP-2373_rw_app_imp_2021-11-24_2021-11-28 > OSP-2373_rw_app_clk_2021-11-24_2021-11-28 > OSP-2373_email_open_2021-11-24_2021-11-28 > OSP-2373_rw_app_imp_2021-11-24_2021-11-28 > OSP-2373_email_open_2021-11-24_2021-11-28 > OSP-2373_rw_app_imp_2021-11-24_2021-11-28 > null,12069.16210915,126.0,92.0,147,147
60,start > OSP-2373_rw_app_imp_2021-11-17_2021-11-23 > OSP-2373_rw_app_clk_2021-11-17_2021-11-23 > OSP-2373_rw_app_imp_2021-11-24_2021-11-28 > OSP-2373_rw_app_clk_2021-11-24_2021-11-28 > OSP-2373_rw_app_imp_2021-11-24_2021-11-28 > null,369711.85163583,801.0,437.0,1061,1061
62,start > OSP-2373_rw_app_imp_2021-11-17_2021-11-23 > OSP-2373_rw_app_imp_2021-11-24_2021-11-28 > OSP-2373_rw_app_clk_2021-11-24_2021-11-28 > FB_Impression_MobileFeed > null,6319.387114426,105.0,102.0,167,167
63,start > _AlwaysOn_wow_web_view_2021-11-17_2021-11-23 > OSP-2373_rw_app_imp_2021-11-24_2021-11-28 > null,40110.946122442,153.0,89.0,237,237
64,start > OSP-2373_rw_app_imp_2021-11-24_2021-11-28 > OSP-2373_rw_app_clk_2021-11-24_2021-11-28 > OSP-2373_email_open_2021-11-24_2021-11-28 > OSP-2373_email_clk_2021-11-24_2021-11-28 > OSP-2373_email_open_2021-11-24_2021-11-28 > null,6124.1055958089,76.0,80.0,116,116
65,start > OSP-2373_email_open_2021-11-24_2021-11-28 > OSP-2373_email_clk_2021-11-24_2021-11-28 > OSP-2373_rw_app_imp_2021-11-24_2021-11-28 > OSP-2373_rw_app_clk_2021-11-24_2021-11-28 > null,144791.73997413,763.0,612.0,1046,1046
66,start > _AlwaysOn_wow_web_view_2021-11-17_2021-11-23 > null,983045.67169551,1584.0,757.0,2261,2261
67,start > OSP-2373_email_open_2021-11-24_2021-11-28 > OSP-2373_email_clk_2021-11-24_2021-11-28 > OSP-2373_email_open_2021-11-24_2021-11-28 > OSP-2373_email_clk_2021-11-24_2021-11-28 > OSP-2373_email_open_2021-11-24_2021-11-28 > OSP-2373_email_clk_2021-11-24_2021-11-28 > null,70523.962969577,362.0,300.0,463,463
68,start > OSP-2373_email_open_2021-11-24_2021-11-28 > FB_Impression_WebFeed > null,28566.384949935,282.0,291.0,470,470
69,start > OSP-2373_rw_app_imp_2021-11-17_2021-11-23 > OSP-2373_rw_app_imp_2021-11-24_2021-11-28 > OSP-2373_rw_app_clk_2021-11-24_2021-11-28 > OSP-2373_rw_app_imp_2021-11-24_2021-11-28 > _AlwaysOn_wow_web_view_2021-11-24_2021-11-28 > OSP-2373_rw_app_imp_2021-11-24_2021-11-28 > null,-9250.7829402211,50.0,75.0,117,117
70,start > OSP-2373_rw_app_imp_2021-11-17_2021-11-23 > OSP-2373_rw_app_imp_2021-11-24_2021-11-28 > OSP-2373_rw_app_clk_2021-11-24_2021-11-28 > OSP-2373_rw_app_imp_2021-11-24_2021-11-28 > FB_Impression_MobileFeed > OSP-2373_rw_app_imp_2021-11-24_2021-11-28 > FB_Impression_MobileFeed > null,18821.89695155,114.0,86.0,143,143
71,start > FB_Impression_MobileFeed > OSP-2373_email_open_2021-11-24_2021-11-28 > OSP-2373_email_clk_2021-11-24_2021-11-28 > OSP-2373_email_open_2021-11-24_2021-11-28 > FB_Impression_MobileFeed > null,11496.893420102,74.0,56.0,102,102
72,start > OSP-2373_rw_app_imp_2021-11-17_2021-11-23 > OSP-2373_rw_app_imp_2021-11-24_2021-11-28 > OSP-2373_rw_app_clk_2021-11-24_2021-11-28 > OSP-2373_rw_app_imp_2021-11-24_2021-11-28 > FB_Impression_MobileFeed > OSP-2373_rw_app_imp_2021-11-24_2021-11-28 > null,7062.3294377312,89.0,87.0,129,129
73,start > OSP-2373_email_open_2021-11-24_2021-11-28 > OSP-2373_rw_app_imp_2021-11-24_2021-11-28 > OSP-2373_email_open_2021-11-24_2021-11-28 > null,22379.00651947,137.0,127.0,231,231
74,start > FB_Impression_MobileFeed > null,298922.45577155,1405.0,1439.0,2569,2569
75,start > FB_Impression_MobileFeed > OSP-2373_rw_app_imp_2021-11-24_2021-11-28 > OSP-2373_rw_app_clk_2021-11-24_2021-11-28 > OSP-2373_rw_app_imp_2021-11-24_2021-11-28 > null,13776.432952841,130.0,112.0,189,189
76,start > OSP-2373_rw_app_imp_2021-11-17_2021-11-23 > OSP-2373_rw_app_clk_2021-11-17_2021-11-23 > OSP-2373_email_open_2021-11-24_2021-11-28 > OSP-2373_rw_app_imp_2021-11-24_2021-11-28 > OSP-2373_rw_app_clk_2021-11-24_2021-11-28 > OSP-2373_rw_app_imp_2021-11-24_2021-11-28 > null,34316.12026045,92.0,52.0,128,128
77,start > OSP-2373_rw_app_imp_2021-11-17_2021-11-23 > OSP-2373_email_open_2021-11-24_2021-11-28 > OSP-2373_email_clk_2021-11-24_2021-11-28 > null,213684.41755423,1418.0,1218.0,2175,2175
78,start > OSP-2373_rw_app_imp_2021-11-17_2021-11-23 > OSP-2373_rw_app_imp_2021-11-24_2021-11-28 > OSP-2373_email_open_2021-11-24_2021-11-28 > OSP-2373_email_clk_2021-11-24_2021-11-28 > OSP-2373_rw_app_imp_2021-11-24_2021-11-28 > null,36016.717910258,114.0,103.0,158,158
79,start > OSP-2373_rw_app_imp_2021-11-24_2021-11-28 > OSP-2373_rw_app_clk_2021-11-24_2021-11-28 > OSP-2373_email_open_2021-11-24_2021-11-28 > OSP-2373_email_clk_2021-11-24_2021-11-28 > null,20667.745510583,275.0,235.0,384,384
80,start > OSP-2373_email_open_2021-11-24_2021-11-28 > OSP-2373_email_clk_2021-11-24_2021-11-28 > OSP-2373_rw_app_imp_2021-11-24_2021-11-28 > null,589911.85038062,4466.0,3815.0,6283,6283
81,start > FB_Impression_MobileFeed > OSP-2373_email_open_2021-11-24_2021-11-28 > OSP-2373_email_clk_2021-11-24_2021-11-28 > FB_Impression_MobileFeed > null,53415.882634512,174.0,129.0,256,256
82,start > OSP-2373_rw_app_imp_2021-11-17_2021-11-23 > OSP-2373_email_open_2021-11-24_2021-11-28 > OSP-2373_email_clk_2021-11-24_2021-11-28 > OSP-2373_rw_app_imp_2021-11-24_2021-11-28 > OSP-2373_email_open_2021-11-24_2021-11-28 > null,12096.557011509,84.0,55.0,111,111
83,start > FB_Impression_MobileFeed > OSP-2373_rw_app_imp_2021-11-17_2021-11-23 > OSP-2373_rw_app_imp_2021-11-24_2021-11-28 > OSP-2373_rw_app_clk_2021-11-24_2021-11-28 > OSP-2373_rw_app_imp_2021-11-24_2021-11-28 > null,17638.480823221,104.0,76.0,130,130
84,start > OSP-2373_email_open_2021-11-17_2021-11-23 > OSP-2373_email_open_2021-11-24_2021-11-28 > OSP-2373_email_clk_2021-11-24_2021-11-28 > OSP-2373_email_open_2021-11-24_2021-11-28 > OSP-2373_email_clk_2021-11-24_2021-11-28 > OSP-2373_email_open_2021-11-24_2021-11-28 > null,40705.068749498,178.0,145.0,242,242
85,start > OSP-2373_email_open_2021-11-24_2021-11-28 > OSP-2373_email_clk_2021-11-24_2021-11-28 > FB_Impression_MobileFeed > null,303548.13026131,1404.0,1172.0,2084,2084
86,start > OSP-2373_email_open_2021-11-24_2021-11-28 > OSP-2373_rw_app_imp_2021-11-24_2021-11-28 > OSP-2373_rw_app_clk_2021-11-24_2021-11-28 > OSP-2373_rw_app_imp_2021-11-24_2021-11-28 > OSP-2373_email_open_2021-11-24_2021-11-28 > null,2789.7828921762,82.0,58.0,115,115
87,start > OSP-2373_email_open_2021-11-24_2021-11-28 > OSP-2373_email_clk_2021-11-24_2021-11-28 > OSP-2373_email_open_2021-11-24_2021-11-28 > _AlwaysOn_wow_web_view_2021-11-24_2021-11-28 > null,-9071.5998475415,159.0,215.0,352,352
88,start > OSP-2373_rw_app_imp_2021-11-24_2021-11-28 > OSP-2373_rw_app_clk_2021-11-24_2021-11-28 > FB_Impression_MobileFeed > null,107672.66945549,404.0,346.0,631,631
89,start > OSP-2373_rw_app_imp_2021-11-17_2021-11-23 > OSP-2373_rw_app_clk_2021-11-17_2021-11-23 > OSP-2373_rw_app_imp_2021-11-24_2021-11-28 > OSP-2373_rw_app_clk_2021-11-24_2021-11-28 > null,405275.77222879,1081.0,678.0,1553,1553
90,start > OSP-2373_email_open_2021-11-24_2021-11-28 > _AlwaysOn_wow_web_view_2021-11-24_2021-11-28 > null,47508.521667742,569.0,685.0,1196,1196
91,start > OSP-2373_rw_app_imp_2021-11-17_2021-11-23 > OSP-2373_rw_app_imp_2021-11-24_2021-11-28 > OSP-2373_rw_app_clk_2021-11-24_2021-11-28 > OSP-2373_rw_app_imp_2021-11-24_2021-11-28 > FB_Impression_MobileFeed > null,42179.427495172,268.0,243.0,365,365
92,start > OSP-2373_email_open_2021-11-24_2021-11-28 > OSP-2373_rw_app_imp_2021-11-24_2021-11-28 > OSP-2373_email_open_2021-11-24_2021-11-28 > OSP-2373_rw_app_imp_2021-11-24_2021-11-28 > null,5345.9611920799,68.0,64.0,102,102
93,start > OSP-2373_rw_app_imp_2021-11-24_2021-11-28 > OSP-2373_rw_app_clk_2021-11-24_2021-11-28 > OSP-2373_email_open_2021-11-24_2021-11-28 > OSP-2373_rw_app_imp_2021-11-24_2021-11-28 > null,102413.36599926,902.0,778.0,1257,1257
94,start > OSP-2373_rw_app_imp_2021-11-24_2021-11-28 > OSP-2373_email_open_2021-11-24_2021-11-28 > OSP-2373_email_clk_2021-11-24_2021-11-28 > OSP-2373_email_open_2021-11-24_2021-11-28 > null,4994.3352176562,93.0,89.0,139,139
95,start > _AlwaysOn_wow_web_view_2021-11-17_2021-11-23 > OSP-2373_email_open_2021-11-24_2021-11-28 > OSP-2373_email_clk_2021-11-24_2021-11-28 > OSP-2373_rw_app_imp_2021-11-24_2021-11-28 > null,53968.043859843,218.0,120.0,327,327
96,start > OSP-2373_rw_app_imp_2021-11-17_2021-11-23 > OSP-2373_rw_app_imp_2021-11-24_2021-11-28 > OSP-2373_rw_app_clk_2021-11-24_2021-11-28 > OSP-2373_rw_app_imp_2021-11-24_2021-11-28 > null,2501508.5027836,16687.0,14559.0,23222,23222
97,start > OSP-2373_email_open_2021-11-24_2021-11-28 > OSP-2373_rw_app_imp_2021-11-24_2021-11-28 > OSP-2373_rw_app_clk_2021-11-24_2021-11-28 > OSP-2373_email_open_2021-11-24_2021-11-28 > null,56724.077814269,295.0,237.0,423,423
98,start > OSP-2373_rw_app_imp_2021-11-17_2021-11-23 > OSP-2373_email_open_2021-11-24_2021-11-28 > OSP-2373_email_clk_2021-11-24_2021-11-28 > OSP-2373_rw_app_imp_2021-11-24_2021-11-28 > OSP-2373_rw_app_clk_2021-11-24_2021-11-28 > OSP-2373_rw_app_imp_2021-11-24_2021-11-28 > null,34147.17342795,300.0,254.0,396,396
99,start > OSP-2373_email_open_2021-11-24_2021-11-28 > OSP-2373_email_clk_2021-11-24_2021-11-28 > OSP-2373_email_open_2021-11-24_2021-11-28 > OSP-2373_email_clk_2021-11-24_2021-11-28 > _AlwaysOn_wow_web_view_2021-11-24_2021-11-28 > null,9303.7517890158,66.0,75.0,120,120
100,start > OSP-2373_rw_app_imp_2021-11-17_2021-11-23 > OSP-2373_rw_app_clk_2021-11-17_2021-11-23 > OSP-2373_rw_app_imp_2021-11-17_2021-11-23 > OSP-2373_rw_app_imp_2021-11-24_2021-11-28 > null,93680.580600664,307.0,221.0,504,504
101,start > OSP-2373_email_open_2021-11-24_2021-11-28 > OSP-2373_email_clk_2021-11-24_2021-11-28 > OSP-2373_email_open_2021-11-24_2021-11-28 > null,3040289.182204,15778.0,13120.0,22804,22804
102,start > OSP-2373_rw_app_imp_2021-11-17_2021-11-23 > OSP-2373_email_open_2021-11-24_2021-11-28 > OSP-2373_rw_app_imp_2021-11-24_2021-11-28 > null,75023.989771946,830.0,767.0,1310,1310
103,start > _AlwaysOn_wow_web_view_2021-11-17_2021-11-23 > OSP-2373_email_open_2021-11-24_2021-11-28 > OSP-2373_email_clk_2021-11-24_2021-11-28 > FB_Impression_MobileFeed > null,18563.347263024,78.0,41.0,117,117
104,start > OSP-2373_rw_app_imp_2021-11-17_2021-11-23 > OSP-2373_rw_app_clk_2021-11-17_2021-11-23 > OSP-2373_rw_app_imp_2021-11-17_2021-11-23 > OSP-2373_rw_app_imp_2021-11-24_2021-11-28 > OSP-2373_rw_app_clk_2021-11-24_2021-11-28 > null,94389.540945425,308.0,249.0,474,474
105,start > OSP-2373_email_open_2021-11-24_2021-11-28 > OSP-2373_email_clk_2021-11-24_2021-11-28 > OSP-2373_rw_app_imp_2021-11-24_2021-11-28 > _AlwaysOn_wow_web_view_2021-11-24_2021-11-28 > null,1622.7594931384,49.0,68.0,114,114
106,start > OSP-2373_rw_app_imp_2021-11-24_2021-11-28 > OSP-2373_rw_app_clk_2021-11-24_2021-11-28 > OSP-2373_email_open_2021-11-24_2021-11-28 > null,154596.03775245,940.0,865.0,1437,1437
107,start > OSP-2373_rw_app_imp_2021-11-24_2021-11-28 > OSP-2373_rw_app_clk_2021-11-24_2021-11-28 > OSP-2373_rw_app_imp_2021-11-24_2021-11-28 > OSP-2373_email_open_2021-11-24_2021-11-28 > null,72959.459691069,289.0,245.0,416,416
108,start > OSP-2373_email_open_2021-11-24_2021-11-28 > OSP-2373_email_clk_2021-11-24_2021-11-28 > OSP-2373_email_open_2021-11-24_2021-11-28 > FB_Impression_WebFeed > null,8621.5550967596,102.0,84.0,144,144
109,start > OSP-2373_email_open_2021-11-24_2021-11-28 > OSP-2373_email_clk_2021-11-24_2021-11-28 > OSP-2373_email_open_2021-11-24_2021-11-28 > OSP-2373_rw_app_imp_2021-11-24_2021-11-28 > null,106049.20673569,1060.0,926.0,1473,1473
110,start > OSP-2373_rw_app_imp_2021-11-17_2021-11-23 > OSP-2373_rw_app_imp_2021-11-24_2021-11-28 > OSP-2373_email_open_2021-11-24_2021-11-28 > OSP-2373_rw_app_imp_2021-11-24_2021-11-28 > null,14591.547704199,126.0,129.0,207,207
111,start > OSP-2373_rw_app_imp_2021-11-17_2021-11-23 > OSP-2373_rw_app_clk_2021-11-17_2021-11-23 > OSP-2373_rw_app_imp_2021-11-17_2021-11-23 > OSP-2373_rw_app_imp_2021-11-24_2021-11-28 > OSP-2373_rw_app_clk_2021-11-24_2021-11-28 > OSP-2373_rw_app_imp_2021-11-24_2021-11-28 > null,135947.36372146,478.0,341.0,663,663
112,start > OSP-2373_rw_app_imp_2021-11-24_2021-11-28 > null,1147645.1892615,6551.0,6475.0,11610,11610
113,start > OSP-2373_rw_app_imp_2021-11-17_2021-11-23 > OSP-2373_email_open_2021-11-24_2021-11-28 > OSP-2373_email_clk_2021-11-24_2021-11-28 > OSP-2373_rw_app_imp_2021-11-24_2021-11-28 > null,313498.44656251,2336.0,2039.0,3274,3274
114,start > _AlwaysOn_wow_web_view_2021-11-17_2021-11-23 > OSP-2373_rw_app_imp_2021-11-17_2021-11-23 > OSP-2373_rw_app_imp_2021-11-24_2021-11-28 > OSP-2373_rw_app_clk_2021-11-24_2021-11-28 > OSP-2373_rw_app_imp_2021-11-24_2021-11-28 > null,24375.501504366,92.0,41.0,127,127
115,start > OSP-2373_rw_app_imp_2021-11-17_2021-11-23 > OSP-2373_email_open_2021-11-24_2021-11-28 > OSP-2373_email_clk_2021-11-24_2021-11-28 > FB_Impression_MobileFeed > null,11037.144372088,62.0,64.0,102,102
116,start > OSP-2373_email_open_2021-11-24_2021-11-28 > OSP-2373_rw_app_imp_2021-11-24_2021-11-28 > null,285502.96677663,2254.0,2157.0,3819,3819
117,start > FB_Impression_MobileFeed > OSP-2373_email_open_2021-11-24_2021-11-28 > OSP-2373_email_clk_2021-11-24_2021-11-28 > OSP-2373_email_open_2021-11-24_2021-11-28 > null,14403.828094737,104.0,76.0,139,139
118,start > FB_Impression_MobileFeed > FB_Click_MobileFeed > FB_Impression_MobileFeed > null,46149.935087587,97.0,68.0,146,146
119,start > OSP-2373_email_open_2021-11-24_2021-11-28 > OSP-2373_email_clk_2021-11-24_2021-11-28 > OSP-2373_email_open_2021-11-24_2021-11-28 > OSP-2373_email_clk_2021-11-24_2021-11-28 > FB_Impression_MobileFeed > null,16693.010459905,114.0,96.0,150,150
120,start > OSP-2373_rw_app_imp_2021-11-24_2021-11-28 > OSP-2373_rw_app_clk_2021-11-24_2021-11-28 > _AlwaysOn_wow_web_view_2021-11-24_2021-11-28 > null,-16005.778798122,134.0,203.0,328,328
121,start > _AlwaysOn_wow_web_view_2021-11-24_2021-11-28 > OSP-2373_rw_app_imp_2021-11-24_2021-11-28 > OSP-2373_rw_app_clk_2021-11-24_2021-11-28 > null,114774.41871225,251.0,150.0,298,298
122,start > OSP-2373_rw_app_imp_2021-11-17_2021-11-23 > OSP-2373_rw_app_clk_2021-11-17_2021-11-23 > OSP-2373_email_open_2021-11-24_2021-11-28 > OSP-2373_rw_app_imp_2021-11-24_2021-11-28 > null,24214.521665962,86.0,53.0,131,131
123,start > OSP-2373_email_open_2021-11-24_2021-11-28 > OSP-2373_email_clk_2021-11-24_2021-11-28 > OSP-2373_email_open_2021-11-24_2021-11-28 > OSP-2373_email_clk_2021-11-24_2021-11-28 > OSP-2373_email_open_2021-11-24_2021-11-28 > OSP-2373_email_clk_2021-11-24_2021-11-28 > OSP-2373_email_open_2021-11-24_2021-11-28 > null,49407.343125465,270.0,209.0,343,343
124,start > FB_Impression_MobileFeed > OSP-2373_rw_app_imp_2021-11-24_2021-11-28 > OSP-2373_rw_app_clk_2021-11-24_2021-11-28 > null,38824.603104537,133.0,116.0,213,213
125,start > OSP-2373_rw_app_imp_2021-11-17_2021-11-23 > OSP-2373_rw_app_imp_2021-11-24_2021-11-28 > OSP-2373_email_open_2021-11-24_2021-11-28 > OSP-2373_rw_app_imp_2021-11-24_2021-11-28 > OSP-2373_rw_app_clk_2021-11-24_2021-11-28 > OSP-2373_rw_app_imp_2021-11-24_2021-11-28 > null,17669.068062535,137.0,112.0,178,178
126,start > _AlwaysOn_wow_web_view_2021-11-17_2021-11-23 > OSP-2373_email_open_2021-11-24_2021-11-28 > OSP-2373_email_clk_2021-11-24_2021-11-28 > OSP-2373_email_open_2021-11-24_2021-11-28 > OSP-2373_email_clk_2021-11-24_2021-11-28 > null,66846.528755334,204.0,107.0,272,272
127,start > OSP-2373_rw_app_imp_2021-11-24_2021-11-28 > OSP-2373_rw_app_clk_2021-11-24_2021-11-28 > OSP-2373_rw_app_imp_2021-11-24_2021-11-28 > OSP-2373_rw_app_clk_2021-11-24_2021-11-28 > OSP-2373_rw_app_imp_2021-11-24_2021-11-28 > null,144341.43454684,529.0,377.0,659,659
128,start > OSP-2373_rw_app_imp_2021-11-17_2021-11-23 > OSP-2373_email_open_2021-11-24_2021-11-28 > OSP-2373_rw_app_imp_2021-11-24_2021-11-28 > OSP-2373_rw_app_clk_2021-11-24_2021-11-28 > OSP-2373_email_open_2021-11-24_2021-11-28 > null,24725.795080174,77.0,60.0,109,109
129,start > _AlwaysOn_wow_web_view_2021-11-24_2021-11-28 > _AlwaysOn_wow_web_clk_2021-11-24_2021-11-28 > _AlwaysOn_wow_web_view_2021-11-24_2021-11-28 > null,46089.248832869,200.0,174.0,343,343
130,start > _AlwaysOn_wow_web_view_2021-11-17_2021-11-23 > OSP-2373_rw_app_imp_2021-11-24_2021-11-28 > OSP-2373_rw_app_clk_2021-11-24_2021-11-28 > OSP-2373_rw_app_imp_2021-11-24_2021-11-28 > null,170828.13766028,360.0,145.0,481,481
131,start > OSP-2373_email_open_2021-11-24_2021-11-28 > OSP-2373_email_clk_2021-11-24_2021-11-28 > null,8131676.0099521,44843.0,38523.0,66068,66068
132,start > OSP-2373_email_open_2021-11-24_2021-11-28 > OSP-2373_rw_app_imp_2021-11-24_2021-11-28 > OSP-2373_rw_app_clk_2021-11-24_2021-11-28 > null,586467.50360668,3415.0,2871.0,5139,5139
133,start > OSP-2373_email_open_2021-11-24_2021-11-28 > OSP-2373_rw_app_imp_2021-11-24_2021-11-28 > OSP-2373_rw_app_clk_2021-11-24_2021-11-28 > OSP-2373_rw_app_imp_2021-11-24_2021-11-28 > null,395683.497399,2763.0,2296.0,3984,3984
134,start > OSP-2373_rw_app_imp_2021-11-24_2021-11-28 > OSP-2373_rw_app_clk_2021-11-24_2021-11-28 > OSP-2373_rw_app_imp_2021-11-24_2021-11-28 > FB_Impression_MobileFeed > null,43633.562508929,298.0,265.0,440,440
135,start > OSP-2373_rw_app_imp_2021-11-17_2021-11-23 > OSP-2373_rw_app_imp_2021-11-24_2021-11-28 > OSP-2373_rw_app_clk_2021-11-24_2021-11-28 > OSP-2373_rw_app_imp_2021-11-24_2021-11-28 > _AlwaysOn_wow_web_view_2021-11-24_2021-11-28 > null,-20517.999939897,77.0,116.0,186,186
136,start > OSP-2373_rw_app_imp_2021-11-17_2021-11-23 > OSP-2373_email_open_2021-11-24_2021-11-28 > OSP-2373_email_clk_2021-11-24_2021-11-28 > OSP-2373_rw_app_imp_2021-11-24_2021-11-28 > OSP-2373_rw_app_clk_2021-11-24_2021-11-28 > null,3948.3541489382,95.0,101.0,151,151
137,start > OSP-2373_email_open_2021-11-24_2021-11-28 > OSP-2373_email_clk_2021-11-24_2021-11-28 > OSP-2373_email_open_2021-11-24_2021-11-28 > OSP-2373_email_clk_2021-11-24_2021-11-28 > OSP-2373_rw_app_imp_2021-11-24_2021-11-28 > null,53046.340074474,251.0,184.0,306,306
138,start > _AlwaysOn_wow_web_view_2021-11-17_2021-11-23 > OSP-2373_rw_app_imp_2021-11-24_2021-11-28 > OSP-2373_rw_app_clk_2021-11-24_2021-11-28 > null,215259.23567253,411.0,203.0,581,581
139,start > OSP-2373_email_open_2021-11-24_2021-11-28 > OSP-2373_rw_app_imp_2021-11-24_2021-11-28 > OSP-2373_rw_app_clk_2021-11-24_2021-11-28 > OSP-2373_email_open_2021-11-24_2021-11-28 > OSP-2373_rw_app_imp_2021-11-24_2021-11-28 > null,36131.712668212,191.0,156.0,255,255
140,start > OSP-2373_email_open_2021-11-24_2021-11-28 > FB_Impression_MobileFeed > null,68465.4599359,542.0,538.0,994,994
141,start > OSP-2373_email_open_2021-11-17_2021-11-23 > null,79958.269565216,401.0,433.0,743,743
142,start > OSP-2373_email_open_2021-11-24_2021-11-28 > OSP-2373_email_clk_2021-11-24_2021-11-28 > FB_Impression_MobileFeed > FB_Click_MobileFeed > FB_Impression_MobileFeed > null,15449.747029719,69.0,64.0,110,110
143,start > OSP-2373_rw_app_imp_2021-11-17_2021-11-23 > OSP-2373_email_open_2021-11-24_2021-11-28 > OSP-2373_email_clk_2021-11-24_2021-11-28 > OSP-2373_email_open_2021-11-24_2021-11-28 > OSP-2373_email_clk_2021-11-24_2021-11-28 > null,5487.5799836993,95.0,79.0,128,128
144,start > _AlwaysOn_wow_web_view_2021-11-17_2021-11-23 > OSP-2373_email_open_2021-11-24_2021-11-28 > OSP-2373_email_clk_2021-11-24_2021-11-28 > OSP-2373_email_open_2021-11-24_2021-11-28 > null,318788.84140687,893.0,426.0,1278,1278
145,start > OSP-2373_rw_app_imp_2021-11-17_2021-11-23 > OSP-2373_email_open_2021-11-24_2021-11-28 > OSP-2373_rw_app_imp_2021-11-24_2021-11-28 > OSP-2373_rw_app_clk_2021-11-24_2021-11-28 > null,123299.1593292,725.0,603.0,1099,1099
146,start > OSP-2373_rw_app_imp_2021-11-17_2021-11-23 > OSP-2373_email_open_2021-11-24_2021-11-28 > null,112015.08183462,765.0,801.0,1405,1405
147,start > FB_Impression_WebFeed > null,48531.621066943,313.0,318.0,566,566
148,start > _AlwaysOn_wow_web_view_2021-11-17_2021-11-23 > OSP-2373_email_open_2021-11-24_2021-11-28 > null,328497.29451781,864.0,443.0,1263,1263
149,start > OSP-2373_rw_app_imp_2021-11-17_2021-11-23 > OSP-2373_email_open_2021-11-24_2021-11-28 > OSP-2373_email_clk_2021-11-24_2021-11-28 > OSP-2373_email_open_2021-11-24_2021-11-28 > null,45247.981558045,466.0,417.0,724,724
150,start > _AlwaysOn_wow_web_view_2021-11-17_2021-11-23 > OSP-2373_email_open_2021-11-24_2021-11-28 > OSP-2373_email_clk_2021-11-24_2021-11-28 > OSP-2373_email_open_2021-11-24_2021-11-28 > OSP-2373_email_clk_2021-11-24_2021-11-28 > OSP-2373_email_open_2021-11-24_2021-11-28 > null,45920.05397781,140.0,79.0,191,191
151,start > OSP-2373_email_open_2021-11-24_2021-11-28 > OSP-2373_email_clk_2021-11-24_2021-11-28 > OSP-2373_email_open_2021-11-24_2021-11-28 > FB_Impression_MobileFeed > null,92228.152881596,453.0,376.0,673,673
152,start > OSP-2373_rw_app_imp_2021-11-17_2021-11-23 > OSP-2373_email_open_2021-11-24_2021-11-28 > OSP-2373_rw_app_imp_2021-11-24_2021-11-28 > OSP-2373_rw_app_clk_2021-11-24_2021-11-28 > OSP-2373_rw_app_imp_2021-11-24_2021-11-28 > OSP-2373_email_open_2021-11-24_2021-11-28 > OSP-2373_rw_app_imp_2021-11-24_2021-11-28 > null,8787.098814056,121.0,102.0,159,159
153,start > OSP-2373_email_open_2021-11-17_2021-11-23 > OSP-2373_rw_app_imp_2021-11-24_2021-11-28 > OSP-2373_rw_app_clk_2021-11-24_2021-11-28 > null,24418.802498676,79.0,64.0,119,119
154,start > FB_Impression_MobileFeed > OSP-2373_email_open_2021-11-24_2021-11-28 > null,10733.710126606,106.0,114.0,197,197
155,start > FB_Impression_MobileFeed > OSP-2373_email_open_2021-11-24_2021-11-28 > OSP-2373_email_clk_2021-11-24_2021-11-28 > null,46852.229430494,234.0,207.0,367,367
156,start > OSP-2373_rw_app_imp_2021-11-17_2021-11-23 > OSP-2373_rw_app_imp_2021-11-24_2021-11-28 > OSP-2373_rw_app_clk_2021-11-24_2021-11-28 > null,739654.22999093,4222.0,3787.0,6691,6691
157,start > FB_Impression_MobileFeed > OSP-2373_email_open_2021-11-24_2021-11-28 > FB_Impression_MobileFeed > null,3072.1787967681,61.0,74.0,126,126
158,start > OSP-2373_email_open_2021-11-24_2021-11-28 > OSP-2373_email_clk_2021-11-24_2021-11-28 > OSP-2373_rw_app_imp_2021-11-24_2021-11-28 > OSP-2373_rw_app_clk_2021-11-24_2021-11-28 > OSP-2373_email_open_2021-11-24_2021-11-28 > null,9996.6525886388,180.0,160.0,267,267
159,start > OSP-2373_rw_app_imp_2021-11-24_2021-11-28 > _AlwaysOn_wow_web_view_2021-11-24_2021-11-28 > null,11279.356233478,106.0,109.0,207,207
160,start > OSP-2373_email_open_2021-11-17_2021-11-23 > OSP-2373_email_open_2021-11-24_2021-11-28 > OSP-2373_email_clk_2021-11-24_2021-11-28 > null,99373.633496866,647.0,560.0,974,974
161,start > FB_Impression_MobileFeed > FB_Click_MobileFeed > null,25429.022899159,69.0,60.0,115,115
162,start > OSP-2373_email_open_2021-11-17_2021-11-23 > OSP-2373_email_clk_2021-11-17_2021-11-23 > null,6461.97989759,80.0,74.0,141,141
163,start > OSP-2373_rw_app_imp_2021-11-24_2021-11-28 > OSP-2373_email_open_2021-11-24_2021-11-28 > OSP-2373_email_clk_2021-11-24_2021-11-28 > null,52055.245130353,283.0,244.0,433,433
164,start > OSP-2373_rw_app_imp_2021-11-17_2021-11-23 > OSP-2373_email_open_2021-11-24_2021-11-28 > OSP-2373_rw_app_imp_2021-11-24_2021-11-28 > OSP-2373_rw_app_clk_2021-11-24_2021-11-28 > OSP-2373_rw_app_imp_2021-11-24_2021-11-28 > null,195217.8569623,2185.0,1992.0,3139,3139
165,start > FB_Impression_Instagram > null,-1480.8307731521,58.0,67.0,110,110
166,start > OSP-2373_rw_app_imp_2021-11-17_2021-11-23 > OSP-2373_rw_app_imp_2021-11-24_2021-11-28 > OSP-2373_rw_app_clk_2021-11-24_2021-11-28 > OSP-2373_rw_app_imp_2021-11-24_2021-11-28 > OSP-2373_email_open_2021-11-24_2021-11-28 > OSP-2373_email_clk_2021-11-24_2021-11-28 > OSP-2373_rw_app_imp_2021-11-24_2021-11-28 > null,29315.865602866,198.0,204.0,264,264
167,start > OSP-2373_rw_app_imp_2021-11-24_2021-11-28 > OSP-2373_rw_app_clk_2021-11-24_2021-11-28 > OSP-2373_rw_app_imp_2021-11-24_2021-11-28 > OSP-2373_email_open_2021-11-24_2021-11-28 > OSP-2373_rw_app_imp_2021-11-24_2021-11-28 > null,47978.025407739,303.0,272.0,428,428
168,start > _AlwaysOn_wow_web_view_2021-11-24_2021-11-28 > null,291747.08961717,1446.0,1434.0,2684,2684
169,start > OSP-2373_rw_app_imp_2021-11-17_2021-11-23 > OSP-2373_email_open_2021-11-24_2021-11-28 > OSP-2373_email_clk_2021-11-24_2021-11-28 > OSP-2373_rw_app_imp_2021-11-24_2021-11-28 > OSP-2373_email_open_2021-11-24_2021-11-28 > OSP-2373_rw_app_imp_2021-11-24_2021-11-28 > null,27469.878386752,180.0,157.0,235,235
170,start > OSP-2373_rw_app_imp_2021-11-17_2021-11-23 > OSP-2373_rw_app_clk_2021-11-17_2021-11-23 > null,419326.68521409,1268.0,890.0,2072,2072
