,Paths,val,val_type,val_type_2,cnt,ppl
0,start > CVM-3509_rw_app_imp_2021-12-20_2021-12-26 > CVM-3509_email_open_2021-12-20_2021-12-26 > CVM-3509_rw_app_push_imp_2021-12-20_2021-12-26 > null,63528.659532969,74.0,32.0,106,106
1,start > CVM-3509_email_open_2021-12-20_2021-12-26 > CVM-3509_email_clk_2021-12-20_2021-12-26 > CVM-3509_rw_app_imp_2021-12-20_2021-12-26 > CVM-3509_rw_app_push_imp_2021-12-20_2021-12-26 > null,57949.877697528,67.0,36.0,103,103
2,start > CVM-3509_rw_app_imp_2021-12-20_2021-12-26 > CVM-3509_rw_app_clk_2021-12-20_2021-12-26 > CVM-3509_rw_app_push_clk_2021-12-20_2021-12-26 > null,178164.6279482,261.0,155.0,416,416
3,start > CVM-3509_rw_app_imp_2021-12-20_2021-12-26 > CVM-3509_rw_app_clk_2021-12-20_2021-12-26 > CVM-3509_email_open_2021-12-20_2021-12-26 > null,716685.06481515,871.0,508.0,1378,1378
4,start > CVM-3509_rw_app_imp_2021-12-20_2021-12-26 > CVM-3509_email_open_2021-12-20_2021-12-26 > CVM-3509_rw_app_imp_2021-12-20_2021-12-26 > CVM-3509_email_open_2021-12-20_2021-12-26 > null,49663.09367868,66.0,47.0,113,113
5,start > CVM-3509_rw_app_imp_2021-12-20_2021-12-26 > CVM-3509_rw_app_clk_2021-12-20_2021-12-26 > CVM-3509_rw_app_imp_2021-12-20_2021-12-26 > CVM-3509_rw_app_push_imp_2021-12-20_2021-12-26 > null,201380.91342705,136.0,72.0,208,208
6,start > CVM-3509_email_open_2021-12-20_2021-12-26 > CVM-3509_email_clk_2021-12-20_2021-12-26 > CVM-3509_rw_app_imp_2021-12-20_2021-12-26 > CVM-3509_email_open_2021-12-20_2021-12-26 > CVM-3509_rw_app_imp_2021-12-20_2021-12-26 > null,-19726.366327131,72.0,64.0,135,135
7,start > FB_Impression_WebFeed > null,113249.72757641,112.0,81.0,193,193
8,start > CVM-3509_rw_app_imp_2021-12-20_2021-12-26 > CVM-3509_rw_app_clk_2021-12-20_2021-12-26 > CVM-3509_rw_app_imp_2021-12-20_2021-12-26 > null,1079777.6544122,1275.0,746.0,2018,2018
9,start > _AlwaysOn_wow_web_view_2021-12-20_2021-12-26 > CVM-3509_email_open_2021-12-20_2021-12-26 > CVM-3509_email_clk_2021-12-20_2021-12-26 > CVM-3509_email_open_2021-12-20_2021-12-26 > null,351131.98849647,417.0,256.0,673,673
10,start > CVM-3509_email_open_2021-12-20_2021-12-26 > CVM-3509_rw_app_imp_2021-12-20_2021-12-26 > CVM-3509_email_open_2021-12-20_2021-12-26 > null,37441.140209904,401.0,299.0,699,699
11,start > CVM-3509_email_open_2021-12-20_2021-12-26 > CVM-3509_rw_app_push_clk_2021-12-20_2021-12-26 > CVM-3509_email_open_2021-12-20_2021-12-26 > null,-71363.540306764,82.0,55.0,137,137
12,start > CVM-3509_rw_app_imp_2021-12-20_2021-12-26 > CVM-3509_rw_app_clk_2021-12-20_2021-12-26 > CVM-3509_rw_app_push_imp_2021-12-20_2021-12-26 > CVM-3509_rw_app_imp_2021-12-20_2021-12-26 > null,60535.54027644,80.0,60.0,140,140
13,start > CVM-3509_email_open_2021-12-20_2021-12-26 > CVM-3509_email_clk_2021-12-20_2021-12-26 > FB_Impression_InstagramStory > null,97095.992713257,73.0,39.0,112,112
14,start > CVM-3509_rw_app_imp_2021-12-20_2021-12-26 > CVM-3509_rw_app_clk_2021-12-20_2021-12-26 > CVM-3509_email_open_2021-12-20_2021-12-26 > CVM-3509_rw_app_imp_2021-12-20_2021-12-26 > CVM-3509_email_open_2021-12-20_2021-12-26 > null,30490.826906629,79.0,42.0,121,121
15,start > FB_Impression_MobileFeed > null,584259.87638396,1098.0,786.0,1884,1884
16,start > CVM-3509_email_open_2021-12-20_2021-12-26 > CVM-3509_rw_app_imp_2021-12-20_2021-12-26 > null,118577.92983703,263.0,193.0,456,456
17,start > CVM-3509_rw_app_push_imp_2021-12-20_2021-12-26 > CVM-3509_rw_app_imp_2021-12-20_2021-12-26 > null,6234.8869616693,120.0,102.0,222,222
18,start > CVM-3509_email_open_2021-12-20_2021-12-26 > CVM-3509_email_clk_2021-12-20_2021-12-26 > CVM-3509_email_open_2021-12-20_2021-12-26 > CVM-3509_email_clk_2021-12-20_2021-12-26 > CVM-3509_email_open_2021-12-20_2021-12-26 > null,862497.79688949,1374.0,952.0,2272,2272
19,start > FB_Impression_MobileFeed > CVM-3509_email_open_2021-12-20_2021-12-26 > FB_Impression_MobileFeed > null,85077.090757082,88.0,64.0,152,152
20,start > CVM-3509_email_open_2021-12-20_2021-12-26 > CVM-3509_email_clk_2021-12-20_2021-12-26 > FB_Impression_Instagram > FB_Impression_MobileFeed > null,87066.323447307,71.0,53.0,124,124
21,start > CVM-3509_rw_app_imp_2021-12-20_2021-12-26 > CVM-3509_rw_app_clk_2021-12-20_2021-12-26 > CVM-3509_email_open_2021-12-20_2021-12-26 > CVM-3509_email_clk_2021-12-20_2021-12-26 > null,161518.21920636,236.0,110.0,346,346
22,start > CVM-3509_rw_app_imp_2021-12-20_2021-12-26 > CVM-3509_rw_app_clk_2021-12-20_2021-12-26 > FB_Impression_MobileFeed > null,369287.88435709,416.0,272.0,688,688
23,start > CVM-3509_rw_app_imp_2021-12-20_2021-12-26 > CVM-3509_email_open_2021-12-20_2021-12-26 > null,201246.54668815,399.0,249.0,648,648
24,start > CVM-3509_rw_app_push_clk_2021-12-20_2021-12-26 > CVM-3509_rw_app_imp_2021-12-20_2021-12-26 > null,46768.159738725,77.0,55.0,131,131
25,start > _AlwaysOn_wow_web_view_2021-12-20_2021-12-26 > CVM-3509_email_open_2021-12-20_2021-12-26 > CVM-3509_email_clk_2021-12-20_2021-12-26 > null,381085.22412412,311.0,174.0,484,484
26,start > CVM-3509_rw_app_imp_2021-12-20_2021-12-26 > CVM-3509_rw_app_push_clk_2021-12-20_2021-12-26 > CVM-3509_rw_app_imp_2021-12-20_2021-12-26 > null,381.42098564996,86.0,58.0,143,143
27,start > CVM-3509_email_open_2021-12-20_2021-12-26 > CVM-3509_email_clk_2021-12-20_2021-12-26 > CVM-3509_rw_app_imp_2021-12-20_2021-12-26 > null,399649.66782987,469.0,272.0,738,738
28,start > CVM-3509_rw_app_imp_2021-12-20_2021-12-26 > CVM-3509_rw_app_clk_2021-12-20_2021-12-26 > CVM-3509_email_open_2021-12-20_2021-12-26 > CVM-3509_rw_app_imp_2021-12-20_2021-12-26 > null,137486.42348883,65.0,43.0,108,108
29,start > CVM-3509_email_open_2021-12-20_2021-12-26 > CVM-3509_rw_app_imp_2021-12-20_2021-12-26 > CVM-3509_rw_app_clk_2021-12-20_2021-12-26 > CVM-3509_rw_app_imp_2021-12-20_2021-12-26 > CVM-3509_email_open_2021-12-20_2021-12-26 > null,51215.580711698,119.0,79.0,197,197
30,start > CVM-3509_email_open_2021-12-20_2021-12-26 > FB_Impression_MobileFeed > CVM-3509_email_open_2021-12-20_2021-12-26 > FB_Impression_MobileFeed > null,115394.16033374,229.0,163.0,392,392
31,start > CVM-3509_email_open_2021-12-20_2021-12-26 > CVM-3509_email_clk_2021-12-20_2021-12-26 > FB_Impression_Instagram > null,68164.380122472,122.0,95.0,217,217
32,start > CVM-3509_email_open_2021-12-20_2021-12-26 > CVM-3509_email_clk_2021-12-20_2021-12-26 > CVM-3509_email_open_2021-12-20_2021-12-26 > CVM-3509_email_clk_2021-12-20_2021-12-26 > CVM-3509_email_open_2021-12-20_2021-12-26 > CVM-3509_email_clk_2021-12-20_2021-12-26 > CVM-3509_email_open_2021-12-20_2021-12-26 > null,60669.078089586,132.0,88.0,207,207
33,start > CVM-3509_rw_app_imp_2021-12-20_2021-12-26 > CVM-3509_rw_app_push_clk_2021-12-20_2021-12-26 > null,388621.9815632,350.0,224.0,574,574
34,start > CVM-3509_email_open_2021-12-20_2021-12-26 > CVM-3509_email_clk_2021-12-20_2021-12-26 > CVM-3509_rw_app_push_clk_2021-12-20_2021-12-26 > CVM-3509_email_open_2021-12-20_2021-12-26 > null,141725.88427465,198.0,131.0,327,327
35,start > CVM-3509_email_open_2021-12-20_2021-12-26 > CVM-3509_email_clk_2021-12-20_2021-12-26 > FB_Impression_WebFeed > CVM-3509_email_open_2021-12-20_2021-12-26 > FB_Impression_WebFeed > null,-38287.409247235,53.0,52.0,105,105
36,start > CVM-3509_email_open_2021-12-20_2021-12-26 > CVM-3509_rw_app_imp_2021-12-20_2021-12-26 > CVM-3509_rw_app_clk_2021-12-20_2021-12-26 > CVM-3509_rw_app_imp_2021-12-20_2021-12-26 > null,4474.3770638074,78.0,58.0,136,136
37,start > CVM-3509_email_open_2021-12-20_2021-12-26 > CVM-3509_email_clk_2021-12-20_2021-12-26 > CVM-3509_email_open_2021-12-20_2021-12-26 > CVM-3509_rw_app_push_imp_2021-12-20_2021-12-26 > CVM-3509_email_open_2021-12-20_2021-12-26 > null,120670.46972011,89.0,48.0,136,136
38,start > FB_Impression_InstagramStory > null,28499.1324311,59.0,58.0,117,117
39,start > CVM-3509_email_open_2021-12-20_2021-12-26 > CVM-3509_email_clk_2021-12-20_2021-12-26 > FB_Impression_MobileFeed > CVM-3509_email_open_2021-12-20_2021-12-26 > CVM-3509_email_clk_2021-12-20_2021-12-26 > FB_Impression_MobileFeed > null,141241.9453712,249.0,144.0,393,393
40,start > CVM-3509_rw_app_imp_2021-12-20_2021-12-26 > CVM-3509_rw_app_push_imp_2021-12-20_2021-12-26 > CVM-3509_rw_app_imp_2021-12-20_2021-12-26 > null,80622.297729186,150.0,104.0,254,254
41,start > CVM-3509_email_open_2021-12-20_2021-12-26 > FB_Impression_MobileFeed > CVM-3509_email_open_2021-12-20_2021-12-26 > CVM-3509_email_clk_2021-12-20_2021-12-26 > FB_Impression_MobileFeed > null,18128.214464929,85.0,64.0,149,149
42,start > CVM-3509_email_open_2021-12-20_2021-12-26 > CVM-3509_email_clk_2021-12-20_2021-12-26 > null,6999102.1826992,10456.0,7355.0,17797,17797
43,start > CVM-3509_rw_app_push_imp_2021-12-20_2021-12-26 > CVM-3509_rw_app_imp_2021-12-20_2021-12-26 > CVM-3509_rw_app_clk_2021-12-20_2021-12-26 > null,96729.081761357,191.0,123.0,314,314
44,start > CVM-3509_email_open_2021-12-20_2021-12-26 > CVM-3509_email_clk_2021-12-20_2021-12-26 > CVM-3509_email_open_2021-12-20_2021-12-26 > CVM-3509_email_clk_2021-12-20_2021-12-26 > null,1312304.9747088,3252.0,2364.0,5604,5604
45,start > CVM-3509_email_open_2021-12-20_2021-12-26 > CVM-3509_email_clk_2021-12-20_2021-12-26 > CVM-3509_email_open_2021-12-20_2021-12-26 > CVM-3509_rw_app_imp_2021-12-20_2021-12-26 > CVM-3509_email_open_2021-12-20_2021-12-26 > null,128951.79652802,197.0,119.0,315,315
46,start > CVM-3509_email_open_2021-12-20_2021-12-26 > _AlwaysOn_wow_web_view_2021-12-20_2021-12-26 > CVM-3509_email_open_2021-12-20_2021-12-26 > CVM-3509_email_clk_2021-12-20_2021-12-26 > null,-44250.830998006,84.0,68.0,152,152
47,start > FB_Impression_MobileFeed > FB_Click_MobileFeed > null,104478.06397261,79.0,38.0,117,117
48,start > CVM-3509_email_open_2021-12-20_2021-12-26 > CVM-3509_rw_app_push_imp_2021-12-20_2021-12-26 > CVM-3509_email_open_2021-12-20_2021-12-26 > null,96975.570347688,138.0,75.0,213,213
49,start > CVM-3509_rw_app_imp_2021-12-20_2021-12-26 > null,1116732.2015991,2560.0,1833.0,4391,4391
50,start > FB_Impression_MobileFeed > CVM-3509_rw_app_imp_2021-12-20_2021-12-26 > CVM-3509_rw_app_clk_2021-12-20_2021-12-26 > FB_Impression_MobileFeed > null,109934.54902948,116.0,59.0,175,175
51,start > CVM-3509_email_open_2021-12-20_2021-12-26 > CVM-3509_email_clk_2021-12-20_2021-12-26 > FB_Impression_Instagram > CVM-3509_email_open_2021-12-20_2021-12-26 > FB_Impression_Instagram > null,26922.095259708,70.0,47.0,117,117
52,start > CVM-3509_email_open_2021-12-20_2021-12-26 > CVM-3509_email_clk_2021-12-20_2021-12-26 > FB_Impression_SuggestedVideo > null,43844.325414431,73.0,50.0,123,123
53,start > CVM-3509_rw_app_imp_2021-12-20_2021-12-26 > FB_Impression_MobileFeed > null,154485.18735156,179.0,114.0,293,293
54,start > CVM-3509_email_open_2021-12-20_2021-12-26 > CVM-3509_email_clk_2021-12-20_2021-12-26 > FB_Impression_MobileFeed > CVM-3509_email_open_2021-12-20_2021-12-26 > null,109075.99576531,102.0,64.0,166,166
55,start > CVM-3509_email_open_2021-12-20_2021-12-26 > CVM-3509_email_clk_2021-12-20_2021-12-26 > FB_Impression_MobileFeed > FB_Impression_Instagram > FB_Impression_MobileFeed > null,64838.433305409,65.0,54.0,119,119
56,start > CVM-3509_rw_app_clk_2021-12-20_2021-12-26 > null,74048.077105696,95.0,48.0,143,143
57,start > CVM-3509_email_open_2021-12-20_2021-12-26 > FB_Impression_WebFeed > null,7946.7320772597,55.0,48.0,103,103
58,start > CVM-3509_rw_app_imp_2021-12-20_2021-12-26 > CVM-3509_email_open_2021-12-20_2021-12-26 > CVM-3509_email_clk_2021-12-20_2021-12-26 > CVM-3509_rw_app_imp_2021-12-20_2021-12-26 > CVM-3509_email_open_2021-12-20_2021-12-26 > null,142753.75288869,77.0,48.0,125,125
59,start > CVM-3509_email_open_2021-12-20_2021-12-26 > CVM-3509_email_clk_2021-12-20_2021-12-26 > CVM-3509_email_open_2021-12-20_2021-12-26 > FB_Impression_Instagram > null,36677.980197006,88.0,71.0,158,158
61,start > CVM-3509_email_open_2021-12-20_2021-12-26 > CVM-3509_email_clk_2021-12-20_2021-12-26 > CVM-3509_email_open_2021-12-20_2021-12-26 > CVM-3509_email_clk_2021-12-20_2021-12-26 > CVM-3509_email_open_2021-12-20_2021-12-26 > CVM-3509_email_clk_2021-12-20_2021-12-26 > null,153476.420868,210.0,121.0,323,323
62,start > CVM-3509_email_open_2021-12-20_2021-12-26 > _AlwaysOn_wow_web_view_2021-12-20_2021-12-26 > CVM-3509_email_open_2021-12-20_2021-12-26 > null,28542.775195582,67.0,33.0,100,100
63,start > _AlwaysOn_wow_web_view_2021-12-20_2021-12-26 > CVM-3509_rw_app_imp_2021-12-20_2021-12-26 > CVM-3509_rw_app_clk_2021-12-20_2021-12-26 > null,254614.33600754,235.0,122.0,357,357
64,start > _AlwaysOn_wow_web_view_2021-12-20_2021-12-26 > null,401643.58878648,338.0,184.0,521,521
65,start > CVM-3509_rw_app_push_clk_2021-12-20_2021-12-26 > CVM-3509_rw_app_imp_2021-12-20_2021-12-26 > CVM-3509_rw_app_clk_2021-12-20_2021-12-26 > null,150931.54582186,199.0,134.0,333,333
66,start > CVM-3509_rw_app_imp_2021-12-20_2021-12-26 > CVM-3509_rw_app_push_imp_2021-12-20_2021-12-26 > null,845521.33394575,734.0,446.0,1180,1180
67,start > _AlwaysOn_wow_web_view_2021-12-20_2021-12-26 > CVM-3509_email_open_2021-12-20_2021-12-26 > null,188938.67478857,131.0,71.0,202,202
68,start > FB_Impression_MobileFeed > CVM-3509_email_open_2021-12-20_2021-12-26 > CVM-3509_email_clk_2021-12-20_2021-12-26 > null,160521.28793134,87.0,43.0,130,130
69,start > CVM-3509_email_open_2021-12-20_2021-12-26 > CVM-3509_email_clk_2021-12-20_2021-12-26 > CVM-3509_rw_app_imp_2021-12-20_2021-12-26 > CVM-3509_email_open_2021-12-20_2021-12-26 > CVM-3509_email_clk_2021-12-20_2021-12-26 > null,54771.792069772,86.0,54.0,139,139
70,start > CVM-3509_email_open_2021-12-20_2021-12-26 > CVM-3509_rw_app_imp_2021-12-20_2021-12-26 > CVM-3509_rw_app_clk_2021-12-20_2021-12-26 > CVM-3509_email_open_2021-12-20_2021-12-26 > CVM-3509_email_clk_2021-12-20_2021-12-26 > null,10965.058670483,82.0,63.0,145,145
71,start > CVM-3509_email_open_2021-12-20_2021-12-26 > CVM-3509_email_clk_2021-12-20_2021-12-26 > CVM-3509_rw_app_imp_2021-12-20_2021-12-26 > CVM-3509_email_open_2021-12-20_2021-12-26 > CVM-3509_rw_app_push_imp_2021-12-20_2021-12-26 > null,101664.39130854,92.0,61.0,153,153
72,start > CVM-3509_rw_app_imp_2021-12-20_2021-12-26 > CVM-3509_rw_app_clk_2021-12-20_2021-12-26 > null,4209162.6174175,5252.0,3363.0,8610,8610
73,start > CVM-3509_rw_app_push_clk_2021-12-20_2021-12-26 > null,207326.15032941,744.0,585.0,1328,1328
74,start > CVM-3509_email_open_2021-12-20_2021-12-26 > CVM-3509_email_clk_2021-12-20_2021-12-26 > FB_Impression_MobileFeed > CVM-3509_email_open_2021-12-20_2021-12-26 > FB_Impression_MobileFeed > null,678893.22392113,1262.0,913.0,2175,2175
75,start > CVM-3509_email_open_2021-12-20_2021-12-26 > CVM-3509_email_clk_2021-12-20_2021-12-26 > CVM-3509_rw_app_imp_2021-12-20_2021-12-26 > CVM-3509_email_open_2021-12-20_2021-12-26 > null,273870.90984679,852.0,591.0,1440,1440
76,start > _AlwaysOn_wow_web_view_2021-12-20_2021-12-26 > _AlwaysOn_wow_web_clk_2021-12-20_2021-12-26 > null,276223.01981669,149.0,90.0,239,239
77,start > FB_Impression_MobileFeed > CVM-3509_email_open_2021-12-20_2021-12-26 > CVM-3509_email_clk_2021-12-20_2021-12-26 > FB_Impression_MobileFeed > null,127859.42003885,122.0,55.0,177,177
78,start > CVM-3509_rw_app_imp_2021-12-20_2021-12-26 > CVM-3509_rw_app_clk_2021-12-20_2021-12-26 > CVM-3509_email_open_2021-12-20_2021-12-26 > CVM-3509_email_clk_2021-12-20_2021-12-26 > CVM-3509_email_open_2021-12-20_2021-12-26 > null,133103.52089624,204.0,114.0,315,315
79,start > CVM-3509_email_open_2021-12-20_2021-12-26 > CVM-3509_email_clk_2021-12-20_2021-12-26 > CVM-3509_rw_app_push_imp_2021-12-20_2021-12-26 > CVM-3509_email_open_2021-12-20_2021-12-26 > null,190248.53044074,167.0,95.0,261,261
80,start > CVM-3509_email_open_2021-12-20_2021-12-26 > CVM-3509_email_clk_2021-12-20_2021-12-26 > CVM-3509_email_open_2021-12-20_2021-12-26 > CVM-3509_email_clk_2021-12-20_2021-12-26 > FB_Impression_MobileFeed > null,72996.347228407,112.0,61.0,173,173
81,start > FB_Impression_MobileFeed > CVM-3509_rw_app_push_clk_2021-12-20_2021-12-26 > FB_Impression_MobileFeed > null,84254.807589789,75.0,51.0,126,126
82,start > CVM-3509_email_open_2021-12-20_2021-12-26 > CVM-3509_rw_app_imp_2021-12-20_2021-12-26 > CVM-3509_rw_app_clk_2021-12-20_2021-12-26 > null,331927.46878904,457.0,314.0,771,771
83,start > FB_Impression_Instagram > null,88136.456631459,107.0,65.0,172,172
84,start > CVM-3509_email_open_2021-12-20_2021-12-26 > null,3863394.8799768,6284.0,4482.0,10751,10751
85,start > CVM-3509_rw_app_imp_2021-12-20_2021-12-26 > CVM-3509_email_open_2021-12-20_2021-12-26 > CVM-3509_rw_app_imp_2021-12-20_2021-12-26 > null,46073.54020566,60.0,46.0,105,105
86,start > FB_Impression_MobileFeed > FB_Impression_Instagram > FB_Impression_MobileFeed > null,-421.00699526528,59.0,47.0,106,106
87,start > CVM-3509_email_open_2021-12-20_2021-12-26 > CVM-3509_email_clk_2021-12-20_2021-12-26 > CVM-3509_rw_app_push_clk_2021-12-20_2021-12-26 > null,-142161.48016216,182.0,191.0,371,371
88,start > CVM-3509_email_open_2021-12-20_2021-12-26 > CVM-3509_email_clk_2021-12-20_2021-12-26 > FB_Impression_SuggestedVideo > FB_Impression_MobileFeed > null,75841.14789513,88.0,50.0,137,137
89,start > CVM-3509_email_open_2021-12-20_2021-12-26 > CVM-3509_email_clk_2021-12-20_2021-12-26 > CVM-3509_email_open_2021-12-20_2021-12-26 > CVM-3509_rw_app_push_imp_2021-12-20_2021-12-26 > null,162186.91661724,343.0,211.0,554,554
90,start > CVM-3509_rw_app_imp_2021-12-20_2021-12-26 > CVM-3509_rw_app_clk_2021-12-20_2021-12-26 > CVM-3509_rw_app_push_imp_2021-12-20_2021-12-26 > null,765607.09796235,577.0,278.0,852,852
91,start > CVM-3509_email_open_2021-12-20_2021-12-26 > CVM-3509_email_clk_2021-12-20_2021-12-26 > FB_Impression_WebFeed > null,-2637.9247443836,79.0,60.0,139,139
92,start > CVM-3509_email_open_2021-12-20_2021-12-26 > CVM-3509_email_clk_2021-12-20_2021-12-26 > CVM-3509_email_open_2021-12-20_2021-12-26 > FB_Impression_MobileFeed > null,390836.88317194,544.0,412.0,956,956
93,start > FB_Impression_SuggestedVideo > FB_Impression_MobileFeed > null,24905.653155974,70.0,57.0,127,127
94,start > CVM-3509_email_open_2021-12-20_2021-12-26 > CVM-3509_email_clk_2021-12-20_2021-12-26 > CVM-3509_email_open_2021-12-20_2021-12-26 > null,10380545.157563,18449.0,13522.0,31946,31946
95,start > CVM-3509_email_open_2021-12-20_2021-12-26 > CVM-3509_email_clk_2021-12-20_2021-12-26 > CVM-3509_email_open_2021-12-20_2021-12-26 > FB_Impression_MobileFeed > CVM-3509_email_open_2021-12-20_2021-12-26 > FB_Impression_MobileFeed > null,88486.176280459,237.0,200.0,437,437
96,start > CVM-3509_email_open_2021-12-20_2021-12-26 > CVM-3509_email_clk_2021-12-20_2021-12-26 > CVM-3509_rw_app_push_imp_2021-12-20_2021-12-26 > null,384907.29014814,279.0,160.0,438,438
97,start > CVM-3509_email_open_2021-12-20_2021-12-26 > CVM-3509_email_clk_2021-12-20_2021-12-26 > CVM-3509_email_open_2021-12-20_2021-12-26 > FB_Impression_SuggestedVideo > null,76862.016100507,69.0,44.0,113,113
98,start > CVM-3509_email_open_2021-12-20_2021-12-26 > CVM-3509_email_clk_2021-12-20_2021-12-26 > CVM-3509_email_open_2021-12-20_2021-12-26 > CVM-3509_rw_app_push_clk_2021-12-20_2021-12-26 > CVM-3509_email_open_2021-12-20_2021-12-26 > null,113157.29622788,76.0,45.0,121,121
99,start > CVM-3509_email_open_2021-12-20_2021-12-26 > CVM-3509_email_clk_2021-12-20_2021-12-26 > FB_Impression_MobileFeed > null,813943.81839949,1296.0,959.0,2254,2254
100,start > CVM-3509_email_open_2021-12-20_2021-12-26 > CVM-3509_rw_app_imp_2021-12-20_2021-12-26 > CVM-3509_rw_app_clk_2021-12-20_2021-12-26 > CVM-3509_email_open_2021-12-20_2021-12-26 > null,384455.44535715,746.0,488.0,1234,1234
101,start > CVM-3509_rw_app_imp_2021-12-20_2021-12-26 > CVM-3509_email_open_2021-12-20_2021-12-26 > CVM-3509_email_clk_2021-12-20_2021-12-26 > null,363458.89068738,236.0,127.0,362,362
102,start > CVM-3509_rw_app_push_imp_2021-12-20_2021-12-26 > null,859975.8148419,1147.0,771.0,1917,1917
103,start > CVM-3509_rw_app_imp_2021-12-20_2021-12-26 > CVM-3509_email_open_2021-12-20_2021-12-26 > CVM-3509_email_clk_2021-12-20_2021-12-26 > CVM-3509_email_open_2021-12-20_2021-12-26 > null,260092.15341414,285.0,171.0,455,455
104,start > FB_Impression_MobileFeed > CVM-3509_rw_app_push_imp_2021-12-20_2021-12-26 > FB_Impression_MobileFeed > null,138774.49856,118.0,74.0,191,191
105,start > CVM-3509_rw_app_imp_2021-12-20_2021-12-26 > CVM-3509_rw_app_clk_2021-12-20_2021-12-26 > CVM-3509_rw_app_imp_2021-12-20_2021-12-26 > CVM-3509_email_open_2021-12-20_2021-12-26 > null,125776.31120558,126.0,58.0,183,183
106,start > CVM-3509_email_open_2021-12-20_2021-12-26 > CVM-3509_email_clk_2021-12-20_2021-12-26 > CVM-3509_email_open_2021-12-20_2021-12-26 > CVM-3509_rw_app_imp_2021-12-20_2021-12-26 > null,225749.38867195,189.0,131.0,319,319
107,start > CVM-3509_email_open_2021-12-20_2021-12-26 > FB_Impression_MobileFeed > null,295006.78053496,292.0,190.0,482,482
108,start > CVM-3509_email_open_2021-12-20_2021-12-26 > CVM-3509_rw_app_imp_2021-12-20_2021-12-26 > CVM-3509_email_open_2021-12-20_2021-12-26 > CVM-3509_email_clk_2021-12-20_2021-12-26 > null,137688.78716265,122.0,59.0,181,181
109,start > CVM-3509_email_open_2021-12-20_2021-12-26 > CVM-3509_rw_app_push_clk_2021-12-20_2021-12-26 > null,67918.138419625,131.0,84.0,215,215
110,start > CVM-3509_email_open_2021-12-20_2021-12-26 > CVM-3509_rw_app_push_imp_2021-12-20_2021-12-26 > null,-41705.904245953,267.0,223.0,490,490
111,start > CVM-3509_email_open_2021-12-20_2021-12-26 > CVM-3509_email_clk_2021-12-20_2021-12-26 > CVM-3509_email_open_2021-12-20_2021-12-26 > CVM-3509_rw_app_push_clk_2021-12-20_2021-12-26 > null,40450.364448605,185.0,156.0,338,338
112,start > _AlwaysOn_wow_web_view_2021-12-20_2021-12-26 > CVM-3509_email_open_2021-12-20_2021-12-26 > CVM-3509_email_clk_2021-12-20_2021-12-26 > CVM-3509_email_open_2021-12-20_2021-12-26 > CVM-3509_email_clk_2021-12-20_2021-12-26 > null,207965.89865003,141.0,80.0,219,219
