,path,total_conversion_value,conversions,non_conversions,cnt,ppl,Converted
0,CAT-5256_wow_app_imp_2022-04-06_2022-04-10 > CAT-5256_wow_app_clk_2022-04-06_2022-04-10,1642164.276606,1529.0,0.0,1527,1527,False
1,CAT-5256_email_open_2022-04-06_2022-04-10 > CAT-5256_rw_app_imp_2022-04-06_2022-04-10,547084.85053379,686.0,0.0,681,681,False
2,CAT-5256_rw_app_imp_2022-04-06_2022-04-10 > CAT-5256_rw_app_push_imp_2022-04-06_2022-04-10 > CAT-5256_rw_app_imp_2022-04-06_2022-04-10,548289.75701323,698.0,0.0,696,696,False
3,FB_Impression_MobileFeed > CAT-5256_rw_app_push_clk_2022-04-06_2022-04-10 > CAT-5256_rw_app_imp_2022-04-06_2022-04-10 > FB_Impression_MobileFeed,88103.035680425,106.0,0.0,106,106,False
4,FB_Impression_MobileFeed > CAT-5256_rw_app_imp_2022-04-06_2022-04-10 > CAT-5256_rw_app_clk_2022-04-06_2022-04-10,166677.76178733,184.0,0.0,184,184,False
5,CAT-5256_rw_app_push_clk_2022-04-06_2022-04-10 > CAT-5256_rw_app_imp_2022-04-06_2022-04-10 > CAT-5256_rw_app_clk_2022-04-06_2022-04-10,1278598.1796512,1586.0,0.0,1579,1579,False
6,CAT-5256_email_open_2022-04-06_2022-04-10 > CAT-5256_email_clk_2022-04-06_2022-04-10 > CAT-5256_email_open_2022-04-06_2022-04-10,796038.31342992,879.0,0.0,874,874,False
7,CAT-5256_rw_app_imp_2022-04-06_2022-04-10 > CAT-5256_rw_app_push_imp_2022-04-06_2022-04-10,217698.34500555,425.0,0.0,424,424,False
8,CAT-5256_rw_app_push_clk_2022-04-06_2022-04-10,355999.62257234,454.0,0.0,453,453,False
9,CAT-5256_rw_app_imp_2022-04-06_2022-04-10 > FB_Impression_MobileFeed,667074.28961759,835.0,0.0,830,830,False
10,FB_Impression_MobileFeed > CAT-5256_rw_app_push_imp_2022-04-06_2022-04-10 > FB_Impression_MobileFeed,98825.471920575,113.0,0.0,113,113,False
11,FB_Impression_MobileFeed > FB_Impression_FacebookStory > FB_Impression_MobileFeed,124244.41147681,126.0,0.0,126,126,False
12,CAT-5256_rw_app_push_imp_2022-04-06_2022-04-10 > CAT-5256_rw_app_push_clk_2022-04-06_2022-04-10 > CAT-5256_rw_app_imp_2022-04-06_2022-04-10,236471.294425,313.0,0.0,310,310,False
13,CAT-5256_rw_app_push_imp_2022-04-06_2022-04-10 > FB_Impression_MobileFeed,357787.38531526,415.0,0.0,412,412,False
14,CAT-5256_rw_app_push_clk_2022-04-06_2022-04-10 > CAT-5256_rw_app_imp_2022-04-06_2022-04-10,4072971.1936007,4895.0,0.0,4883,4883,False
15,_AlwaysOn_wow_web_view_2022-04-06_2022-04-10 > _AlwaysOn_wow_web_clk_2022-04-06_2022-04-10,238006.87624638,160.0,0.0,160,160,False
16,CAT-5256_wow_app_imp_2022-04-06_2022-04-10 > CAT-5256_wow_app_clk_2022-04-06_2022-04-10 > CAT-5256_wow_app_imp_2022-04-06_2022-04-10,307074.89211819,248.0,0.0,247,247,False
17,FB_Impression_MobileFeed > CAT-5256_rw_app_imp_2022-04-06_2022-04-10,232286.18804532,202.0,0.0,201,201,False
18,CAT-5256_email_open_2022-04-06_2022-04-10 > CAT-5256_email_clk_2022-04-06_2022-04-10,4878112.7936244,5261.0,0.0,5245,5245,False
19,FB_Impression_WebFeed,2153850.9039416,2514.0,0.0,2502,2502,False
20,FB_Impression_WebFeed > FB_Impression_MobileFeed,105369.04254859,104.0,0.0,104,104,False
21,FB_Impression_WebFeed > FB_Impression_MobileFeed > FB_Impression_WebFeed,112158.03118724,120.0,0.0,119,119,False
22,_AlwaysOn_wow_web_view_2022-04-06_2022-04-10 > CAT-5256_rw_app_imp_2022-04-06_2022-04-10 > CAT-5256_rw_app_clk_2022-04-06_2022-04-10,514830.4583943,383.0,0.0,383,383,False
23,CAT-5256_rw_app_imp_2022-04-06_2022-04-10 > CAT-5256_rw_app_clk_2022-04-06_2022-04-10 > CAT-5256_email_open_2022-04-06_2022-04-10,377637.64744283,360.0,0.0,356,356,False
24,CAT-5256_rw_app_imp_2022-04-06_2022-04-10 > CAT-5256_email_open_2022-04-06_2022-04-10 > CAT-5256_rw_app_imp_2022-04-06_2022-04-10,118015.31323748,114.0,0.0,112,112,False
25,FB_Impression_FacebookStory,454870.91417094,419.0,0.0,419,419,False
26,CAT-5256_email_open_2022-04-06_2022-04-10 > CAT-5256_email_clk_2022-04-06_2022-04-10 > CAT-5256_rw_app_imp_2022-04-06_2022-04-10 > CAT-5256_rw_app_clk_2022-04-06_2022-04-10,754552.39163903,825.0,0.0,821,821,False
27,CAT-5256_rw_app_push_imp_2022-04-06_2022-04-10 > CAT-5256_email_open_2022-04-06_2022-04-10,186214.04410761,195.0,0.0,195,195,False
28,CAT-5256_rw_app_push_imp_2022-04-06_2022-04-10 > CAT-5256_rw_app_clk_2022-04-06_2022-04-10,117503.59330612,172.0,0.0,170,170,False
29,CAT-5256_email_open_2022-04-06_2022-04-10 > CAT-5256_rw_app_push_imp_2022-04-06_2022-04-10 > CAT-5256_rw_app_imp_2022-04-06_2022-04-10,143461.58660842,113.0,0.0,112,112,False
30,CAT-5256_rw_app_push_clk_2022-04-06_2022-04-10 > CAT-5256_rw_app_imp_2022-04-06_2022-04-10 > CAT-5256_rw_app_clk_2022-04-06_2022-04-10 > CAT-5256_rw_app_imp_2022-04-06_2022-04-10,776988.32180446,817.0,0.0,814,814,False
31,CAT-5256_email_open_2022-04-06_2022-04-10 > CAT-5256_email_clk_2022-04-06_2022-04-10 > CAT-5256_rw_app_imp_2022-04-06_2022-04-10,512399.72159352,599.0,0.0,594,594,False
32,CAT-5256_rw_app_imp_2022-04-06_2022-04-10 > CAT-5256_rw_app_clk_2022-04-06_2022-04-10 > FB_Impression_MobileFeed,557409.12254926,627.0,0.0,625,625,False
33,CAT-5256_rw_app_imp_2022-04-06_2022-04-10,12163889.722082,13859.0,0.0,13829,13829,False
34,FB_Impression_Instagram > FB_Impression_MobileFeed,97595.212477043,108.0,0.0,108,108,False
35,FB_Impression_MobileFeed > FB_Impression_WebFeed,277948.24077139,295.0,0.0,294,294,False
36,CAT-5256_rw_app_push_imp_2022-04-06_2022-04-10 > CAT-5256_rw_app_imp_2022-04-06_2022-04-10 > CAT-5256_rw_app_clk_2022-04-06_2022-04-10 > FB_Impression_MobileFeed,124462.63031079,155.0,0.0,155,155,False
37,CAT-5256_email_open_2022-04-06_2022-04-10 > FB_Impression_WebFeed,178254.09411866,235.0,0.0,235,235,False
38,CAT-5256_rw_app_imp_2022-04-06_2022-04-10 > CAT-5256_rw_app_push_clk_2022-04-06_2022-04-10 > CAT-5256_rw_app_imp_2022-04-06_2022-04-10,684659.10914617,869.0,0.0,863,863,False
39,CAT-5256_rw_app_imp_2022-04-06_2022-04-10 > CAT-5256_email_open_2022-04-06_2022-04-10,271992.11897652,369.0,0.0,366,366,False
40,CAT-5256_email_open_2022-04-06_2022-04-10 > CAT-5256_rw_app_imp_2022-04-06_2022-04-10 > CAT-5256_rw_app_clk_2022-04-06_2022-04-10,828309.54552045,729.0,0.0,726,726,False
41,FB_Impression_MobileFeed > FB_Impression_WebFeed > FB_Impression_MobileFeed,95139.316815397,114.0,0.0,114,114,False
42,FB_Impression_InstagramStory,471938.91754543,462.0,0.0,462,462,False
43,CAT-5256_email_open_2022-04-06_2022-04-10,7671071.455588,8492.0,0.0,8457,8457,False
44,CAT-5256_rw_app_imp_2022-04-06_2022-04-10 > CAT-5256_rw_app_clk_2022-04-06_2022-04-10 > CAT-5256_rw_app_imp_2022-04-06_2022-04-10,3718388.9738413,3773.0,0.0,3758,3758,False
45,CAT-5256_rw_app_imp_2022-04-06_2022-04-10 > CAT-5256_rw_app_clk_2022-04-06_2022-04-10 > CAT-5256_rw_app_push_imp_2022-04-06_2022-04-10,348405.25683668,410.0,0.0,410,410,False
46,CAT-5256_rw_app_push_clk_2022-04-06_2022-04-10 > CAT-5256_rw_app_imp_2022-04-06_2022-04-10 > CAT-5256_rw_app_clk_2022-04-06_2022-04-10 > FB_Impression_MobileFeed,87218.182622513,117.0,0.0,117,117,False
47,FB_Impression_MobileFeed > FB_Click_MobileFeed > FB_Impression_MobileFeed,378100.6176613,369.0,0.0,369,369,False
48,FB_Impression_Instagram,622114.48040388,600.0,0.0,599,599,False
49,CAT-5256_rw_app_imp_2022-04-06_2022-04-10 > CAT-5256_rw_app_push_clk_2022-04-06_2022-04-10,222452.00772449,296.0,0.0,294,294,False
50,CAT-5256_rw_app_push_imp_2022-04-06_2022-04-10 > CAT-5256_rw_app_imp_2022-04-06_2022-04-10 > CAT-5256_rw_app_clk_2022-04-06_2022-04-10 > CAT-5256_rw_app_imp_2022-04-06_2022-04-10,862700.98975246,752.0,0.0,751,751,False
51,CAT-5256_email_open_2022-04-06_2022-04-10 > CAT-5256_rw_app_imp_2022-04-06_2022-04-10 > CAT-5256_rw_app_clk_2022-04-06_2022-04-10 > CAT-5256_rw_app_imp_2022-04-06_2022-04-10,157865.47617657,143.0,0.0,141,141,False
52,CAT-5256_rw_app_push_imp_2022-04-06_2022-04-10 > CAT-5256_rw_app_imp_2022-04-06_2022-04-10,2717986.6605894,3426.0,0.0,3410,3410,False
53,CAT-5256_rw_app_clk_2022-04-06_2022-04-10 > CAT-5256_rw_app_imp_2022-04-06_2022-04-10,254660.72085542,305.0,0.0,305,305,False
54,FB_Impression_MobileFeed,8181497.4744028,8380.0,0.0,8362,8362,False
55,CAT-5256_rw_app_push_imp_2022-04-06_2022-04-10 > CAT-5256_rw_app_imp_2022-04-06_2022-04-10 > FB_Impression_MobileFeed,104807.15894714,214.0,0.0,213,213,False
56,FB_Impression_MobileFeed > CAT-5256_rw_app_imp_2022-04-06_2022-04-10 > CAT-5256_rw_app_clk_2022-04-06_2022-04-10 > FB_Impression_MobileFeed,267098.89369922,329.0,0.0,328,328,False
57,FB_Impression_MobileFeed > CAT-5256_rw_app_imp_2022-04-06_2022-04-10 > FB_Impression_MobileFeed,328469.01643112,335.0,0.0,334,334,False
58,CAT-5256_email_clk_2022-04-06_2022-04-10,591897.2080289,611.0,0.0,610,610,False
59,CAT-5256_email_open_2022-04-06_2022-04-10 > CAT-5256_email_clk_2022-04-06_2022-04-10 > FB_Impression_MobileFeed,434432.8956113,403.0,0.0,401,401,False
60,CAT-5256_rw_app_imp_2022-04-06_2022-04-10 > CAT-5256_rw_app_clk_2022-04-06_2022-04-10 > CAT-5256_rw_app_push_clk_2022-04-06_2022-04-10 > CAT-5256_rw_app_imp_2022-04-06_2022-04-10,291411.9979797,364.0,0.0,363,363,False
61,CAT-5256_email_open_2022-04-06_2022-04-10 > CAT-5256_rw_app_push_clk_2022-04-06_2022-04-10 > CAT-5256_rw_app_imp_2022-04-06_2022-04-10,118176.23471081,148.0,0.0,147,147,False
62,CAT-5256_email_open_2022-04-06_2022-04-10 > CAT-5256_email_clk_2022-04-06_2022-04-10 > CAT-5256_email_open_2022-04-06_2022-04-10 > CAT-5256_email_clk_2022-04-06_2022-04-10,236410.93849095,263.0,0.0,257,257,False
63,CAT-5256_email_open_2022-04-06_2022-04-10 > CAT-5256_email_clk_2022-04-06_2022-04-10 > CAT-5256_rw_app_imp_2022-04-06_2022-04-10 > CAT-5256_rw_app_clk_2022-04-06_2022-04-10 > CAT-5256_rw_app_imp_2022-04-06_2022-04-10,224086.83367369,198.0,0.0,197,197,False
64,CAT-5256_rw_app_push_clk_2022-04-06_2022-04-10 > CAT-5256_rw_app_imp_2022-04-06_2022-04-10 > FB_Impression_MobileFeed,371240.24383368,415.0,0.0,413,413,False
65,FB_Impression_MobileFeed > FB_Impression_FacebookStory,215493.04178805,241.0,0.0,239,239,False
66,CAT-5256_rw_app_push_clk_2022-04-06_2022-04-10 > CAT-5256_rw_app_imp_2022-04-06_2022-04-10 > CAT-5256_email_open_2022-04-06_2022-04-10,101511.91266817,127.0,0.0,127,127,False
67,CAT-5256_rw_app_push_imp_2022-04-06_2022-04-10,3767523.1063847,4273.0,0.0,4263,4263,False
68,CAT-5256_email_clk_2022-04-06_2022-04-10 > CAT-5256_rw_app_imp_2022-04-06_2022-04-10,192120.25140174,174.0,0.0,174,174,False
69,CAT-5256_wow_app_imp_2022-04-06_2022-04-10,709443.69052229,731.0,0.0,730,730,False
70,_AlwaysOn_wow_web_view_2022-04-06_2022-04-10 > _AlwaysOn_wow_web_clk_2022-04-06_2022-04-10 > _AlwaysOn_wow_web_view_2022-04-06_2022-04-10,103718.94110904,108.0,0.0,108,108,False
71,_AlwaysOn_wow_web_view_2022-04-06_2022-04-10,443097.87688373,462.0,0.0,462,462,False
72,CAT-5256_rw_app_imp_2022-04-06_2022-04-10 > CAT-5256_rw_app_clk_2022-04-06_2022-04-10 > CAT-5256_rw_app_push_imp_2022-04-06_2022-04-10 > CAT-5256_rw_app_imp_2022-04-06_2022-04-10,245315.70872038,292.0,0.0,291,291,False
73,CAT-5256_rw_app_push_imp_2022-04-06_2022-04-10 > CAT-5256_rw_app_imp_2022-04-06_2022-04-10 > CAT-5256_rw_app_clk_2022-04-06_2022-04-10,2018669.6830268,2270.0,0.0,2268,2268,False
74,CAT-5256_email_open_2022-04-06_2022-04-10 > FB_Impression_MobileFeed,539894.99998076,611.0,0.0,606,606,False
75,CAT-5256_rw_app_imp_2022-04-06_2022-04-10 > CAT-5256_rw_app_clk_2022-04-06_2022-04-10 > CAT-5256_rw_app_imp_2022-04-06_2022-04-10 > FB_Impression_MobileFeed,115452.74266801,102.0,0.0,102,102,False
76,CAT-5256_rw_app_clk_2022-04-06_2022-04-10,770699.18571144,820.0,0.0,819,819,False
77,FB_Impression_MobileFeed > CAT-5256_email_open_2022-04-06_2022-04-10 > FB_Impression_MobileFeed,138167.76185064,152.0,0.0,152,152,False
79,CAT-5256_email_open_2022-04-06_2022-04-10 > CAT-5256_email_clk_2022-04-06_2022-04-10 > FB_Impression_WebFeed,172082.41563856,169.0,0.0,166,166,False
80,CAT-5256_email_clk_2022-04-06_2022-04-10 > CAT-5256_rw_app_imp_2022-04-06_2022-04-10 > CAT-5256_rw_app_clk_2022-04-06_2022-04-10,226067.07783017,218.0,0.0,217,217,False
81,CAT-5256_rw_app_imp_2022-04-06_2022-04-10 > CAT-5256_rw_app_clk_2022-04-06_2022-04-10,15253832.161477,15680.0,0.0,15644,15644,False
82,CAT-5256_email_open_2022-04-06_2022-04-10 > CAT-5256_rw_app_push_imp_2022-04-06_2022-04-10,139867.73419675,144.0,0.0,144,144,False
