,event_concat,val,val_type,val_type_2,cnt,ppl
0,CVM-3509_rw_app_imp_2021-12-20_2021-12-26^CVM-3509_rw_app_imp_2021-12-20_2021-12-26^^^^^^^^^^^^^^^^^^^,3830.2705088244,75.0,45.0,160,160
1,_AlwaysOn_sem_shopping_clk_2021-12-20_2021-12-26^^^^^^^^^^^^^^^^^^^^,1289.2395031869,31.0,14.0,2231,2231
2,_AlwaysOn_wow_web_clk_2021-12-20_2021-12-26^_AlwaysOn_sem_shopping_clk_2021-12-20_2021-12-26^^^^^^^^^^^^^^^^^^^,796.29509138972,4.0,1.0,122,122
3,CVM-3509_email_open_2021-12-20_2021-12-26^^^^^^^^^^^^^^^^^^^^,191043.55884258,6917.0,4799.0,261111,261111
4,CVM-3509_rw_app_imp_2021-12-20_2021-12-26^CVM-3509_email_open_2021-12-20_2021-12-26^^^^^^^^^^^^^^^^^^^,27919.019509506,1121.0,772.0,6921,6921
5,CVM-3509_rw_app_push_clk_2021-12-20_2021-12-26^CVM-3509_email_open_2021-12-20_2021-12-26^^^^^^^^^^^^^^^^^^^,1612.5745725996,92.0,61.0,261,261
6,CVM-3509_rw_app_push_imp_2021-12-20_2021-12-26^CVM-3509_rw_app_imp_2021-12-20_2021-12-26^^^^^^^^^^^^^^^^^^^,10227.068526659,299.0,230.0,1464,1464
7,_AlwaysOn_sem_shopping_clk_2021-12-20_2021-12-26^CVM-3509_email_open_2021-12-20_2021-12-26^CVM-3509_email_clk_2021-12-20_2021-12-26^^^^^^^^^^^^^^^^^^,3582.7573787177,89.0,68.0,180,180
8,CVM-3509_rw_app_push_imp_2021-12-20_2021-12-26^CVM-3509_rw_app_imp_2021-12-20_2021-12-26^CVM-3509_rw_app_clk_2021-12-20_2021-12-26^^^^^^^^^^^^^^^^^^,19171.179575185,321.0,155.0,582,582
9,FB_Impression_MobileFeed^^^^^^^^^^^^^^^^^^^^,13954.878846213,189.0,100.0,133369,133369
10,CVM-3509_email_clk_2021-12-20_2021-12-26^^^^^^^^^^^^^^^^^^^^,746152.74087932,26705.0,19132.0,54773,54773
11,FB_Impression_MobileFeed^_AlwaysOn_wow_web_view_2021-12-20_2021-12-26^^^^^^^^^^^^^^^^^^^,1135.0215798744,10.0,2.0,790,790
12,CVM-3509_rw_app_push_clk_2021-12-20_2021-12-26^CVM-3509_rw_app_imp_2021-12-20_2021-12-26^CVM-3509_rw_app_clk_2021-12-20_2021-12-26^CVM-3509_email_open_2021-12-20_2021-12-26^^^^^^^^^^^^^^^^^,3565.1485193515,66.0,20.0,127,127
13,FB_Impression_MobileFeed^CVM-3509_rw_app_imp_2021-12-20_2021-12-26^^^^^^^^^^^^^^^^^^^,997.28885483148,11.0,6.0,151,151
14,CVM-3509_rw_app_push_clk_2021-12-20_2021-12-26^CVM-3509_rw_app_imp_2021-12-20_2021-12-26^CVM-3509_email_open_2021-12-20_2021-12-26^CVM-3509_email_clk_2021-12-20_2021-12-26^^^^^^^^^^^^^^^^^,-603.5793164102,116.0,111.0,262,262
15,FB_Impression_MobileFeed^CVM-3509_email_open_2021-12-20_2021-12-26^^^^^^^^^^^^^^^^^^^,9029.4440807723,109.0,75.0,4318,4318
16,CVM-3509_rw_app_push_clk_2021-12-20_2021-12-26^CVM-3509_email_open_2021-12-20_2021-12-26^CVM-3509_email_clk_2021-12-20_2021-12-26^^^^^^^^^^^^^^^^^^,3364.2964194948,216.0,155.0,432,432
17,_AlwaysOn_wow_web_view_2021-12-20_2021-12-26^_AlwaysOn_wow_web_clk_2021-12-20_2021-12-26^CVM-3509_email_open_2021-12-20_2021-12-26^^^^^^^^^^^^^^^^^^,4042.9790669076,43.0,27.0,183,183
18,_AlwaysOn_wow_web_view_2021-12-20_2021-12-26^_AlwaysOn_wow_web_clk_2021-12-20_2021-12-26^CVM-3509_email_open_2021-12-20_2021-12-26^CVM-3509_email_clk_2021-12-20_2021-12-26^^^^^^^^^^^^^^^^^,9840.8812530472,77.0,36.0,131,131
19,CVM-3509_email_open_2021-12-20_2021-12-26^CVM-3509_email_open_2021-12-20_2021-12-26^^^^^^^^^^^^^^^^^^^,874.30546068589,57.0,32.0,206,206
20,CVM-3509_email_open_2021-12-20_2021-12-26^CVM-3509_email_clk_2021-12-20_2021-12-26^^^^^^^^^^^^^^^^^^^,678932.40952356,22705.0,15927.0,52944,52944
21,CVM-3509_rw_app_push_clk_2021-12-20_2021-12-26^^^^^^^^^^^^^^^^^^^^,6034.1513715027,543.0,423.0,2011,2011
22,CVM-3509_rw_app_imp_2021-12-20_2021-12-26^^^^^^^^^^^^^^^^^^^^,100043.23357597,3278.0,2219.0,31420,31420
23,_AlwaysOn_wow_web_clk_2021-12-20_2021-12-26^CVM-3509_rw_app_imp_2021-12-20_2021-12-26^CVM-3509_rw_app_clk_2021-12-20_2021-12-26^^^^^^^^^^^^^^^^^^,5080.2559852374,93.0,53.0,151,151
24,CVM-3509_email_open_2021-12-20_2021-12-26^CVM-3509_email_open_2021-12-20_2021-12-26^CVM-3509_email_clk_2021-12-20_2021-12-26^^^^^^^^^^^^^^^^^^,12560.78146371,492.0,311.0,864,864
25,CVM-3509_rw_app_imp_2021-12-20_2021-12-26^CVM-3509_rw_app_clk_2021-12-20_2021-12-26^CVM-3509_email_open_2021-12-20_2021-12-26^^^^^^^^^^^^^^^^^^,73717.133995127,1524.0,919.0,3064,3064
26,FB_Impression_Instagram^CVM-3509_email_open_2021-12-20_2021-12-26^^^^^^^^^^^^^^^^^^^,187.27732357792,6.0,6.0,321,321
27,CVM-3509_rw_app_clk_2021-12-20_2021-12-26^CVM-3509_email_open_2021-12-20_2021-12-26^^^^^^^^^^^^^^^^^^^,89523.914554297,2643.0,1695.0,5162,5162
28,CVM-3509_rw_app_clk_2021-12-20_2021-12-26^^^^^^^^^^^^^^^^^^^^,216740.612214,5795.0,3650.0,10969,10969
29,_AlwaysOn_wow_web_clk_2021-12-20_2021-12-26^CVM-3509_email_open_2021-12-20_2021-12-26^CVM-3509_email_clk_2021-12-20_2021-12-26^^^^^^^^^^^^^^^^^^,27830.496242896,286.0,138.0,441,441
30,CVM-3509_rw_app_clk_2021-12-20_2021-12-26^CVM-3509_email_open_2021-12-20_2021-12-26^CVM-3509_email_open_2021-12-20_2021-12-26^CVM-3509_email_clk_2021-12-20_2021-12-26^^^^^^^^^^^^^^^^^,1630.5331532418,82.0,54.0,146,146
31,CVM-3509_email_open_2021-12-20_2021-12-26^CVM-3509_email_clk_2021-12-20_2021-12-26^CVM-3509_email_clk_2021-12-20_2021-12-26^^^^^^^^^^^^^^^^^^,2695.3011105458,88.0,64.0,168,168
32,CVM-3509_rw_app_imp_2021-12-20_2021-12-26^CVM-3509_email_open_2021-12-20_2021-12-26^CVM-3509_email_open_2021-12-20_2021-12-26^CVM-3509_email_clk_2021-12-20_2021-12-26^^^^^^^^^^^^^^^^^,7712.6282086101,121.0,62.0,198,198
33,_AlwaysOn_wow_web_view_2021-12-20_2021-12-26^CVM-3509_rw_app_imp_2021-12-20_2021-12-26^^^^^^^^^^^^^^^^^^^,539.20153935456,11.0,6.0,142,142
34,CVM-3509_rw_app_push_clk_2021-12-20_2021-12-26^CVM-3509_rw_app_imp_2021-12-20_2021-12-26^CVM-3509_email_open_2021-12-20_2021-12-26^^^^^^^^^^^^^^^^^^,4515.0393755096,65.0,36.0,267,267
35,_AlwaysOn_wow_web_view_2021-12-20_2021-12-26^_AlwaysOn_sem_shopping_clk_2021-12-20_2021-12-26^^^^^^^^^^^^^^^^^^^,1109.1661711996,15.0,10.0,1394,1394
36,FB_Impression_Instagram^CVM-3509_email_open_2021-12-20_2021-12-26^CVM-3509_email_clk_2021-12-20_2021-12-26^^^^^^^^^^^^^^^^^^,2535.8997890482,40.0,29.0,101,101
37,CVM-3509_rw_app_push_imp_2021-12-20_2021-12-26^^^^^^^^^^^^^^^^^^^^,39459.343257878,750.0,474.0,4411,4411
38,CVM-3509_rw_app_push_imp_2021-12-20_2021-12-26^CVM-3509_email_open_2021-12-20_2021-12-26^CVM-3509_email_clk_2021-12-20_2021-12-26^^^^^^^^^^^^^^^^^^,5664.2814842167,220.0,150.0,411,411
39,CVM-3509_email_clk_2021-12-20_2021-12-26^CVM-3509_email_clk_2021-12-20_2021-12-26^^^^^^^^^^^^^^^^^^^,442.24146103411,60.0,38.0,100,100
40,CVM-3509_rw_app_imp_2021-12-20_2021-12-26^CVM-3509_rw_app_imp_2021-12-20_2021-12-26^CVM-3509_email_open_2021-12-20_2021-12-26^CVM-3509_email_clk_2021-12-20_2021-12-26^^^^^^^^^^^^^^^^^,1551.6688457806,63.0,51.0,125,125
41,_AlwaysOn_wow_web_clk_2021-12-20_2021-12-26^CVM-3509_email_open_2021-12-20_2021-12-26^^^^^^^^^^^^^^^^^^^,13590.285987941,119.0,43.0,293,293
42,CVM-3509_rw_app_push_clk_2021-12-20_2021-12-26^CVM-3509_rw_app_imp_2021-12-20_2021-12-26^^^^^^^^^^^^^^^^^^^,13369.894487014,220.0,131.0,999,999
43,CVM-3509_rw_app_imp_2021-12-20_2021-12-26^CVM-3509_email_open_2021-12-20_2021-12-26^CVM-3509_email_open_2021-12-20_2021-12-26^^^^^^^^^^^^^^^^^^,2548.5379009615,40.0,30.0,102,102
44,CVM-3509_rw_app_imp_2021-12-20_2021-12-26^CVM-3509_rw_app_clk_2021-12-20_2021-12-26^^^^^^^^^^^^^^^^^^^,226222.64797693,4744.0,2909.0,9861,9861
45,_AlwaysOn_sem_shopping_clk_2021-12-20_2021-12-26^_AlwaysOn_sem_shopping_clk_2021-12-20_2021-12-26^^^^^^^^^^^^^^^^^^^,16.182471081423,1.0,0.0,100,100
46,CVM-3509_rw_app_imp_2021-12-20_2021-12-26^CVM-3509_rw_app_clk_2021-12-20_2021-12-26^CVM-3509_email_open_2021-12-20_2021-12-26^CVM-3509_email_clk_2021-12-20_2021-12-26^^^^^^^^^^^^^^^^^,23433.98932977,554.0,327.0,980,980
47,CVM-3509_rw_app_push_imp_2021-12-20_2021-12-26^CVM-3509_rw_app_imp_2021-12-20_2021-12-26^CVM-3509_rw_app_clk_2021-12-20_2021-12-26^CVM-3509_email_open_2021-12-20_2021-12-26^^^^^^^^^^^^^^^^^,-1949.8779740632,85.0,54.0,180,180
48,CVM-3509_rw_app_push_imp_2021-12-20_2021-12-26^CVM-3509_email_open_2021-12-20_2021-12-26^^^^^^^^^^^^^^^^^^^,8923.6170824897,139.0,96.0,498,498
49,_AlwaysOn_wow_web_view_2021-12-20_2021-12-26^CVM-3509_rw_app_imp_2021-12-20_2021-12-26^CVM-3509_rw_app_clk_2021-12-20_2021-12-26^^^^^^^^^^^^^^^^^^,11070.437935641,109.0,47.0,171,171
50,CVM-3509_rw_app_push_clk_2021-12-20_2021-12-26^CVM-3509_rw_app_imp_2021-12-20_2021-12-26^CVM-3509_rw_app_clk_2021-12-20_2021-12-26^^^^^^^^^^^^^^^^^^,10542.307993205,236.0,119.0,521,521
51,CVM-3509_rw_app_imp_2021-12-20_2021-12-26^CVM-3509_rw_app_imp_2021-12-20_2021-12-26^CVM-3509_email_open_2021-12-20_2021-12-26^^^^^^^^^^^^^^^^^^,2089.4932107984,62.0,34.0,140,140
52,CVM-3509_rw_app_clk_2021-12-20_2021-12-26^CVM-3509_email_open_2021-12-20_2021-12-26^CVM-3509_email_open_2021-12-20_2021-12-26^^^^^^^^^^^^^^^^^^,4365.3526045712,149.0,83.0,263,263
53,_AlwaysOn_wow_web_view_2021-12-20_2021-12-26^CVM-3509_email_open_2021-12-20_2021-12-26^CVM-3509_email_clk_2021-12-20_2021-12-26^^^^^^^^^^^^^^^^^^,24049.038540321,318.0,194.0,668,668
54,CVM-3509_rw_app_push_imp_2021-12-20_2021-12-26^CVM-3509_rw_app_imp_2021-12-20_2021-12-26^CVM-3509_email_open_2021-12-20_2021-12-26^^^^^^^^^^^^^^^^^^,2382.9808837596,99.0,55.0,405,405
55,_AlwaysOn_wow_web_view_2021-12-20_2021-12-26^CVM-3509_email_open_2021-12-20_2021-12-26^^^^^^^^^^^^^^^^^^^,6216.8591747252,74.0,41.0,955,955
56,CVM-3509_rw_app_push_imp_2021-12-20_2021-12-26^CVM-3509_rw_app_imp_2021-12-20_2021-12-26^CVM-3509_email_open_2021-12-20_2021-12-26^CVM-3509_email_clk_2021-12-20_2021-12-26^^^^^^^^^^^^^^^^^,3259.1585398551,105.0,69.0,217,217
57,_AlwaysOn_wow_web_view_2021-12-20_2021-12-26^^^^^^^^^^^^^^^^^^^^,19707.526165051,232.0,133.0,44277,44277
58,FB_Impression_MobileFeed^CVM-3509_email_open_2021-12-20_2021-12-26^CVM-3509_email_clk_2021-12-20_2021-12-26^^^^^^^^^^^^^^^^^^,36115.684485698,840.0,548.0,1851,1851
59,CVM-3509_rw_app_imp_2021-12-20_2021-12-26^CVM-3509_email_open_2021-12-20_2021-12-26^CVM-3509_email_clk_2021-12-20_2021-12-26^^^^^^^^^^^^^^^^^^,61082.346964077,1905.0,1206.0,3713,3713
60,CVM-3509_rw_app_clk_2021-12-20_2021-12-26^CVM-3509_email_open_2021-12-20_2021-12-26^CVM-3509_email_clk_2021-12-20_2021-12-26^^^^^^^^^^^^^^^^^^,27043.110149535,965.0,606.0,1759,1759
61,_AlwaysOn_wow_web_view_2021-12-20_2021-12-26^_AlwaysOn_wow_web_clk_2021-12-20_2021-12-26^^^^^^^^^^^^^^^^^^^,11848.71435234,132.0,63.0,3516,3516
62,_AlwaysOn_wow_web_clk_2021-12-20_2021-12-26^^^^^^^^^^^^^^^^^^^^,24901.952098239,254.0,141.0,3564,3564
63,^^^^^^^^^^^^^^^^^^^^,575136.18859703,19124.0,13806.0,32909,32909
