,Paths,val,val_type,val_type_2,cnt,ppl
0,start > OSP-2373_rw_app_imp_2021-12-22_2021-12-26 > OSP-2373_email_open_2021-12-22_2021-12-26 > null,13415.163702555,2269.0,0.0,19526,19526
1,start > OSP-2373_rw_app_imp_2021-12-15_2021-12-21 > OSP-2373_rw_app_imp_2021-12-15_2021-12-21 > OSP-2373_email_open_2021-12-22_2021-12-26 > null,577.87232153395,77.0,0.0,200,200
2,start > _AlwaysOn_wow_web_clk_2021-12-15_2021-12-21 > OSP-2373_email_open_2021-12-22_2021-12-26 > null,9581.7820760393,243.0,0.0,5382,5382
3,start > OSP-2373_rw_app_imp_2021-12-22_2021-12-26 > OSP-2373_rw_app_imp_2021-12-22_2021-12-26 > OSP-2373_rw_app_imp_2021-12-15_2021-12-21 > null,367.00817784066,31.0,0.0,156,156
4,start > _AlwaysOn_wow_web_view_2021-12-15_2021-12-21 > _AlwaysOn_wow_web_clk_2021-12-15_2021-12-21 > OSP-2373_rw_app_imp_2021-12-22_2021-12-26 > null,941.40824350909,23.0,0.0,500,500
5,start > OSP-2373_rw_app_imp_2021-12-22_2021-12-26 > OSP-2373_rw_app_imp_2021-12-15_2021-12-21 > OSP-2373_rw_app_clk_2021-12-22_2021-12-26 > OSP-2373_email_open_2021-12-22_2021-12-26 > OSP-2373_email_open_2021-12-15_2021-12-21 > null,529.18191503615,132.0,0.0,229,229
6,start > _AlwaysOn_wow_web_view_2021-12-15_2021-12-21 > _AlwaysOn_wow_web_clk_2021-12-15_2021-12-21 > OSP-2373_email_open_2021-12-22_2021-12-26 > null,11550.772098804,156.0,0.0,3846,3846
7,start > _AlwaysOn_sem_shopping_clk_2021-12-15_2021-12-21 > OSP-2373_rw_app_imp_2021-12-22_2021-12-26 > OSP-2373_rw_app_clk_2021-12-22_2021-12-26 > null,1912.3378200585,51.0,0.0,344,344
8,start > _AlwaysOn_wow_web_view_2021-12-22_2021-12-26 > _AlwaysOn_wow_web_view_2021-12-15_2021-12-21 > null,3098.8963315384,65.0,0.0,2799,2799
9,start > _AlwaysOn_wow_web_clk_2021-12-15_2021-12-21 > _AlwaysOn_sem_shopping_clk_2021-12-15_2021-12-21 > null,859.88659083501,13.0,0.0,466,466
10,start > FB_Impression_MobileFeed > _AlwaysOn_wow_web_clk_2021-12-15_2021-12-21 > null,-2.5581381053182,1.0,0.0,104,104
11,start > _AlwaysOn_wow_web_view_2021-12-15_2021-12-21 > _AlwaysOn_wow_web_view_2021-12-15_2021-12-21 > _AlwaysOn_wow_web_clk_2021-12-15_2021-12-21 > null,644.92504505626,28.0,0.0,453,453
12,start > _AlwaysOn_wow_web_view_2021-12-15_2021-12-21 > OSP-2373_email_open_2021-12-22_2021-12-26 > OSP-2373_email_clk_2021-12-22_2021-12-26 > null,17980.87197374,732.0,0.0,5565,5565
13,start > _AlwaysOn_wow_web_clk_2021-12-15_2021-12-21 > OSP-2373_rw_app_imp_2021-12-22_2021-12-26 > OSP-2373_rw_app_imp_2021-12-15_2021-12-21 > OSP-2373_email_open_2021-12-22_2021-12-26 > null,-90.30952266842,18.0,0.0,214,214
14,start > OSP-2373_rw_app_imp_2021-12-15_2021-12-21 > OSP-2373_rw_app_clk_2021-12-22_2021-12-26 > OSP-2373_rw_app_clk_2021-12-15_2021-12-21 > OSP-2373_email_open_2021-12-22_2021-12-26 > OSP-2373_email_clk_2021-12-22_2021-12-26 > null,4648.3111848182,106.0,0.0,281,281
15,start > _AlwaysOn_wow_web_clk_2021-12-15_2021-12-21 > OSP-2373_rw_app_imp_2021-12-22_2021-12-26 > OSP-2373_rw_app_imp_2021-12-15_2021-12-21 > OSP-2373_rw_app_clk_2021-12-22_2021-12-26 > OSP-2373_email_open_2021-12-22_2021-12-26 > OSP-2373_email_clk_2021-12-22_2021-12-26 > null,2124.4483239469,49.0,0.0,157,157
16,start > OSP-2373_rw_app_clk_2021-12-22_2021-12-26 > OSP-2373_email_open_2021-12-22_2021-12-26 > null,141627.48356472,8262.0,0.0,18873,18873
17,start > _AlwaysOn_wow_web_view_2021-12-15_2021-12-21 > _AlwaysOn_sem_shopping_clk_2021-12-15_2021-12-21 > OSP-2373_rw_app_imp_2021-12-22_2021-12-26 > null,-128.67681969218,4.0,0.0,145,145
18,start > _AlwaysOn_wow_web_view_2021-12-15_2021-12-21 > _AlwaysOn_wow_web_clk_2021-12-15_2021-12-21 > null,40119.456628943,458.0,0.0,18186,18186
19,start > _AlwaysOn_wow_web_view_2021-12-15_2021-12-21 > OSP-2373_rw_app_imp_2021-12-22_2021-12-26 > OSP-2373_email_open_2021-12-22_2021-12-26 > OSP-2373_email_clk_2021-12-22_2021-12-26 > null,3879.6864186537,83.0,0.0,495,495
20,start > _AlwaysOn_wow_web_view_2021-12-15_2021-12-21 > OSP-2373_email_open_2021-12-22_2021-12-26 > OSP-2373_email_open_2021-12-15_2021-12-21 > OSP-2373_email_clk_2021-12-22_2021-12-26 > null,1047.4169632793,21.0,0.0,141,141
21,start > OSP-2373_rw_app_imp_2021-12-15_2021-12-21 > OSP-2373_rw_app_clk_2021-12-22_2021-12-26 > null,332301.24964591,20140.0,0.0,34841,34841
22,start > OSP-2373_email_clk_2021-12-22_2021-12-26 > null,606284.51354923,47742.0,0.0,96013,96013
23,start > OSP-2373_rw_app_clk_2021-12-15_2021-12-21 > null,53455.156150294,1683.0,0.0,7887,7887
24,start > _AlwaysOn_sem_shopping_clk_2021-12-15_2021-12-21 > OSP-2373_email_open_2021-12-22_2021-12-26 > OSP-2373_email_clk_2021-12-22_2021-12-26 > null,5572.6502736882,120.0,0.0,749,749
25,start > OSP-2373_rw_app_imp_2021-12-15_2021-12-21 > OSP-2373_rw_app_imp_2021-12-15_2021-12-21 > OSP-2373_rw_app_clk_2021-12-22_2021-12-26 > OSP-2373_email_open_2021-12-22_2021-12-26 > OSP-2373_email_clk_2021-12-22_2021-12-26 > null,-891.88267029121,97.0,0.0,140,140
26,start > _AlwaysOn_wow_web_view_2021-12-15_2021-12-21 > OSP-2373_rw_app_imp_2021-12-22_2021-12-26 > OSP-2373_rw_app_imp_2021-12-15_2021-12-21 > OSP-2373_rw_app_clk_2021-12-22_2021-12-26 > OSP-2373_rw_app_clk_2021-12-15_2021-12-21 > null,1700.4077022216,38.0,0.0,154,154
27,start > _AlwaysOn_wow_web_view_2021-12-15_2021-12-21 > OSP-2373_rw_app_imp_2021-12-22_2021-12-26 > null,1724.2381640355,70.0,0.0,1943,1943
28,start > OSP-2373_email_clk_2021-12-22_2021-12-26 > OSP-2373_email_clk_2021-12-22_2021-12-26 > null,2885.7528530322,112.0,0.0,104,104
29,start > _AlwaysOn_wow_web_view_2021-12-22_2021-12-26 > null,27063.555425635,917.0,0.0,19524,19524
30,start > OSP-2373_rw_app_clk_2021-12-22_2021-12-26 > OSP-2373_email_open_2021-12-22_2021-12-26 > OSP-2373_email_clk_2021-12-22_2021-12-26 > null,68791.363742751,4313.0,0.0,8198,8198
31,start > _AlwaysOn_wow_web_view_2021-12-15_2021-12-21 > _AlwaysOn_wow_web_clk_2021-12-22_2021-12-26 > null,10716.218545049,98.0,0.0,445,445
32,start > _AlwaysOn_wow_web_clk_2021-12-15_2021-12-21 > OSP-2373_rw_app_imp_2021-12-22_2021-12-26 > OSP-2373_email_open_2021-12-22_2021-12-26 > null,470.74958282654,27.0,0.0,401,401
33,start > OSP-2373_rw_app_imp_2021-12-22_2021-12-26 > OSP-2373_rw_app_imp_2021-12-22_2021-12-26 > OSP-2373_rw_app_clk_2021-12-22_2021-12-26 > OSP-2373_email_open_2021-12-22_2021-12-26 > null,1362.2396213333,70.0,0.0,163,163
34,start > OSP-2373_email_clk_2021-12-15_2021-12-21 > null,1344.8793641412,84.0,0.0,256,256
35,start > OSP-2373_rw_app_imp_2021-12-15_2021-12-21 > OSP-2373_rw_app_clk_2021-12-15_2021-12-21 > null,64324.433672918,2072.0,0.0,13105,13105
36,start > OSP-2373_rw_app_imp_2021-12-15_2021-12-21 > OSP-2373_email_open_2021-12-22_2021-12-26 > OSP-2373_email_open_2021-12-22_2021-12-26 > null,-28.32595490493,50.0,0.0,166,166
37,start > OSP-2373_rw_app_clk_2021-12-22_2021-12-26 > OSP-2373_email_open_2021-12-22_2021-12-26 > OSP-2373_email_open_2021-12-15_2021-12-21 > null,3095.0498303775,184.0,0.0,406,406
38,start > OSP-2373_rw_app_imp_2021-12-22_2021-12-26 > OSP-2373_rw_app_imp_2021-12-15_2021-12-21 > OSP-2373_rw_app_clk_2021-12-22_2021-12-26 > OSP-2373_email_open_2021-12-15_2021-12-21 > null,1626.8209941318,56.0,0.0,114,114
39,start > OSP-2373_email_open_2021-12-22_2021-12-26 > OSP-2373_email_open_2021-12-22_2021-12-26 > OSP-2373_email_clk_2021-12-22_2021-12-26 > null,10153.86701996,642.0,0.0,1393,1393
40,start > _AlwaysOn_sem_shopping_clk_2021-12-15_2021-12-21 > _AlwaysOn_sem_shopping_clk_2021-12-15_2021-12-21 > null,-9.1836999251917,6.0,0.0,708,708
41,start > _AlwaysOn_wow_web_view_2021-12-15_2021-12-21 > OSP-2373_rw_app_imp_2021-12-22_2021-12-26 > OSP-2373_rw_app_imp_2021-12-15_2021-12-21 > OSP-2373_rw_app_clk_2021-12-22_2021-12-26 > OSP-2373_email_open_2021-12-22_2021-12-26 > null,2823.0701367522,88.0,0.0,349,349
42,start > FB_Impression_WebFeed > OSP-2373_email_open_2021-12-22_2021-12-26 > null,-383.45336231019,28.0,0.0,321,321
43,start > OSP-2373_rw_app_imp_2021-12-15_2021-12-21 > OSP-2373_email_open_2021-12-15_2021-12-21 > null,1119.7551530647,35.0,0.0,254,254
44,start > OSP-2373_rw_app_imp_2021-12-22_2021-12-26 > OSP-2373_rw_app_imp_2021-12-15_2021-12-21 > OSP-2373_email_open_2021-12-22_2021-12-26 > null,15986.626798483,1110.0,0.0,6152,6152
45,start > OSP-2373_rw_app_imp_2021-12-22_2021-12-26 > OSP-2373_rw_app_clk_2021-12-22_2021-12-26 > OSP-2373_email_open_2021-12-22_2021-12-26 > OSP-2373_email_clk_2021-12-22_2021-12-26 > null,24460.735550213,1790.0,0.0,4411,4411
46,start > OSP-2373_rw_app_imp_2021-12-22_2021-12-26 > OSP-2373_rw_app_imp_2021-12-15_2021-12-21 > OSP-2373_email_open_2021-12-22_2021-12-26 > OSP-2373_email_open_2021-12-15_2021-12-21 > OSP-2373_email_clk_2021-12-22_2021-12-26 > null,1052.2174050807,63.0,0.0,108,108
47,start > _AlwaysOn_wow_web_clk_2021-12-15_2021-12-21 > OSP-2373_rw_app_imp_2021-12-22_2021-12-26 > OSP-2373_rw_app_clk_2021-12-22_2021-12-26 > OSP-2373_email_open_2021-12-22_2021-12-26 > null,2689.7679518416,66.0,0.0,332,332
48,start > OSP-2373_rw_app_imp_2021-12-15_2021-12-21 > OSP-2373_rw_app_imp_2021-12-15_2021-12-21 > OSP-2373_rw_app_clk_2021-12-22_2021-12-26 > null,5802.6614414438,811.0,0.0,1225,1225
49,start > FB_Impression_Instagram > _AlwaysOn_wow_web_view_2021-12-15_2021-12-21 > null,132.892727272,1.0,0.0,159,159
50,start > FB_Impression_MobileFeed > OSP-2373_email_open_2021-12-22_2021-12-26 > null,7757.826568348,794.0,0.0,14593,14593
51,start > OSP-2373_email_open_2021-12-22_2021-12-26 > OSP-2373_email_open_2021-12-15_2021-12-21 > OSP-2373_email_clk_2021-12-22_2021-12-26 > OSP-2373_email_clk_2021-12-15_2021-12-21 > null,208.89919658566,189.0,0.0,532,532
52,start > OSP-2373_email_open_2021-12-22_2021-12-26 > OSP-2373_email_clk_2021-12-22_2021-12-26 > null,555162.98546482,40159.0,0.0,126465,126465
53,start > _AlwaysOn_wow_web_view_2021-12-15_2021-12-21 > _AlwaysOn_sem_shopping_clk_2021-12-15_2021-12-21 > null,445.9790327944,31.0,0.0,4579,4579
54,start > FB_Impression_MobileFeed > OSP-2373_rw_app_imp_2021-12-22_2021-12-26 > OSP-2373_rw_app_clk_2021-12-22_2021-12-26 > null,1859.4188015223,91.0,0.0,294,294
55,start > FB_Impression_MobileFeed > OSP-2373_email_open_2021-12-22_2021-12-26 > OSP-2373_email_open_2021-12-15_2021-12-21 > null,153.34546729812,24.0,0.0,357,357
56,start > _AlwaysOn_wow_web_view_2021-12-15_2021-12-21 > OSP-2373_rw_app_imp_2021-12-22_2021-12-26 > OSP-2373_rw_app_imp_2021-12-15_2021-12-21 > OSP-2373_email_open_2021-12-22_2021-12-26 > null,1176.6342421415,32.0,0.0,306,306
57,start > _AlwaysOn_wow_web_view_2021-12-22_2021-12-26 > _AlwaysOn_wow_web_clk_2021-12-22_2021-12-26 > null,23825.964836485,349.0,0.0,1842,1842
58,start > _AlwaysOn_sem_shopping_clk_2021-12-15_2021-12-21 > OSP-2373_email_open_2021-12-22_2021-12-26 > null,2419.5196910376,33.0,0.0,1220,1220
59,start > _AlwaysOn_wow_web_view_2021-12-22_2021-12-26 > OSP-2373_rw_app_imp_2021-12-22_2021-12-26 > OSP-2373_rw_app_clk_2021-12-22_2021-12-26 > null,8852.862798605,251.0,0.0,432,432
60,start > _AlwaysOn_wow_web_clk_2021-12-15_2021-12-21 > OSP-2373_rw_app_imp_2021-12-15_2021-12-21 > null,188.51085207794,33.0,0.0,447,447
61,start > _AlwaysOn_wow_web_clk_2021-12-15_2021-12-21 > OSP-2373_rw_app_imp_2021-12-22_2021-12-26 > OSP-2373_rw_app_clk_2021-12-22_2021-12-26 > null,7056.5438931648,116.0,0.0,627,627
62,start > _AlwaysOn_wow_web_view_2021-12-15_2021-12-21 > OSP-2373_rw_app_imp_2021-12-15_2021-12-21 > null,4136.5769333059,65.0,0.0,1468,1468
63,start > OSP-2373_rw_app_imp_2021-12-15_2021-12-21 > OSP-2373_rw_app_clk_2021-12-22_2021-12-26 > OSP-2373_email_open_2021-12-22_2021-12-26 > OSP-2373_email_open_2021-12-22_2021-12-26 > OSP-2373_email_clk_2021-12-22_2021-12-26 > null,841.27060395622,53.0,0.0,126,126
64,start > _AlwaysOn_wow_web_view_2021-12-15_2021-12-21 > _AlwaysOn_wow_web_clk_2021-12-22_2021-12-26 > OSP-2373_email_open_2021-12-22_2021-12-26 > null,2323.0316338861,37.0,0.0,119,119
65,start > OSP-2373_rw_app_imp_2021-12-22_2021-12-26 > OSP-2373_email_open_2021-12-22_2021-12-26 > OSP-2373_email_open_2021-12-15_2021-12-21 > OSP-2373_email_clk_2021-12-22_2021-12-26 > null,2396.9932964652,70.0,0.0,173,173
66,start > OSP-2373_rw_app_imp_2021-12-15_2021-12-21 > OSP-2373_rw_app_clk_2021-12-22_2021-12-26 > OSP-2373_rw_app_clk_2021-12-15_2021-12-21 > OSP-2373_email_open_2021-12-22_2021-12-26 > null,15799.696422863,607.0,0.0,1855,1855
67,start > FB_Impression_MobileFeed > FB_Click_MobileFeed > FB_Impression_MobileFeed > OSP-2373_email_open_2021-12-22_2021-12-26 > null,30.826236048721,43.0,0.0,376,376
68,start > _AlwaysOn_wow_web_clk_2021-12-15_2021-12-21 > OSP-2373_rw_app_imp_2021-12-22_2021-12-26 > OSP-2373_rw_app_imp_2021-12-15_2021-12-21 > OSP-2373_rw_app_clk_2021-12-22_2021-12-26 > OSP-2373_rw_app_clk_2021-12-15_2021-12-21 > null,1842.6498664531,24.0,0.0,111,111
69,start > _AlwaysOn_wow_web_view_2021-12-22_2021-12-26 > _AlwaysOn_wow_web_view_2021-12-15_2021-12-21 > _AlwaysOn_wow_web_clk_2021-12-22_2021-12-26 > null,4063.0768999392,52.0,0.0,331,331
70,start > OSP-2373_rw_app_imp_2021-12-22_2021-12-26 > OSP-2373_rw_app_clk_2021-12-22_2021-12-26 > OSP-2373_email_open_2021-12-22_2021-12-26 > OSP-2373_email_open_2021-12-15_2021-12-21 > null,1915.8835746379,80.0,0.0,219,219
71,start > _AlwaysOn_wow_web_clk_2021-12-15_2021-12-21 > OSP-2373_rw_app_imp_2021-12-22_2021-12-26 > OSP-2373_rw_app_imp_2021-12-15_2021-12-21 > OSP-2373_rw_app_clk_2021-12-22_2021-12-26 > OSP-2373_email_open_2021-12-22_2021-12-26 > null,1384.8419575027,75.0,0.0,342,342
72,start > _AlwaysOn_sem_shopping_clk_2021-12-15_2021-12-21 > OSP-2373_rw_app_imp_2021-12-15_2021-12-21 > null,33.22323494031,4.0,0.0,181,181
73,start > _AlwaysOn_wow_web_view_2021-12-15_2021-12-21 > OSP-2373_rw_app_imp_2021-12-22_2021-12-26 > OSP-2373_email_open_2021-12-22_2021-12-26 > null,902.96829668799,42.0,0.0,749,749
74,start > OSP-2373_email_open_2021-12-15_2021-12-21 > null,7119.5317391454,1138.0,0.0,15267,15267
75,start > _AlwaysOn_sem_shopping_clk_2021-12-15_2021-12-21 > OSP-2373_rw_app_imp_2021-12-22_2021-12-26 > null,-159.45580496518,11.0,0.0,386,386
76,start > _AlwaysOn_wow_web_clk_2021-12-22_2021-12-26 > OSP-2373_rw_app_imp_2021-12-22_2021-12-26 > OSP-2373_rw_app_clk_2021-12-22_2021-12-26 > null,6005.3894660367,171.0,0.0,220,220
77,start > OSP-2373_rw_app_imp_2021-12-22_2021-12-26 > OSP-2373_rw_app_imp_2021-12-15_2021-12-21 > OSP-2373_rw_app_clk_2021-12-15_2021-12-21 > OSP-2373_email_open_2021-12-22_2021-12-26 > null,3630.8065409774,113.0,0.0,651,651
78,start > OSP-2373_rw_app_imp_2021-12-15_2021-12-21 > OSP-2373_rw_app_clk_2021-12-15_2021-12-21 > OSP-2373_email_open_2021-12-22_2021-12-26 > null,19004.980459887,535.0,0.0,3459,3459
79,start > OSP-2373_rw_app_imp_2021-12-15_2021-12-21 > OSP-2373_email_open_2021-12-22_2021-12-26 > OSP-2373_email_clk_2021-12-22_2021-12-26 > null,77946.040764743,5343.0,0.0,11078,11078
80,start > _AlwaysOn_wow_web_view_2021-12-15_2021-12-21 > _AlwaysOn_wow_web_clk_2021-12-15_2021-12-21 > _AlwaysOn_sem_shopping_clk_2021-12-15_2021-12-21 > OSP-2373_email_open_2021-12-22_2021-12-26 > null,109.40104727865,2.0,0.0,106,106
81,start > OSP-2373_rw_app_imp_2021-12-22_2021-12-26 > OSP-2373_rw_app_imp_2021-12-15_2021-12-21 > OSP-2373_email_open_2021-12-22_2021-12-26 > OSP-2373_email_clk_2021-12-22_2021-12-26 > null,44383.967250172,2486.0,0.0,5281,5281
82,start > _AlwaysOn_sem_shopping_clk_2021-12-15_2021-12-21 > OSP-2373_rw_app_imp_2021-12-22_2021-12-26 > OSP-2373_email_open_2021-12-22_2021-12-26 > null,163.12068853383,9.0,0.0,103,103
83,start > _AlwaysOn_wow_web_view_2021-12-22_2021-12-26 > OSP-2373_rw_app_imp_2021-12-22_2021-12-26 > null,1415.8283075376,83.0,0.0,488,488
84,start > _AlwaysOn_wow_web_view_2021-12-15_2021-12-21 > OSP-2373_rw_app_imp_2021-12-22_2021-12-26 > OSP-2373_rw_app_clk_2021-12-22_2021-12-26 > null,10361.834712238,233.0,0.0,1452,1452
85,start > _AlwaysOn_wow_web_view_2021-12-15_2021-12-21 > _AlwaysOn_sem_brand_clk_2021-12-15_2021-12-21 > OSP-2373_email_open_2021-12-22_2021-12-26 > null,133.57071181113,2.0,0.0,119,119
86,start > _AlwaysOn_wow_web_view_2021-12-22_2021-12-26 > _AlwaysOn_sem_shopping_clk_2021-12-22_2021-12-26 > null,-617.18443526309,46.0,0.0,540,540
87,start > _AlwaysOn_sem_shopping_clk_2021-12-15_2021-12-21 > null,3538.1520073947,74.0,0.0,7743,7743
88,start > _AlwaysOn_wow_web_view_2021-12-15_2021-12-21 > null,56849.851292743,881.0,0.0,101182,101182
89,start > OSP-2373_rw_app_imp_2021-12-15_2021-12-21 > OSP-2373_rw_app_clk_2021-12-22_2021-12-26 > OSP-2373_email_open_2021-12-15_2021-12-21 > null,3518.164432223,73.0,0.0,137,137
90,start > _AlwaysOn_wow_web_clk_2021-12-15_2021-12-21 > OSP-2373_email_open_2021-12-22_2021-12-26 > OSP-2373_email_open_2021-12-15_2021-12-21 > null,411.43410019436,9.0,0.0,158,158
91,start > _AlwaysOn_wow_web_view_2021-12-22_2021-12-26 > _AlwaysOn_wow_web_view_2021-12-15_2021-12-21 > _AlwaysOn_wow_web_clk_2021-12-15_2021-12-21 > null,1223.0417676967,15.0,0.0,440,440
92,start > OSP-2373_rw_app_imp_2021-12-15_2021-12-21 > null,51512.518480104,7361.0,0.0,72830,72830
93,start > OSP-2373_rw_app_imp_2021-12-22_2021-12-26 > OSP-2373_rw_app_imp_2021-12-15_2021-12-21 > null,28604.228427126,2819.0,0.0,24264,24264
94,start > _AlwaysOn_wow_web_view_2021-12-15_2021-12-21 > OSP-2373_rw_app_imp_2021-12-22_2021-12-26 > OSP-2373_rw_app_clk_2021-12-22_2021-12-26 > OSP-2373_email_open_2021-12-22_2021-12-26 > null,1599.2137807867,93.0,0.0,501,501
95,start > OSP-2373_rw_app_imp_2021-12-22_2021-12-26 > OSP-2373_email_open_2021-12-22_2021-12-26 > OSP-2373_email_clk_2021-12-22_2021-12-26 > null,40549.099872992,2918.0,0.0,8232,8232
96,start > _AlwaysOn_wow_web_view_2021-12-15_2021-12-21 > OSP-2373_rw_app_imp_2021-12-22_2021-12-26 > OSP-2373_rw_app_imp_2021-12-15_2021-12-21 > OSP-2373_rw_app_clk_2021-12-22_2021-12-26 > null,8065.3141432038,183.0,0.0,821,821
97,start > FB_Impression_MobileFeed > _AlwaysOn_wow_web_view_2021-12-15_2021-12-21 > null,916.34376271418,18.0,0.0,2399,2399
98,start > FB_Impression_MobileFeed > OSP-2373_email_open_2021-12-22_2021-12-26 > OSP-2373_email_clk_2021-12-22_2021-12-26 > null,21928.077993766,902.0,0.0,3022,3022
99,start > FB_Impression_MobileFeed > _AlwaysOn_wow_web_view_2021-12-22_2021-12-26 > null,312.90006368202,26.0,0.0,452,452
100,start > FB_Impression_MobileFeed > FB_Impression_Instagram > FB_Impression_MobileFeed > OSP-2373_email_open_2021-12-22_2021-12-26 > null,820.72062061238,11.0,0.0,265,265
101,start > OSP-2373_rw_app_imp_2021-12-22_2021-12-26 > OSP-2373_rw_app_imp_2021-12-22_2021-12-26 > OSP-2373_rw_app_imp_2021-12-15_2021-12-21 > OSP-2373_rw_app_clk_2021-12-22_2021-12-26 > null,11038.931678536,294.0,0.0,861,861
102,start > _AlwaysOn_wow_web_clk_2021-12-22_2021-12-26 > OSP-2373_rw_app_imp_2021-12-22_2021-12-26 > OSP-2373_rw_app_imp_2021-12-15_2021-12-21 > OSP-2373_rw_app_clk_2021-12-22_2021-12-26 > null,2246.6440810827,95.0,0.0,108,108
103,start > _AlwaysOn_wow_web_clk_2021-12-15_2021-12-21 > OSP-2373_email_open_2021-12-22_2021-12-26 > OSP-2373_email_clk_2021-12-22_2021-12-26 > null,27234.930392802,659.0,0.0,3891,3891
104,start > OSP-2373_rw_app_imp_2021-12-22_2021-12-26 > OSP-2373_rw_app_imp_2021-12-22_2021-12-26 > OSP-2373_rw_app_clk_2021-12-22_2021-12-26 > null,4247.7401826395,113.0,0.0,259,259
105,start > OSP-2373_rw_app_imp_2021-12-15_2021-12-21 > OSP-2373_rw_app_imp_2021-12-15_2021-12-21 > OSP-2373_rw_app_clk_2021-12-22_2021-12-26 > OSP-2373_rw_app_clk_2021-12-15_2021-12-21 > null,7486.0942777552,98.0,0.0,198,198
106,start > _AlwaysOn_wow_web_clk_2021-12-15_2021-12-21 > OSP-2373_rw_app_imp_2021-12-22_2021-12-26 > OSP-2373_rw_app_imp_2021-12-15_2021-12-21 > null,1435.4707076901,36.0,0.0,347,347
107,start > _AlwaysOn_wow_web_view_2021-12-15_2021-12-21 > _AlwaysOn_wow_web_clk_2021-12-15_2021-12-21 > OSP-2373_rw_app_imp_2021-12-22_2021-12-26 > OSP-2373_rw_app_imp_2021-12-15_2021-12-21 > null,1627.403543734,15.0,0.0,221,221
108,start > OSP-2373_rw_app_imp_2021-12-15_2021-12-21 > OSP-2373_rw_app_clk_2021-12-15_2021-12-21 > OSP-2373_email_open_2021-12-22_2021-12-26 > OSP-2373_email_clk_2021-12-22_2021-12-26 > null,11271.168015434,302.0,0.0,1096,1096
109,start > _AlwaysOn_wow_web_clk_2021-12-15_2021-12-21 > OSP-2373_rw_app_imp_2021-12-22_2021-12-26 > OSP-2373_rw_app_clk_2021-12-22_2021-12-26 > OSP-2373_email_open_2021-12-22_2021-12-26 > OSP-2373_email_clk_2021-12-22_2021-12-26 > null,1632.4050491735,69.0,0.0,257,257
110,start > FB_Impression_MobileFeed > OSP-2373_rw_app_imp_2021-12-15_2021-12-21 > null,-99.718695694232,16.0,0.0,284,284
111,start > _AlwaysOn_wow_web_view_2021-12-15_2021-12-21 > OSP-2373_rw_app_imp_2021-12-22_2021-12-26 > OSP-2373_rw_app_imp_2021-12-15_2021-12-21 > null,1619.6584088426,35.0,0.0,618,618
112,start > _AlwaysOn_wow_web_clk_2021-12-15_2021-12-21 > OSP-2373_rw_app_imp_2021-12-15_2021-12-21 > OSP-2373_email_open_2021-12-22_2021-12-26 > null,614.30102606525,18.0,0.0,256,256
113,start > _AlwaysOn_wow_web_clk_2021-12-15_2021-12-21 > _AlwaysOn_sem_shopping_clk_2021-12-15_2021-12-21 > OSP-2373_email_open_2021-12-22_2021-12-26 > OSP-2373_email_clk_2021-12-22_2021-12-26 > null,-163.23455596831,24.0,0.0,113,113
114,start > _AlwaysOn_wow_web_view_2021-12-15_2021-12-21 > _AlwaysOn_sem_shopping_clk_2021-12-15_2021-12-21 > OSP-2373_email_open_2021-12-22_2021-12-26 > null,435.76330339438,12.0,0.0,572,572
115,start > _AlwaysOn_wow_web_view_2021-12-22_2021-12-26 > _AlwaysOn_wow_web_view_2021-12-15_2021-12-21 > OSP-2373_email_open_2021-12-22_2021-12-26 > null,1391.1639552899,20.0,0.0,474,474
116,start > _AlwaysOn_wow_web_view_2021-12-15_2021-12-21 > _AlwaysOn_sem_shopping_clk_2021-12-15_2021-12-21 > OSP-2373_rw_app_imp_2021-12-15_2021-12-21 > null,276.88012962581,2.0,0.0,112,112
117,start > OSP-2373_rw_app_imp_2021-12-15_2021-12-21 > OSP-2373_rw_app_clk_2021-12-22_2021-12-26 > OSP-2373_email_open_2021-12-22_2021-12-26 > null,85390.853931895,7795.0,0.0,13035,13035
118,start > FB_Impression_MobileFeed > null,12105.739958854,1011.0,0.0,113996,113996
119,start > _AlwaysOn_wow_web_view_2021-12-22_2021-12-26 > _AlwaysOn_wow_web_view_2021-12-15_2021-12-21 > _AlwaysOn_wow_web_clk_2021-12-15_2021-12-21 > OSP-2373_email_open_2021-12-22_2021-12-26 > null,215.81660683828,7.0,0.0,108,108
120,start > _AlwaysOn_wow_web_view_2021-12-22_2021-12-26 > _AlwaysOn_wow_web_view_2021-12-15_2021-12-21 > _AlwaysOn_wow_web_clk_2021-12-22_2021-12-26 > _AlwaysOn_wow_web_clk_2021-12-15_2021-12-21 > null,2535.8628535633,28.0,0.0,126,126
121,start > OSP-2373_rw_app_imp_2021-12-22_2021-12-26 > OSP-2373_rw_app_imp_2021-12-15_2021-12-21 > OSP-2373_rw_app_clk_2021-12-22_2021-12-26 > null,249418.29411495,16067.0,0.0,33578,33578
122,start > FB_Impression_Instagram > OSP-2373_email_open_2021-12-22_2021-12-26 > null,518.23773402143,45.0,0.0,1086,1086
123,start > FB_Impression_MobileFeed > OSP-2373_rw_app_imp_2021-12-22_2021-12-26 > OSP-2373_rw_app_imp_2021-12-15_2021-12-21 > OSP-2373_rw_app_clk_2021-12-22_2021-12-26 > null,1032.5074717863,78.0,0.0,158,158
124,start > _AlwaysOn_wow_web_view_2021-12-15_2021-12-21 > OSP-2373_email_open_2021-12-15_2021-12-21 > null,1314.2517499371,3.0,0.0,174,174
125,start > OSP-2373_rw_app_imp_2021-12-22_2021-12-26 > OSP-2373_rw_app_imp_2021-12-15_2021-12-21 > OSP-2373_rw_app_clk_2021-12-15_2021-12-21 > null,11775.461241742,450.0,0.0,2595,2595
126,start > OSP-2373_rw_app_imp_2021-12-22_2021-12-26 > OSP-2373_rw_app_clk_2021-12-22_2021-12-26 > null,386953.11130678,17780.0,0.0,60270,60270
127,start > FB_Impression_MobileFeed > FB_Impression_Instagram > OSP-2373_email_open_2021-12-22_2021-12-26 > null,95.863989133272,12.0,0.0,201,201
128,start > _AlwaysOn_sem_shopping_clk_2021-12-22_2021-12-26 > OSP-2373_email_open_2021-12-22_2021-12-26 > null,105.41438728812,31.0,0.0,124,124
129,start > FB_Impression_MobileFeed > OSP-2373_rw_app_imp_2021-12-22_2021-12-26 > OSP-2373_rw_app_imp_2021-12-15_2021-12-21 > null,-282.25255316302,16.0,0.0,206,206
130,start > OSP-2373_rw_app_imp_2021-12-15_2021-12-21 > OSP-2373_rw_app_clk_2021-12-22_2021-12-26 > OSP-2373_email_open_2021-12-22_2021-12-26 > OSP-2373_email_open_2021-12-15_2021-12-21 > null,-170.9712608042,213.0,0.0,335,335
131,start > OSP-2373_rw_app_imp_2021-12-22_2021-12-26 > OSP-2373_email_open_2021-12-15_2021-12-21 > null,-136.23487767016,18.0,0.0,207,207
132,start > OSP-2373_rw_app_imp_2021-12-22_2021-12-26 > OSP-2373_rw_app_imp_2021-12-22_2021-12-26 > OSP-2373_rw_app_imp_2021-12-15_2021-12-21 > OSP-2373_rw_app_clk_2021-12-22_2021-12-26 > OSP-2373_email_open_2021-12-22_2021-12-26 > null,1280.5909885065,138.0,0.0,391,391
133,start > _AlwaysOn_wow_web_view_2021-12-15_2021-12-21 > _AlwaysOn_wow_web_clk_2021-12-15_2021-12-21 > OSP-2373_rw_app_imp_2021-12-22_2021-12-26 > OSP-2373_rw_app_imp_2021-12-15_2021-12-21 > OSP-2373_email_open_2021-12-22_2021-12-26 > null,308.88603108568,11.0,0.0,127,127
134,start > OSP-2373_rw_app_imp_2021-12-15_2021-12-21 > OSP-2373_email_open_2021-12-22_2021-12-26 > null,27111.556226396,2955.0,0.0,17389,17389
135,start > _AlwaysOn_wow_web_view_2021-12-15_2021-12-21 > _AlwaysOn_wow_web_clk_2021-12-15_2021-12-21 > OSP-2373_rw_app_imp_2021-12-22_2021-12-26 > OSP-2373_rw_app_clk_2021-12-22_2021-12-26 > null,6720.3175003127,86.0,0.0,387,387
136,start > _AlwaysOn_wow_web_view_2021-12-15_2021-12-21 > _AlwaysOn_wow_web_clk_2021-12-22_2021-12-26 > _AlwaysOn_wow_web_clk_2021-12-15_2021-12-21 > null,6113.4360619684,67.0,0.0,234,234
137,start > _AlwaysOn_wow_web_view_2021-12-22_2021-12-26 > OSP-2373_email_open_2021-12-22_2021-12-26 > OSP-2373_email_clk_2021-12-22_2021-12-26 > null,-1231.5530718905,371.0,0.0,793,793
138,start > _AlwaysOn_sem_brand_clk_2021-12-15_2021-12-21 > OSP-2373_email_open_2021-12-22_2021-12-26 > OSP-2373_email_clk_2021-12-22_2021-12-26 > null,723.4882720251,30.0,0.0,208,208
139,start > OSP-2373_email_open_2021-12-22_2021-12-26 > OSP-2373_email_open_2021-12-15_2021-12-21 > OSP-2373_email_clk_2021-12-22_2021-12-26 > null,9514.7302391984,1162.0,0.0,3231,3231
140,start > _AlwaysOn_wow_web_view_2021-12-15_2021-12-21 > OSP-2373_rw_app_imp_2021-12-15_2021-12-21 > OSP-2373_rw_app_clk_2021-12-15_2021-12-21 > null,1052.2930273097,48.0,0.0,412,412
141,start > OSP-2373_rw_app_imp_2021-12-22_2021-12-26 > OSP-2373_rw_app_imp_2021-12-15_2021-12-21 > OSP-2373_rw_app_clk_2021-12-22_2021-12-26 > OSP-2373_email_open_2021-12-22_2021-12-26 > OSP-2373_email_clk_2021-12-22_2021-12-26 > null,19802.639610815,1442.0,0.0,2485,2485
142,start > _AlwaysOn_wow_web_view_2021-12-15_2021-12-21 > _AlwaysOn_wow_web_clk_2021-12-15_2021-12-21 > OSP-2373_rw_app_imp_2021-12-22_2021-12-26 > OSP-2373_email_open_2021-12-22_2021-12-26 > OSP-2373_email_clk_2021-12-22_2021-12-26 > null,162.53684207462,21.0,0.0,148,148
143,start > _AlwaysOn_wow_web_clk_2021-12-15_2021-12-21 > null,33529.330130177,434.0,0.0,13425,13425
144,start > _AlwaysOn_wow_web_clk_2021-12-22_2021-12-26 > OSP-2373_email_open_2021-12-22_2021-12-26 > OSP-2373_email_clk_2021-12-22_2021-12-26 > null,3547.7149386863,196.0,0.0,281,281
145,start > _AlwaysOn_wow_web_view_2021-12-22_2021-12-26 > OSP-2373_rw_app_imp_2021-12-22_2021-12-26 > OSP-2373_rw_app_clk_2021-12-22_2021-12-26 > OSP-2373_email_open_2021-12-22_2021-12-26 > null,2675.2766317275,67.0,0.0,110,110
146,start > FB_Impression_MobileFeed > _AlwaysOn_wow_web_view_2021-12-15_2021-12-21 > OSP-2373_email_open_2021-12-22_2021-12-26 > OSP-2373_email_clk_2021-12-22_2021-12-26 > null,1142.5232209781,36.0,0.0,198,198
147,start > OSP-2373_rw_app_imp_2021-12-22_2021-12-26 > OSP-2373_rw_app_clk_2021-12-22_2021-12-26 > OSP-2373_email_open_2021-12-22_2021-12-26 > null,82084.020657862,4725.0,0.0,13515,13515
148,start > OSP-2373_rw_app_imp_2021-12-22_2021-12-26 > OSP-2373_rw_app_imp_2021-12-15_2021-12-21 > OSP-2373_rw_app_clk_2021-12-22_2021-12-26 > OSP-2373_rw_app_clk_2021-12-15_2021-12-21 > null,42673.622597184,1062.0,0.0,3517,3517
149,start > OSP-2373_email_open_2021-12-15_2021-12-21 > OSP-2373_email_clk_2021-12-22_2021-12-26 > null,23457.192295993,1288.0,0.0,2830,2830
150,start > OSP-2373_rw_app_imp_2021-12-15_2021-12-21 > OSP-2373_rw_app_imp_2021-12-15_2021-12-21 > OSP-2373_email_open_2021-12-22_2021-12-26 > OSP-2373_email_clk_2021-12-22_2021-12-26 > null,4595.2867420995,210.0,0.0,340,340
151,start > _AlwaysOn_sem_shopping_clk_2021-12-15_2021-12-21 > OSP-2373_rw_app_imp_2021-12-22_2021-12-26 > OSP-2373_rw_app_imp_2021-12-15_2021-12-21 > null,109.56906873317,5.0,0.0,164,164
152,start > _AlwaysOn_wow_web_view_2021-12-15_2021-12-21 > _AlwaysOn_wow_web_clk_2021-12-15_2021-12-21 > _AlwaysOn_sem_shopping_clk_2021-12-15_2021-12-21 > null,861.88547760319,12.0,0.0,564,564
153,start > OSP-2373_rw_app_imp_2021-12-22_2021-12-26 > OSP-2373_email_open_2021-12-22_2021-12-26 > OSP-2373_email_open_2021-12-15_2021-12-21 > null,-1039.2175959039,49.0,0.0,329,329
154,start > OSP-2373_rw_app_clk_2021-12-22_2021-12-26 > OSP-2373_email_open_2021-12-15_2021-12-21 > null,-622.82904553242,75.0,0.0,187,187
155,start > _AlwaysOn_wow_web_clk_2021-12-22_2021-12-26 > OSP-2373_rw_app_imp_2021-12-22_2021-12-26 > null,7212.8187677126,73.0,0.0,120,120
156,start > _AlwaysOn_wow_web_clk_2021-12-15_2021-12-21 > OSP-2373_rw_app_imp_2021-12-22_2021-12-26 > OSP-2373_email_open_2021-12-22_2021-12-26 > OSP-2373_email_clk_2021-12-22_2021-12-26 > null,2252.5416255535,82.0,0.0,437,437
157,start > _AlwaysOn_wow_web_view_2021-12-15_2021-12-21 > _AlwaysOn_wow_web_clk_2021-12-15_2021-12-21 > OSP-2373_rw_app_imp_2021-12-15_2021-12-21 > OSP-2373_email_open_2021-12-22_2021-12-26 > null,1051.3455272859,14.0,0.0,216,216
158,start > _AlwaysOn_wow_web_clk_2021-12-15_2021-12-21 > OSP-2373_rw_app_imp_2021-12-22_2021-12-26 > null,2193.383793584,28.0,0.0,656,656
159,start > _AlwaysOn_wow_web_view_2021-12-15_2021-12-21 > OSP-2373_email_open_2021-12-22_2021-12-26 > null,13515.611603726,390.0,0.0,14931,14931
160,start > OSP-2373_rw_app_imp_2021-12-15_2021-12-21 > OSP-2373_email_open_2021-12-22_2021-12-26 > OSP-2373_email_open_2021-12-22_2021-12-26 > OSP-2373_email_clk_2021-12-22_2021-12-26 > null,2385.2422224523,192.0,0.0,397,397
161,start > OSP-2373_rw_app_clk_2021-12-15_2021-12-21 > OSP-2373_email_open_2021-12-22_2021-12-26 > OSP-2373_email_clk_2021-12-22_2021-12-26 > null,11174.659409416,337.0,0.0,1112,1112
162,start > _AlwaysOn_wow_web_view_2021-12-15_2021-12-21 > _AlwaysOn_wow_web_view_2021-12-15_2021-12-21 > _AlwaysOn_wow_web_clk_2021-12-15_2021-12-21 > OSP-2373_email_open_2021-12-22_2021-12-26 > null,1278.5651898138,12.0,0.0,130,130
163,start > _AlwaysOn_wow_web_clk_2021-12-15_2021-12-21 > OSP-2373_rw_app_imp_2021-12-15_2021-12-21 > OSP-2373_email_open_2021-12-22_2021-12-26 > OSP-2373_email_clk_2021-12-22_2021-12-26 > null,1209.1331779735,52.0,0.0,270,270
164,start > OSP-2373_rw_app_imp_2021-12-15_2021-12-21 > OSP-2373_rw_app_clk_2021-12-22_2021-12-26 > OSP-2373_email_open_2021-12-22_2021-12-26 > OSP-2373_email_open_2021-12-15_2021-12-21 > OSP-2373_email_clk_2021-12-22_2021-12-26 > null,227.85600438008,79.0,0.0,115,115
165,start > OSP-2373_rw_app_clk_2021-12-15_2021-12-21 > OSP-2373_email_open_2021-12-22_2021-12-26 > null,7994.1510604705,578.0,0.0,3340,3340
166,start > OSP-2373_email_open_2021-12-15_2021-12-21 > OSP-2373_email_clk_2021-12-22_2021-12-26 > OSP-2373_email_clk_2021-12-15_2021-12-21 > null,3666.4490057657,285.0,0.0,543,543
167,start > FB_Impression_MobileFeed > OSP-2373_rw_app_imp_2021-12-22_2021-12-26 > OSP-2373_email_open_2021-12-22_2021-12-26 > null,322.3005551212,29.0,0.0,207,207
168,start > _AlwaysOn_wow_web_clk_2021-12-22_2021-12-26 > OSP-2373_email_open_2021-12-22_2021-12-26 > null,12866.357458647,223.0,0.0,481,481
169,start > OSP-2373_rw_app_clk_2021-12-15_2021-12-21 > OSP-2373_email_open_2021-12-22_2021-12-26 > OSP-2373_email_open_2021-12-15_2021-12-21 > null,596.49070784296,23.0,0.0,100,100
170,start > _AlwaysOn_wow_web_view_2021-12-15_2021-12-21 > _AlwaysOn_sem_brand_clk_2021-12-15_2021-12-21 > null,-553.00185633939,3.0,0.0,483,483
171,start > OSP-2373_email_open_2021-12-22_2021-12-26 > OSP-2373_email_open_2021-12-22_2021-12-26 > OSP-2373_email_open_2021-12-15_2021-12-21 > null,155.94973562758,24.0,0.0,101,101
172,start > _AlwaysOn_wow_web_view_2021-12-15_2021-12-21 > OSP-2373_rw_app_imp_2021-12-15_2021-12-21 > OSP-2373_email_open_2021-12-22_2021-12-26 > null,1508.2640154156,22.0,0.0,506,506
173,start > _AlwaysOn_wow_web_view_2021-12-15_2021-12-21 > _AlwaysOn_sem_shopping_clk_2021-12-15_2021-12-21 > OSP-2373_email_open_2021-12-22_2021-12-26 > OSP-2373_email_clk_2021-12-22_2021-12-26 > null,1459.9647881284,49.0,0.0,289,289
174,start > OSP-2373_rw_app_imp_2021-12-22_2021-12-26 > OSP-2373_rw_app_imp_2021-12-15_2021-12-21 > OSP-2373_rw_app_clk_2021-12-22_2021-12-26 > OSP-2373_email_open_2021-12-22_2021-12-26 > null,61383.376628222,5482.0,0.0,10502,10502
175,start > OSP-2373_rw_app_imp_2021-12-22_2021-12-26 > OSP-2373_rw_app_imp_2021-12-15_2021-12-21 > OSP-2373_rw_app_clk_2021-12-22_2021-12-26 > OSP-2373_rw_app_clk_2021-12-15_2021-12-21 > OSP-2373_email_open_2021-12-22_2021-12-26 > null,10559.032648817,266.0,0.0,829,829
176,start > FB_Impression_Instagram > OSP-2373_email_open_2021-12-22_2021-12-26 > OSP-2373_email_clk_2021-12-22_2021-12-26 > null,136.32609647235,56.0,0.0,159,159
177,start > _AlwaysOn_wow_web_clk_2021-12-15_2021-12-21 > _AlwaysOn_sem_shopping_clk_2021-12-15_2021-12-21 > OSP-2373_email_open_2021-12-22_2021-12-26 > null,18.808649117718,9.0,0.0,126,126
178,start > _AlwaysOn_sem_brand_clk_2021-12-15_2021-12-21 > OSP-2373_email_open_2021-12-22_2021-12-26 > null,-256.52347582272,6.0,0.0,168,168
179,start > FB_Impression_MobileFeed > _AlwaysOn_wow_web_view_2021-12-15_2021-12-21 > _AlwaysOn_sem_shopping_clk_2021-12-15_2021-12-21 > null,249.323636362,1.0,0.0,350,350
180,start > OSP-2373_rw_app_imp_2021-12-22_2021-12-26 > OSP-2373_rw_app_imp_2021-12-22_2021-12-26 > OSP-2373_rw_app_imp_2021-12-15_2021-12-21 > OSP-2373_email_open_2021-12-22_2021-12-26 > null,-379.66446379268,25.0,0.0,119,119
181,start > _AlwaysOn_wow_web_view_2021-12-22_2021-12-26 > _AlwaysOn_wow_web_clk_2021-12-22_2021-12-26 > OSP-2373_email_open_2021-12-22_2021-12-26 > OSP-2373_email_clk_2021-12-22_2021-12-26 > null,1437.5885757116,77.0,0.0,107,107
182,start > _AlwaysOn_wow_web_clk_2021-12-15_2021-12-21 > _AlwaysOn_sem_shopping_clk_2021-12-15_2021-12-21 > _AlwaysOn_sem_shopping_clk_2021-12-15_2021-12-21 > null,101.5426611641,2.0,0.0,122,122
183,start > _AlwaysOn_wow_web_clk_2021-12-22_2021-12-26 > null,33608.830599676,523.0,0.0,1611,1611
184,start > _AlwaysOn_wow_web_view_2021-12-15_2021-12-21 > _AlwaysOn_wow_web_view_2021-12-15_2021-12-21 > OSP-2373_email_open_2021-12-22_2021-12-26 > null,-235.67306784375,7.0,0.0,136,136
185,start > _AlwaysOn_wow_web_clk_2021-12-15_2021-12-21 > OSP-2373_email_open_2021-12-22_2021-12-26 > OSP-2373_email_open_2021-12-15_2021-12-21 > OSP-2373_email_clk_2021-12-22_2021-12-26 > null,1145.5804498054,20.0,0.0,121,121
186,start > OSP-2373_email_open_2021-12-22_2021-12-26 > OSP-2373_email_clk_2021-12-22_2021-12-26 > OSP-2373_email_clk_2021-12-22_2021-12-26 > null,2361.3612533458,97.0,0.0,175,175
188,start > _AlwaysOn_wow_web_view_2021-12-22_2021-12-26 > OSP-2373_email_open_2021-12-22_2021-12-26 > null,7303.9931718246,311.0,0.0,2069,2069
189,start > OSP-2373_rw_app_clk_2021-12-22_2021-12-26 > OSP-2373_email_open_2021-12-22_2021-12-26 > OSP-2373_email_open_2021-12-22_2021-12-26 > null,2303.8151039339,175.0,0.0,266,266
190,start > _AlwaysOn_wow_web_view_2021-12-15_2021-12-21 > _AlwaysOn_wow_web_clk_2021-12-15_2021-12-21 > OSP-2373_email_open_2021-12-22_2021-12-26 > OSP-2373_email_clk_2021-12-22_2021-12-26 > null,4174.6526295068,254.0,0.0,1557,1557
191,start > OSP-2373_email_open_2021-12-22_2021-12-26 > null,198678.32622216,31309.0,0.0,714027,714027
192,start > OSP-2373_email_open_2021-12-22_2021-12-26 > OSP-2373_email_open_2021-12-22_2021-12-26 > OSP-2373_email_open_2021-12-15_2021-12-21 > OSP-2373_email_clk_2021-12-22_2021-12-26 > null,606.38310913797,61.0,0.0,165,165
193,start > _AlwaysOn_wow_web_view_2021-12-15_2021-12-21 > _AlwaysOn_wow_web_view_2021-12-15_2021-12-21 > null,584.1504960625,6.0,0.0,382,382
194,start > OSP-2373_rw_app_imp_2021-12-22_2021-12-26 > OSP-2373_rw_app_imp_2021-12-15_2021-12-21 > OSP-2373_email_open_2021-12-22_2021-12-26 > OSP-2373_email_open_2021-12-15_2021-12-21 > null,809.00026638596,30.0,0.0,146,146
195,start > _AlwaysOn_wow_web_view_2021-12-15_2021-12-21 > _AlwaysOn_sem_shopping_clk_2021-12-22_2021-12-26 > null,473.99387917303,3.0,0.0,143,143
196,start > OSP-2373_rw_app_imp_2021-12-22_2021-12-26 > OSP-2373_rw_app_imp_2021-12-15_2021-12-21 > OSP-2373_rw_app_imp_2021-12-15_2021-12-21 > OSP-2373_rw_app_clk_2021-12-22_2021-12-26 > null,1724.2305631061,51.0,0.0,188,188
197,start > OSP-2373_rw_app_imp_2021-12-15_2021-12-21 > OSP-2373_rw_app_imp_2021-12-15_2021-12-21 > OSP-2373_rw_app_clk_2021-12-22_2021-12-26 > OSP-2373_email_open_2021-12-22_2021-12-26 > null,361.06151701563,368.0,0.0,585,585
198,start > _AlwaysOn_wow_web_clk_2021-12-15_2021-12-21 > OSP-2373_rw_app_imp_2021-12-15_2021-12-21 > OSP-2373_rw_app_clk_2021-12-15_2021-12-21 > null,712.17465222102,26.0,0.0,222,222
199,start > FB_Impression_MobileFeed > _AlwaysOn_wow_web_view_2021-12-15_2021-12-21 > OSP-2373_email_open_2021-12-22_2021-12-26 > null,132.07383245796,13.0,0.0,571,571
200,start > _AlwaysOn_wow_web_view_2021-12-22_2021-12-26 > _AlwaysOn_wow_web_clk_2021-12-22_2021-12-26 > OSP-2373_email_open_2021-12-22_2021-12-26 > null,7448.2600266044,117.0,0.0,314,314
201,start > _AlwaysOn_wow_web_view_2021-12-15_2021-12-21 > OSP-2373_rw_app_imp_2021-12-22_2021-12-26 > OSP-2373_rw_app_imp_2021-12-15_2021-12-21 > OSP-2373_email_open_2021-12-22_2021-12-26 > OSP-2373_email_clk_2021-12-22_2021-12-26 > null,1733.0251411852,51.0,0.0,277,277
202,start > OSP-2373_rw_app_imp_2021-12-15_2021-12-21 > OSP-2373_rw_app_imp_2021-12-15_2021-12-21 > null,-1767.0242902061,97.0,0.0,237,237
203,start > FB_Impression_MobileFeed > OSP-2373_email_open_2021-12-15_2021-12-21 > null,210.55150334905,3.0,0.0,239,239
204,start > _AlwaysOn_wow_web_view_2021-12-15_2021-12-21 > _AlwaysOn_sem_shopping_clk_2021-12-15_2021-12-21 > OSP-2373_rw_app_imp_2021-12-22_2021-12-26 > OSP-2373_rw_app_clk_2021-12-22_2021-12-26 > null,1398.2704689835,21.0,0.0,144,144
205,start > _AlwaysOn_wow_web_view_2021-12-22_2021-12-26 > OSP-2373_rw_app_imp_2021-12-15_2021-12-21 > null,-213.0274191526,32.0,0.0,196,196
206,start > _AlwaysOn_sem_shopping_clk_2021-12-22_2021-12-26 > OSP-2373_email_open_2021-12-22_2021-12-26 > OSP-2373_email_clk_2021-12-22_2021-12-26 > null,-501.42008676718,59.0,0.0,114,114
207,start > OSP-2373_rw_app_clk_2021-12-22_2021-12-26 > null,419462.46107965,23398.0,0.0,48867,48867
208,start > OSP-2373_rw_app_imp_2021-12-22_2021-12-26 > OSP-2373_rw_app_imp_2021-12-15_2021-12-21 > OSP-2373_rw_app_clk_2021-12-22_2021-12-26 > OSP-2373_rw_app_clk_2021-12-15_2021-12-21 > OSP-2373_email_open_2021-12-22_2021-12-26 > OSP-2373_email_clk_2021-12-22_2021-12-26 > null,2001.2356185923,50.0,0.0,135,135
209,start > FB_Impression_SuggestedVideo > OSP-2373_email_open_2021-12-22_2021-12-26 > null,47.702888055961,3.0,0.0,173,173
210,start > _AlwaysOn_wow_web_view_2021-12-22_2021-12-26 > _AlwaysOn_wow_web_view_2021-12-15_2021-12-21 > OSP-2373_email_open_2021-12-22_2021-12-26 > OSP-2373_email_clk_2021-12-22_2021-12-26 > null,844.55818078901,33.0,0.0,201,201
211,start > FB_Impression_MobileFeed > _AlwaysOn_wow_web_view_2021-12-15_2021-12-21 > _AlwaysOn_wow_web_clk_2021-12-15_2021-12-21 > OSP-2373_email_open_2021-12-22_2021-12-26 > null,382.56454829172,7.0,0.0,131,131
212,start > OSP-2373_rw_app_imp_2021-12-15_2021-12-21 > OSP-2373_rw_app_clk_2021-12-22_2021-12-26 > OSP-2373_email_open_2021-12-22_2021-12-26 > OSP-2373_email_clk_2021-12-22_2021-12-26 > null,23717.702882984,2233.0,0.0,3436,3436
213,start > _AlwaysOn_wow_web_view_2021-12-22_2021-12-26 > OSP-2373_rw_app_imp_2021-12-22_2021-12-26 > OSP-2373_rw_app_imp_2021-12-15_2021-12-21 > null,540.86650876274,36.0,0.0,107,107
214,start > OSP-2373_rw_app_clk_2021-12-22_2021-12-26 > OSP-2373_email_open_2021-12-22_2021-12-26 > OSP-2373_email_open_2021-12-22_2021-12-26 > OSP-2373_email_clk_2021-12-22_2021-12-26 > null,427.85770731065,253.0,0.0,416,416
215,start > _AlwaysOn_wow_web_view_2021-12-15_2021-12-21 > _AlwaysOn_wow_web_clk_2021-12-15_2021-12-21 > OSP-2373_rw_app_imp_2021-12-15_2021-12-21 > OSP-2373_rw_app_clk_2021-12-15_2021-12-21 > null,397.03283913685,20.0,0.0,171,171
216,start > OSP-2373_email_open_2021-12-22_2021-12-26 > OSP-2373_email_open_2021-12-15_2021-12-21 > null,4596.9816769226,772.0,0.0,9925,9925
217,start > _AlwaysOn_wow_web_view_2021-12-15_2021-12-21 > _AlwaysOn_sem_shopping_clk_2021-12-22_2021-12-26 > _AlwaysOn_sem_shopping_clk_2021-12-15_2021-12-21 > null,792.31535788739,4.0,0.0,214,214
218,start > _AlwaysOn_wow_web_clk_2021-12-15_2021-12-21 > OSP-2373_rw_app_imp_2021-12-22_2021-12-26 > OSP-2373_rw_app_imp_2021-12-22_2021-12-26 > OSP-2373_rw_app_imp_2021-12-15_2021-12-21 > OSP-2373_rw_app_clk_2021-12-22_2021-12-26 > null,1364.0792580769,20.0,0.0,110,110
219,start > _AlwaysOn_wow_web_clk_2021-12-15_2021-12-21 > OSP-2373_rw_app_imp_2021-12-22_2021-12-26 > OSP-2373_rw_app_imp_2021-12-15_2021-12-21 > OSP-2373_email_open_2021-12-22_2021-12-26 > OSP-2373_email_clk_2021-12-22_2021-12-26 > null,3604.5986910074,78.0,0.0,354,354
220,start > _AlwaysOn_wow_web_clk_2021-12-15_2021-12-21 > OSP-2373_email_open_2021-12-22_2021-12-26 > OSP-2373_email_open_2021-12-22_2021-12-26 > OSP-2373_email_clk_2021-12-22_2021-12-26 > null,1330.8420925808,33.0,0.0,159,159
221,start > OSP-2373_rw_app_imp_2021-12-22_2021-12-26 > null,49022.722615997,6239.0,0.0,114655,114655
222,start > OSP-2373_rw_app_clk_2021-12-22_2021-12-26 > OSP-2373_email_open_2021-12-22_2021-12-26 > OSP-2373_email_open_2021-12-15_2021-12-21 > OSP-2373_email_clk_2021-12-22_2021-12-26 > null,-169.59596846694,116.0,0.0,195,195
223,start > _AlwaysOn_wow_web_view_2021-12-15_2021-12-21 > _AlwaysOn_wow_web_clk_2021-12-15_2021-12-21 > OSP-2373_rw_app_imp_2021-12-22_2021-12-26 > OSP-2373_rw_app_imp_2021-12-15_2021-12-21 > OSP-2373_email_open_2021-12-22_2021-12-26 > OSP-2373_email_clk_2021-12-22_2021-12-26 > null,1421.0652574573,32.0,0.0,134,134
224,start > _AlwaysOn_sem_shopping_clk_2021-12-15_2021-12-21 > OSP-2373_rw_app_imp_2021-12-22_2021-12-26 > OSP-2373_rw_app_imp_2021-12-15_2021-12-21 > OSP-2373_rw_app_clk_2021-12-22_2021-12-26 > null,2666.0452826998,47.0,0.0,245,245
225,start > _AlwaysOn_wow_web_view_2021-12-22_2021-12-26 > OSP-2373_rw_app_imp_2021-12-22_2021-12-26 > OSP-2373_email_open_2021-12-22_2021-12-26 > null,362.83041400324,41.0,0.0,151,151
226,start > FB_Impression_MobileFeed > _AlwaysOn_wow_web_view_2021-12-15_2021-12-21 > _AlwaysOn_wow_web_clk_2021-12-15_2021-12-21 > null,1610.4173905611,12.0,0.0,586,586
227,start > _AlwaysOn_wow_web_view_2021-12-15_2021-12-21 > _AlwaysOn_wow_web_clk_2021-12-15_2021-12-21 > OSP-2373_rw_app_imp_2021-12-22_2021-12-26 > OSP-2373_rw_app_imp_2021-12-15_2021-12-21 > OSP-2373_rw_app_clk_2021-12-22_2021-12-26 > null,6163.9775692418,81.0,0.0,346,346
228,start > _AlwaysOn_wow_web_view_2021-12-15_2021-12-21 > OSP-2373_email_open_2021-12-22_2021-12-26 > OSP-2373_email_open_2021-12-15_2021-12-21 > null,-363.02176582357,10.0,0.0,258,258
229,start > _AlwaysOn_wow_web_view_2021-12-15_2021-12-21 > OSP-2373_rw_app_imp_2021-12-22_2021-12-26 > OSP-2373_rw_app_clk_2021-12-22_2021-12-26 > OSP-2373_email_open_2021-12-22_2021-12-26 > OSP-2373_email_clk_2021-12-22_2021-12-26 > null,2669.1666002665,58.0,0.0,255,255
230,start > FB_Impression_MobileFeed > OSP-2373_rw_app_imp_2021-12-22_2021-12-26 > null,-1077.810862721,36.0,0.0,710,710
231,start > OSP-2373_rw_app_imp_2021-12-15_2021-12-21 > OSP-2373_email_open_2021-12-22_2021-12-26 > OSP-2373_email_open_2021-12-15_2021-12-21 > null,256.98618307841,87.0,0.0,453,453
232,start > _AlwaysOn_wow_web_view_2021-12-15_2021-12-21 > _AlwaysOn_wow_web_clk_2021-12-15_2021-12-21 > OSP-2373_rw_app_imp_2021-12-22_2021-12-26 > OSP-2373_rw_app_clk_2021-12-22_2021-12-26 > OSP-2373_email_open_2021-12-22_2021-12-26 > null,1222.8323901026,25.0,0.0,162,162
233,start > _AlwaysOn_wow_web_view_2021-12-15_2021-12-21 > _AlwaysOn_wow_web_clk_2021-12-15_2021-12-21 > OSP-2373_rw_app_imp_2021-12-22_2021-12-26 > OSP-2373_rw_app_imp_2021-12-15_2021-12-21 > OSP-2373_rw_app_clk_2021-12-22_2021-12-26 > OSP-2373_email_open_2021-12-22_2021-12-26 > null,1940.941943815,28.0,0.0,166,166
234,start > OSP-2373_email_open_2021-12-22_2021-12-26 > OSP-2373_email_open_2021-12-22_2021-12-26 > null,-984.63294298755,106.0,0.0,460,460
235,start > _AlwaysOn_wow_web_view_2021-12-15_2021-12-21 > _AlwaysOn_wow_web_clk_2021-12-15_2021-12-21 > OSP-2373_rw_app_imp_2021-12-22_2021-12-26 > OSP-2373_email_open_2021-12-22_2021-12-26 > null,329.65609765935,14.0,0.0,240,240
236,start > OSP-2373_rw_app_imp_2021-12-22_2021-12-26 > OSP-2373_rw_app_imp_2021-12-22_2021-12-26 > OSP-2373_rw_app_imp_2021-12-15_2021-12-21 > OSP-2373_rw_app_clk_2021-12-22_2021-12-26 > OSP-2373_email_open_2021-12-22_2021-12-26 > OSP-2373_email_clk_2021-12-22_2021-12-26 > null,2289.1107268987,85.0,0.0,153,153
237,start > _AlwaysOn_wow_web_clk_2021-12-15_2021-12-21 > OSP-2373_rw_app_imp_2021-12-22_2021-12-26 > OSP-2373_rw_app_imp_2021-12-15_2021-12-21 > OSP-2373_rw_app_clk_2021-12-22_2021-12-26 > null,3985.1045128031,136.0,0.0,665,665
238,start > _AlwaysOn_wow_web_view_2021-12-15_2021-12-21 > _AlwaysOn_wow_web_clk_2021-12-15_2021-12-21 > OSP-2373_rw_app_imp_2021-12-15_2021-12-21 > OSP-2373_email_open_2021-12-22_2021-12-26 > OSP-2373_email_clk_2021-12-22_2021-12-26 > null,1383.8317260561,26.0,0.0,122,122
239,start > OSP-2373_email_open_2021-12-22_2021-12-26 > OSP-2373_email_open_2021-12-15_2021-12-21 > OSP-2373_email_clk_2021-12-15_2021-12-21 > null,13.618175254966,55.0,0.0,297,297
240,start > _AlwaysOn_wow_web_view_2021-12-15_2021-12-21 > OSP-2373_rw_app_imp_2021-12-15_2021-12-21 > OSP-2373_rw_app_clk_2021-12-15_2021-12-21 > OSP-2373_email_open_2021-12-22_2021-12-26 > null,115.21809444845,18.0,0.0,141,141
241,start > OSP-2373_rw_app_imp_2021-12-15_2021-12-21 > OSP-2373_rw_app_clk_2021-12-22_2021-12-26 > OSP-2373_rw_app_clk_2021-12-15_2021-12-21 > null,85436.729939575,2056.0,0.0,6307,6307
242,start > OSP-2373_rw_app_imp_2021-12-22_2021-12-26 > OSP-2373_rw_app_imp_2021-12-15_2021-12-21 > OSP-2373_rw_app_clk_2021-12-15_2021-12-21 > OSP-2373_email_open_2021-12-22_2021-12-26 > OSP-2373_email_clk_2021-12-22_2021-12-26 > null,3032.0724288106,81.0,0.0,260,260
243,start > _AlwaysOn_sem_brand_clk_2021-12-15_2021-12-21 > null,397.48883779989,8.0,0.0,527,527
244,start > _AlwaysOn_wow_web_view_2021-12-22_2021-12-26 > OSP-2373_rw_app_imp_2021-12-22_2021-12-26 > OSP-2373_rw_app_imp_2021-12-15_2021-12-21 > OSP-2373_rw_app_clk_2021-12-22_2021-12-26 > null,1147.3738813795,125.0,0.0,185,185
245,start > _AlwaysOn_wow_web_clk_2021-12-15_2021-12-21 > OSP-2373_rw_app_imp_2021-12-15_2021-12-21 > OSP-2373_rw_app_clk_2021-12-15_2021-12-21 > OSP-2373_email_open_2021-12-22_2021-12-26 > null,400.29797456737,19.0,0.0,104,104
246,start > OSP-2373_rw_app_imp_2021-12-15_2021-12-21 > OSP-2373_rw_app_clk_2021-12-22_2021-12-26 > OSP-2373_email_open_2021-12-22_2021-12-26 > OSP-2373_email_open_2021-12-22_2021-12-26 > null,1936.6821198548,149.0,0.0,295,295
247,start > OSP-2373_email_open_2021-12-15_2021-12-21 > OSP-2373_email_clk_2021-12-15_2021-12-21 > null,4783.4514824184,129.0,0.0,587,587
248,start > OSP-2373_rw_app_imp_2021-12-15_2021-12-21 > OSP-2373_email_open_2021-12-22_2021-12-26 > OSP-2373_email_open_2021-12-15_2021-12-21 > OSP-2373_email_clk_2021-12-22_2021-12-26 > null,1960.510285333,165.0,0.0,324,324
249,start > OSP-2373_rw_app_imp_2021-12-22_2021-12-26 > OSP-2373_rw_app_clk_2021-12-22_2021-12-26 > OSP-2373_email_open_2021-12-15_2021-12-21 > null,849.77322333927,51.0,0.0,138,138
250,start > _AlwaysOn_wow_web_view_2021-12-15_2021-12-21 > _AlwaysOn_wow_web_clk_2021-12-15_2021-12-21 > OSP-2373_rw_app_imp_2021-12-15_2021-12-21 > null,-655.51090421321,17.0,0.0,407,407
251,start > OSP-2373_rw_app_imp_2021-12-22_2021-12-26 > OSP-2373_rw_app_imp_2021-12-22_2021-12-26 > OSP-2373_rw_app_imp_2021-12-15_2021-12-21 > OSP-2373_email_open_2021-12-22_2021-12-26 > OSP-2373_email_clk_2021-12-22_2021-12-26 > null,2097.5087378347,74.0,0.0,212,212
252,start > FB_Impression_Instagram > FB_Impression_MobileFeed > OSP-2373_email_open_2021-12-22_2021-12-26 > null,322.11922695621,19.0,0.0,232,232
253,start > _AlwaysOn_wow_web_view_2021-12-15_2021-12-21 > OSP-2373_rw_app_imp_2021-12-15_2021-12-21 > OSP-2373_email_open_2021-12-22_2021-12-26 > OSP-2373_email_clk_2021-12-22_2021-12-26 > null,1076.1808450919,41.0,0.0,296,296
254,start > _AlwaysOn_sem_shopping_clk_2021-12-22_2021-12-26 > null,1747.2582392668,90.0,0.0,1007,1007
