,path,total_conversion_value,conversions,non_conversions,cnt,ppl,Converted
0,CVM-3509_rw_app_imp_2021-11-08_2021-11-14 > CVM-3509_rw_app_clk_2021-11-08_2021-11-14 > CVM-3509_email_open_2021-11-08_2021-11-14,40289.729245972,548.0,368.0,913,913,False
1,_AlwaysOn_wow_web_view_2021-11-08_2021-11-14 > CVM-3509_email_open_2021-11-08_2021-11-14 > CVM-3509_email_clk_2021-11-08_2021-11-14 > CVM-3509_email_open_2021-11-08_2021-11-14,121144.36086165,95.0,43.0,136,136,False
2,CVM-3509_rw_app_imp_2021-11-08_2021-11-14 > CVM-3509_rw_app_clk_2021-11-08_2021-11-14 > FB_Impression_MobileFeed,5458.3951851641,82.0,56.0,137,137,False
3,FB_Impression_MobileFeed > CVM-3509_email_open_2021-11-08_2021-11-14 > CVM-3509_email_clk_2021-11-08_2021-11-14,67721.576469819,112.0,70.0,181,181,False
4,FB_Impression_MobileFeed > CVM-3509_email_open_2021-11-08_2021-11-14,40517.292021863,108.0,70.0,178,178,False
5,CVM-3509_email_open_2021-11-08_2021-11-14 > CVM-3509_email_clk_2021-11-08_2021-11-14 > CVM-3509_email_open_2021-11-08_2021-11-14,1353868.064229,2426.0,1716.0,4133,4133,False
6,CVM-3509_rw_app_push_clk_2021-11-08_2021-11-14 > CVM-3509_rw_app_imp_2021-11-08_2021-11-14,6528.1287096388,67.0,44.0,111,111,False
7,CVM-3509_rw_app_push_clk_2021-11-08_2021-11-14 > CVM-3509_email_open_2021-11-08_2021-11-14,-26429.189744651,144.0,118.0,262,262,False
8,CVM-3509_rw_app_push_clk_2021-11-08_2021-11-14 > CVM-3509_rw_app_imp_2021-11-08_2021-11-14 > CVM-3509_rw_app_clk_2021-11-08_2021-11-14,41279.962725687,190.0,143.0,333,333,False
9,FB_Impression_MobileFeed > FB_Impression_Instagram > FB_Impression_MobileFeed,27684.437082398,81.0,50.0,130,130,False
10,CVM-3509_email_open_2021-11-08_2021-11-14 > CVM-3509_email_clk_2021-11-08_2021-11-14,2997042.1923223,5119.0,3436.0,8548,8548,False
11,CVM-3509_email_open_2021-11-08_2021-11-14 > CVM-3509_rw_app_imp_2021-11-08_2021-11-14 > CVM-3509_rw_app_clk_2021-11-08_2021-11-14,38462.197879689,170.0,101.0,269,269,False
12,FB_Impression_WebFeed,130753.83667522,85.0,41.0,126,126,False
13,CVM-3509_rw_app_push_imp_2021-11-08_2021-11-14 > CVM-3509_rw_app_imp_2021-11-08_2021-11-14 > CVM-3509_rw_app_clk_2021-11-08_2021-11-14,53553.579169459,159.0,99.0,258,258,False
14,_AlwaysOn_wow_web_view_2021-11-08_2021-11-14 > CVM-3509_rw_app_imp_2021-11-08_2021-11-14 > CVM-3509_rw_app_clk_2021-11-08_2021-11-14,123644.25832485,167.0,105.0,272,272,False
15,CVM-3509_rw_app_imp_2021-11-08_2021-11-14 > CVM-3509_rw_app_clk_2021-11-08_2021-11-14 > CVM-3509_rw_app_imp_2021-11-08_2021-11-14,153786.2640833,635.0,364.0,999,999,False
16,CVM-3509_email_open_2021-11-08_2021-11-14 > CVM-3509_email_clk_2021-11-08_2021-11-14 > CVM-3509_rw_app_push_imp_2021-11-08_2021-11-14,45764.363173213,59.0,41.0,100,100,False
17,CVM-3509_rw_app_imp_2021-11-08_2021-11-14 > CVM-3509_email_open_2021-11-08_2021-11-14 > CVM-3509_rw_app_push_imp_2021-11-08_2021-11-14,19391.952714427,114.0,93.0,205,205,False
18,FB_Impression_MobileFeed > CVM-3509_rw_app_push_imp_2021-11-08_2021-11-14 > FB_Impression_MobileFeed,-22662.708951101,63.0,43.0,106,106,False
19,CVM-3509_email_open_2021-11-08_2021-11-14 > CVM-3509_display_imp_2021-11-08_2021-11-14,32263.492877391,83.0,44.0,127,127,False
20,_AlwaysOn_wow_web_view_2021-11-08_2021-11-14 > CVM-3509_email_open_2021-11-08_2021-11-14 > CVM-3509_email_clk_2021-11-08_2021-11-14,164812.79395207,226.0,132.0,358,358,False
21,CVM-3509_rw_app_imp_2021-11-08_2021-11-14 > CVM-3509_rw_app_clk_2021-11-08_2021-11-14 > CVM-3509_email_open_2021-11-08_2021-11-14 > CVM-3509_email_clk_2021-11-08_2021-11-14,5291.6048317213,108.0,75.0,183,183,False
22,CVM-3509_rw_app_imp_2021-11-08_2021-11-14 > CVM-3509_rw_app_clk_2021-11-08_2021-11-14 > CVM-3509_rw_app_push_imp_2021-11-08_2021-11-14,-65045.985075144,272.0,208.0,479,479,False
23,CVM-3509_rw_app_imp_2021-11-08_2021-11-14 > CVM-3509_rw_app_push_imp_2021-11-08_2021-11-14 > CVM-3509_rw_app_imp_2021-11-08_2021-11-14,16946.751936004,85.0,75.0,160,160,False
24,CVM-3509_rw_app_imp_2021-11-08_2021-11-14 > CVM-3509_email_open_2021-11-08_2021-11-14 > CVM-3509_rw_app_imp_2021-11-08_2021-11-14,-11758.581639977,122.0,89.0,211,211,False
25,CVM-3509_rw_app_push_imp_2021-11-08_2021-11-14,-224634.18639732,987.0,758.0,1745,1745,False
26,CVM-3509_rw_app_imp_2021-11-08_2021-11-14 > CVM-3509_rw_app_clk_2021-11-08_2021-11-14 > CVM-3509_rw_app_push_clk_2021-11-08_2021-11-14,15833.387549377,142.0,99.0,241,241,False
27,CVM-3509_email_open_2021-11-08_2021-11-14 > CVM-3509_display_imp_2021-11-08_2021-11-14 > CVM-3509_display_clk_2021-11-08_2021-11-14,65379.003470915,67.0,50.0,117,117,False
28,CVM-3509_rw_app_imp_2021-11-08_2021-11-14 > CVM-3509_rw_app_push_imp_2021-11-08_2021-11-14,-64352.277679335,366.0,260.0,624,624,False
29,CVM-3509_rw_app_imp_2021-11-08_2021-11-14,3662.9943793819,1628.0,1105.0,2732,2732,False
30,_AlwaysOn_wow_web_view_2021-11-08_2021-11-14 > CVM-3509_email_open_2021-11-08_2021-11-14,78011.048133683,63.0,37.0,100,100,False
31,CVM-3509_rw_app_imp_2021-11-08_2021-11-14 > CVM-3509_email_open_2021-11-08_2021-11-14 > CVM-3509_email_clk_2021-11-08_2021-11-14,10184.936298611,120.0,99.0,219,219,False
32,CVM-3509_display_imp_2021-11-08_2021-11-14,291143.78626933,215.0,139.0,354,354,False
34,CVM-3509_email_open_2021-11-08_2021-11-14 > CVM-3509_rw_app_imp_2021-11-08_2021-11-14 > CVM-3509_email_open_2021-11-08_2021-11-14,-9358.082710514,77.0,55.0,132,132,False
35,CVM-3509_rw_app_imp_2021-11-08_2021-11-14 > CVM-3509_rw_app_clk_2021-11-08_2021-11-14 > CVM-3509_rw_app_imp_2021-11-08_2021-11-14 > CVM-3509_email_open_2021-11-08_2021-11-14,-22.926832126564,66.0,46.0,112,112,False
36,CVM-3509_rw_app_imp_2021-11-08_2021-11-14 > CVM-3509_rw_app_clk_2021-11-08_2021-11-14,338381.46682849,3486.0,2346.0,5826,5826,False
37,_AlwaysOn_wow_web_view_2021-11-08_2021-11-14,117486.82394394,220.0,130.0,349,349,False
38,CVM-3509_email_open_2021-11-08_2021-11-14 > CVM-3509_rw_app_imp_2021-11-08_2021-11-14,17369.189800506,208.0,158.0,363,363,False
39,CVM-3509_rw_app_clk_2021-11-08_2021-11-14 > CVM-3509_rw_app_imp_2021-11-08_2021-11-14,12739.747033636,99.0,53.0,152,152,False
40,CVM-3509_email_open_2021-11-08_2021-11-14,5011096.2595707,16032.0,11738.0,27727,27727,False
41,FB_Impression_Instagram,5326.0572517748,71.0,57.0,128,128,False
42,CVM-3509_rw_app_imp_2021-11-08_2021-11-14 > CVM-3509_email_open_2021-11-08_2021-11-14,10873.772448021,749.0,549.0,1297,1297,False
43,CVM-3509_rw_app_push_clk_2021-11-08_2021-11-14,-142988.62254208,580.0,460.0,1040,1040,False
44,CVM-3509_display_imp_2021-11-08_2021-11-14 > CVM-3509_display_clk_2021-11-08_2021-11-14 > CVM-3509_email_open_2021-11-08_2021-11-14 > CVM-3509_display_clk_2021-11-08_2021-11-14,35361.246184516,82.0,52.0,134,134,False
45,CVM-3509_display_clk_2021-11-08_2021-11-14,2492.1464107959,107.0,81.0,187,187,False
46,CVM-3509_rw_app_push_imp_2021-11-08_2021-11-14 > CVM-3509_rw_app_imp_2021-11-08_2021-11-14,-2953.5598272206,115.0,65.0,180,180,False
47,CVM-3509_email_open_2021-11-08_2021-11-14 > CVM-3509_rw_app_push_imp_2021-11-08_2021-11-14,-70885.906273435,333.0,274.0,604,604,False
48,CVM-3509_rw_app_imp_2021-11-08_2021-11-14 > CVM-3509_rw_app_push_clk_2021-11-08_2021-11-14,-2825.21997516,167.0,128.0,295,295,False
49,CVM-3509_email_open_2021-11-08_2021-11-14 > CVM-3509_email_clk_2021-11-08_2021-11-14 > FB_Impression_MobileFeed,43690.777605332,75.0,67.0,142,142,False
50,CVM-3509_email_open_2021-11-08_2021-11-14 > CVM-3509_email_clk_2021-11-08_2021-11-14 > CVM-3509_email_open_2021-11-08_2021-11-14 > CVM-3509_email_clk_2021-11-08_2021-11-14,268835.98665548,511.0,358.0,866,866,False
51,CVM-3509_email_open_2021-11-08_2021-11-14 > CVM-3509_email_clk_2021-11-08_2021-11-14 > CVM-3509_rw_app_imp_2021-11-08_2021-11-14,46449.580964201,73.0,43.0,116,116,False
52,FB_Impression_MobileFeed,143151.00318874,933.0,718.0,1649,1649,False
53,CVM-3509_display_imp_2021-11-08_2021-11-14 > CVM-3509_display_clk_2021-11-08_2021-11-14,126595.66159601,248.0,186.0,434,434,False
54,FB_Impression_MobileFeed > CVM-3509_email_open_2021-11-08_2021-11-14 > FB_Impression_MobileFeed,209703.85302374,646.0,465.0,1108,1108,False
55,CVM-3509_email_open_2021-11-08_2021-11-14 > CVM-3509_rw_app_push_clk_2021-11-08_2021-11-14,30851.666596007,174.0,122.0,295,295,False
56,CVM-3509_email_open_2021-11-08_2021-11-14 > CVM-3509_email_clk_2021-11-08_2021-11-14 > CVM-3509_email_open_2021-11-08_2021-11-14 > CVM-3509_email_clk_2021-11-08_2021-11-14 > CVM-3509_email_open_2021-11-08_2021-11-14,95482.396573035,132.0,85.0,215,215,False
57,CVM-3509_email_open_2021-11-08_2021-11-14 > FB_Impression_MobileFeed,47801.859266646,104.0,66.0,170,170,False
58,CVM-3509_rw_app_push_imp_2021-11-08_2021-11-14 > CVM-3509_email_open_2021-11-08_2021-11-14,19629.992309218,135.0,98.0,233,233,False
59,FB_Impression_MobileFeed > CVM-3509_email_open_2021-11-08_2021-11-14 > CVM-3509_email_clk_2021-11-08_2021-11-14 > FB_Impression_MobileFeed,126087.21801445,172.0,135.0,307,307,False
60,CVM-3509_email_open_2021-11-08_2021-11-14 > CVM-3509_rw_app_imp_2021-11-08_2021-11-14 > CVM-3509_rw_app_clk_2021-11-08_2021-11-14 > CVM-3509_email_open_2021-11-08_2021-11-14,3632.6174577826,55.0,46.0,101,101,False
61,CVM-3509_rw_app_clk_2021-11-08_2021-11-14,109619.39487854,325.0,205.0,530,530,False
62,FB_Impression_MobileFeed > CVM-3509_rw_app_imp_2021-11-08_2021-11-14 > CVM-3509_rw_app_clk_2021-11-08_2021-11-14 > FB_Impression_MobileFeed,-29617.942416606,106.0,84.0,190,190,False
63,CVM-3509_display_imp_2021-11-08_2021-11-14 > CVM-3509_display_clk_2021-11-08_2021-11-14 > CVM-3509_display_imp_2021-11-08_2021-11-14 > CVM-3509_display_clk_2021-11-08_2021-11-14,57804.869792032,68.0,49.0,117,117,False
