,event_concat,val,val_type,val_type_2,cnt,ppl
0,^FB_Impression_WebFeed^^^^^^^^^^^^^^^^^^^,15698.22196458,83.0,60.0,143,143
1,^CVM-3509_rw_app_clk_2022-01-31_2022-02-06^^^^^^^^^^^^^^^^^^^,-2956.5022483077,62.0,41.0,103,103
2,^CVM-3509_email_open_2022-01-31_2022-02-06^CVM-3509_rw_app_imp_2022-01-31_2022-02-06^^^^^^^^^^^^^^^^^^,9874.6221919393,168.0,109.0,277,277
3,^CVM-3509_rw_app_imp_2022-01-31_2022-02-06^CVM-3509_email_open_2022-01-31_2022-02-06^^^^^^^^^^^^^^^^^^,-38171.989292234,585.0,402.0,986,986
4,^CVM-3509_rw_app_imp_2022-01-31_2022-02-06^CVM-3509_rw_app_clk_2022-01-31_2022-02-06^CVM-3509_email_open_2022-01-31_2022-02-06^^^^^^^^^^^^^^^^^,41822.131624585,346.0,208.0,554,554
5,^_AlwaysOn_wow_web_view_2022-01-31_2022-02-06^^^^^^^^^^^^^^^^^^^,19492.661733467,115.0,64.0,179,179
6,^CVM-3509_email_open_2022-01-31_2022-02-06^^^^^^^^^^^^^^^^^^^,898827.92464549,8797.0,6080.0,14860,14860
7,^FB_Impression_MobileFeed^CVM-3509_email_open_2022-01-31_2022-02-06^CVM-3509_email_clk_2022-01-31_2022-02-06^FB_Impression_MobileFeed^^^^^^^^^^^^^^^^,4400.6197475502,137.0,100.0,237,237
8,^FB_Impression_MobileFeed^CVM-3509_email_open_2022-01-31_2022-02-06^FB_Impression_MobileFeed^^^^^^^^^^^^^^^^^,82344.118626584,600.0,406.0,1005,1005
9,^CVM-3509_rw_app_imp_2022-01-31_2022-02-06^CVM-3509_rw_app_clk_2022-01-31_2022-02-06^CVM-3509_rw_app_push_imp_2022-01-31_2022-02-06^^^^^^^^^^^^^^^^^,991.77467475851,101.0,85.0,186,186
10,^CVM-3509_rw_app_push_clk_2022-01-31_2022-02-06^CVM-3509_rw_app_imp_2022-01-31_2022-02-06^CVM-3509_rw_app_clk_2022-01-31_2022-02-06^^^^^^^^^^^^^^^^^,5640.709500931,77.0,45.0,122,122
11,^FB_Impression_MobileFeed^^^^^^^^^^^^^^^^^^^,106554.85556938,677.0,438.0,1114,1114
12,^CVM-3509_rw_app_push_imp_2022-01-31_2022-02-06^CVM-3509_rw_app_imp_2022-01-31_2022-02-06^CVM-3509_rw_app_clk_2022-01-31_2022-02-06^^^^^^^^^^^^^^^^^,6408.4642489743,64.0,53.0,117,117
13,^CVM-3509_rw_app_push_imp_2022-01-31_2022-02-06^CVM-3509_email_open_2022-01-31_2022-02-06^^^^^^^^^^^^^^^^^^,5844.113657073,116.0,105.0,220,220
14,^CVM-3509_rw_app_imp_2022-01-31_2022-02-06^CVM-3509_email_open_2022-01-31_2022-02-06^CVM-3509_email_clk_2022-01-31_2022-02-06^^^^^^^^^^^^^^^^^,9887.3668677881,70.0,52.0,122,122
15,^FB_Impression_MobileFeed^CVM-3509_email_open_2022-01-31_2022-02-06^CVM-3509_email_clk_2022-01-31_2022-02-06^^^^^^^^^^^^^^^^^,36991.178977763,98.0,38.0,136,136
16,^CVM-3509_email_open_2022-01-31_2022-02-06^CVM-3509_rw_app_push_imp_2022-01-31_2022-02-06^^^^^^^^^^^^^^^^^^,-3442.2892208641,136.0,111.0,246,246
17,^CVM-3509_rw_app_imp_2022-01-31_2022-02-06^CVM-3509_rw_app_clk_2022-01-31_2022-02-06^CVM-3509_rw_app_imp_2022-01-31_2022-02-06^^^^^^^^^^^^^^^^^,83522.130815144,486.0,307.0,793,793
18,^CVM-3509_rw_app_imp_2022-01-31_2022-02-06^CVM-3509_rw_app_clk_2022-01-31_2022-02-06^^^^^^^^^^^^^^^^^^,174563.48426672,2072.0,1294.0,3366,3366
19,^CVM-3509_email_open_2022-01-31_2022-02-06^FB_Impression_MobileFeed^^^^^^^^^^^^^^^^^^,19543.102720546,100.0,57.0,157,157
20,^_AlwaysOn_wow_web_view_2022-01-31_2022-02-06^CVM-3509_email_open_2022-01-31_2022-02-06^CVM-3509_email_clk_2022-01-31_2022-02-06^^^^^^^^^^^^^^^^^,38412.072430341,110.0,60.0,170,170
21,^CVM-3509_rw_app_imp_2022-01-31_2022-02-06^^^^^^^^^^^^^^^^^^^,119704.36499647,1236.0,830.0,2064,2064
22,^CVM-3509_rw_app_imp_2022-01-31_2022-02-06^CVM-3509_email_open_2022-01-31_2022-02-06^CVM-3509_rw_app_imp_2022-01-31_2022-02-06^^^^^^^^^^^^^^^^^,5022.5188564139,106.0,85.0,189,189
23,^CVM-3509_rw_app_imp_2022-01-31_2022-02-06^CVM-3509_rw_app_push_clk_2022-01-31_2022-02-06^^^^^^^^^^^^^^^^^^,14275.237785607,66.0,62.0,128,128
24,^CVM-3509_email_clk_2022-01-31_2022-02-06^CVM-3509_email_open_2022-01-31_2022-02-06^^^^^^^^^^^^^^^^^^,21129.305092153,126.0,73.0,199,199
25,^CVM-3509_rw_app_push_imp_2022-01-31_2022-02-06^^^^^^^^^^^^^^^^^^^,8708.9134876418,342.0,239.0,581,581
26,^CVM-3509_rw_app_imp_2022-01-31_2022-02-06^CVM-3509_rw_app_push_imp_2022-01-31_2022-02-06^CVM-3509_rw_app_imp_2022-01-31_2022-02-06^^^^^^^^^^^^^^^^^,8992.0083636745,62.0,49.0,111,111
27,^FB_Impression_MobileFeed^CVM-3509_rw_app_imp_2022-01-31_2022-02-06^CVM-3509_rw_app_clk_2022-01-31_2022-02-06^FB_Impression_MobileFeed^^^^^^^^^^^^^^^^,-28194.733476005,96.0,55.0,151,151
28,^CVM-3509_email_open_2022-01-31_2022-02-06^CVM-3509_email_clk_2022-01-31_2022-02-06^FB_Impression_MobileFeed^^^^^^^^^^^^^^^^^,39900.484442352,98.0,69.0,167,167
29,^_AlwaysOn_wow_web_view_2022-01-31_2022-02-06^CVM-3509_rw_app_imp_2022-01-31_2022-02-06^CVM-3509_rw_app_clk_2022-01-31_2022-02-06^^^^^^^^^^^^^^^^^,37128.678767971,98.0,56.0,154,154
30,^CVM-3509_email_open_2022-01-31_2022-02-06^CVM-3509_rw_app_imp_2022-01-31_2022-02-06^CVM-3509_rw_app_clk_2022-01-31_2022-02-06^^^^^^^^^^^^^^^^^,28200.817172567,120.0,53.0,173,173
31,^FB_Impression_MobileFeed^CVM-3509_email_open_2022-01-31_2022-02-06^^^^^^^^^^^^^^^^^^,19114.057896206,101.0,57.0,158,158
32,^CVM-3509_email_open_2022-01-31_2022-02-06^CVM-3509_email_clk_2022-01-31_2022-02-06^CVM-3509_email_open_2022-01-31_2022-02-06^CVM-3509_email_clk_2022-01-31_2022-02-06^^^^^^^^^^^^^^^^,46056.753590678,295.0,180.0,474,474
33,^CVM-3509_email_open_2022-01-31_2022-02-06^CVM-3509_email_clk_2022-01-31_2022-02-06^CVM-3509_email_open_2022-01-31_2022-02-06^^^^^^^^^^^^^^^^^,167293.65970186,1237.0,827.0,2061,2061
34,^CVM-3509_email_open_2022-01-31_2022-02-06^CVM-3509_email_clk_2022-01-31_2022-02-06^CVM-3509_email_open_2022-01-31_2022-02-06^CVM-3509_email_clk_2022-01-31_2022-02-06^CVM-3509_email_open_2022-01-31_2022-02-06^^^^^^^^^^^^^^^,13087.260189586,80.0,65.0,143,143
35,^CVM-3509_rw_app_imp_2022-01-31_2022-02-06^CVM-3509_rw_app_push_imp_2022-01-31_2022-02-06^^^^^^^^^^^^^^^^^^,17906.255368645,165.0,126.0,291,291
36,^CVM-3509_rw_app_push_clk_2022-01-31_2022-02-06^CVM-3509_email_open_2022-01-31_2022-02-06^^^^^^^^^^^^^^^^^^,21375.283863745,121.0,84.0,204,204
37,^CVM-3509_email_open_2022-01-31_2022-02-06^CVM-3509_email_clk_2022-01-31_2022-02-06^^^^^^^^^^^^^^^^^^,413890.3250257,2396.0,1576.0,3967,3967
38,^CVM-3509_rw_app_push_clk_2022-01-31_2022-02-06^^^^^^^^^^^^^^^^^^^,-47697.879962839,232.0,179.0,411,411
39,^^^^^^^^^^^^^^^^^^^^,712514.65589624,7102.0,4682.0,11783,11782
