,path,total_conversion_value,conversions,non_conversions,cnt,ppl,Converted
0,FB_Impression_InstagramStory,10634.925123057,564.0,457.0,11321,11321,False
1,FB_Impression_WebFeed > _AlwaysOn_wow_web_view_2022-01-17_2022-01-23,132.42453194959,6.0,5.0,193,193,False
2,FB_Impression_SuggestedVideo > CVM-3509_rw_app_push_clk_2022-01-17_2022-01-23,478.66517510573,55.0,50.0,126,126,False
3,FB_Impression_MobileFeed > CVM-3509_email_open_2022-01-17_2022-01-23,6452.2007259764,501.0,399.0,4329,4329,False
4,FB_Impression_MobileFeed > FB_Impression_SuggestedVideo > FB_Impression_MobileFeed,273.97158878261,212.0,202.0,2861,2861,False
5,CVM-3509_rw_app_clk_2022-01-17_2022-01-23 > CVM-3509_email_open_2022-01-17_2022-01-23 > CVM-3509_email_clk_2022-01-17_2022-01-23,4128.9749210714,105.0,73.0,199,199,False
6,FB_Impression_SuggestedVideo > CVM-3509_email_open_2022-01-17_2022-01-23 > CVM-3509_email_clk_2022-01-17_2022-01-23,1929.0676861875,77.0,72.0,186,186,False
7,FB_Impression_FacebookStory,2768.7231629541,128.0,115.0,3290,3290,False
8,FB_Impression_SuggestedVideo > FB_Impression_MobileFeed,1630.2854335989,493.0,434.0,4551,4551,False
9,FB_Impression_Instagram > CVM-3509_rw_app_imp_2022-01-17_2022-01-23,679.53985883848,78.0,43.0,269,269,False
10,FB_Impression_WebFeed > CVM-3509_rw_app_imp_2022-01-17_2022-01-23,346.03207998427,20.0,18.0,129,129,False
11,FB_Impression_Instagram > FB_Impression_MobileFeed,7355.0843726854,252.0,206.0,2496,2496,False
12,FB_Impression_MobileFeed > CVM-3509_rw_app_push_clk_2022-01-17_2022-01-23,3065.2259838867,241.0,195.0,622,622,False
13,FB_Impression_InstagramStory > FB_Impression_Instagram > FB_Impression_InstagramStory,1549.5752699795,91.0,68.0,1257,1257,False
14,FB_Impression_MobileFeed > CVM-3509_email_open_2022-01-17_2022-01-23 > CVM-3509_email_clk_2022-01-17_2022-01-23,7428.6365235074,599.0,475.0,1335,1335,False
15,FB_Impression_Instagram > FB_Impression_MobileFeed > CVM-3509_rw_app_imp_2022-01-17_2022-01-23,271.32167795372,27.0,25.0,105,105,False
16,FB_Impression_Instagram > FB_Impression_MobileFeed > CVM-3509_rw_app_imp_2022-01-17_2022-01-23 > CVM-3509_rw_app_clk_2022-01-17_2022-01-23,5593.4234754267,67.0,47.0,134,134,False
17,CVM-3509_rw_app_imp_2022-01-17_2022-01-23 > CVM-3509_rw_app_clk_2022-01-17_2022-01-23 > CVM-3509_email_open_2022-01-17_2022-01-23,6353.1174567471,372.0,313.0,880,880,False
18,CVM-3509_rw_app_clk_2022-01-17_2022-01-23,222586.82285715,9129.0,7377.0,19009,19009,False
19,FB_Impression_WebFeed > CVM-3509_email_open_2022-01-17_2022-01-23 > CVM-3509_email_clk_2022-01-17_2022-01-23,691.53492006045,63.0,46.0,136,136,False
20,CVM-3509_email_clk_2022-01-17_2022-01-23,85581.869338916,5980.0,4865.0,12711,12711,False
21,CVM-3509_rw_app_push_imp_2022-01-17_2022-01-23 > CVM-3509_rw_app_imp_2022-01-17_2022-01-23 > CVM-3509_email_open_2022-01-17_2022-01-23,-735.36767052322,26.0,39.0,110,110,False
22,FB_Impression_InstagramStory > FB_Impression_MobileFeed,2331.2822250471,119.0,92.0,809,809,False
23,FB_Impression_MobileFeed > _AlwaysOn_wow_web_view_2022-01-17_2022-01-23 > _AlwaysOn_sem_shopping_clk_2022-01-17_2022-01-23,368.34646930527,3.0,0.0,117,117,False
24,FB_Impression_Instagram > CVM-3509_email_open_2022-01-17_2022-01-23,94.331977059744,28.0,24.0,280,280,False
25,CVM-3509_rw_app_push_clk_2022-01-17_2022-01-23 > CVM-3509_email_open_2022-01-17_2022-01-23,1477.2842251221,91.0,61.0,208,208,False
26,FB_Impression_InstagramStory > CVM-3509_rw_app_imp_2022-01-17_2022-01-23 > CVM-3509_rw_app_clk_2022-01-17_2022-01-23,3352.6777682211,113.0,96.0,245,245,False
27,FB_Impression_FacebookStory > CVM-3509_rw_app_imp_2022-01-17_2022-01-23,181.5156900655,18.0,17.0,101,101,False
28,FB_Impression_WebFeed > CVM-3509_email_open_2022-01-17_2022-01-23,-344.27198797662,77.0,79.0,499,499,False
29,FB_Impression_MobileFeed > FB_Impression_FacebookStory,414.71658889707,118.0,103.0,2900,2900,False
30,FB_Impression_SuggestedVideo > FB_Impression_MobileFeed > CVM-3509_email_open_2022-01-17_2022-01-23 > CVM-3509_email_clk_2022-01-17_2022-01-23,-511.09150263536,43.0,40.0,104,104,False
31,FB_Impression_MobileFeed > CVM-3509_rw_app_push_imp_2022-01-17_2022-01-23 > CVM-3509_rw_app_imp_2022-01-17_2022-01-23,-107.14868569182,232.0,241.0,668,668,False
32,CVM-3509_rw_app_imp_2022-01-17_2022-01-23 > CVM-3509_rw_app_clk_2022-01-17_2022-01-23,176406.61998,6912.0,5679.0,16224,16224,False
33,FB_Impression_MobileFeed > CVM-3509_rw_app_push_clk_2022-01-17_2022-01-23 > CVM-3509_rw_app_imp_2022-01-17_2022-01-23 > CVM-3509_rw_app_clk_2022-01-17_2022-01-23,4408.1647752933,102.0,72.0,234,234,False
34,FB_Impression_Instagram > FB_Impression_MobileFeed > FB_Impression_Instagram > FB_Impression_MobileFeed,2367.6795198272,72.0,56.0,634,634,False
35,_AlwaysOn_wow_web_view_2022-01-17_2022-01-23 > _AlwaysOn_sem_brand_clk_2022-01-17_2022-01-23,103.813636361,2.0,1.0,272,272,False
36,CVM-3509_email_open_2022-01-17_2022-01-23,64363.205109218,5165.0,4113.0,56445,56445,False
37,_AlwaysOn_wow_web_view_2022-01-17_2022-01-23 > CVM-3509_email_open_2022-01-17_2022-01-23 > CVM-3509_email_clk_2022-01-17_2022-01-23,2605.5806734267,57.0,14.0,122,122,False
38,CVM-3509_rw_app_imp_2022-01-17_2022-01-23,60916.592775444,9307.0,8007.0,41571,41571,False
39,_AlwaysOn_wow_web_clk_2022-01-17_2022-01-23 > _AlwaysOn_sem_shopping_clk_2022-01-17_2022-01-23 > _AlwaysOn_sem_shopping_clk_2022-01-17_2022-01-23,89.327272726,1.0,0.0,118,118,False
40,FB_Impression_MobileFeed > _AlwaysOn_wow_web_view_2022-01-17_2022-01-23,1505.4923173295,32.0,35.0,1538,1538,False
41,FB_Impression_MobileFeed > FB_Click_MobileFeed,2083.1641381769,60.0,54.0,428,428,False
42,FB_Impression_SuggestedVideo > CVM-3509_rw_app_push_imp_2022-01-17_2022-01-23,421.71715970909,63.0,55.0,141,141,False
43,_AlwaysOn_wow_web_view_2022-01-17_2022-01-23 > CVM-3509_email_open_2022-01-17_2022-01-23,1053.7249807639,31.0,18.0,539,539,False
44,_AlwaysOn_wow_web_view_2022-01-17_2022-01-23 > CVM-3509_rw_app_imp_2022-01-17_2022-01-23 > CVM-3509_rw_app_clk_2022-01-17_2022-01-23,3676.9982259228,160.0,136.0,380,380,False
45,_AlwaysOn_sem_shopping_clk_2022-01-17_2022-01-23,-513.81154583407,27.0,23.0,5082,5082,False
46,FB_Impression_InstagramStory > CVM-3509_email_open_2022-01-17_2022-01-23,535.06169991683,35.0,28.0,234,234,False
47,_AlwaysOn_wow_web_view_2022-01-17_2022-01-23 > _AlwaysOn_sem_shopping_clk_2022-01-17_2022-01-23,606.35446088,10.0,11.0,3127,3127,False
48,_AlwaysOn_wow_web_clk_2022-01-17_2022-01-23 > _AlwaysOn_sem_shopping_clk_2022-01-17_2022-01-23,-252.98478444983,3.0,4.0,256,256,False
49,CVM-3509_email_open_2022-01-17_2022-01-23 > CVM-3509_email_clk_2022-01-17_2022-01-23,33533.073445445,3195.0,2509.0,7757,7757,False
50,FB_Impression_SuggestedVideo > FB_Impression_MobileFeed > CVM-3509_rw_app_imp_2022-01-17_2022-01-23,232.57025703708,69.0,69.0,225,225,False
51,_AlwaysOn_sem_brand_clk_2022-01-17_2022-01-23,-79.121839632255,1.0,3.0,293,293,False
52,FB_Impression_MobileFeed,63144.696681935,5534.0,4713.0,100921,100921,False
53,FB_Impression_MobileFeed > CVM-3509_rw_app_push_imp_2022-01-17_2022-01-23,3174.3870378751,387.0,333.0,992,992,False
54,FB_Impression_Other > CVM-3509_rw_app_imp_2022-01-17_2022-01-23 > CVM-3509_rw_app_clk_2022-01-17_2022-01-23,-1601.0721821155,57.0,44.0,116,116,False
55,FB_Impression_Instagram,9888.5056899519,454.0,370.0,17688,17688,False
56,FB_Impression_MobileFeed > _AlwaysOn_wow_web_view_2022-01-17_2022-01-23 > _AlwaysOn_wow_web_clk_2022-01-17_2022-01-23,5624.3658950123,42.0,14.0,315,315,False
57,FB_Impression_MobileFeed > FB_Impression_Instagram > FB_Impression_MobileFeed > CVM-3509_rw_app_imp_2022-01-17_2022-01-23 > CVM-3509_rw_app_clk_2022-01-17_2022-01-23,594.65878120017,51.0,42.0,112,112,False
58,CVM-3509_rw_app_imp_2022-01-17_2022-01-23 > CVM-3509_email_open_2022-01-17_2022-01-23 > CVM-3509_email_clk_2022-01-17_2022-01-23,-790.50872194766,234.0,229.0,557,557,False
59,FB_Impression_SuggestedVideo > FB_Impression_MobileFeed > FB_Impression_SuggestedVideo > FB_Impression_MobileFeed,-34.25252414348,70.0,46.0,525,525,False
60,FB_Impression_MobileFeed > CVM-3509_rw_app_imp_2022-01-17_2022-01-23 > CVM-3509_rw_app_clk_2022-01-17_2022-01-23,31545.797162913,1104.0,869.0,2410,2410,False
61,_AlwaysOn_wow_web_view_2022-01-17_2022-01-23 > CVM-3509_rw_app_imp_2022-01-17_2022-01-23,1316.8634196831,23.0,21.0,352,352,False
62,FB_Impression_MobileFeed > FB_Impression_Instagram > FB_Impression_MobileFeed > CVM-3509_rw_app_imp_2022-01-17_2022-01-23,404.6837793314,38.0,38.0,133,133,False
63,FB_Impression_MobileFeed > CVM-3509_email_clk_2022-01-17_2022-01-23,773.22549460398,55.0,50.0,121,121,False
64,FB_Impression_Instagram > FB_Impression_MobileFeed > FB_Impression_Instagram,-77.733416212532,69.0,55.0,696,696,False
65,FB_Impression_MobileFeed > FB_Click_MobileFeed > FB_Impression_MobileFeed,2506.6870570835,82.0,79.0,1434,1434,False
66,_AlwaysOn_wow_web_view_2022-01-17_2022-01-23 > _AlwaysOn_wow_web_clk_2022-01-17_2022-01-23,9825.4099241788,144.0,95.0,8817,8817,False
67,CVM-3509_rw_app_clk_2022-01-17_2022-01-23 > CVM-3509_email_open_2022-01-17_2022-01-23,15265.080352397,699.0,532.0,1424,1424,False
68,FB_Impression_SuggestedVideo,10114.390572034,933.0,787.0,7955,7955,False
69,_AlwaysOn_wow_web_clk_2022-01-17_2022-01-23,16003.942771013,241.0,193.0,6216,6216,False
70,CVM-3509_rw_app_push_clk_2022-01-17_2022-01-23 > CVM-3509_rw_app_imp_2022-01-17_2022-01-23,5380.2001181476,659.0,536.0,2294,2294,False
71,CVM-3509_rw_app_push_clk_2022-01-17_2022-01-23 > CVM-3509_rw_app_imp_2022-01-17_2022-01-23 > CVM-3509_rw_app_clk_2022-01-17_2022-01-23,1275.1479769079,373.0,302.0,944,944,False
72,FB_Impression_MobileFeed > CVM-3509_rw_app_push_clk_2022-01-17_2022-01-23 > CVM-3509_rw_app_imp_2022-01-17_2022-01-23,1853.0046880343,134.0,139.0,483,483,False
73,FB_Impression_Instagram > _AlwaysOn_wow_web_view_2022-01-17_2022-01-23,157.01516247689,6.0,2.0,133,133,False
74,FB_Impression_MobileFeed > FB_Impression_FacebookStory > FB_Impression_MobileFeed > CVM-3509_email_open_2022-01-17_2022-01-23,1034.5423248884,17.0,9.0,108,108,False
75,CVM-3509_rw_app_imp_2022-01-17_2022-01-23 > CVM-3509_rw_app_clk_2022-01-17_2022-01-23 > CVM-3509_email_open_2022-01-17_2022-01-23 > CVM-3509_email_clk_2022-01-17_2022-01-23,626.98296747641,48.0,52.0,114,114,False
76,FB_Impression_SuggestedVideo > FB_Impression_MobileFeed > FB_Impression_SuggestedVideo,4339.927864452,107.0,70.0,793,793,False
77,FB_Impression_MobileFeed > FB_Impression_SuggestedVideo > FB_Impression_MobileFeed > CVM-3509_rw_app_imp_2022-01-17_2022-01-23 > CVM-3509_rw_app_clk_2022-01-17_2022-01-23,575.08149919616,50.0,37.0,110,110,False
78,CVM-3509_rw_app_imp_2022-01-17_2022-01-23 > CVM-3509_rw_app_imp_2022-01-17_2022-01-23 > CVM-3509_rw_app_clk_2022-01-17_2022-01-23,1538.5289002616,66.0,41.0,104,104,False
79,FB_Impression_SuggestedVideo > FB_Impression_MobileFeed > CVM-3509_rw_app_imp_2022-01-17_2022-01-23 > CVM-3509_rw_app_clk_2022-01-17_2022-01-23,310.57262999974,78.0,93.0,212,212,False
80,FB_Impression_MobileFeed > CVM-3509_rw_app_imp_2022-01-17_2022-01-23 > CVM-3509_rw_app_clk_2022-01-17_2022-01-23 > CVM-3509_email_open_2022-01-17_2022-01-23,863.19526840551,67.0,62.0,160,160,False
81,CVM-3509_rw_app_push_imp_2022-01-17_2022-01-23 > CVM-3509_email_open_2022-01-17_2022-01-23,-1853.8473382349,48.0,42.0,162,162,False
82,FB_Impression_InstagramStory > FB_Impression_Instagram,1838.4693390968,65.0,49.0,1414,1414,False
83,FB_Impression_SuggestedVideo > FB_Impression_MobileFeed > CVM-3509_email_open_2022-01-17_2022-01-23,584.98616031575,45.0,43.0,205,205,False
84,CVM-3509_rw_app_push_imp_2022-01-17_2022-01-23 > CVM-3509_rw_app_imp_2022-01-17_2022-01-23,4385.1201263379,688.0,544.0,2227,2227,False
85,FB_Impression_MobileFeed > FB_Impression_Instagram,1946.7582567532,104.0,64.0,1501,1501,False
86,CVM-3509_rw_app_push_clk_2022-01-17_2022-01-23 > CVM-3509_email_open_2022-01-17_2022-01-23 > CVM-3509_email_clk_2022-01-17_2022-01-23,-1932.8172434183,66.0,51.0,134,134,False
87,FB_Impression_MobileFeed > FB_Impression_FacebookStory > FB_Impression_MobileFeed > CVM-3509_rw_app_imp_2022-01-17_2022-01-23,607.77884799038,34.0,26.0,104,104,False
88,FB_Impression_SuggestedVideo > CVM-3509_rw_app_imp_2022-01-17_2022-01-23,-248.45963516464,147.0,106.0,444,444,False
89,CVM-3509_rw_app_push_imp_2022-01-17_2022-01-23,15615.027193712,2021.0,1641.0,6673,6673,False
90,FB_Impression_MobileFeed > FB_Impression_WebFeed > FB_Impression_MobileFeed,1999.9301325065,69.0,47.0,1170,1170,False
91,FB_Impression_MobileFeed > CVM-3509_rw_app_push_imp_2022-01-17_2022-01-23 > CVM-3509_rw_app_imp_2022-01-17_2022-01-23 > CVM-3509_rw_app_clk_2022-01-17_2022-01-23,4974.1303177647,161.0,141.0,347,347,False
92,_AlwaysOn_video_imp_2022-01-17_2022-01-23,-112.04730094145,2.0,2.0,465,465,False
93,CVM-3509_rw_app_push_imp_2022-01-17_2022-01-23 > CVM-3509_rw_app_push_clk_2022-01-17_2022-01-23,901.42071590336,57.0,42.0,134,134,False
94,FB_Impression_MobileFeed > FB_Impression_SuggestedVideo > FB_Impression_MobileFeed > CVM-3509_email_open_2022-01-17_2022-01-23,255.75420602933,11.0,12.0,109,109,False
95,FB_Impression_MobileFeed > _AlwaysOn_wow_web_view_2022-01-17_2022-01-23 > CVM-3509_rw_app_imp_2022-01-17_2022-01-23 > CVM-3509_rw_app_clk_2022-01-17_2022-01-23,1668.3276664594,56.0,37.0,104,104,False
96,FB_Impression_Instagram > CVM-3509_rw_app_imp_2022-01-17_2022-01-23 > CVM-3509_rw_app_clk_2022-01-17_2022-01-23,2644.3442792096,95.0,72.0,202,202,False
97,FB_Impression_FacebookStory > FB_Impression_MobileFeed,-543.25288856104,96.0,76.0,1627,1627,False
98,CVM-3509_rw_web_oap_clk_2022-01-17_2022-01-23,327.2612094515,83.0,65.0,275,275,False
99,FB_Impression_FacebookStory > CVM-3509_email_open_2022-01-17_2022-01-23,222.07688642229,13.0,8.0,147,147,False
100,FB_Impression_MobileFeed > CVM-3509_rw_app_imp_2022-01-17_2022-01-23,11570.898883822,743.0,607.0,3078,3078,False
101,CVM-3509_rw_app_imp_2022-01-17_2022-01-23 > CVM-3509_rw_app_imp_2022-01-17_2022-01-23,1311.2978273728,166.0,124.0,367,367,False
102,_AlwaysOn_wow_web_clk_2022-01-17_2022-01-23 > CVM-3509_email_open_2022-01-17_2022-01-23,29.123452325055,20.0,11.0,103,103,False
103,FB_Impression_MobileFeed > FB_Impression_WebFeed,829.69507840252,65.0,49.0,1065,1065,False
104,_AlwaysOn_sem_shopping_clk_2022-01-17_2022-01-23 > _AlwaysOn_sem_shopping_clk_2022-01-17_2022-01-23,-339.71490859478,2.0,2.0,480,480,False
105,_AlwaysOn_wow_web_view_2022-01-17_2022-01-23,17736.007665635,326.0,234.0,84369,84369,False
106,CVM-3509_rw_app_imp_2022-01-17_2022-01-23 > CVM-3509_email_open_2022-01-17_2022-01-23,5299.3564162038,514.0,443.0,1953,1953,False
107,CVM-3509_rw_app_push_clk_2022-01-17_2022-01-23,4771.784350219,2004.0,1750.0,5979,5979,False
108,FB_Impression_MobileFeed > FB_Impression_SuggestedVideo > CVM-3509_email_open_2022-01-17_2022-01-23,539.23260997397,14.0,9.0,101,101,False
109,FB_Impression_InstagramStory > CVM-3509_rw_app_imp_2022-01-17_2022-01-23,1906.7751529508,83.0,59.0,254,254,False
110,FB_Impression_SuggestedVideo > CVM-3509_rw_app_imp_2022-01-17_2022-01-23 > CVM-3509_rw_app_clk_2022-01-17_2022-01-23,2688.2641163631,167.0,133.0,375,375,False
111,FB_Impression_Other > CVM-3509_rw_app_imp_2022-01-17_2022-01-23,1332.9151132781,32.0,38.0,105,105,False
112,FB_Impression_Other,7555.0371559716,305.0,175.0,2191,2191,False
113,FB_Impression_SuggestedVideo > FB_Impression_MobileFeed > CVM-3509_rw_app_push_imp_2022-01-17_2022-01-23,3375.8495835776,55.0,28.0,103,103,False
114,FB_Impression_SuggestedVideo > CVM-3509_email_open_2022-01-17_2022-01-23,-931.07644748778,78.0,63.0,400,400,False
115,FB_Impression_MobileFeed > CVM-3509_rw_app_imp_2022-01-17_2022-01-23 > CVM-3509_email_open_2022-01-17_2022-01-23,708.57769543854,57.0,47.0,216,216,False
116,FB_Impression_MobileFeed > FB_Impression_Instagram > FB_Impression_MobileFeed,9889.5628091711,257.0,201.0,2785,2785,False
117,_AlwaysOn_wow_web_clk_2022-01-17_2022-01-23 > CVM-3509_rw_app_imp_2022-01-17_2022-01-23 > CVM-3509_rw_app_clk_2022-01-17_2022-01-23,9602.8283206048,128.0,72.0,235,235,False
118,CVM-3509_rw_app_push_clk_2022-01-17_2022-01-23 > CVM-3509_rw_app_imp_2022-01-17_2022-01-23 > CVM-3509_email_open_2022-01-17_2022-01-23,1741.4927337075,42.0,47.0,134,134,False
119,FB_Impression_MobileFeed > FB_Impression_SuggestedVideo,-4227.2708810385,157.0,154.0,2193,2193,False
120,FB_Impression_MobileFeed > FB_Impression_FacebookStory > CVM-3509_email_open_2022-01-17_2022-01-23,-572.51739054891,12.0,13.0,133,133,False
121,FB_Impression_WebFeed > FB_Impression_MobileFeed,2698.136481045,74.0,53.0,1411,1411,False
122,FB_Impression_MobileFeed > FB_Impression_SuggestedVideo > FB_Impression_MobileFeed > CVM-3509_rw_app_imp_2022-01-17_2022-01-23,-558.0996590258,38.0,28.0,120,120,False
123,_AlwaysOn_wow_web_view_2022-01-17_2022-01-23 > _AlwaysOn_wow_web_clk_2022-01-17_2022-01-23 > _AlwaysOn_sem_shopping_clk_2022-01-17_2022-01-23,747.61510708049,7.0,4.0,166,166,False
124,FB_Impression_MobileFeed > FB_Impression_InstagramStory > FB_Impression_MobileFeed,2763.1733549531,73.0,64.0,867,867,False
125,FB_Impression_Instagram > FB_Impression_InstagramStory,561.2442339968,109.0,93.0,3227,3227,False
126,FB_Impression_MobileFeed > FB_Impression_FacebookStory > FB_Impression_MobileFeed,7302.4248275274,193.0,157.0,2887,2887,False
127,CVM-3509_rw_app_push_imp_2022-01-17_2022-01-23 > CVM-3509_rw_app_imp_2022-01-17_2022-01-23 > CVM-3509_rw_app_clk_2022-01-17_2022-01-23,9691.7035584294,362.0,346.0,912,912,False
129,_AlwaysOn_wow_web_view_2022-01-17_2022-01-23 > _AlwaysOn_wow_web_clk_2022-01-17_2022-01-23 > CVM-3509_rw_app_imp_2022-01-17_2022-01-23 > CVM-3509_rw_app_clk_2022-01-17_2022-01-23,2638.0594957817,45.0,36.0,101,101,False
130,FB_Impression_WebFeed,7660.3811653484,676.0,574.0,8957,8957,False
