,path,total_conversion_value,conversions,non_conversions,cnt,ppl,Converted
0,CVM-3509_rw_app_imp_2021-12-20_2021-12-26 > CVM-3509_rw_app_clk_2021-12-20_2021-12-26 > CVM-3509_email_open_2021-12-20_2021-12-26 > CVM-3509_rw_app_imp_2021-12-20_2021-12-26,166269.93459528,109.0,0.0,109,109,False
1,CVM-3509_email_open_2021-12-20_2021-12-26 > CVM-3509_email_clk_2021-12-20_2021-12-26 > CVM-3509_rw_app_imp_2021-12-20_2021-12-26,525195.99164696,778.0,0.0,778,778,False
2,CVM-3509_email_open_2021-12-20_2021-12-26 > CVM-3509_email_clk_2021-12-20_2021-12-26 > FB_Impression_SuggestedVideo > FB_Impression_MobileFeed,112034.99224388,135.0,0.0,134,134,False
3,_AlwaysOn_wow_web_view_2021-12-20_2021-12-26 > CVM-3509_email_open_2021-12-20_2021-12-26,202491.20239543,205.0,0.0,205,205,False
4,CVM-3509_rw_app_imp_2021-12-20_2021-12-26 > CVM-3509_rw_app_clk_2021-12-20_2021-12-26 > CVM-3509_email_open_2021-12-20_2021-12-26 > CVM-3509_rw_app_imp_2021-12-20_2021-12-26 > CVM-3509_email_open_2021-12-20_2021-12-26,33535.262090955,120.0,0.0,120,120,False
5,CVM-3509_email_open_2021-12-20_2021-12-26 > CVM-3509_email_clk_2021-12-20_2021-12-26 > FB_Impression_WebFeed > CVM-3509_email_open_2021-12-20_2021-12-26 > FB_Impression_WebFeed,-43267.2466968,105.0,0.0,105,105,False
6,FB_Impression_Instagram,124323.92063269,178.0,0.0,178,178,False
7,_AlwaysOn_wow_web_view_2021-12-20_2021-12-26 > CVM-3509_email_open_2021-12-20_2021-12-26 > CVM-3509_email_clk_2021-12-20_2021-12-26 > CVM-3509_email_open_2021-12-20_2021-12-26,413860.05290878,705.0,0.0,704,704,False
8,CVM-3509_email_open_2021-12-20_2021-12-26 > CVM-3509_email_clk_2021-12-20_2021-12-26 > CVM-3509_email_open_2021-12-20_2021-12-26 > CVM-3509_rw_app_imp_2021-12-20_2021-12-26,228259.06975459,340.0,0.0,338,338,False
9,CVM-3509_rw_app_imp_2021-12-20_2021-12-26 > CVM-3509_email_open_2021-12-20_2021-12-26 > CVM-3509_rw_app_push_imp_2021-12-20_2021-12-26,71922.156800906,107.0,0.0,107,107,False
10,CVM-3509_email_open_2021-12-20_2021-12-26 > CVM-3509_rw_app_imp_2021-12-20_2021-12-26 > CVM-3509_rw_app_clk_2021-12-20_2021-12-26 > CVM-3509_email_open_2021-12-20_2021-12-26,428037.23722379,1297.0,0.0,1295,1295,False
11,FB_Impression_MobileFeed > CVM-3509_email_open_2021-12-20_2021-12-26 > CVM-3509_email_clk_2021-12-20_2021-12-26,164838.11976374,130.0,0.0,130,130,False
12,CVM-3509_email_open_2021-12-20_2021-12-26 > _AlwaysOn_wow_web_view_2021-12-20_2021-12-26 > CVM-3509_email_open_2021-12-20_2021-12-26 > CVM-3509_email_clk_2021-12-20_2021-12-26,-49895.663443688,162.0,0.0,161,161,False
13,CVM-3509_rw_app_push_imp_2021-12-20_2021-12-26 > CVM-3509_rw_app_push_clk_2021-12-20_2021-12-26,11233.603409285,103.0,0.0,103,103,False
14,FB_Impression_MobileFeed,647830.47436225,1930.0,0.0,1929,1929,False
15,CVM-3509_rw_app_imp_2021-12-20_2021-12-26 > CVM-3509_rw_app_push_imp_2021-12-20_2021-12-26 > CVM-3509_rw_app_imp_2021-12-20_2021-12-26,99264.649338355,271.0,0.0,271,271,False
16,FB_Impression_MobileFeed > CVM-3509_email_open_2021-12-20_2021-12-26 > FB_Impression_MobileFeed,102446.83003681,156.0,0.0,156,156,False
17,CVM-3509_rw_app_clk_2021-12-20_2021-12-26,82898.101593494,150.0,0.0,150,150,False
18,CVM-3509_email_open_2021-12-20_2021-12-26 > CVM-3509_email_clk_2021-12-20_2021-12-26 > CVM-3509_email_open_2021-12-20_2021-12-26 > CVM-3509_email_clk_2021-12-20_2021-12-26 > CVM-3509_email_open_2021-12-20_2021-12-26 > CVM-3509_email_clk_2021-12-20_2021-12-26 > CVM-3509_email_open_2021-12-20_2021-12-26,115363.46832199,240.0,0.0,225,225,False
19,CVM-3509_rw_app_imp_2021-12-20_2021-12-26 > CVM-3509_rw_app_clk_2021-12-20_2021-12-26 > CVM-3509_rw_app_push_imp_2021-12-20_2021-12-26 > CVM-3509_rw_app_imp_2021-12-20_2021-12-26,89450.917009633,145.0,0.0,145,145,False
20,CVM-3509_email_open_2021-12-20_2021-12-26 > CVM-3509_rw_app_push_clk_2021-12-20_2021-12-26 > CVM-3509_email_open_2021-12-20_2021-12-26,-79858.97373355,150.0,0.0,149,149,False
22,CVM-3509_rw_app_imp_2021-12-20_2021-12-26 > CVM-3509_email_open_2021-12-20_2021-12-26 > CVM-3509_rw_app_imp_2021-12-20_2021-12-26,37657.043633521,118.0,0.0,117,117,False
23,CVM-3509_rw_app_imp_2021-12-20_2021-12-26 > CVM-3509_rw_app_clk_2021-12-20_2021-12-26 > FB_Impression_MobileFeed,367062.08214803,708.0,0.0,708,708,False
24,_AlwaysOn_wow_web_view_2021-12-20_2021-12-26 > CVM-3509_email_open_2021-12-20_2021-12-26 > CVM-3509_email_clk_2021-12-20_2021-12-26,423109.54403643,516.0,0.0,515,515,False
25,CVM-3509_rw_app_push_clk_2021-12-20_2021-12-26,259028.18822728,1382.0,0.0,1381,1381,False
26,_AlwaysOn_wow_web_view_2021-12-20_2021-12-26 > CVM-3509_email_open_2021-12-20_2021-12-26 > CVM-3509_email_clk_2021-12-20_2021-12-26 > CVM-3509_email_open_2021-12-20_2021-12-26 > CVM-3509_email_clk_2021-12-20_2021-12-26,226508.91417238,229.0,0.0,228,228,False
27,CVM-3509_rw_app_push_imp_2021-12-20_2021-12-26 > CVM-3509_rw_app_imp_2021-12-20_2021-12-26 > CVM-3509_rw_app_clk_2021-12-20_2021-12-26,75361.69037795,332.0,0.0,331,331,False
28,CVM-3509_email_open_2021-12-20_2021-12-26 > CVM-3509_rw_app_imp_2021-12-20_2021-12-26 > CVM-3509_rw_app_clk_2021-12-20_2021-12-26 > CVM-3509_rw_app_imp_2021-12-20_2021-12-26,16794.407585462,144.0,0.0,143,143,False
29,CVM-3509_rw_app_imp_2021-12-20_2021-12-26 > FB_Impression_MobileFeed,180315.28968045,297.0,0.0,296,296,False
30,CVM-3509_email_open_2021-12-20_2021-12-26 > FB_Impression_MobileFeed > CVM-3509_email_open_2021-12-20_2021-12-26 > FB_Impression_MobileFeed,141152.4957048,418.0,0.0,418,418,False
31,CVM-3509_email_open_2021-12-20_2021-12-26 > CVM-3509_email_clk_2021-12-20_2021-12-26 > FB_Impression_Instagram,99628.005532746,219.0,0.0,219,219,False
32,CVM-3509_email_open_2021-12-20_2021-12-26 > CVM-3509_rw_app_imp_2021-12-20_2021-12-26 > CVM-3509_rw_app_clk_2021-12-20_2021-12-26 > CVM-3509_rw_app_imp_2021-12-20_2021-12-26 > CVM-3509_email_open_2021-12-20_2021-12-26,56693.591959265,204.0,0.0,204,204,False
33,CVM-3509_rw_app_imp_2021-12-20_2021-12-26 > CVM-3509_rw_app_clk_2021-12-20_2021-12-26 > CVM-3509_email_open_2021-12-20_2021-12-26 > CVM-3509_email_clk_2021-12-20_2021-12-26 > CVM-3509_email_open_2021-12-20_2021-12-26,153487.06894944,331.0,0.0,329,329,False
34,CVM-3509_rw_app_imp_2021-12-20_2021-12-26 > CVM-3509_email_open_2021-12-20_2021-12-26 > CVM-3509_email_clk_2021-12-20_2021-12-26 > CVM-3509_email_open_2021-12-20_2021-12-26,284026.96934394,480.0,0.0,480,480,False
35,CVM-3509_email_open_2021-12-20_2021-12-26 > CVM-3509_email_clk_2021-12-20_2021-12-26 > CVM-3509_email_open_2021-12-20_2021-12-26 > FB_Impression_MobileFeed > CVM-3509_email_open_2021-12-20_2021-12-26 > FB_Impression_MobileFeed,75355.216917929,446.0,0.0,445,445,False
36,CVM-3509_email_open_2021-12-20_2021-12-26 > CVM-3509_email_clk_2021-12-20_2021-12-26 > CVM-3509_email_open_2021-12-20_2021-12-26 > CVM-3509_rw_app_push_imp_2021-12-20_2021-12-26 > CVM-3509_email_open_2021-12-20_2021-12-26,106280.14098158,147.0,0.0,146,146,False
37,CVM-3509_rw_app_imp_2021-12-20_2021-12-26 > CVM-3509_rw_app_clk_2021-12-20_2021-12-26 > CVM-3509_rw_app_imp_2021-12-20_2021-12-26,1225925.4738402,2107.0,0.0,2104,2104,False
38,CVM-3509_rw_app_imp_2021-12-20_2021-12-26 > CVM-3509_rw_app_clk_2021-12-20_2021-12-26 > CVM-3509_email_open_2021-12-20_2021-12-26,865327.3541165,1466.0,0.0,1465,1465,False
39,CVM-3509_email_open_2021-12-20_2021-12-26 > CVM-3509_email_clk_2021-12-20_2021-12-26 > FB_Impression_MobileFeed > CVM-3509_email_open_2021-12-20_2021-12-26,94746.32030351,164.0,0.0,164,164,False
40,CVM-3509_email_open_2021-12-20_2021-12-26 > FB_Impression_MobileFeed > CVM-3509_email_open_2021-12-20_2021-12-26 > CVM-3509_email_clk_2021-12-20_2021-12-26 > FB_Impression_MobileFeed,17241.770697529,152.0,0.0,152,152,False
41,CVM-3509_email_open_2021-12-20_2021-12-26 > CVM-3509_email_clk_2021-12-20_2021-12-26 > CVM-3509_email_open_2021-12-20_2021-12-26 > CVM-3509_email_clk_2021-12-20_2021-12-26,1508521.543082,5891.0,0.0,5868,5868,False
42,CVM-3509_email_open_2021-12-20_2021-12-26 > CVM-3509_email_clk_2021-12-20_2021-12-26 > FB_Impression_MobileFeed > FB_Impression_Instagram > FB_Impression_MobileFeed,88746.356232308,128.0,0.0,128,128,False
43,CVM-3509_rw_app_imp_2021-12-20_2021-12-26 > CVM-3509_rw_app_push_clk_2021-12-20_2021-12-26 > CVM-3509_rw_app_imp_2021-12-20_2021-12-26,-9084.5063409514,147.0,0.0,147,147,False
44,CVM-3509_email_open_2021-12-20_2021-12-26 > CVM-3509_rw_app_push_clk_2021-12-20_2021-12-26,73534.281402055,224.0,0.0,224,224,False
45,FB_Impression_SuggestedVideo > FB_Impression_MobileFeed,4468.3874520877,126.0,0.0,126,126,False
46,FB_Impression_MobileFeed > CVM-3509_rw_app_push_imp_2021-12-20_2021-12-26 > FB_Impression_MobileFeed,158325.82952363,194.0,0.0,194,194,False
47,CVM-3509_rw_app_imp_2021-12-20_2021-12-26 > CVM-3509_rw_app_clk_2021-12-20_2021-12-26 > CVM-3509_rw_app_imp_2021-12-20_2021-12-26 > CVM-3509_rw_app_push_imp_2021-12-20_2021-12-26,224494.95676072,215.0,0.0,215,215,False
48,CVM-3509_rw_app_imp_2021-12-20_2021-12-26 > CVM-3509_email_open_2021-12-20_2021-12-26 > CVM-3509_rw_app_imp_2021-12-20_2021-12-26 > CVM-3509_email_open_2021-12-20_2021-12-26,67729.586632477,119.0,0.0,119,119,False
49,CVM-3509_rw_app_imp_2021-12-20_2021-12-26 > CVM-3509_rw_app_clk_2021-12-20_2021-12-26 > CVM-3509_rw_app_push_clk_2021-12-20_2021-12-26,208246.14007622,430.0,0.0,430,430,False
50,CVM-3509_email_open_2021-12-20_2021-12-26 > CVM-3509_email_clk_2021-12-20_2021-12-26 > CVM-3509_rw_app_push_clk_2021-12-20_2021-12-26,-126134.30574562,396.0,0.0,394,394,False
51,CVM-3509_email_open_2021-12-20_2021-12-26 > CVM-3509_email_clk_2021-12-20_2021-12-26 > CVM-3509_rw_app_push_imp_2021-12-20_2021-12-26,340583.53050349,454.0,0.0,453,453,False
52,CVM-3509_rw_app_push_clk_2021-12-20_2021-12-26 > CVM-3509_rw_app_imp_2021-12-20_2021-12-26,43339.170382744,135.0,0.0,135,135,False
53,CVM-3509_email_open_2021-12-20_2021-12-26 > CVM-3509_email_clk_2021-12-20_2021-12-26 > FB_Impression_WebFeed,-17935.155300566,138.0,0.0,138,138,False
54,CVM-3509_rw_app_imp_2021-12-20_2021-12-26 > CVM-3509_email_open_2021-12-20_2021-12-26,277114.95769327,687.0,0.0,686,686,False
55,CVM-3509_email_open_2021-12-20_2021-12-26 > CVM-3509_email_clk_2021-12-20_2021-12-26 > FB_Impression_Instagram > FB_Impression_MobileFeed,81763.226253684,125.0,0.0,125,125,False
56,CVM-3509_email_open_2021-12-20_2021-12-26 > CVM-3509_email_clk_2021-12-20_2021-12-26 > CVM-3509_email_open_2021-12-20_2021-12-26 > CVM-3509_rw_app_push_imp_2021-12-20_2021-12-26,225065.7681153,582.0,0.0,581,581,False
57,FB_Impression_WebFeed,107082.30976538,188.0,0.0,188,188,False
58,CVM-3509_email_open_2021-12-20_2021-12-26 > CVM-3509_email_clk_2021-12-20_2021-12-26 > CVM-3509_email_open_2021-12-20_2021-12-26 > CVM-3509_email_clk_2021-12-20_2021-12-26 > CVM-3509_email_open_2021-12-20_2021-12-26,1083771.6297894,2462.0,0.0,2399,2399,False
59,FB_Impression_MobileFeed > CVM-3509_email_open_2021-12-20_2021-12-26 > CVM-3509_email_clk_2021-12-20_2021-12-26 > FB_Impression_MobileFeed,163946.2486506,179.0,0.0,179,179,False
60,CVM-3509_email_open_2021-12-20_2021-12-26 > CVM-3509_rw_app_imp_2021-12-20_2021-12-26,117445.06860587,470.0,0.0,468,468,False
61,CVM-3509_email_open_2021-12-20_2021-12-26 > CVM-3509_email_clk_2021-12-20_2021-12-26 > CVM-3509_rw_app_imp_2021-12-20_2021-12-26 > CVM-3509_rw_app_push_imp_2021-12-20_2021-12-26,91595.208696719,108.0,0.0,108,108,False
62,CVM-3509_email_open_2021-12-20_2021-12-26 > CVM-3509_rw_app_imp_2021-12-20_2021-12-26 > CVM-3509_email_open_2021-12-20_2021-12-26,-20286.245354099,731.0,0.0,731,731,False
63,FB_Impression_MobileFeed > CVM-3509_rw_app_push_clk_2021-12-20_2021-12-26 > FB_Impression_MobileFeed,88660.508777122,126.0,0.0,126,126,False
64,CVM-3509_email_open_2021-12-20_2021-12-26 > CVM-3509_email_clk_2021-12-20_2021-12-26 > CVM-3509_email_open_2021-12-20_2021-12-26 > CVM-3509_rw_app_imp_2021-12-20_2021-12-26 > CVM-3509_email_open_2021-12-20_2021-12-26,151796.33720203,322.0,0.0,322,322,False
65,FB_Impression_MobileFeed > FB_Impression_Instagram > FB_Impression_MobileFeed,-13311.865220684,113.0,0.0,113,113,False
66,CVM-3509_email_open_2021-12-20_2021-12-26,4547284.1566341,11186.0,0.0,11174,11174,False
67,CVM-3509_email_open_2021-12-20_2021-12-26 > CVM-3509_email_clk_2021-12-20_2021-12-26 > FB_Impression_SuggestedVideo,67622.789031624,124.0,0.0,124,124,False
68,CVM-3509_rw_app_push_imp_2021-12-20_2021-12-26 > CVM-3509_rw_app_imp_2021-12-20_2021-12-26,6150.8901409747,234.0,0.0,234,234,False
69,CVM-3509_email_open_2021-12-20_2021-12-26 > CVM-3509_email_clk_2021-12-20_2021-12-26 > FB_Impression_Instagram > CVM-3509_email_open_2021-12-20_2021-12-26 > FB_Impression_Instagram,17839.997533251,119.0,0.0,119,119,False
70,CVM-3509_email_open_2021-12-20_2021-12-26 > CVM-3509_rw_app_imp_2021-12-20_2021-12-26 > CVM-3509_rw_app_clk_2021-12-20_2021-12-26,423261.07971815,804.0,0.0,804,804,False
71,CVM-3509_rw_app_imp_2021-12-20_2021-12-26 > CVM-3509_email_open_2021-12-20_2021-12-26 > CVM-3509_email_clk_2021-12-20_2021-12-26,432783.28121147,385.0,0.0,384,384,False
72,CVM-3509_rw_app_imp_2021-12-20_2021-12-26,1344425.0529752,4617.0,0.0,4614,4614,False
73,CVM-3509_rw_app_imp_2021-12-20_2021-12-26 > CVM-3509_rw_app_clk_2021-12-20_2021-12-26,5046249.530234,8981.0,0.0,8975,8975,False
74,_AlwaysOn_wow_web_view_2021-12-20_2021-12-26 > _AlwaysOn_wow_web_clk_2021-12-20_2021-12-26,339914.68625362,245.0,0.0,245,245,False
75,FB_Impression_InstagramStory,33134.07051843,120.0,0.0,120,120,False
76,CVM-3509_email_open_2021-12-20_2021-12-26 > CVM-3509_email_clk_2021-12-20_2021-12-26 > CVM-3509_email_open_2021-12-20_2021-12-26 > FB_Impression_Instagram,23216.344292257,149.0,0.0,149,149,False
77,CVM-3509_rw_app_push_clk_2021-12-20_2021-12-26 > CVM-3509_rw_app_imp_2021-12-20_2021-12-26 > CVM-3509_rw_app_clk_2021-12-20_2021-12-26,190160.6606217,349.0,0.0,348,348,False
78,FB_Impression_MobileFeed > FB_Click_MobileFeed,107811.80658306,107.0,0.0,107,107,False
79,CVM-3509_rw_app_imp_2021-12-20_2021-12-26 > CVM-3509_rw_app_clk_2021-12-20_2021-12-26 > CVM-3509_rw_app_imp_2021-12-20_2021-12-26 > CVM-3509_email_open_2021-12-20_2021-12-26,148487.70277268,197.0,0.0,197,197,False
80,CVM-3509_email_open_2021-12-20_2021-12-26 > _AlwaysOn_wow_web_view_2021-12-20_2021-12-26 > CVM-3509_email_open_2021-12-20_2021-12-26,48755.440752934,105.0,0.0,105,105,False
81,CVM-3509_email_open_2021-12-20_2021-12-26 > CVM-3509_email_clk_2021-12-20_2021-12-26 > FB_Impression_MobileFeed > CVM-3509_email_open_2021-12-20_2021-12-26 > FB_Impression_MobileFeed > CVM-3509_email_open_2021-12-20_2021-12-26 > FB_Impression_MobileFeed,21990.455615887,100.0,0.0,100,100,False
82,CVM-3509_rw_app_imp_2021-12-20_2021-12-26 > CVM-3509_rw_app_clk_2021-12-20_2021-12-26 > CVM-3509_email_open_2021-12-20_2021-12-26 > CVM-3509_email_clk_2021-12-20_2021-12-26,191189.16106425,366.0,0.0,365,365,False
83,CVM-3509_email_open_2021-12-20_2021-12-26 > CVM-3509_email_clk_2021-12-20_2021-12-26 > CVM-3509_email_open_2021-12-20_2021-12-26 > CVM-3509_rw_app_push_clk_2021-12-20_2021-12-26 > CVM-3509_email_open_2021-12-20_2021-12-26,169739.01222336,124.0,0.0,124,124,False
84,FB_Impression_MobileFeed > CVM-3509_rw_app_imp_2021-12-20_2021-12-26 > CVM-3509_rw_app_clk_2021-12-20_2021-12-26 > FB_Impression_MobileFeed,109091.62424981,180.0,0.0,180,180,False
85,CVM-3509_email_open_2021-12-20_2021-12-26 > CVM-3509_email_clk_2021-12-20_2021-12-26 > CVM-3509_email_open_2021-12-20_2021-12-26 > FB_Impression_MobileFeed,357546.42695704,954.0,0.0,953,953,False
86,CVM-3509_email_open_2021-12-20_2021-12-26 > FB_Impression_MobileFeed,324475.73014036,484.0,0.0,484,484,False
87,CVM-3509_email_open_2021-12-20_2021-12-26 > CVM-3509_email_clk_2021-12-20_2021-12-26 > CVM-3509_email_open_2021-12-20_2021-12-26 > FB_Impression_SuggestedVideo,89129.425955709,112.0,0.0,112,112,False
88,CVM-3509_email_open_2021-12-20_2021-12-26 > CVM-3509_email_clk_2021-12-20_2021-12-26 > CVM-3509_rw_app_push_imp_2021-12-20_2021-12-26 > CVM-3509_email_open_2021-12-20_2021-12-26,275806.647225,277.0,0.0,277,277,False
89,CVM-3509_email_open_2021-12-20_2021-12-26 > CVM-3509_email_clk_2021-12-20_2021-12-26 > CVM-3509_email_open_2021-12-20_2021-12-26 > CVM-3509_email_clk_2021-12-20_2021-12-26 > FB_Impression_MobileFeed,73139.600825099,172.0,0.0,172,172,False
90,CVM-3509_email_open_2021-12-20_2021-12-26 > CVM-3509_rw_app_imp_2021-12-20_2021-12-26 > CVM-3509_rw_app_clk_2021-12-20_2021-12-26 > CVM-3509_email_open_2021-12-20_2021-12-26 > CVM-3509_email_clk_2021-12-20_2021-12-26,36458.558907731,155.0,0.0,155,155,False
91,CVM-3509_email_open_2021-12-20_2021-12-26 > CVM-3509_email_clk_2021-12-20_2021-12-26 > CVM-3509_rw_app_imp_2021-12-20_2021-12-26 > CVM-3509_email_open_2021-12-20_2021-12-26 > CVM-3509_rw_app_push_imp_2021-12-20_2021-12-26,124156.45662127,166.0,0.0,164,164,False
92,CVM-3509_email_open_2021-12-20_2021-12-26 > CVM-3509_email_clk_2021-12-20_2021-12-26,8212735.1529114,18565.0,0.0,18552,18552,False
93,CVM-3509_email_open_2021-12-20_2021-12-26 > CVM-3509_rw_app_push_imp_2021-12-20_2021-12-26 > CVM-3509_email_open_2021-12-20_2021-12-26,89395.518178603,216.0,0.0,216,216,False
94,_AlwaysOn_wow_web_view_2021-12-20_2021-12-26,465304.81307384,555.0,0.0,554,554,False
95,CVM-3509_rw_app_imp_2021-12-20_2021-12-26 > CVM-3509_rw_app_clk_2021-12-20_2021-12-26 > CVM-3509_rw_app_push_imp_2021-12-20_2021-12-26,923086.98838535,908.0,0.0,905,905,False
96,CVM-3509_email_open_2021-12-20_2021-12-26 > CVM-3509_email_clk_2021-12-20_2021-12-26 > CVM-3509_rw_app_imp_2021-12-20_2021-12-26 > CVM-3509_email_open_2021-12-20_2021-12-26,335614.67138117,1518.0,0.0,1516,1516,False
97,CVM-3509_email_open_2021-12-20_2021-12-26 > CVM-3509_email_clk_2021-12-20_2021-12-26 > FB_Impression_MobileFeed > CVM-3509_email_open_2021-12-20_2021-12-26 > FB_Impression_MobileFeed,848770.3001396,2217.0,0.0,2217,2217,False
98,CVM-3509_rw_app_imp_2021-12-20_2021-12-26 > CVM-3509_email_open_2021-12-20_2021-12-26 > CVM-3509_email_clk_2021-12-20_2021-12-26 > CVM-3509_rw_app_imp_2021-12-20_2021-12-26 > CVM-3509_email_open_2021-12-20_2021-12-26,163046.5831749,128.0,0.0,128,128,False
99,CVM-3509_rw_app_imp_2021-12-20_2021-12-26 > CVM-3509_rw_app_push_imp_2021-12-20_2021-12-26,977712.36938126,1228.0,0.0,1228,1228,False
100,CVM-3509_email_open_2021-12-20_2021-12-26 > CVM-3509_email_clk_2021-12-20_2021-12-26 > FB_Impression_InstagramStory,105594.67904505,108.0,0.0,108,108,False
101,CVM-3509_rw_app_imp_2021-12-20_2021-12-26 > CVM-3509_rw_app_push_clk_2021-12-20_2021-12-26,415472.19834335,615.0,0.0,614,614,False
102,CVM-3509_email_open_2021-12-20_2021-12-26 > CVM-3509_email_clk_2021-12-20_2021-12-26 > CVM-3509_rw_app_imp_2021-12-20_2021-12-26 > CVM-3509_email_open_2021-12-20_2021-12-26 > CVM-3509_rw_app_imp_2021-12-20_2021-12-26,-68569.811992967,153.0,0.0,152,152,False
103,CVM-3509_email_open_2021-12-20_2021-12-26 > CVM-3509_email_clk_2021-12-20_2021-12-26 > CVM-3509_rw_app_push_clk_2021-12-20_2021-12-26 > CVM-3509_email_open_2021-12-20_2021-12-26,152238.25559379,340.0,0.0,338,338,False
104,CVM-3509_email_open_2021-12-20_2021-12-26 > CVM-3509_email_clk_2021-12-20_2021-12-26 > CVM-3509_email_open_2021-12-20_2021-12-26 > CVM-3509_rw_app_push_clk_2021-12-20_2021-12-26,74406.0599259,347.0,0.0,346,346,False
105,CVM-3509_email_open_2021-12-20_2021-12-26 > CVM-3509_rw_app_imp_2021-12-20_2021-12-26 > CVM-3509_email_open_2021-12-20_2021-12-26 > CVM-3509_email_clk_2021-12-20_2021-12-26,160942.10368597,189.0,0.0,189,189,False
106,_AlwaysOn_wow_web_view_2021-12-20_2021-12-26 > CVM-3509_rw_app_imp_2021-12-20_2021-12-26 > CVM-3509_rw_app_clk_2021-12-20_2021-12-26,290347.72180157,369.0,0.0,368,368,False
107,CVM-3509_email_open_2021-12-20_2021-12-26 > CVM-3509_rw_app_push_imp_2021-12-20_2021-12-26,-12060.674659738,518.0,0.0,518,518,False
108,CVM-3509_email_open_2021-12-20_2021-12-26 > CVM-3509_email_clk_2021-12-20_2021-12-26 > CVM-3509_email_open_2021-12-20_2021-12-26,12259252.792817,33421.0,0.0,33384,33384,False
109,CVM-3509_email_open_2021-12-20_2021-12-26 > CVM-3509_email_clk_2021-12-20_2021-12-26 > CVM-3509_email_open_2021-12-20_2021-12-26 > CVM-3509_email_clk_2021-12-20_2021-12-26 > CVM-3509_email_open_2021-12-20_2021-12-26 > CVM-3509_email_clk_2021-12-20_2021-12-26,167317.51224457,340.0,0.0,331,331,False
110,CVM-3509_rw_app_push_imp_2021-12-20_2021-12-26,992603.88578795,1992.0,0.0,1992,1992,False
111,CVM-3509_email_open_2021-12-20_2021-12-26 > CVM-3509_email_clk_2021-12-20_2021-12-26 > CVM-3509_rw_app_imp_2021-12-20_2021-12-26 > CVM-3509_email_open_2021-12-20_2021-12-26 > CVM-3509_email_clk_2021-12-20_2021-12-26,83044.304538999,143.0,0.0,142,142,False
112,CVM-3509_email_open_2021-12-20_2021-12-26 > CVM-3509_email_clk_2021-12-20_2021-12-26 > FB_Impression_MobileFeed,998321.09648477,2298.0,0.0,2296,2296,False
113,CVM-3509_email_open_2021-12-20_2021-12-26 > CVM-3509_email_clk_2021-12-20_2021-12-26 > FB_Impression_MobileFeed > CVM-3509_email_open_2021-12-20_2021-12-26 > CVM-3509_email_clk_2021-12-20_2021-12-26 > FB_Impression_MobileFeed,204383.24722195,403.0,0.0,402,402,False
