,channel_name,total_conversions,total_conversion_value,normalised_conversion_value
0,CVM-3509_rw_app_push_imp_2022-02-14_2022-02-20,4461.474282692053,383533.7176702861,0.0515119464428055
1,CVM-3509_rw_app_push_clk_2022-02-14_2022-02-20,2895.956961523205,195641.44762172562,0.02627636452174187
2,CVM-3509_rw_app_imp_2022-02-14_2022-02-20,15935.265767552559,1389706.950583498,0.18664984774869975
3,_AlwaysOn_wow_web_view_2022-02-14_2022-02-20,1415.4677376702368,310639.8091318581,0.04172165437814207
4,CVM-3509_rw_app_clk_2022-02-14_2022-02-20,8777.900634668782,904959.2745682294,0.12154397784800107
5,FB_Impression_InstagramStory,330.1090836969457,18536.602556785896,0.0024896285102046535
6,CVM-3509_email_open_2022-02-14_2022-02-20,25128.303583234163,2497064.7698857435,0.3353777276008613
7,FB_Impression_MobileFeed,7652.5287584291955,762972.4613690396,0.10247390191952961
8,CVM-3509_email_clk_2022-02-14_2022-02-20,6437.12713209044,706790.5176696179,0.0949281734957636
9,FB_Impression_Instagram,695.2297368769008,71529.6174690309,0.009607055792958116
10,FB_Impression_WebFeed,400.1322226629644,26673.62718472296,0.003582502376377794
11,_AlwaysOn_wow_web_clk_2022-02-14_2022-02-20,170.0561946317599,49330.59766779824,0.006625532483795177
12,FB_Impression_SuggestedVideo,960.3173343911146,90609.64265916019,0.012169670735110997
13,FB_Impression_Other,100.0330556657411,-8038.456386350492,-0.001079635285710356
14,FB_Impression_FacebookStory,295.0975142139363,45578.936421973216,0.006121651431718749
