,Unnamed: 0,path,total_conversion_value,conversions,non_conversions,cnt,ppl,Converted
0,1,CVM-3509_rw_app_imp_2021-12-20_2021-12-26 > CVM-3509_email_open_2021-12-20_2021-12-26 > CVM-3509_rw_app_imp_2021-12-20_2021-12-26,50824.174083951,60,46,105,105,False
1,2,CVM-3509_rw_app_push_clk_2021-12-20_2021-12-26,228703.50985538,744,585,1328,1328,False
2,3,CVM-3509_email_open_2021-12-20_2021-12-26 > CVM-3509_email_clk_2021-12-20_2021-12-26 > CVM-3509_rw_app_imp_2021-12-20_2021-12-26 > CVM-3509_rw_app_push_imp_2021-12-20_2021-12-26,63925.078452752,67,36,103,103,False
3,4,CVM-3509_email_open_2021-12-20_2021-12-26 > FB_Impression_MobileFeed > CVM-3509_email_open_2021-12-20_2021-12-26 > FB_Impression_MobileFeed,127292.43003456,229,163,392,392,False
4,5,CVM-3509_email_open_2021-12-20_2021-12-26 > CVM-3509_email_clk_2021-12-20_2021-12-26 > FB_Impression_Instagram,75192.796260173,122,95,217,217,False
5,6,CVM-3509_rw_app_imp_2021-12-20_2021-12-26 > CVM-3509_rw_app_clk_2021-12-20_2021-12-26 > CVM-3509_rw_app_push_clk_2021-12-20_2021-12-26,196535.14850438,261,155,416,416,False
6,7,CVM-3509_rw_app_imp_2021-12-20_2021-12-26 > CVM-3509_email_open_2021-12-20_2021-12-26 > CVM-3509_rw_app_push_imp_2021-12-20_2021-12-26,70079.087411368,74,32,106,106,False
7,8,_AlwaysOn_wow_web_view_2021-12-20_2021-12-26 > CVM-3509_email_open_2021-12-20_2021-12-26 > CVM-3509_email_clk_2021-12-20_2021-12-26 > CVM-3509_email_open_2021-12-20_2021-12-26,387337.14036578,417,256,673,673,False
8,9,CVM-3509_email_open_2021-12-20_2021-12-26 > CVM-3509_email_clk_2021-12-20_2021-12-26 > FB_Impression_SuggestedVideo > FB_Impression_MobileFeed,83661.114082898,88,50,137,137,False
9,10,CVM-3509_email_open_2021-12-20_2021-12-26 > CVM-3509_email_clk_2021-12-20_2021-12-26 > CVM-3509_email_open_2021-12-20_2021-12-26 > CVM-3509_rw_app_push_imp_2021-12-20_2021-12-26 > CVM-3509_email_open_2021-12-20_2021-12-26,133112.77866799,89,48,136,136,False
10,11,CVM-3509_email_open_2021-12-20_2021-12-26 > CVM-3509_rw_app_imp_2021-12-20_2021-12-26 > CVM-3509_rw_app_clk_2021-12-20_2021-12-26,366152.44632118,457,314,771,771,False
11,12,CVM-3509_rw_app_imp_2021-12-20_2021-12-26 > CVM-3509_email_open_2021-12-20_2021-12-26,221997.03945077,399,249,648,648,False
12,13,CVM-3509_email_open_2021-12-20_2021-12-26 > CVM-3509_rw_app_push_clk_2021-12-20_2021-12-26 > CVM-3509_email_open_2021-12-20_2021-12-26,-78721.821236398,82,55,137,137,False
13,14,CVM-3509_rw_app_imp_2021-12-20_2021-12-26 > CVM-3509_rw_app_clk_2021-12-20_2021-12-26 > CVM-3509_rw_app_push_imp_2021-12-20_2021-12-26 > CVM-3509_rw_app_imp_2021-12-20_2021-12-26,66777.34820338,80,60,140,140,False
14,15,CVM-3509_email_open_2021-12-20_2021-12-26 > CVM-3509_rw_app_imp_2021-12-20_2021-12-26 > CVM-3509_rw_app_clk_2021-12-20_2021-12-26 > CVM-3509_rw_app_imp_2021-12-20_2021-12-26,4935.7292231746,78,58,136,136,False
15,16,CVM-3509_email_open_2021-12-20_2021-12-26 > FB_Impression_MobileFeed > CVM-3509_email_open_2021-12-20_2021-12-26 > CVM-3509_email_clk_2021-12-20_2021-12-26 > FB_Impression_MobileFeed,19997.411175353,85,64,149,149,False
16,17,FB_Impression_InstagramStory,31437.672500405,59,58,117,117,False
17,18,CVM-3509_email_open_2021-12-20_2021-12-26 > CVM-3509_email_clk_2021-12-20_2021-12-26 > CVM-3509_email_open_2021-12-20_2021-12-26 > CVM-3509_rw_app_imp_2021-12-20_2021-12-26,249026.36476368,189,131,319,319,False
18,19,CVM-3509_rw_app_imp_2021-12-20_2021-12-26 > CVM-3509_email_open_2021-12-20_2021-12-26 > CVM-3509_rw_app_imp_2021-12-20_2021-12-26 > CVM-3509_email_open_2021-12-20_2021-12-26,54783.845725897,66,47,113,113,False
19,20,CVM-3509_rw_app_imp_2021-12-20_2021-12-26 > CVM-3509_rw_app_clk_2021-12-20_2021-12-26 > CVM-3509_rw_app_imp_2021-12-20_2021-12-26 > CVM-3509_rw_app_push_imp_2021-12-20_2021-12-26,222145.2607183,136,72,208,208,False
20,21,CVM-3509_rw_app_imp_2021-12-20_2021-12-26 > CVM-3509_rw_app_clk_2021-12-20_2021-12-26 > CVM-3509_email_open_2021-12-20_2021-12-26 > CVM-3509_email_clk_2021-12-20_2021-12-26 > CVM-3509_email_open_2021-12-20_2021-12-26,146827.79936207,204,114,315,315,False
21,22,CVM-3509_email_open_2021-12-20_2021-12-26 > CVM-3509_rw_app_imp_2021-12-20_2021-12-26 > CVM-3509_email_open_2021-12-20_2021-12-26,41301.688983214,401,299,699,699,False
22,23,FB_Impression_MobileFeed > CVM-3509_email_open_2021-12-20_2021-12-26 > FB_Impression_MobileFeed,93849.373238803,88,64,152,152,False
23,24,CVM-3509_email_open_2021-12-20_2021-12-26 > CVM-3509_email_clk_2021-12-20_2021-12-26 > FB_Impression_SuggestedVideo,48445.443240453,74,50,124,124,False
24,25,FB_Impression_MobileFeed > FB_Click_MobileFeed,115250.77707499,79,38,117,117,False
25,26,CVM-3509_rw_app_imp_2021-12-20_2021-12-26 > CVM-3509_rw_app_push_clk_2021-12-20_2021-12-26 > CVM-3509_rw_app_imp_2021-12-20_2021-12-26,420.74923019623,86,58,143,143,False
26,27,_AlwaysOn_wow_web_view_2021-12-20_2021-12-26 > CVM-3509_email_open_2021-12-20_2021-12-26,208420.10524439,131,71,202,202,False
27,28,CVM-3509_email_open_2021-12-20_2021-12-26 > CVM-3509_email_clk_2021-12-20_2021-12-26 > FB_Impression_MobileFeed > FB_Impression_Instagram > FB_Impression_MobileFeed,71523.911705832,65,54,119,119,False
28,29,CVM-3509_email_open_2021-12-20_2021-12-26 > _AlwaysOn_wow_web_view_2021-12-20_2021-12-26 > CVM-3509_email_open_2021-12-20_2021-12-26 > CVM-3509_email_clk_2021-12-20_2021-12-26,-48813.525680101,84,68,152,152,False
29,30,CVM-3509_rw_app_push_clk_2021-12-20_2021-12-26 > CVM-3509_rw_app_imp_2021-12-20_2021-12-26,51590.41570361,77,55,131,131,False
30,31,FB_Impression_WebFeed,124926.88522764,112,81,193,193,False
31,32,FB_Impression_MobileFeed,644502.79998145,1098,786,1884,1884,False
32,33,CVM-3509_email_open_2021-12-20_2021-12-26 > CVM-3509_email_clk_2021-12-20_2021-12-26 > CVM-3509_rw_app_push_clk_2021-12-20_2021-12-26 > CVM-3509_email_open_2021-12-20_2021-12-26,156339.21297178,198,131,327,327,False
33,34,CVM-3509_email_open_2021-12-20_2021-12-26 > CVM-3509_email_clk_2021-12-20_2021-12-26 > CVM-3509_rw_app_push_imp_2021-12-20_2021-12-26,424595.00688136,279,160,438,438,False
34,35,CVM-3509_rw_app_imp_2021-12-20_2021-12-26 > CVM-3509_rw_app_clk_2021-12-20_2021-12-26 > CVM-3509_rw_app_imp_2021-12-20_2021-12-26,1191162.9129214,1276,746,2019,2019,False
35,36,CVM-3509_rw_app_imp_2021-12-20_2021-12-26 > CVM-3509_rw_app_clk_2021-12-20_2021-12-26 > CVM-3509_rw_app_imp_2021-12-20_2021-12-26 > CVM-3509_email_open_2021-12-20_2021-12-26,138745.08248802,126,58,183,183,False
36,37,CVM-3509_email_open_2021-12-20_2021-12-26 > CVM-3509_email_clk_2021-12-20_2021-12-26 > FB_Impression_InstagramStory,107107.54186643,73,39,112,112,False
37,38,CVM-3509_email_open_2021-12-20_2021-12-26 > CVM-3509_email_clk_2021-12-20_2021-12-26 > CVM-3509_email_open_2021-12-20_2021-12-26 > CVM-3509_email_clk_2021-12-20_2021-12-26 > FB_Impression_MobileFeed,80522.986566014,112,61,173,173,False
38,39,CVM-3509_email_open_2021-12-20_2021-12-26 > CVM-3509_email_clk_2021-12-20_2021-12-26 > CVM-3509_rw_app_push_imp_2021-12-20_2021-12-26 > CVM-3509_email_open_2021-12-20_2021-12-26,209865.01986119,167,95,261,261,False
39,40,CVM-3509_rw_app_push_imp_2021-12-20_2021-12-26,947878.05719698,1147,772,1918,1918,False
40,41,CVM-3509_email_open_2021-12-20_2021-12-26 > CVM-3509_email_clk_2021-12-20_2021-12-26 > FB_Impression_Instagram > CVM-3509_email_open_2021-12-20_2021-12-26 > FB_Impression_Instagram,29698.027329274,70,47,117,117,False
41,42,_AlwaysOn_wow_web_view_2021-12-20_2021-12-26 > CVM-3509_email_open_2021-12-20_2021-12-26 > CVM-3509_email_clk_2021-12-20_2021-12-26 > CVM-3509_email_open_2021-12-20_2021-12-26 > CVM-3509_email_clk_2021-12-20_2021-12-26,229409.22250242,141,80,219,219,False
42,43,_AlwaysOn_wow_web_view_2021-12-20_2021-12-26 > _AlwaysOn_wow_web_clk_2021-12-20_2021-12-26,304704.32231802,149,90,239,239,False
43,44,CVM-3509_rw_app_imp_2021-12-20_2021-12-26 > CVM-3509_rw_app_push_imp_2021-12-20_2021-12-26 > CVM-3509_rw_app_imp_2021-12-20_2021-12-26,88935.24735772,150,104,254,254,False
44,45,CVM-3509_email_open_2021-12-20_2021-12-26 > CVM-3509_email_clk_2021-12-20_2021-12-26 > CVM-3509_email_open_2021-12-20_2021-12-26 > CVM-3509_email_clk_2021-12-20_2021-12-26 > CVM-3509_email_open_2021-12-20_2021-12-26 > CVM-3509_email_clk_2021-12-20_2021-12-26 > CVM-3509_email_open_2021-12-20_2021-12-26,66924.655074782,132,88,207,207,False
45,46,FB_Impression_Instagram,101415.13264604,108,65,173,173,False
46,47,CVM-3509_email_open_2021-12-20_2021-12-26 > CVM-3509_email_clk_2021-12-20_2021-12-26 > CVM-3509_rw_app_imp_2021-12-20_2021-12-26,442305.8925333,470,272,739,739,False
47,48,CVM-3509_rw_app_imp_2021-12-20_2021-12-26 > CVM-3509_rw_app_clk_2021-12-20_2021-12-26 > CVM-3509_email_open_2021-12-20_2021-12-26 > CVM-3509_rw_app_imp_2021-12-20_2021-12-26,151662.62219889,65,43,108,108,False
48,49,CVM-3509_email_open_2021-12-20_2021-12-26 > CVM-3509_email_clk_2021-12-20_2021-12-26 > FB_Impression_MobileFeed > CVM-3509_email_open_2021-12-20_2021-12-26,120322.80073142,102,64,166,166,False
49,50,CVM-3509_email_open_2021-12-20_2021-12-26 > _AlwaysOn_wow_web_view_2021-12-20_2021-12-26 > CVM-3509_email_open_2021-12-20_2021-12-26,31485.815261947,67,33,100,100,False
50,51,CVM-3509_email_open_2021-12-20_2021-12-26 > CVM-3509_rw_app_imp_2021-12-20_2021-12-26 > CVM-3509_rw_app_clk_2021-12-20_2021-12-26 > CVM-3509_rw_app_imp_2021-12-20_2021-12-26 > CVM-3509_email_open_2021-12-20_2021-12-26,56496.409398603,119,79,197,197,False
51,52,FB_Impression_MobileFeed > CVM-3509_rw_app_push_clk_2021-12-20_2021-12-26 > FB_Impression_MobileFeed,92942.30461212,75,51,126,126,False
52,53,CVM-3509_email_open_2021-12-20_2021-12-26 > FB_Impression_WebFeed,8766.1180949048,55,48,103,103,False
53,54,CVM-3509_email_open_2021-12-20_2021-12-26 > CVM-3509_email_clk_2021-12-20_2021-12-26 > CVM-3509_email_open_2021-12-20_2021-12-26 > FB_Impression_MobileFeed > CVM-3509_email_open_2021-12-20_2021-12-26 > FB_Impression_MobileFeed,97609.968915493,237,200,437,437,False
54,55,CVM-3509_rw_app_imp_2021-12-20_2021-12-26 > CVM-3509_email_open_2021-12-20_2021-12-26 > CVM-3509_email_clk_2021-12-20_2021-12-26 > CVM-3509_rw_app_imp_2021-12-20_2021-12-26 > CVM-3509_email_open_2021-12-20_2021-12-26,157473.06492113,77,48,125,125,False
55,56,_AlwaysOn_wow_web_view_2021-12-20_2021-12-26,443056.98205668,338,184,521,521,False
56,57,CVM-3509_rw_app_imp_2021-12-20_2021-12-26 > CVM-3509_rw_app_clk_2021-12-20_2021-12-26 > CVM-3509_email_open_2021-12-20_2021-12-26,790582.32414834,871,508,1378,1378,False
57,58,CVM-3509_email_open_2021-12-20_2021-12-26 > CVM-3509_email_clk_2021-12-20_2021-12-26 > FB_Impression_Instagram > FB_Impression_MobileFeed,96043.715329518,71,53,124,124,False
58,59,CVM-3509_email_open_2021-12-20_2021-12-26 > CVM-3509_email_clk_2021-12-20_2021-12-26 > CVM-3509_email_open_2021-12-20_2021-12-26 > FB_Impression_MobileFeed,431135.99910256,544,412,956,956,False
59,60,CVM-3509_email_open_2021-12-20_2021-12-26 > CVM-3509_email_clk_2021-12-20_2021-12-26,7720778.2639886,10456,7355,17797,17797,False
60,61,FB_Impression_MobileFeed > CVM-3509_email_open_2021-12-20_2021-12-26 > CVM-3509_email_clk_2021-12-20_2021-12-26,177072.60708826,87,43,130,130,False
61,62,FB_Impression_MobileFeed > CVM-3509_rw_app_push_imp_2021-12-20_2021-12-26 > FB_Impression_MobileFeed,153083.51044315,118,74,191,191,False
62,63,FB_Impression_SuggestedVideo > FB_Impression_MobileFeed,27473.670267652,70,57,127,127,False
63,64,CVM-3509_rw_app_imp_2021-12-20_2021-12-26 > CVM-3509_email_open_2021-12-20_2021-12-26 > CVM-3509_email_clk_2021-12-20_2021-12-26 > CVM-3509_email_open_2021-12-20_2021-12-26,286910.20538001,285,171,455,455,False
64,65,_AlwaysOn_wow_web_view_2021-12-20_2021-12-26 > CVM-3509_rw_app_imp_2021-12-20_2021-12-26 > CVM-3509_rw_app_clk_2021-12-20_2021-12-26,280867.57127309,235,122,357,357,False
65,66,CVM-3509_rw_app_imp_2021-12-20_2021-12-26 > CVM-3509_rw_app_clk_2021-12-20_2021-12-26 > CVM-3509_email_open_2021-12-20_2021-12-26 > CVM-3509_rw_app_imp_2021-12-20_2021-12-26 > CVM-3509_email_open_2021-12-20_2021-12-26,33634.730210633,79,42,121,121,False
66,67,_AlwaysOn_wow_web_view_2021-12-20_2021-12-26 > CVM-3509_email_open_2021-12-20_2021-12-26 > CVM-3509_email_clk_2021-12-20_2021-12-26,420378.84836396,311,174,484,484,False
67,68,CVM-3509_rw_app_push_imp_2021-12-20_2021-12-26 > CVM-3509_rw_app_imp_2021-12-20_2021-12-26 > CVM-3509_rw_app_clk_2021-12-20_2021-12-26,107513.74730631,192,123,315,315,False
68,69,CVM-3509_email_open_2021-12-20_2021-12-26 > CVM-3509_email_clk_2021-12-20_2021-12-26 > FB_Impression_MobileFeed,898142.97957552,1297,959,2255,2255,False
69,70,CVM-3509_rw_app_imp_2021-12-20_2021-12-26 > CVM-3509_rw_app_push_imp_2021-12-20_2021-12-26,932702.8762351,734,446,1180,1180,False
70,71,CVM-3509_email_open_2021-12-20_2021-12-26 > FB_Impression_MobileFeed,325424.87299495,292,190,482,482,False
71,72,CVM-3509_rw_app_imp_2021-12-20_2021-12-26 > CVM-3509_rw_app_push_clk_2021-12-20_2021-12-26,428692.71941451,350,224,574,574,False
72,73,CVM-3509_email_open_2021-12-20_2021-12-26 > CVM-3509_email_clk_2021-12-20_2021-12-26 > CVM-3509_rw_app_imp_2021-12-20_2021-12-26 > CVM-3509_email_open_2021-12-20_2021-12-26 > CVM-3509_rw_app_imp_2021-12-20_2021-12-26,-21760.348169006,72,64,135,135,False
73,74,CVM-3509_email_open_2021-12-20_2021-12-26 > CVM-3509_email_clk_2021-12-20_2021-12-26 > CVM-3509_email_open_2021-12-20_2021-12-26 > CVM-3509_rw_app_push_clk_2021-12-20_2021-12-26 > CVM-3509_email_open_2021-12-20_2021-12-26,124824.92330052,76,45,121,121,False
74,75,FB_Impression_MobileFeed > CVM-3509_email_open_2021-12-20_2021-12-26 > CVM-3509_email_clk_2021-12-20_2021-12-26 > FB_Impression_MobileFeed,141042.98027285,122,55,177,177,False
75,76,CVM-3509_email_open_2021-12-20_2021-12-26 > CVM-3509_email_clk_2021-12-20_2021-12-26 > FB_Impression_WebFeed > CVM-3509_email_open_2021-12-20_2021-12-26 > FB_Impression_WebFeed,-42235.216658386,53,52,105,105,False
76,77,CVM-3509_email_open_2021-12-20_2021-12-26 > CVM-3509_email_clk_2021-12-20_2021-12-26 > CVM-3509_email_open_2021-12-20_2021-12-26 > CVM-3509_rw_app_push_clk_2021-12-20_2021-12-26,44621.193754991,185,156,338,338,False
77,78,CVM-3509_rw_app_clk_2021-12-20_2021-12-26,81683.160108877,95,48,143,143,False
78,79,CVM-3509_rw_app_imp_2021-12-20_2021-12-26 > CVM-3509_rw_app_clk_2021-12-20_2021-12-26 > FB_Impression_MobileFeed,407365.08716021,416,272,688,688,False
79,80,CVM-3509_rw_app_imp_2021-12-20_2021-12-26 > CVM-3509_rw_app_clk_2021-12-20_2021-12-26 > CVM-3509_email_open_2021-12-20_2021-12-26 > CVM-3509_email_clk_2021-12-20_2021-12-26,179357.09662311,237,110,347,347,False
80,81,CVM-3509_email_open_2021-12-20_2021-12-26 > CVM-3509_email_clk_2021-12-20_2021-12-26 > FB_Impression_MobileFeed > CVM-3509_email_open_2021-12-20_2021-12-26 > FB_Impression_MobileFeed,748893.77380085,1262,913,2175,2175,False
81,82,CVM-3509_email_open_2021-12-20_2021-12-26 > CVM-3509_email_clk_2021-12-20_2021-12-26 > CVM-3509_rw_app_imp_2021-12-20_2021-12-26 > CVM-3509_email_open_2021-12-20_2021-12-26,302027.64912208,852,592,1441,1441,False
82,83,CVM-3509_rw_app_imp_2021-12-20_2021-12-26 > CVM-3509_rw_app_clk_2021-12-20_2021-12-26,4639713.049001,5251,3363,8609,8609,False
83,84,CVM-3509_email_open_2021-12-20_2021-12-26,4266169.8038379,6284,4483,10752,10752,False
84,85,CVM-3509_email_open_2021-12-20_2021-12-26 > CVM-3509_rw_app_push_imp_2021-12-20_2021-12-26,-46006.192019612,267,223,490,490,False
85,86,CVM-3509_email_open_2021-12-20_2021-12-26 > CVM-3509_rw_app_imp_2021-12-20_2021-12-26 > CVM-3509_rw_app_clk_2021-12-20_2021-12-26 > CVM-3509_email_open_2021-12-20_2021-12-26 > CVM-3509_email_clk_2021-12-20_2021-12-26,12095.663763231,82,63,145,145,False
86,87,CVM-3509_email_open_2021-12-20_2021-12-26 > CVM-3509_email_clk_2021-12-20_2021-12-26 > CVM-3509_rw_app_imp_2021-12-20_2021-12-26 > CVM-3509_email_open_2021-12-20_2021-12-26 > CVM-3509_rw_app_push_imp_2021-12-20_2021-12-26,112146.98716313,92,61,153,153,False
87,88,CVM-3509_email_open_2021-12-20_2021-12-26 > CVM-3509_email_clk_2021-12-20_2021-12-26 > CVM-3509_email_open_2021-12-20_2021-12-26 > CVM-3509_rw_app_imp_2021-12-20_2021-12-26 > CVM-3509_email_open_2021-12-20_2021-12-26,142247.99149194,197,119,315,315,False
88,89,CVM-3509_email_open_2021-12-20_2021-12-26 > CVM-3509_email_clk_2021-12-20_2021-12-26 > CVM-3509_email_open_2021-12-20_2021-12-26 > CVM-3509_rw_app_push_imp_2021-12-20_2021-12-26,178909.97842794,343,211,554,554,False
89,90,CVM-3509_email_open_2021-12-20_2021-12-26 > CVM-3509_email_clk_2021-12-20_2021-12-26 > CVM-3509_email_open_2021-12-20_2021-12-26 > FB_Impression_Instagram,40459.839688015,88,71,158,158,False
90,91,CVM-3509_email_open_2021-12-20_2021-12-26 > CVM-3509_rw_app_imp_2021-12-20_2021-12-26 > CVM-3509_rw_app_clk_2021-12-20_2021-12-26 > CVM-3509_email_open_2021-12-20_2021-12-26,424096.57246078,746,488,1234,1234,False
91,92,CVM-3509_email_open_2021-12-20_2021-12-26 > CVM-3509_email_clk_2021-12-20_2021-12-26 > CVM-3509_rw_app_imp_2021-12-20_2021-12-26 > CVM-3509_email_open_2021-12-20_2021-12-26 > CVM-3509_email_clk_2021-12-20_2021-12-26,60419.301026537,86,54,139,139,False
92,93,CVM-3509_email_open_2021-12-20_2021-12-26 > CVM-3509_email_clk_2021-12-20_2021-12-26 > CVM-3509_email_open_2021-12-20_2021-12-26 > CVM-3509_email_clk_2021-12-20_2021-12-26,1446982.4092176,3253,2366,5607,5607,False
93,94,CVM-3509_rw_app_push_imp_2021-12-20_2021-12-26 > CVM-3509_rw_app_imp_2021-12-20_2021-12-26,6877.7649583504,120,102,222,222,False
94,95,CVM-3509_email_open_2021-12-20_2021-12-26 > CVM-3509_email_clk_2021-12-20_2021-12-26 > CVM-3509_rw_app_push_clk_2021-12-20_2021-12-26,-156819.72306756,182,191,371,371,False
95,96,CVM-3509_rw_app_imp_2021-12-20_2021-12-26 > CVM-3509_rw_app_clk_2021-12-20_2021-12-26 > CVM-3509_rw_app_push_imp_2021-12-20_2021-12-26,844548.69873374,577,278,852,852,False
96,97,CVM-3509_email_open_2021-12-20_2021-12-26 > CVM-3509_email_clk_2021-12-20_2021-12-26 > CVM-3509_email_open_2021-12-20_2021-12-26,11453876.241872,18450,13522,31947,31947,False
97,98,CVM-3509_email_open_2021-12-20_2021-12-26 > CVM-3509_email_clk_2021-12-20_2021-12-26 > CVM-3509_email_open_2021-12-20_2021-12-26 > CVM-3509_email_clk_2021-12-20_2021-12-26 > CVM-3509_email_open_2021-12-20_2021-12-26 > CVM-3509_email_clk_2021-12-20_2021-12-26,169301.34513559,210,121,323,323,False
98,99,FB_Impression_MobileFeed > FB_Impression_Instagram > FB_Impression_MobileFeed,-464.41694565711,59,47,106,106,False
99,100,CVM-3509_email_open_2021-12-20_2021-12-26 > CVM-3509_rw_app_push_clk_2021-12-20_2021-12-26,74921.164622657,131,84,215,215,False
100,101,CVM-3509_rw_app_imp_2021-12-20_2021-12-26 > CVM-3509_email_open_2021-12-20_2021-12-26 > CVM-3509_email_clk_2021-12-20_2021-12-26,400935.06707318,236,127,362,362,False
101,102,CVM-3509_email_open_2021-12-20_2021-12-26 > CVM-3509_email_clk_2021-12-20_2021-12-26 > FB_Impression_MobileFeed > CVM-3509_email_open_2021-12-20_2021-12-26 > CVM-3509_email_clk_2021-12-20_2021-12-26 > FB_Impression_MobileFeed,155805.37522098,249,144,393,393,False
102,103,CVM-3509_email_open_2021-12-20_2021-12-26 > CVM-3509_rw_app_imp_2021-12-20_2021-12-26 > CVM-3509_email_open_2021-12-20_2021-12-26 > CVM-3509_email_clk_2021-12-20_2021-12-26,151885.85155223,122,59,181,181,False
103,104,FB_Impression_MobileFeed > CVM-3509_rw_app_imp_2021-12-20_2021-12-26 > CVM-3509_rw_app_clk_2021-12-20_2021-12-26 > FB_Impression_MobileFeed,121269.8792577,116,59,175,175,False
104,105,CVM-3509_email_open_2021-12-20_2021-12-26 > CVM-3509_rw_app_imp_2021-12-20_2021-12-26,130804.47739962,263,193,456,456,False
105,106,CVM-3509_email_open_2021-12-20_2021-12-26 > CVM-3509_rw_app_push_imp_2021-12-20_2021-12-26 > CVM-3509_email_open_2021-12-20_2021-12-26,106974.70277389,138,75,213,213,False
106,107,CVM-3509_email_open_2021-12-20_2021-12-26 > CVM-3509_email_clk_2021-12-20_2021-12-26 > CVM-3509_email_open_2021-12-20_2021-12-26 > FB_Impression_SuggestedVideo,84787.243812788,69,44,113,113,False
107,108,CVM-3509_rw_app_imp_2021-12-20_2021-12-26 > FB_Impression_MobileFeed,170414.12533745,179,114,293,293,False
108,109,CVM-3509_email_open_2021-12-20_2021-12-26 > CVM-3509_email_clk_2021-12-20_2021-12-26 > CVM-3509_email_open_2021-12-20_2021-12-26 > CVM-3509_email_clk_2021-12-20_2021-12-26 > CVM-3509_email_open_2021-12-20_2021-12-26,950256.9444709,1373,952,2271,2271,False
109,110,CVM-3509_rw_app_imp_2021-12-20_2021-12-26,1233742.0780108,2562,1833,4393,4393,False
110,111,CVM-3509_rw_app_push_clk_2021-12-20_2021-12-26 > CVM-3509_rw_app_imp_2021-12-20_2021-12-26 > CVM-3509_rw_app_clk_2021-12-20_2021-12-26,166494.06851239,199,134,333,333,False
111,112,CVM-3509_email_open_2021-12-20_2021-12-26 > CVM-3509_email_clk_2021-12-20_2021-12-26 > FB_Impression_WebFeed,-2909.9206579407,79,60,139,139,False
