,channel_name,total_conversions,total_conversion_value,normalised_conversion_value
0,OSP-2373_rw_app_imp_2021-12-22_2021-12-26,20654.98761609907,611744.8670717437,0.13047441132052537
1,OSP-2373_rw_app_imp_2021-12-15_2021-12-21,24275.90770123839,712988.0674115636,0.15206780372245104
2,OSP-2373_rw_app_clk_2021-12-22_2021-12-26,34713.6034249226,1083313.3949006903,0.23105167706904667
3,OSP-2373_rw_app_clk_2021-12-15_2021-12-21,3416.2593846749223,163215.43067170598,0.03481097820608177
4,OSP-2373_email_open_2021-12-22_2021-12-26,38759.588041795665,925184.205955651,0.1973255046878136
5,OSP-2373_email_clk_2021-12-22_2021-12-26,33280.97852167183,879070.9872200243,0.18749036688367424
6,_AlwaysOn_wow_web_view_2021-12-15_2021-12-21,1511.3405572755416,75606.28075499747,0.016125488752953866
7,_AlwaysOn_sem_shopping_clk_2021-12-15_2021-12-21,188.9175696594427,6091.263641638079,0.0012991593074497207
8,_AlwaysOn_wow_web_clk_2021-12-15_2021-12-21,1164.9916795665636,58600.24430204662,0.012498400542610229
9,FB_Impression_WebFeed,0.0,0.0,0.0
10,OSP-2373_email_open_2021-12-15_2021-12-21,1841.9463041795666,47696.03992348242,0.010172725700380606
11,_AlwaysOn_wow_web_view_2021-12-22_2021-12-26,913.1015866873065,43553.19908559874,0.009289130677990148
12,FB_Impression_Instagram,31.48626160990712,1044.6979891114518,0.00022281569077892675
13,FB_Impression_MobileFeed,976.0741099071207,22584.739513360775,0.0048169273686567305
14,_AlwaysOn_wow_web_clk_2021-12-22_2021-12-26,676.9546246130031,49956.13278460151,0.010654763722204584
15,OSP-2373_email_clk_2021-12-15_2021-12-21,220.40383126934984,6020.8269148516465,0.0012841363935562288
16,_AlwaysOn_sem_shopping_clk_2021-12-22_2021-12-26,78.7156540247678,1453.0125253579477,0.0003099019936119785
17,_AlwaysOn_sem_brand_clk_2021-12-15_2021-12-21,15.74313080495356,496.09326381508305,0.00010580796021417209
18,FB_Click_MobileFeed,0.0,0.0,0.0
19,FB_Impression_SuggestedVideo,0.0,0.0,0.0
