,event_concat,val,val_type,val_type_2,cnt,ppl
0,^OSP-2373_email_open_2021-11-10_2021-11-14^OSP-2373_email_clk_2021-11-10_2021-11-14^^^^^^^^^^^^^^^^^^,1331036.7278334,34133.0,27816.0,51858,51858
1,^OSP-2373_rw_app_imp_2021-11-03_2021-11-09^OSP-2373_rw_app_clk_2021-11-03_2021-11-09^OSP-2373_rw_app_imp_2021-11-03_2021-11-09^OSP-2373_rw_app_imp_2021-11-10_2021-11-14^^^^^^^^^^^^^^^^,8048.9123803341,229.0,144.0,362,362
2,^OSP-2373_rw_app_imp_2021-11-03_2021-11-09^OSP-2373_rw_app_imp_2021-11-10_2021-11-14^OSP-2373_rw_app_clk_2021-11-10_2021-11-14^OSP-2373_rw_app_imp_2021-11-10_2021-11-14^OSP-2373_rw_app_clk_2021-11-10_2021-11-14^OSP-2373_rw_app_imp_2021-11-10_2021-11-14^^^^^^^^^^^^^^,18047.309595744,587.0,429.0,709,709
3,^OSP-2373_rw_app_imp_2021-11-03_2021-11-09^OSP-2373_rw_app_imp_2021-11-10_2021-11-14^OSP-2373_email_open_2021-11-10_2021-11-14^OSP-2373_email_clk_2021-11-10_2021-11-14^OSP-2373_rw_app_imp_2021-11-10_2021-11-14^^^^^^^^^^^^^^^,5236.8972160561,218.0,165.0,301,301
4,^_AlwaysOn_sem_shopping_clk_2021-11-10_2021-11-14^_AlwaysOn_wow_web_view_2021-11-10_2021-11-14^_AlwaysOn_sem_shopping_clk_2021-11-10_2021-11-14^^^^^^^^^^^^^^^^^,3917.4216415814,64.0,51.0,108,108
5,^OSP-2373_email_open_2021-11-03_2021-11-09^OSP-2373_email_open_2021-11-10_2021-11-14^OSP-2373_rw_app_imp_2021-11-10_2021-11-14^OSP-2373_rw_app_clk_2021-11-10_2021-11-14^^^^^^^^^^^^^^^^,2497.7732360355,80.0,59.0,123,123
6,^OSP-2373_email_open_2021-11-10_2021-11-14^OSP-2373_email_clk_2021-11-10_2021-11-14^OSP-2373_email_open_2021-11-10_2021-11-14^FB_Impression_WebFeed^^^^^^^^^^^^^^^^,3042.0755727805,78.0,68.0,117,117
7,^OSP-2373_email_open_2021-11-03_2021-11-09^OSP-2373_email_open_2021-11-10_2021-11-14^^^^^^^^^^^^^^^^^^,35219.102593642,1264.0,1117.0,2159,2159
8,^OSP-2373_email_open_2021-11-03_2021-11-09^OSP-2373_email_open_2021-11-10_2021-11-14^OSP-2373_email_clk_2021-11-10_2021-11-14^^^^^^^^^^^^^^^^^,29550.357312874,760.0,559.0,1133,1133
9,^OSP-2373_rw_app_imp_2021-11-10_2021-11-14^OSP-2373_rw_app_clk_2021-11-10_2021-11-14^OSP-2373_rw_app_imp_2021-11-10_2021-11-14^_AlwaysOn_wow_web_view_2021-11-10_2021-11-14^^^^^^^^^^^^^^^^,6404.7073281363,154.0,130.0,249,249
10,^OSP-2373_rw_app_imp_2021-11-03_2021-11-09^OSP-2373_rw_app_imp_2021-11-10_2021-11-14^OSP-2373_rw_app_clk_2021-11-10_2021-11-14^_AlwaysOn_wow_web_view_2021-11-10_2021-11-14^OSP-2373_rw_app_imp_2021-11-10_2021-11-14^^^^^^^^^^^^^^^,1944.8282909465,109.0,74.0,119,119
11,^OSP-2373_rw_app_imp_2021-11-03_2021-11-09^OSP-2373_rw_app_imp_2021-11-10_2021-11-14^OSP-2373_email_open_2021-11-10_2021-11-14^OSP-2373_rw_app_imp_2021-11-10_2021-11-14^OSP-2373_rw_app_clk_2021-11-10_2021-11-14^OSP-2373_rw_app_imp_2021-11-10_2021-11-14^^^^^^^^^^^^^^,2971.206280686,190.0,135.0,263,263
12,^OSP-2373_email_open_2021-11-10_2021-11-14^FB_Impression_WebFeed^^^^^^^^^^^^^^^^^^,2753.6893463708,198.0,196.0,339,339
13,^OSP-2373_rw_app_imp_2021-11-03_2021-11-09^OSP-2373_email_open_2021-11-10_2021-11-14^^^^^^^^^^^^^^^^^^,16319.117305433,665.0,610.0,1175,1175
14,^_AlwaysOn_wow_web_view_2021-11-03_2021-11-09^OSP-2373_email_open_2021-11-10_2021-11-14^OSP-2373_email_clk_2021-11-10_2021-11-14^OSP-2373_email_open_2021-11-10_2021-11-14^OSP-2373_email_clk_2021-11-10_2021-11-14^^^^^^^^^^^^^^^,9171.3612045015,123.0,61.0,170,170
15,^OSP-2373_rw_app_imp_2021-11-10_2021-11-14^OSP-2373_rw_app_clk_2021-11-10_2021-11-14^^^^^^^^^^^^^^^^^^,539690.40573542,15998.0,12201.0,24037,24037
16,^OSP-2373_email_open_2021-11-10_2021-11-14^OSP-2373_email_clk_2021-11-10_2021-11-14^OSP-2373_email_open_2021-11-10_2021-11-14^OSP-2373_email_clk_2021-11-10_2021-11-14^^^^^^^^^^^^^^^^,82784.590583959,2052.0,1611.0,2857,2857
17,^OSP-2373_rw_app_imp_2021-11-03_2021-11-09^OSP-2373_rw_app_imp_2021-11-10_2021-11-14^OSP-2373_rw_app_clk_2021-11-10_2021-11-14^OSP-2373_rw_app_imp_2021-11-10_2021-11-14^OSP-2373_email_open_2021-11-10_2021-11-14^OSP-2373_rw_app_imp_2021-11-10_2021-11-14^^^^^^^^^^^^^^,41931.761931605,2076.0,1592.0,2588,2588
18,^OSP-2373_rw_app_imp_2021-11-03_2021-11-09^OSP-2373_rw_app_imp_2021-11-10_2021-11-14^OSP-2373_rw_app_clk_2021-11-10_2021-11-14^OSP-2373_email_open_2021-11-10_2021-11-14^OSP-2373_email_clk_2021-11-10_2021-11-14^OSP-2373_email_open_2021-11-10_2021-11-14^OSP-2373_rw_app_imp_2021-11-10_2021-11-14^^^^^^^^^^^^^,2260.9255524348,123.0,85.0,150,150
19,^OSP-2373_rw_app_imp_2021-11-03_2021-11-09^OSP-2373_rw_app_clk_2021-11-03_2021-11-09^OSP-2373_email_open_2021-11-10_2021-11-14^OSP-2373_email_clk_2021-11-10_2021-11-14^^^^^^^^^^^^^^^^,4524.171228009,104.0,56.0,149,149
20,^OSP-2373_email_open_2021-11-10_2021-11-14^OSP-2373_email_clk_2021-11-10_2021-11-14^OSP-2373_rw_app_imp_2021-11-10_2021-11-14^OSP-2373_email_open_2021-11-10_2021-11-14^OSP-2373_rw_app_imp_2021-11-10_2021-11-14^^^^^^^^^^^^^^^,1505.4982134704,87.0,52.0,101,101
21,^OSP-2373_rw_app_imp_2021-11-03_2021-11-09^OSP-2373_rw_app_imp_2021-11-10_2021-11-14^OSP-2373_rw_app_clk_2021-11-10_2021-11-14^^^^^^^^^^^^^^^^^,97369.442942737,3235.0,2525.0,4898,4898
22,^OSP-2373_rw_app_imp_2021-11-03_2021-11-09^OSP-2373_rw_app_imp_2021-11-10_2021-11-14^OSP-2373_rw_app_clk_2021-11-10_2021-11-14^_AlwaysOn_wow_web_view_2021-11-10_2021-11-14^^^^^^^^^^^^^^^^,3914.5344221113,69.0,49.0,103,103
23,^_AlwaysOn_wow_web_view_2021-11-10_2021-11-14^OSP-2373_rw_app_imp_2021-11-10_2021-11-14^OSP-2373_rw_app_clk_2021-11-10_2021-11-14^_AlwaysOn_wow_web_view_2021-11-10_2021-11-14^^^^^^^^^^^^^^^^,4953.2201525251,112.0,70.0,143,143
24,^_AlwaysOn_wow_web_view_2021-11-10_2021-11-14^OSP-2373_email_open_2021-11-10_2021-11-14^OSP-2373_email_clk_2021-11-10_2021-11-14^OSP-2373_email_open_2021-11-10_2021-11-14^^^^^^^^^^^^^^^^,8294.6148949718,189.0,128.0,222,222
25,^OSP-2373_rw_app_imp_2021-11-03_2021-11-09^OSP-2373_rw_app_clk_2021-11-03_2021-11-09^OSP-2373_rw_app_imp_2021-11-03_2021-11-09^OSP-2373_rw_app_imp_2021-11-10_2021-11-14^OSP-2373_rw_app_clk_2021-11-10_2021-11-14^^^^^^^^^^^^^^^,12319.757261604,199.0,118.0,284,284
26,^OSP-2373_email_open_2021-11-10_2021-11-14^OSP-2373_email_clk_2021-11-10_2021-11-14^OSP-2373_email_open_2021-11-10_2021-11-14^OSP-2373_email_clk_2021-11-10_2021-11-14^OSP-2373_email_open_2021-11-10_2021-11-14^OSP-2373_email_clk_2021-11-10_2021-11-14^OSP-2373_email_open_2021-11-10_2021-11-14^^^^^^^^^^^^^,5058.2649506911,144.0,94.0,192,192
27,^OSP-2373_rw_app_imp_2021-11-03_2021-11-09^OSP-2373_rw_app_imp_2021-11-10_2021-11-14^OSP-2373_rw_app_clk_2021-11-10_2021-11-14^FB_Impression_MobileFeed^^^^^^^^^^^^^^^^,4313.491574237,95.0,76.0,143,143
28,^OSP-2373_rw_app_imp_2021-11-03_2021-11-09^OSP-2373_email_open_2021-11-10_2021-11-14^OSP-2373_rw_app_imp_2021-11-10_2021-11-14^OSP-2373_rw_app_clk_2021-11-10_2021-11-14^OSP-2373_rw_app_imp_2021-11-10_2021-11-14^^^^^^^^^^^^^^^,20095.091889297,913.0,676.0,1268,1268
29,^_AlwaysOn_wow_web_view_2021-11-03_2021-11-09^OSP-2373_email_open_2021-11-10_2021-11-14^OSP-2373_email_clk_2021-11-10_2021-11-14^_AlwaysOn_wow_web_view_2021-11-10_2021-11-14^^^^^^^^^^^^^^^^,17858.681714288,266.0,96.0,354,354
30,^OSP-2373_rw_app_imp_2021-11-10_2021-11-14^OSP-2373_rw_app_clk_2021-11-10_2021-11-14^OSP-2373_email_open_2021-11-10_2021-11-14^OSP-2373_email_clk_2021-11-10_2021-11-14^OSP-2373_email_open_2021-11-10_2021-11-14^OSP-2373_rw_app_imp_2021-11-10_2021-11-14^^^^^^^^^^^^^^,2115.2745680172,136.0,114.0,184,184
31,^OSP-2373_email_open_2021-11-10_2021-11-14^OSP-2373_rw_app_imp_2021-11-10_2021-11-14^OSP-2373_email_clk_2021-11-10_2021-11-14^OSP-2373_rw_app_clk_2021-11-10_2021-11-14^^^^^^^^^^^^^^^^,2068.2909132442,64.0,58.0,101,101
32,^OSP-2373_rw_app_imp_2021-11-10_2021-11-14^OSP-2373_rw_app_clk_2021-11-10_2021-11-14^OSP-2373_rw_app_imp_2021-11-10_2021-11-14^OSP-2373_email_open_2021-11-10_2021-11-14^OSP-2373_email_clk_2021-11-10_2021-11-14^OSP-2373_rw_app_imp_2021-11-10_2021-11-14^^^^^^^^^^^^^^,3421.5154374636,245.0,153.0,290,290
33,^OSP-2373_rw_app_imp_2021-11-03_2021-11-09^OSP-2373_rw_app_imp_2021-11-10_2021-11-14^OSP-2373_rw_app_clk_2021-11-10_2021-11-14^OSP-2373_rw_app_imp_2021-11-10_2021-11-14^OSP-2373_email_open_2021-11-10_2021-11-14^OSP-2373_rw_app_imp_2021-11-10_2021-11-14^OSP-2373_email_open_2021-11-10_2021-11-14^OSP-2373_rw_app_imp_2021-11-10_2021-11-14^^^^^^^^^^^^,4186.9066764043,184.0,139.0,208,208
34,^OSP-2373_email_open_2021-11-03_2021-11-09^OSP-2373_rw_app_imp_2021-11-10_2021-11-14^OSP-2373_rw_app_clk_2021-11-10_2021-11-14^OSP-2373_email_open_2021-11-10_2021-11-14^^^^^^^^^^^^^^^^,4686.7136021271,80.0,47.0,107,107
35,^OSP-2373_rw_app_imp_2021-11-10_2021-11-14^_AlwaysOn_wow_web_view_2021-11-10_2021-11-14^^^^^^^^^^^^^^^^^^,2274.8269732958,100.0,118.0,201,201
36,^OSP-2373_rw_app_imp_2021-11-03_2021-11-09^OSP-2373_rw_app_imp_2021-11-10_2021-11-14^OSP-2373_email_open_2021-11-10_2021-11-14^^^^^^^^^^^^^^^^^,3942.029794512,108.0,93.0,176,176
37,^_AlwaysOn_wow_web_view_2021-11-10_2021-11-14^OSP-2373_rw_app_imp_2021-11-10_2021-11-14^^^^^^^^^^^^^^^^^^,4488.2053450179,103.0,65.0,128,128
38,^_AlwaysOn_wow_web_view_2021-11-03_2021-11-09^OSP-2373_rw_app_imp_2021-11-10_2021-11-14^OSP-2373_rw_app_clk_2021-11-10_2021-11-14^OSP-2373_rw_app_imp_2021-11-10_2021-11-14^^^^^^^^^^^^^^^^,12953.380146433,254.0,123.0,363,363
39,^OSP-2373_rw_app_imp_2021-11-10_2021-11-14^OSP-2373_rw_app_clk_2021-11-10_2021-11-14^OSP-2373_rw_app_imp_2021-11-10_2021-11-14^_AlwaysOn_wow_web_view_2021-11-10_2021-11-14^OSP-2373_rw_app_imp_2021-11-10_2021-11-14^^^^^^^^^^^^^^^,-3001.3835930704,96.0,88.0,135,135
40,^_AlwaysOn_wow_web_view_2021-11-03_2021-11-09^OSP-2373_rw_app_imp_2021-11-10_2021-11-14^OSP-2373_rw_app_clk_2021-11-10_2021-11-14^^^^^^^^^^^^^^^^^,14779.203685673,247.0,102.0,339,339
41,^OSP-2373_rw_app_imp_2021-11-10_2021-11-14^OSP-2373_rw_app_clk_2021-11-10_2021-11-14^OSP-2373_rw_app_imp_2021-11-10_2021-11-14^OSP-2373_email_open_2021-11-10_2021-11-14^OSP-2373_email_clk_2021-11-10_2021-11-14^^^^^^^^^^^^^^^,3702.899942783,207.0,157.0,282,282
42,^OSP-2373_rw_app_imp_2021-11-10_2021-11-14^OSP-2373_rw_app_clk_2021-11-10_2021-11-14^OSP-2373_rw_app_imp_2021-11-10_2021-11-14^OSP-2373_email_open_2021-11-10_2021-11-14^OSP-2373_rw_app_imp_2021-11-10_2021-11-14^^^^^^^^^^^^^^^,17369.739763237,770.0,552.0,1014,1014
43,^OSP-2373_rw_app_imp_2021-11-10_2021-11-14^OSP-2373_rw_app_clk_2021-11-10_2021-11-14^OSP-2373_email_open_2021-11-10_2021-11-14^OSP-2373_rw_app_imp_2021-11-10_2021-11-14^^^^^^^^^^^^^^^^,39887.571590498,1536.0,1133.0,2128,2128
44,^OSP-2373_rw_app_imp_2021-11-10_2021-11-14^OSP-2373_rw_app_clk_2021-11-10_2021-11-14^OSP-2373_email_open_2021-11-10_2021-11-14^_AlwaysOn_wow_web_view_2021-11-10_2021-11-14^^^^^^^^^^^^^^^^,1590.5414112067,68.0,51.0,101,101
45,^OSP-2373_rw_app_imp_2021-11-03_2021-11-09^^^^^^^^^^^^^^^^^^^,50089.619481186,1606.0,1536.0,2973,2973
46,^OSP-2373_rw_app_imp_2021-11-10_2021-11-14^OSP-2373_rw_app_clk_2021-11-10_2021-11-14^_AlwaysOn_wow_web_view_2021-11-10_2021-11-14^^^^^^^^^^^^^^^^^,1298.1726209236,368.0,298.0,561,561
47,^OSP-2373_email_open_2021-11-10_2021-11-14^_AlwaysOn_wow_web_view_2021-11-10_2021-11-14^OSP-2373_email_open_2021-11-10_2021-11-14^^^^^^^^^^^^^^^^^,5045.0576173942,113.0,75.0,142,142
48,^OSP-2373_rw_app_imp_2021-11-03_2021-11-09^OSP-2373_rw_app_imp_2021-11-10_2021-11-14^OSP-2373_rw_app_clk_2021-11-10_2021-11-14^OSP-2373_email_open_2021-11-10_2021-11-14^OSP-2373_rw_app_imp_2021-11-10_2021-11-14^^^^^^^^^^^^^^^,41638.716380847,1498.0,1160.0,2035,2035
49,^OSP-2373_rw_app_imp_2021-11-03_2021-11-09^OSP-2373_rw_app_imp_2021-11-10_2021-11-14^OSP-2373_email_open_2021-11-10_2021-11-14^OSP-2373_email_clk_2021-11-10_2021-11-14^^^^^^^^^^^^^^^^,3236.546505365,133.0,85.0,191,191
50,^OSP-2373_email_open_2021-11-10_2021-11-14^_AlwaysOn_wow_web_view_2021-11-10_2021-11-14^^^^^^^^^^^^^^^^^^,30550.254094761,968.0,814.0,1568,1568
51,^OSP-2373_email_open_2021-11-03_2021-11-09^^^^^^^^^^^^^^^^^^^,15564.079669572,432.0,389.0,785,785
52,^_AlwaysOn_wow_web_view_2021-11-10_2021-11-14^OSP-2373_email_open_2021-11-10_2021-11-14^OSP-2373_email_clk_2021-11-10_2021-11-14^^^^^^^^^^^^^^^^^,26297.762978239,489.0,325.0,591,591
53,^OSP-2373_rw_app_imp_2021-11-10_2021-11-14^OSP-2373_rw_app_clk_2021-11-10_2021-11-14^OSP-2373_email_open_2021-11-10_2021-11-14^^^^^^^^^^^^^^^^^,49494.840604881,1927.0,1560.0,2943,2943
54,^OSP-2373_rw_app_imp_2021-11-03_2021-11-09^OSP-2373_rw_app_imp_2021-11-10_2021-11-14^OSP-2373_rw_app_clk_2021-11-10_2021-11-14^OSP-2373_rw_app_imp_2021-11-10_2021-11-14^^^^^^^^^^^^^^^^,328799.64391194,12729.0,9758.0,17201,17201
55,^OSP-2373_rw_app_imp_2021-11-10_2021-11-14^OSP-2373_email_open_2021-11-10_2021-11-14^OSP-2373_email_clk_2021-11-10_2021-11-14^OSP-2373_rw_app_imp_2021-11-10_2021-11-14^^^^^^^^^^^^^^^^,10073.884395925,275.0,236.0,410,410
56,^OSP-2373_rw_app_imp_2021-11-03_2021-11-09^OSP-2373_rw_app_imp_2021-11-10_2021-11-14^OSP-2373_rw_app_clk_2021-11-10_2021-11-14^OSP-2373_rw_app_imp_2021-11-10_2021-11-14^_AlwaysOn_wow_web_view_2021-11-10_2021-11-14^OSP-2373_rw_app_imp_2021-11-10_2021-11-14^^^^^^^^^^^^^^,6846.3964296769,182.0,118.0,219,219
57,^OSP-2373_rw_app_imp_2021-11-10_2021-11-14^OSP-2373_rw_app_clk_2021-11-10_2021-11-14^OSP-2373_rw_app_imp_2021-11-10_2021-11-14^^^^^^^^^^^^^^^^^,535112.04608115,16335.0,11709.0,22863,22863
58,^OSP-2373_rw_app_imp_2021-11-03_2021-11-09^OSP-2373_rw_app_imp_2021-11-10_2021-11-14^OSP-2373_rw_app_clk_2021-11-10_2021-11-14^OSP-2373_email_open_2021-11-10_2021-11-14^OSP-2373_email_clk_2021-11-10_2021-11-14^^^^^^^^^^^^^^^,2529.5217559047,122.0,89.0,176,176
59,^OSP-2373_rw_app_imp_2021-11-10_2021-11-14^OSP-2373_rw_app_clk_2021-11-10_2021-11-14^OSP-2373_email_open_2021-11-10_2021-11-14^OSP-2373_email_clk_2021-11-10_2021-11-14^OSP-2373_rw_app_imp_2021-11-10_2021-11-14^^^^^^^^^^^^^^^,11836.714749002,441.0,351.0,621,621
60,^OSP-2373_rw_app_imp_2021-11-10_2021-11-14^OSP-2373_email_open_2021-11-10_2021-11-14^^^^^^^^^^^^^^^^^^,6106.0823657845,452.0,480.0,843,843
61,^OSP-2373_email_open_2021-11-10_2021-11-14^OSP-2373_email_clk_2021-11-10_2021-11-14^OSP-2373_email_open_2021-11-10_2021-11-14^OSP-2373_email_clk_2021-11-10_2021-11-14^OSP-2373_rw_app_imp_2021-11-10_2021-11-14^^^^^^^^^^^^^^^,3473.9639863106,94.0,79.0,129,129
62,^OSP-2373_rw_app_imp_2021-11-10_2021-11-14^OSP-2373_rw_app_clk_2021-11-10_2021-11-14^OSP-2373_rw_app_imp_2021-11-10_2021-11-14^OSP-2373_email_open_2021-11-10_2021-11-14^^^^^^^^^^^^^^^^,19400.481315588,622.0,496.0,917,917
63,^OSP-2373_rw_app_imp_2021-11-03_2021-11-09^OSP-2373_rw_app_imp_2021-11-10_2021-11-14^OSP-2373_rw_app_clk_2021-11-10_2021-11-14^OSP-2373_rw_app_imp_2021-11-10_2021-11-14^OSP-2373_email_open_2021-11-10_2021-11-14^^^^^^^^^^^^^^^,-358.81962712669,258.0,226.0,374,374
64,^OSP-2373_email_open_2021-11-03_2021-11-09^OSP-2373_email_clk_2021-11-03_2021-11-09^OSP-2373_email_open_2021-11-10_2021-11-14^OSP-2373_email_clk_2021-11-10_2021-11-14^^^^^^^^^^^^^^^^,7612.4711074781,141.0,87.0,205,205
65,^OSP-2373_rw_app_imp_2021-11-03_2021-11-09^OSP-2373_email_open_2021-11-10_2021-11-14^OSP-2373_email_clk_2021-11-10_2021-11-14^OSP-2373_email_open_2021-11-10_2021-11-14^OSP-2373_rw_app_imp_2021-11-10_2021-11-14^^^^^^^^^^^^^^^,2402.101483608,218.0,169.0,309,309
66,^OSP-2373_rw_app_imp_2021-11-03_2021-11-09^OSP-2373_email_open_2021-11-10_2021-11-14^OSP-2373_email_clk_2021-11-10_2021-11-14^^^^^^^^^^^^^^^^^,17581.997583866,806.0,647.0,1266,1266
67,^OSP-2373_rw_app_imp_2021-11-03_2021-11-09^OSP-2373_rw_app_imp_2021-11-10_2021-11-14^OSP-2373_rw_app_clk_2021-11-10_2021-11-14^OSP-2373_email_open_2021-11-10_2021-11-14^OSP-2373_rw_app_imp_2021-11-10_2021-11-14^OSP-2373_email_open_2021-11-10_2021-11-14^OSP-2373_rw_app_imp_2021-11-10_2021-11-14^^^^^^^^^^^^^,1498.993241501,115.0,84.0,143,143
68,^OSP-2373_rw_app_imp_2021-11-03_2021-11-09^OSP-2373_rw_app_imp_2021-11-10_2021-11-14^OSP-2373_rw_app_clk_2021-11-10_2021-11-14^OSP-2373_rw_app_imp_2021-11-10_2021-11-14^OSP-2373_email_open_2021-11-10_2021-11-14^OSP-2373_rw_app_imp_2021-11-10_2021-11-14^FB_Impression_MobileFeed^^^^^^^^^^^^^,1401.9824171054,89.0,61.0,102,102
69,^OSP-2373_rw_app_imp_2021-11-10_2021-11-14^OSP-2373_email_open_2021-11-10_2021-11-14^OSP-2373_rw_app_imp_2021-11-10_2021-11-14^OSP-2373_rw_app_clk_2021-11-10_2021-11-14^OSP-2373_rw_app_imp_2021-11-10_2021-11-14^^^^^^^^^^^^^^^,6181.8662291368,193.0,113.0,241,241
70,^OSP-2373_rw_app_imp_2021-11-03_2021-11-09^OSP-2373_rw_app_clk_2021-11-03_2021-11-09^OSP-2373_rw_app_imp_2021-11-03_2021-11-09^OSP-2373_email_open_2021-11-10_2021-11-14^^^^^^^^^^^^^^^^,2906.8630985576,66.0,44.0,108,108
71,^OSP-2373_email_open_2021-11-03_2021-11-09^OSP-2373_email_open_2021-11-10_2021-11-14^OSP-2373_email_clk_2021-11-10_2021-11-14^OSP-2373_email_open_2021-11-10_2021-11-14^^^^^^^^^^^^^^^^,32226.533796078,972.0,747.0,1432,1432
72,^OSP-2373_email_open_2021-11-03_2021-11-09^OSP-2373_email_open_2021-11-10_2021-11-14^OSP-2373_email_clk_2021-11-10_2021-11-14^OSP-2373_email_open_2021-11-10_2021-11-14^OSP-2373_email_clk_2021-11-10_2021-11-14^^^^^^^^^^^^^^^,4314.5330380857,113.0,90.0,159,159
73,^OSP-2373_rw_app_imp_2021-11-03_2021-11-09^OSP-2373_rw_app_imp_2021-11-10_2021-11-14^OSP-2373_rw_app_clk_2021-11-10_2021-11-14^OSP-2373_rw_app_imp_2021-11-10_2021-11-14^_AlwaysOn_wow_web_view_2021-11-10_2021-11-14^^^^^^^^^^^^^^^,1619.5196636903,100.0,96.0,170,170
74,^_AlwaysOn_wow_web_view_2021-11-03_2021-11-09^OSP-2373_rw_app_imp_2021-11-10_2021-11-14^^^^^^^^^^^^^^^^^^,4147.1537617669,80.0,46.0,123,123
75,^OSP-2373_rw_app_imp_2021-11-03_2021-11-09^OSP-2373_rw_app_clk_2021-11-03_2021-11-09^OSP-2373_email_open_2021-11-10_2021-11-14^^^^^^^^^^^^^^^^^,10916.369868731,236.0,133.0,355,355
76,^_AlwaysOn_wow_web_view_2021-11-03_2021-11-09^^^^^^^^^^^^^^^^^^^,62850.029560697,682.0,310.0,970,970
77,^OSP-2373_email_open_2021-11-10_2021-11-14^OSP-2373_email_clk_2021-11-10_2021-11-14^OSP-2373_rw_app_imp_2021-11-10_2021-11-14^FB_Impression_MobileFeed^^^^^^^^^^^^^^^^,8204.7189118972,121.0,94.0,168,168
78,^OSP-2373_rw_app_imp_2021-11-10_2021-11-14^OSP-2373_rw_app_clk_2021-11-10_2021-11-14^OSP-2373_rw_app_imp_2021-11-10_2021-11-14^OSP-2373_email_open_2021-11-10_2021-11-14^OSP-2373_email_clk_2021-11-10_2021-11-14^OSP-2373_email_open_2021-11-10_2021-11-14^^^^^^^^^^^^^^,1482.5482892913,82.0,65.0,119,119
79,^OSP-2373_email_open_2021-11-03_2021-11-09^OSP-2373_email_clk_2021-11-03_2021-11-09^^^^^^^^^^^^^^^^^^,3283.8596866208,102.0,68.0,162,162
80,^_AlwaysOn_wow_web_view_2021-11-10_2021-11-14^_AlwaysOn_wow_web_clk_2021-11-10_2021-11-14^_AlwaysOn_wow_web_view_2021-11-10_2021-11-14^_AlwaysOn_wow_web_clk_2021-11-10_2021-11-14^_AlwaysOn_wow_web_view_2021-11-10_2021-11-14^_AlwaysOn_wow_web_clk_2021-11-10_2021-11-14^_AlwaysOn_wow_web_view_2021-11-10_2021-11-14^^^^^^^^^^^^^,10956.831543956,109.0,53.0,135,135
81,^OSP-2373_email_open_2021-11-03_2021-11-09^OSP-2373_rw_app_imp_2021-11-10_2021-11-14^OSP-2373_rw_app_clk_2021-11-10_2021-11-14^OSP-2373_rw_app_imp_2021-11-10_2021-11-14^^^^^^^^^^^^^^^^,2800.8394361056,88.0,52.0,114,114
82,^OSP-2373_rw_app_imp_2021-11-03_2021-11-09^OSP-2373_email_open_2021-11-10_2021-11-14^OSP-2373_email_clk_2021-11-10_2021-11-14^OSP-2373_rw_app_imp_2021-11-10_2021-11-14^^^^^^^^^^^^^^^^,25706.249873025,974.0,694.0,1303,1303
83,^_AlwaysOn_wow_web_view_2021-11-03_2021-11-09^OSP-2373_email_open_2021-11-10_2021-11-14^OSP-2373_email_clk_2021-11-10_2021-11-14^OSP-2373_email_open_2021-11-10_2021-11-14^^^^^^^^^^^^^^^^,35649.572615045,526.0,269.0,770,770
84,^OSP-2373_rw_app_imp_2021-11-03_2021-11-09^OSP-2373_rw_app_clk_2021-11-03_2021-11-09^OSP-2373_rw_app_imp_2021-11-03_2021-11-09^^^^^^^^^^^^^^^^^,14087.794412771,322.0,195.0,498,498
85,^OSP-2373_email_open_2021-11-10_2021-11-14^OSP-2373_email_clk_2021-11-10_2021-11-14^OSP-2373_email_open_2021-11-10_2021-11-14^OSP-2373_email_clk_2021-11-10_2021-11-14^_AlwaysOn_wow_web_view_2021-11-10_2021-11-14^^^^^^^^^^^^^^^,7810.5579863426,221.0,166.0,286,286
86,^_AlwaysOn_wow_web_view_2021-11-03_2021-11-09^OSP-2373_email_open_2021-11-10_2021-11-14^OSP-2373_email_clk_2021-11-10_2021-11-14^^^^^^^^^^^^^^^^^,93107.133192966,1317.0,655.0,1937,1937
87,^OSP-2373_rw_app_imp_2021-11-10_2021-11-14^OSP-2373_rw_app_clk_2021-11-10_2021-11-14^OSP-2373_rw_app_imp_2021-11-10_2021-11-14^OSP-2373_rw_app_clk_2021-11-10_2021-11-14^OSP-2373_rw_app_imp_2021-11-10_2021-11-14^^^^^^^^^^^^^^^,11974.072003502,414.0,282.0,538,538
88,^OSP-2373_rw_app_imp_2021-11-10_2021-11-14^OSP-2373_email_open_2021-11-10_2021-11-14^OSP-2373_email_clk_2021-11-10_2021-11-14^OSP-2373_email_open_2021-11-10_2021-11-14^^^^^^^^^^^^^^^^,9529.0806295887,217.0,181.0,332,332
89,^_AlwaysOn_wow_web_view_2021-11-10_2021-11-14^OSP-2373_rw_app_imp_2021-11-10_2021-11-14^OSP-2373_rw_app_clk_2021-11-10_2021-11-14^^^^^^^^^^^^^^^^^,13663.789617777,201.0,119.0,242,242
90,^OSP-2373_rw_app_imp_2021-11-03_2021-11-09^OSP-2373_email_open_2021-11-10_2021-11-14^OSP-2373_rw_app_imp_2021-11-10_2021-11-14^OSP-2373_rw_app_clk_2021-11-10_2021-11-14^OSP-2373_email_open_2021-11-10_2021-11-14^OSP-2373_rw_app_imp_2021-11-10_2021-11-14^^^^^^^^^^^^^^,2234.8146932738,74.0,63.0,103,103
91,^_AlwaysOn_wow_web_view_2021-11-03_2021-11-09^OSP-2373_email_open_2021-11-10_2021-11-14^OSP-2373_email_clk_2021-11-10_2021-11-14^OSP-2373_rw_app_imp_2021-11-10_2021-11-14^^^^^^^^^^^^^^^^,6332.4727148564,94.0,47.0,137,137
92,^OSP-2373_rw_app_imp_2021-11-10_2021-11-14^OSP-2373_rw_app_clk_2021-11-10_2021-11-14^OSP-2373_rw_app_imp_2021-11-10_2021-11-14^FB_Impression_MobileFeed^^^^^^^^^^^^^^^^,14978.079922484,478.0,362.0,679,679
93,^OSP-2373_email_open_2021-11-10_2021-11-14^OSP-2373_rw_app_imp_2021-11-10_2021-11-14^OSP-2373_email_open_2021-11-10_2021-11-14^^^^^^^^^^^^^^^^^,857.82427367652,105.0,110.0,189,189
94,^OSP-2373_email_open_2021-11-10_2021-11-14^OSP-2373_email_clk_2021-11-10_2021-11-14^_AlwaysOn_wow_web_view_2021-11-10_2021-11-14^_AlwaysOn_wow_web_clk_2021-11-10_2021-11-14^_AlwaysOn_wow_web_view_2021-11-10_2021-11-14^^^^^^^^^^^^^^^,11099.989603646,208.0,130.0,272,272
95,^OSP-2373_email_open_2021-11-10_2021-11-14^OSP-2373_email_clk_2021-11-10_2021-11-14^OSP-2373_rw_app_imp_2021-11-10_2021-11-14^OSP-2373_rw_app_clk_2021-11-10_2021-11-14^^^^^^^^^^^^^^^^,8536.0955855446,360.0,301.0,529,529
96,^OSP-2373_rw_app_imp_2021-11-03_2021-11-09^OSP-2373_rw_app_clk_2021-11-03_2021-11-09^OSP-2373_rw_app_imp_2021-11-10_2021-11-14^OSP-2373_rw_app_clk_2021-11-10_2021-11-14^^^^^^^^^^^^^^^^,48744.991263023,788.0,468.0,1124,1124
97,^OSP-2373_rw_app_imp_2021-11-03_2021-11-09^OSP-2373_rw_app_clk_2021-11-03_2021-11-09^OSP-2373_rw_app_imp_2021-11-10_2021-11-14^^^^^^^^^^^^^^^^^,20396.78891844,389.0,212.0,578,578
98,^OSP-2373_rw_app_imp_2021-11-03_2021-11-09^OSP-2373_rw_app_imp_2021-11-10_2021-11-14^OSP-2373_rw_app_clk_2021-11-10_2021-11-14^OSP-2373_rw_app_imp_2021-11-10_2021-11-14^FB_Impression_MobileFeed^^^^^^^^^^^^^^^,12640.129757608,447.0,326.0,598,598
99,^OSP-2373_rw_app_imp_2021-11-03_2021-11-09^OSP-2373_rw_app_imp_2021-11-10_2021-11-14^OSP-2373_rw_app_clk_2021-11-10_2021-11-14^OSP-2373_email_open_2021-11-10_2021-11-14^^^^^^^^^^^^^^^^,9604.9038546874,472.0,395.0,712,712
100,^OSP-2373_rw_app_imp_2021-11-03_2021-11-09^OSP-2373_rw_app_clk_2021-11-03_2021-11-09^^^^^^^^^^^^^^^^^^,54010.663983945,1010.0,541.0,1503,1503
101,^_AlwaysOn_wow_web_view_2021-11-03_2021-11-09^_AlwaysOn_wow_web_view_2021-11-10_2021-11-14^_AlwaysOn_wow_web_clk_2021-11-10_2021-11-14^_AlwaysOn_wow_web_view_2021-11-10_2021-11-14^^^^^^^^^^^^^^^^,9858.3466210324,79.0,28.0,105,105
102,^OSP-2373_email_open_2021-11-10_2021-11-14^OSP-2373_email_clk_2021-11-10_2021-11-14^OSP-2373_rw_app_imp_2021-11-10_2021-11-14^^^^^^^^^^^^^^^^^,61512.556072462,2382.0,1843.0,3415,3415
103,^OSP-2373_rw_app_imp_2021-11-03_2021-11-09^OSP-2373_rw_app_imp_2021-11-10_2021-11-14^OSP-2373_rw_app_clk_2021-11-10_2021-11-14^OSP-2373_rw_app_imp_2021-11-10_2021-11-14^OSP-2373_rw_app_clk_2021-11-10_2021-11-14^^^^^^^^^^^^^^^,7454.5948387903,193.0,150.0,278,278
104,^OSP-2373_rw_app_imp_2021-11-03_2021-11-09^OSP-2373_rw_app_clk_2021-11-03_2021-11-09^OSP-2373_rw_app_imp_2021-11-03_2021-11-09^OSP-2373_rw_app_imp_2021-11-10_2021-11-14^OSP-2373_rw_app_clk_2021-11-10_2021-11-14^OSP-2373_rw_app_imp_2021-11-10_2021-11-14^^^^^^^^^^^^^^,14524.328057029,349.0,188.0,445,445
105,^OSP-2373_rw_app_imp_2021-11-10_2021-11-14^OSP-2373_rw_app_clk_2021-11-10_2021-11-14^FB_Impression_MobileFeed^^^^^^^^^^^^^^^^^,7266.1239236395,423.0,370.0,678,678
106,^OSP-2373_rw_app_imp_2021-11-10_2021-11-14^OSP-2373_email_open_2021-11-10_2021-11-14^OSP-2373_rw_app_imp_2021-11-10_2021-11-14^^^^^^^^^^^^^^^^^,6152.4217002357,325.0,303.0,560,560
107,^OSP-2373_email_open_2021-11-10_2021-11-14^OSP-2373_email_clk_2021-11-10_2021-11-14^_AlwaysOn_wow_web_view_2021-11-10_2021-11-14^OSP-2373_email_open_2021-11-10_2021-11-14^^^^^^^^^^^^^^^^,13279.551884324,243.0,148.0,301,301
108,^^^^^^^^^^^^^^^^^^^^,1250091.9717102,36112.0,37135.0,67981,67981
109,^_AlwaysOn_wow_web_view_2021-11-03_2021-11-09^OSP-2373_email_open_2021-11-10_2021-11-14^^^^^^^^^^^^^^^^^^,33811.552765536,567.0,319.0,870,870
110,^OSP-2373_rw_app_imp_2021-11-03_2021-11-09^OSP-2373_rw_app_imp_2021-11-10_2021-11-14^OSP-2373_email_open_2021-11-10_2021-11-14^OSP-2373_rw_app_imp_2021-11-10_2021-11-14^^^^^^^^^^^^^^^^,6538.6663868964,360.0,297.0,539,539
111,^OSP-2373_email_open_2021-11-10_2021-11-14^OSP-2373_email_clk_2021-11-10_2021-11-14^OSP-2373_email_open_2021-11-10_2021-11-14^^^^^^^^^^^^^^^^^,495446.5831922,12551.0,9957.0,18744,18744
112,^OSP-2373_email_open_2021-11-10_2021-11-14^OSP-2373_email_clk_2021-11-10_2021-11-14^OSP-2373_rw_app_imp_2021-11-10_2021-11-14^OSP-2373_rw_app_clk_2021-11-10_2021-11-14^OSP-2373_email_open_2021-11-10_2021-11-14^^^^^^^^^^^^^^^,3132.3650899125,93.0,85.0,149,149
113,^OSP-2373_rw_app_imp_2021-11-10_2021-11-14^OSP-2373_email_open_2021-11-10_2021-11-14^OSP-2373_email_clk_2021-11-10_2021-11-14^^^^^^^^^^^^^^^^^,19352.454298357,603.0,520.0,935,935
114,^_AlwaysOn_wow_web_view_2021-11-10_2021-11-14^_AlwaysOn_wow_web_clk_2021-11-10_2021-11-14^_AlwaysOn_wow_web_view_2021-11-10_2021-11-14^^^^^^^^^^^^^^^^^,68688.386327651,703.0,390.0,927,927
115,^_AlwaysOn_wow_web_view_2021-11-10_2021-11-14^OSP-2373_rw_app_imp_2021-11-10_2021-11-14^OSP-2373_rw_app_clk_2021-11-10_2021-11-14^OSP-2373_rw_app_imp_2021-11-10_2021-11-14^^^^^^^^^^^^^^^^,10602.36009292,203.0,101.0,222,222
116,^OSP-2373_email_open_2021-11-10_2021-11-14^^^^^^^^^^^^^^^^^^^,539457.67803667,21364.0,22023.0,39893,39893
117,^OSP-2373_rw_app_imp_2021-11-10_2021-11-14^FB_Impression_MobileFeed^^^^^^^^^^^^^^^^^^,288.89499581079,117.0,105.0,198,198
118,^OSP-2373_rw_app_imp_2021-11-03_2021-11-09^_AlwaysOn_wow_web_view_2021-11-10_2021-11-14^OSP-2373_rw_app_imp_2021-11-10_2021-11-14^OSP-2373_rw_app_clk_2021-11-10_2021-11-14^OSP-2373_rw_app_imp_2021-11-10_2021-11-14^^^^^^^^^^^^^^^,4350.5560436487,98.0,73.0,107,107
119,^_AlwaysOn_wow_web_view_2021-11-10_2021-11-14^^^^^^^^^^^^^^^^^^^,149468.18789767,2160.0,1654.0,3338,3338
120,^OSP-2373_rw_app_imp_2021-11-03_2021-11-09^OSP-2373_email_open_2021-11-10_2021-11-14^OSP-2373_email_clk_2021-11-10_2021-11-14^OSP-2373_email_open_2021-11-10_2021-11-14^^^^^^^^^^^^^^^^,6638.6582074532,315.0,253.0,481,481
121,^OSP-2373_email_open_2021-11-10_2021-11-14^OSP-2373_email_clk_2021-11-10_2021-11-14^OSP-2373_email_open_2021-11-10_2021-11-14^FB_Impression_MobileFeed^^^^^^^^^^^^^^^^,14368.937143661,394.0,286.0,583,583
122,^OSP-2373_email_open_2021-11-10_2021-11-14^_AlwaysOn_wow_web_view_2021-11-10_2021-11-14^_AlwaysOn_wow_web_clk_2021-11-10_2021-11-14^_AlwaysOn_wow_web_view_2021-11-10_2021-11-14^^^^^^^^^^^^^^^^,10660.573415368,136.0,85.0,185,185
123,^_AlwaysOn_wow_web_view_2021-11-03_2021-11-09^_AlwaysOn_wow_web_clk_2021-11-03_2021-11-09^_AlwaysOn_wow_web_view_2021-11-03_2021-11-09^^^^^^^^^^^^^^^^^,12798.87759261,104.0,40.0,143,143
124,^OSP-2373_email_open_2021-11-10_2021-11-14^OSP-2373_email_clk_2021-11-10_2021-11-14^OSP-2373_rw_app_imp_2021-11-10_2021-11-14^OSP-2373_email_open_2021-11-10_2021-11-14^^^^^^^^^^^^^^^^,2617.3528704063,115.0,130.0,204,204
125,^OSP-2373_email_open_2021-11-10_2021-11-14^OSP-2373_email_clk_2021-11-10_2021-11-14^FB_Impression_WebFeed^^^^^^^^^^^^^^^^^,5461.9396668202,269.0,236.0,419,419
126,^OSP-2373_email_open_2021-11-10_2021-11-14^OSP-2373_email_clk_2021-11-10_2021-11-14^OSP-2373_email_open_2021-11-10_2021-11-14^OSP-2373_rw_app_imp_2021-11-10_2021-11-14^^^^^^^^^^^^^^^^,13348.150227794,622.0,486.0,881,881
127,^FB_Impression_WebFeed^^^^^^^^^^^^^^^^^^^,4394.1237914273,144.0,164.0,290,290
128,^_AlwaysOn_wow_web_view_2021-11-10_2021-11-14^OSP-2373_email_open_2021-11-10_2021-11-14^OSP-2373_email_clk_2021-11-10_2021-11-14^_AlwaysOn_wow_web_view_2021-11-10_2021-11-14^^^^^^^^^^^^^^^^,6659.786119034,114.0,67.0,136,136
129,^OSP-2373_rw_app_imp_2021-11-03_2021-11-09^OSP-2373_rw_app_imp_2021-11-10_2021-11-14^OSP-2373_rw_app_clk_2021-11-10_2021-11-14^OSP-2373_email_open_2021-11-10_2021-11-14^OSP-2373_email_clk_2021-11-10_2021-11-14^OSP-2373_rw_app_imp_2021-11-10_2021-11-14^^^^^^^^^^^^^^,4706.9032963153,380.0,281.0,491,491
130,^OSP-2373_rw_app_imp_2021-11-10_2021-11-14^OSP-2373_email_open_2021-11-10_2021-11-14^OSP-2373_rw_app_imp_2021-11-10_2021-11-14^OSP-2373_rw_app_clk_2021-11-10_2021-11-14^^^^^^^^^^^^^^^^,5901.6692702652,179.0,129.0,268,268
131,^_AlwaysOn_wow_web_view_2021-11-10_2021-11-14^_AlwaysOn_wow_web_clk_2021-11-10_2021-11-14^_AlwaysOn_wow_web_view_2021-11-10_2021-11-14^_AlwaysOn_wow_web_clk_2021-11-10_2021-11-14^_AlwaysOn_wow_web_view_2021-11-10_2021-11-14^^^^^^^^^^^^^^^,31447.070485466,292.0,150.0,370,370
132,^OSP-2373_rw_app_imp_2021-11-03_2021-11-09^OSP-2373_email_open_2021-11-10_2021-11-14^OSP-2373_rw_app_imp_2021-11-10_2021-11-14^^^^^^^^^^^^^^^^^,10358.787151613,573.0,457.0,867,867
133,^OSP-2373_email_open_2021-11-10_2021-11-14^OSP-2373_email_clk_2021-11-10_2021-11-14^FB_Impression_MobileFeed^^^^^^^^^^^^^^^^^,48079.003816052,1086.0,891.0,1670,1670
134,^OSP-2373_email_open_2021-11-10_2021-11-14^FB_Impression_MobileFeed^^^^^^^^^^^^^^^^^^,9423.759103804,460.0,459.0,853,853
135,^_AlwaysOn_wow_web_view_2021-11-03_2021-11-09^OSP-2373_email_open_2021-11-10_2021-11-14^_AlwaysOn_wow_web_view_2021-11-10_2021-11-14^^^^^^^^^^^^^^^^^,9302.6057040746,99.0,39.0,134,134
136,^OSP-2373_rw_app_imp_2021-11-03_2021-11-09^OSP-2373_rw_app_imp_2021-11-10_2021-11-14^OSP-2373_email_open_2021-11-10_2021-11-14^OSP-2373_rw_app_imp_2021-11-10_2021-11-14^OSP-2373_rw_app_clk_2021-11-10_2021-11-14^^^^^^^^^^^^^^^,4887.5060075451,85.0,57.0,120,120
137,^OSP-2373_email_open_2021-11-10_2021-11-14^OSP-2373_rw_app_imp_2021-11-10_2021-11-14^OSP-2373_rw_app_clk_2021-11-10_2021-11-14^^^^^^^^^^^^^^^^^,81060.422577779,2385.0,1833.0,3607,3607
138,^OSP-2373_rw_app_imp_2021-11-03_2021-11-09^OSP-2373_email_open_2021-11-10_2021-11-14^OSP-2373_rw_app_imp_2021-11-10_2021-11-14^OSP-2373_rw_app_clk_2021-11-10_2021-11-14^^^^^^^^^^^^^^^^,12169.407940349,438.0,369.0,697,697
139,^_AlwaysOn_wow_web_view_2021-11-03_2021-11-09^OSP-2373_rw_app_imp_2021-11-03_2021-11-09^OSP-2373_rw_app_imp_2021-11-10_2021-11-14^OSP-2373_rw_app_clk_2021-11-10_2021-11-14^OSP-2373_rw_app_imp_2021-11-10_2021-11-14^^^^^^^^^^^^^^^,5794.2658108929,83.0,34.0,114,114
140,^_AlwaysOn_wow_web_view_2021-11-03_2021-11-09^_AlwaysOn_wow_web_view_2021-11-10_2021-11-14^OSP-2373_email_open_2021-11-10_2021-11-14^OSP-2373_email_clk_2021-11-10_2021-11-14^^^^^^^^^^^^^^^^,9953.1358904039,117.0,45.0,162,162
141,^_AlwaysOn_wow_web_view_2021-11-10_2021-11-14^OSP-2373_email_open_2021-11-10_2021-11-14^^^^^^^^^^^^^^^^^^,14614.776858716,307.0,185.0,375,375
142,^OSP-2373_email_open_2021-11-10_2021-11-14^OSP-2373_email_clk_2021-11-10_2021-11-14^_AlwaysOn_wow_web_view_2021-11-10_2021-11-14^^^^^^^^^^^^^^^^^,83246.099368721,1842.0,1326.0,2526,2526
143,^OSP-2373_rw_app_imp_2021-11-10_2021-11-14^OSP-2373_rw_app_clk_2021-11-10_2021-11-14^_AlwaysOn_wow_web_view_2021-11-10_2021-11-14^OSP-2373_rw_app_imp_2021-11-10_2021-11-14^^^^^^^^^^^^^^^^,5870.2242593679,159.0,95.0,199,199
144,^OSP-2373_rw_app_imp_2021-11-10_2021-11-14^^^^^^^^^^^^^^^^^^^,104712.53323409,4568.0,4619.0,8364,8364
145,^OSP-2373_email_open_2021-11-10_2021-11-14^OSP-2373_email_clk_2021-11-10_2021-11-14^OSP-2373_email_open_2021-11-10_2021-11-14^OSP-2373_email_clk_2021-11-10_2021-11-14^_AlwaysOn_wow_web_view_2021-11-10_2021-11-14^OSP-2373_email_open_2021-11-10_2021-11-14^^^^^^^^^^^^^^,4705.7377629654,92.0,58.0,112,112
146,^OSP-2373_rw_app_imp_2021-11-10_2021-11-14^OSP-2373_rw_app_clk_2021-11-10_2021-11-14^OSP-2373_email_open_2021-11-10_2021-11-14^OSP-2373_email_clk_2021-11-10_2021-11-14^^^^^^^^^^^^^^^^,17602.620015686,800.0,658.0,1178,1178
147,^OSP-2373_rw_app_imp_2021-11-03_2021-11-09^OSP-2373_rw_app_imp_2021-11-10_2021-11-14^OSP-2373_rw_app_clk_2021-11-10_2021-11-14^OSP-2373_rw_app_imp_2021-11-10_2021-11-14^OSP-2373_email_open_2021-11-10_2021-11-14^OSP-2373_email_clk_2021-11-10_2021-11-14^OSP-2373_rw_app_imp_2021-11-10_2021-11-14^^^^^^^^^^^^^,13466.620225376,510.0,338.0,607,607
148,^OSP-2373_rw_app_imp_2021-11-03_2021-11-09^_AlwaysOn_wow_web_view_2021-11-03_2021-11-09^OSP-2373_rw_app_imp_2021-11-10_2021-11-14^OSP-2373_rw_app_clk_2021-11-10_2021-11-14^OSP-2373_rw_app_imp_2021-11-10_2021-11-14^^^^^^^^^^^^^^^,4405.0444388734,81.0,35.0,110,110
149,^OSP-2373_email_open_2021-11-10_2021-11-14^OSP-2373_rw_app_imp_2021-11-10_2021-11-14^OSP-2373_rw_app_clk_2021-11-10_2021-11-14^OSP-2373_email_open_2021-11-10_2021-11-14^^^^^^^^^^^^^^^^,8630.9520855285,211.0,163.0,313,313
150,^OSP-2373_email_open_2021-11-10_2021-11-14^OSP-2373_rw_app_imp_2021-11-10_2021-11-14^OSP-2373_rw_app_clk_2021-11-10_2021-11-14^OSP-2373_email_open_2021-11-10_2021-11-14^OSP-2373_rw_app_imp_2021-11-10_2021-11-14^^^^^^^^^^^^^^^,1412.5537056974,103.0,66.0,140,140
151,^OSP-2373_email_open_2021-11-10_2021-11-14^OSP-2373_rw_app_imp_2021-11-10_2021-11-14^OSP-2373_rw_app_clk_2021-11-10_2021-11-14^OSP-2373_rw_app_imp_2021-11-10_2021-11-14^^^^^^^^^^^^^^^^,58642.290834258,1820.0,1246.0,2520,2520
152,^OSP-2373_rw_app_imp_2021-11-03_2021-11-09^OSP-2373_rw_app_imp_2021-11-10_2021-11-14^^^^^^^^^^^^^^^^^^,46655.809798069,1869.0,1592.0,3056,3056
153,^OSP-2373_email_open_2021-11-10_2021-11-14^OSP-2373_email_clk_2021-11-10_2021-11-14^OSP-2373_rw_app_imp_2021-11-10_2021-11-14^OSP-2373_rw_app_clk_2021-11-10_2021-11-14^OSP-2373_rw_app_imp_2021-11-10_2021-11-14^^^^^^^^^^^^^^^,5744.7761711979,194.0,146.0,265,265
154,^_AlwaysOn_wow_web_view_2021-11-03_2021-11-09^_AlwaysOn_wow_web_view_2021-11-10_2021-11-14^^^^^^^^^^^^^^^^^^,31244.157093356,258.0,100.0,354,354
155,^OSP-2373_rw_app_imp_2021-11-10_2021-11-14^OSP-2373_email_open_2021-11-10_2021-11-14^OSP-2373_email_clk_2021-11-10_2021-11-14^OSP-2373_email_open_2021-11-10_2021-11-14^OSP-2373_rw_app_imp_2021-11-10_2021-11-14^^^^^^^^^^^^^^^,1530.7864367235,81.0,62.0,116,116
156,^OSP-2373_email_open_2021-11-10_2021-11-14^OSP-2373_email_clk_2021-11-10_2021-11-14^OSP-2373_email_open_2021-11-10_2021-11-14^_AlwaysOn_wow_web_view_2021-11-10_2021-11-14^^^^^^^^^^^^^^^^,22089.023483149,457.0,307.0,626,626
157,^OSP-2373_rw_app_imp_2021-11-10_2021-11-14^OSP-2373_rw_app_clk_2021-11-10_2021-11-14^OSP-2373_rw_app_imp_2021-11-10_2021-11-14^OSP-2373_rw_app_clk_2021-11-10_2021-11-14^^^^^^^^^^^^^^^^,19354.928012815,444.0,304.0,620,620
158,^OSP-2373_rw_app_imp_2021-11-03_2021-11-09^OSP-2373_rw_app_clk_2021-11-03_2021-11-09^OSP-2373_rw_app_imp_2021-11-10_2021-11-14^OSP-2373_rw_app_clk_2021-11-10_2021-11-14^OSP-2373_rw_app_imp_2021-11-10_2021-11-14^^^^^^^^^^^^^^^,36618.905926004,632.0,306.0,823,823
159,^OSP-2373_rw_app_imp_2021-11-03_2021-11-09^OSP-2373_rw_app_imp_2021-11-10_2021-11-14^OSP-2373_rw_app_clk_2021-11-10_2021-11-14^OSP-2373_rw_app_imp_2021-11-10_2021-11-14^OSP-2373_email_open_2021-11-10_2021-11-14^OSP-2373_email_clk_2021-11-10_2021-11-14^OSP-2373_email_open_2021-11-10_2021-11-14^OSP-2373_rw_app_imp_2021-11-10_2021-11-14^^^^^^^^^^^^,4651.2155811765,136.0,91.0,158,158
160,^OSP-2373_email_open_2021-11-03_2021-11-09^OSP-2373_email_open_2021-11-10_2021-11-14^OSP-2373_email_clk_2021-11-10_2021-11-14^OSP-2373_email_open_2021-11-10_2021-11-14^OSP-2373_email_clk_2021-11-10_2021-11-14^OSP-2373_email_open_2021-11-10_2021-11-14^^^^^^^^^^^^^^,6771.3254150916,149.0,106.0,197,197
161,^OSP-2373_rw_app_imp_2021-11-03_2021-11-09^OSP-2373_email_open_2021-11-10_2021-11-14^OSP-2373_email_clk_2021-11-10_2021-11-14^OSP-2373_rw_app_imp_2021-11-10_2021-11-14^OSP-2373_rw_app_clk_2021-11-10_2021-11-14^OSP-2373_rw_app_imp_2021-11-10_2021-11-14^^^^^^^^^^^^^^,-1234.8703574818,92.0,65.0,122,122
162,^OSP-2373_rw_app_imp_2021-11-10_2021-11-14^OSP-2373_rw_app_clk_2021-11-10_2021-11-14^OSP-2373_email_open_2021-11-10_2021-11-14^FB_Impression_MobileFeed^^^^^^^^^^^^^^^^,824.37055255499,73.0,64.0,112,112
163,^OSP-2373_email_open_2021-11-10_2021-11-14^OSP-2373_rw_app_imp_2021-11-10_2021-11-14^^^^^^^^^^^^^^^^^^,17357.313657772,1618.0,1526.0,2772,2772
164,^OSP-2373_email_open_2021-11-10_2021-11-14^OSP-2373_email_clk_2021-11-10_2021-11-14^OSP-2373_email_open_2021-11-10_2021-11-14^OSP-2373_email_clk_2021-11-10_2021-11-14^OSP-2373_email_open_2021-11-10_2021-11-14^^^^^^^^^^^^^^^,44958.734346568,1092.0,816.0,1523,1523
165,^FB_Impression_MobileFeed^^^^^^^^^^^^^^^^^^^,28570.84972312,765.0,857.0,1498,1498
166,^OSP-2373_email_open_2021-11-03_2021-11-09^OSP-2373_rw_app_imp_2021-11-10_2021-11-14^OSP-2373_rw_app_clk_2021-11-10_2021-11-14^^^^^^^^^^^^^^^^^,3681.5019140196,79.0,57.0,113,113
167,^OSP-2373_rw_app_imp_2021-11-03_2021-11-09^OSP-2373_rw_app_clk_2021-11-03_2021-11-09^OSP-2373_email_open_2021-11-10_2021-11-14^OSP-2373_rw_app_imp_2021-11-10_2021-11-14^OSP-2373_rw_app_clk_2021-11-10_2021-11-14^^^^^^^^^^^^^^^,4711.4144426793,103.0,58.0,144,144
168,^OSP-2373_rw_app_imp_2021-11-10_2021-11-14^OSP-2373_rw_app_clk_2021-11-10_2021-11-14^OSP-2373_email_open_2021-11-10_2021-11-14^OSP-2373_email_clk_2021-11-10_2021-11-14^OSP-2373_email_open_2021-11-10_2021-11-14^^^^^^^^^^^^^^^,10087.574370089,292.0,221.0,415,415
169,^OSP-2373_rw_app_imp_2021-11-03_2021-11-09^OSP-2373_rw_app_imp_2021-11-10_2021-11-14^OSP-2373_rw_app_clk_2021-11-10_2021-11-14^OSP-2373_rw_app_imp_2021-11-10_2021-11-14^FB_Impression_MobileFeed^OSP-2373_rw_app_imp_2021-11-10_2021-11-14^FB_Impression_MobileFeed^^^^^^^^^^^^^,2487.200697292,77.0,63.0,101,101
170,^OSP-2373_email_open_2021-11-10_2021-11-14^OSP-2373_email_clk_2021-11-10_2021-11-14^OSP-2373_email_open_2021-11-10_2021-11-14^OSP-2373_email_clk_2021-11-10_2021-11-14^OSP-2373_email_open_2021-11-10_2021-11-14^OSP-2373_email_clk_2021-11-10_2021-11-14^^^^^^^^^^^^^^,8081.016853204,193.0,154.0,261,261
