,path,total_conversion_value,conversions,non_conversions,cnt,ppl,Converted
0,CVM-3509_rw_app_push_clk_2021-12-20_2021-12-26,12808.389811376,439.0,303.0,1600,1600,False
1,_AlwaysOn_wow_web_clk_2021-12-20_2021-12-26 > CVM-3509_email_open_2021-12-20_2021-12-26,9728.6314678147,91.0,34.0,250,250,False
2,CVM-3509_email_clk_2021-12-20_2021-12-26,656448.29363147,20899.0,14972.0,43031,43031,False
3,FB_Impression_Instagram > FB_Impression_InstagramStory > CVM-3509_email_open_2021-12-20_2021-12-26 > CVM-3509_email_clk_2021-12-20_2021-12-26,5849.4320952367,70.0,51.0,153,153,False
4,_AlwaysOn_wow_web_view_2021-12-20_2021-12-26 > CVM-3509_rw_app_imp_2021-12-20_2021-12-26,792.72698399431,11.0,4.0,126,126,False
5,FB_Impression_MobileFeed > FB_Impression_FacebookStory > CVM-3509_email_open_2021-12-20_2021-12-26 > CVM-3509_email_clk_2021-12-20_2021-12-26,-690.37609757271,116.0,105.0,293,293,False
6,FB_Impression_WebFeed,5583.1872996467,112.0,81.0,8370,8370,False
7,CVM-3509_rw_app_push_imp_2021-12-20_2021-12-26 > CVM-3509_rw_app_imp_2021-12-20_2021-12-26 > CVM-3509_rw_app_clk_2021-12-20_2021-12-26,9009.3155299287,209.0,131.0,423,423,False
8,FB_Impression_WebFeed > CVM-3509_email_open_2021-12-20_2021-12-26,2961.135862361,147.0,106.0,2253,2253,False
9,_AlwaysOn_wow_web_view_2021-12-20_2021-12-26,10310.897725452,180.0,103.0,43791,43791,False
10,FB_Impression_MobileFeed > FB_Impression_InstagramStory > FB_Impression_MobileFeed > CVM-3509_email_open_2021-12-20_2021-12-26 > CVM-3509_email_clk_2021-12-20_2021-12-26,3139.5135228187,60.0,41.0,124,124,False
11,FB_Impression_MobileFeed > FB_Impression_InstagramStory > FB_Impression_MobileFeed > CVM-3509_email_open_2021-12-20_2021-12-26,-1131.669485462,7.0,9.0,123,123,False
12,CVM-3509_rw_app_push_clk_2021-12-20_2021-12-26 > CVM-3509_email_open_2021-12-20_2021-12-26 > CVM-3509_email_clk_2021-12-20_2021-12-26,3053.3606956999,170.0,131.0,355,355,False
13,FB_Impression_MobileFeed > FB_Impression_Instagram > CVM-3509_email_open_2021-12-20_2021-12-26,-25.144269440801,12.0,16.0,314,314,False
14,CVM-3509_rw_app_imp_2021-12-20_2021-12-26 > CVM-3509_email_open_2021-12-20_2021-12-26 > CVM-3509_email_clk_2021-12-20_2021-12-26,45863.058484863,1440.0,939.0,2820,2820,False
15,CVM-3509_rw_app_push_clk_2021-12-20_2021-12-26 > CVM-3509_rw_app_imp_2021-12-20_2021-12-26 > CVM-3509_rw_app_clk_2021-12-20_2021-12-26 > CVM-3509_email_open_2021-12-20_2021-12-26,3865.2215791848,53.0,24.0,105,105,False
16,CVM-3509_email_open_2021-12-20_2021-12-26,126698.88419332,5381.0,3841.0,229447,229447,False
17,CVM-3509_rw_app_imp_2021-12-20_2021-12-26 > CVM-3509_email_open_2021-12-20_2021-12-26,25955.263563039,924.0,589.0,5582,5582,False
18,FB_Impression_MobileFeed > CVM-3509_rw_app_imp_2021-12-20_2021-12-26 > CVM-3509_rw_app_clk_2021-12-20_2021-12-26 > CVM-3509_email_open_2021-12-20_2021-12-26,13386.237719761,335.0,197.0,639,639,False
19,_AlwaysOn_wow_web_clk_2021-12-20_2021-12-26 > CVM-3509_email_open_2021-12-20_2021-12-26 > CVM-3509_email_clk_2021-12-20_2021-12-26,22343.252382094,214.0,112.0,343,343,False
20,FB_Impression_MobileFeed > _AlwaysOn_wow_web_view_2021-12-20_2021-12-26 > CVM-3509_email_open_2021-12-20_2021-12-26 > CVM-3509_email_clk_2021-12-20_2021-12-26,14743.319310084,177.0,111.0,318,318,False
21,FB_Impression_Instagram > _AlwaysOn_wow_web_view_2021-12-20_2021-12-26,1959.0314211775,4.0,5.0,104,104,False
22,CVM-3509_rw_app_imp_2021-12-20_2021-12-26 > CVM-3509_rw_app_imp_2021-12-20_2021-12-26 > CVM-3509_email_open_2021-12-20_2021-12-26,397.67086112052,42.0,30.0,102,102,False
23,CVM-3509_rw_app_clk_2021-12-20_2021-12-26 > CVM-3509_email_open_2021-12-20_2021-12-26 > CVM-3509_email_open_2021-12-20_2021-12-26,3986.5508013317,99.0,55.0,171,171,False
24,FB_Impression_FacebookStory > CVM-3509_email_open_2021-12-20_2021-12-26,-775.02132984218,7.0,9.0,275,275,False
25,FB_Impression_MobileFeed > CVM-3509_rw_app_imp_2021-12-20_2021-12-26 > CVM-3509_email_open_2021-12-20_2021-12-26 > CVM-3509_email_clk_2021-12-20_2021-12-26,6961.3170087386,400.0,258.0,797,797,False
26,FB_Impression_MobileFeed > CVM-3509_rw_app_push_clk_2021-12-20_2021-12-26 > CVM-3509_rw_app_imp_2021-12-20_2021-12-26,-915.97237009377,37.0,40.0,227,227,False
27,FB_Impression_MobileFeed > CVM-3509_rw_app_imp_2021-12-20_2021-12-26 > CVM-3509_email_open_2021-12-20_2021-12-26,5822.5848567241,158.0,120.0,1042,1042,False
28,FB_Impression_MobileFeed > CVM-3509_rw_app_push_clk_2021-12-20_2021-12-26 > CVM-3509_rw_app_imp_2021-12-20_2021-12-26 > CVM-3509_rw_app_clk_2021-12-20_2021-12-26,4105.5523345524,78.0,40.0,156,156,False
29,FB_Impression_InstagramStory > FB_Impression_MobileFeed > CVM-3509_email_open_2021-12-20_2021-12-26 > CVM-3509_email_clk_2021-12-20_2021-12-26,4830.0049832562,76.0,47.0,153,153,False
31,FB_Impression_MobileFeed > CVM-3509_rw_app_push_imp_2021-12-20_2021-12-26 > CVM-3509_rw_app_imp_2021-12-20_2021-12-26,5574.9771560502,118.0,77.0,428,428,False
32,FB_Impression_WebFeed > FB_Impression_MobileFeed > CVM-3509_email_open_2021-12-20_2021-12-26 > CVM-3509_email_clk_2021-12-20_2021-12-26,1696.8194271827,71.0,51.0,173,173,False
33,_AlwaysOn_wow_web_view_2021-12-20_2021-12-26 > _AlwaysOn_wow_web_clk_2021-12-20_2021-12-26 > CVM-3509_email_open_2021-12-20_2021-12-26,5277.3731952806,37.0,14.0,134,134,False
34,FB_Impression_Instagram > FB_Impression_MobileFeed > CVM-3509_email_open_2021-12-20_2021-12-26,1454.3690273612,31.0,22.0,599,599,False
35,FB_Impression_MobileFeed > FB_Impression_Instagram > FB_Impression_MobileFeed > CVM-3509_email_open_2021-12-20_2021-12-26,1752.6684243609,26.0,23.0,387,387,False
36,CVM-3509_rw_app_push_clk_2021-12-20_2021-12-26 > CVM-3509_rw_app_imp_2021-12-20_2021-12-26 > CVM-3509_email_open_2021-12-20_2021-12-26 > CVM-3509_email_clk_2021-12-20_2021-12-26,1765.0538092455,97.0,77.0,206,206,False
37,FB_Impression_MobileFeed > CVM-3509_rw_app_push_clk_2021-12-20_2021-12-26 > CVM-3509_email_open_2021-12-20_2021-12-26 > CVM-3509_email_clk_2021-12-20_2021-12-26,170.09598793806,84.0,59.0,158,158,False
38,FB_Impression_MobileFeed > FB_Impression_WebFeed > FB_Impression_MobileFeed > CVM-3509_email_open_2021-12-20_2021-12-26 > CVM-3509_email_clk_2021-12-20_2021-12-26,447.21495074265,46.0,33.0,115,115,False
39,CVM-3509_rw_app_push_imp_2021-12-20_2021-12-26 > CVM-3509_rw_app_imp_2021-12-20_2021-12-26,-1275.6013774229,214.0,165.0,1213,1213,False
40,FB_Impression_MobileFeed > FB_Click_MobileFeed > FB_Impression_MobileFeed > CVM-3509_email_open_2021-12-20_2021-12-26,2850.6951120987,18.0,7.0,230,230,False
41,FB_Impression_FacebookStory > FB_Impression_MobileFeed > CVM-3509_email_open_2021-12-20_2021-12-26 > CVM-3509_email_clk_2021-12-20_2021-12-26,2091.5723659726,88.0,65.0,198,198,False
42,FB_Impression_MobileFeed > CVM-3509_rw_app_push_imp_2021-12-20_2021-12-26,9447.0183921295,151.0,97.0,524,524,False
43,CVM-3509_rw_app_push_imp_2021-12-20_2021-12-26 > CVM-3509_rw_app_imp_2021-12-20_2021-12-26 > CVM-3509_rw_app_clk_2021-12-20_2021-12-26 > CVM-3509_email_open_2021-12-20_2021-12-26,2493.9178259659,72.0,49.0,147,147,False
44,FB_Impression_Instagram > FB_Impression_InstagramStory > FB_Impression_Instagram > CVM-3509_email_open_2021-12-20_2021-12-26,99.906611857232,4.0,6.0,106,106,False
45,_AlwaysOn_wow_web_view_2021-12-20_2021-12-26 > _AlwaysOn_wow_web_clk_2021-12-20_2021-12-26 > CVM-3509_email_open_2021-12-20_2021-12-26 > CVM-3509_email_clk_2021-12-20_2021-12-26,6060.6841298825,68.0,24.0,106,106,False
46,FB_Impression_MobileFeed > CVM-3509_email_open_2021-12-20_2021-12-26 > CVM-3509_email_clk_2021-12-20_2021-12-26,145972.90695939,4744.0,3333.0,10281,10281,False
47,FB_Impression_SuggestedVideo > FB_Impression_MobileFeed > CVM-3509_email_open_2021-12-20_2021-12-26 > CVM-3509_email_clk_2021-12-20_2021-12-26,10336.217162579,295.0,199.0,612,612,False
48,FB_Impression_MobileFeed > CVM-3509_rw_app_imp_2021-12-20_2021-12-26,7552.6082259025,282.0,192.0,2158,2158,False
49,CVM-3509_rw_app_clk_2021-12-20_2021-12-26 > CVM-3509_email_open_2021-12-20_2021-12-26 > CVM-3509_email_clk_2021-12-20_2021-12-26,23684.187358735,783.0,465.0,1397,1397,False
50,FB_Impression_MobileFeed > CVM-3509_rw_app_push_imp_2021-12-20_2021-12-26 > CVM-3509_email_open_2021-12-20_2021-12-26,2434.471608501,45.0,34.0,127,127,False
51,FB_Impression_MobileFeed > _AlwaysOn_wow_web_view_2021-12-20_2021-12-26 > _AlwaysOn_wow_web_clk_2021-12-20_2021-12-26,2284.0861161649,27.0,20.0,115,115,False
52,FB_Impression_InstagramStory > CVM-3509_email_open_2021-12-20_2021-12-26 > CVM-3509_email_clk_2021-12-20_2021-12-26,9970.6723498227,195.0,111.0,381,381,False
53,FB_Impression_InstagramStory,1405.0011213749,59.0,58.0,6351,6351,False
54,CVM-3509_rw_app_push_imp_2021-12-20_2021-12-26 > CVM-3509_email_open_2021-12-20_2021-12-26 > CVM-3509_email_clk_2021-12-20_2021-12-26,6665.2968132931,148.0,88.0,276,276,False
55,_AlwaysOn_wow_web_view_2021-12-20_2021-12-26 > CVM-3509_email_open_2021-12-20_2021-12-26,5659.1147600163,66.0,22.0,778,778,False
56,FB_Impression_InstagramStory > FB_Impression_Instagram > CVM-3509_email_open_2021-12-20_2021-12-26,-714.59176409625,7.0,12.0,131,131,False
57,CVM-3509_rw_app_imp_2021-12-20_2021-12-26 > CVM-3509_rw_app_clk_2021-12-20_2021-12-26,175190.2574945,3703.0,2162.0,7577,7577,False
58,FB_Impression_MobileFeed > FB_Impression_WebFeed > CVM-3509_email_open_2021-12-20_2021-12-26,174.95065898502,6.0,8.0,208,208,False
59,_AlwaysOn_sem_shopping_clk_2021-12-20_2021-12-26 > _AlwaysOn_sem_shopping_clk_2021-12-20_2021-12-26,85.482166005538,1.0,0.0,100,100,False
60,FB_Impression_MobileFeed > _AlwaysOn_wow_web_view_2021-12-20_2021-12-26 > CVM-3509_email_open_2021-12-20_2021-12-26,2575.6293813761,26.0,13.0,175,175,False
61,CVM-3509_rw_app_push_imp_2021-12-20_2021-12-26 > CVM-3509_rw_app_imp_2021-12-20_2021-12-26 > CVM-3509_email_open_2021-12-20_2021-12-26,1915.7461626263,72.0,39.0,312,312,False
62,FB_Impression_Instagram > CVM-3509_rw_app_imp_2021-12-20_2021-12-26 > CVM-3509_email_open_2021-12-20_2021-12-26,-79.424599816272,12.0,9.0,100,100,False
63,FB_Impression_Instagram > CVM-3509_email_open_2021-12-20_2021-12-26,4766.491350603,59.0,34.0,2426,2426,False
64,FB_Impression_SuggestedVideo > CVM-3509_email_open_2021-12-20_2021-12-26 > CVM-3509_email_clk_2021-12-20_2021-12-26,8730.0435725433,300.0,189.0,629,629,False
65,FB_Impression_FacebookStory > FB_Impression_MobileFeed > CVM-3509_email_open_2021-12-20_2021-12-26,467.23679646068,14.0,8.0,282,282,False
66,CVM-3509_email_open_2021-12-20_2021-12-26 > CVM-3509_email_clk_2021-12-20_2021-12-26,500723.32736118,17802.0,12508.0,41838,41838,False
67,FB_Impression_Instagram > FB_Impression_MobileFeed > CVM-3509_rw_app_imp_2021-12-20_2021-12-26 > CVM-3509_rw_app_clk_2021-12-20_2021-12-26,794.34968808792,53.0,38.0,112,112,False
68,CVM-3509_rw_app_push_imp_2021-12-20_2021-12-26,11742.301684558,578.0,398.0,3667,3667,False
69,CVM-3509_rw_app_imp_2021-12-20_2021-12-26 > CVM-3509_email_open_2021-12-20_2021-12-26 > CVM-3509_email_open_2021-12-20_2021-12-26 > CVM-3509_email_clk_2021-12-20_2021-12-26,5784.048649767,98.0,48.0,158,158,False
70,CVM-3509_rw_app_imp_2021-12-20_2021-12-26,91583.362273435,2624.0,1765.0,26655,26655,False
71,FB_Impression_MobileFeed > CVM-3509_email_open_2021-12-20_2021-12-26,26484.356235804,685.0,469.0,20278,20278,False
72,_AlwaysOn_wow_web_clk_2021-12-20_2021-12-26 > _AlwaysOn_sem_shopping_clk_2021-12-20_2021-12-26,1110.4422048801,5.0,1.0,110,110,False
73,FB_Impression_WebFeed > FB_Impression_MobileFeed > FB_Impression_WebFeed > CVM-3509_email_open_2021-12-20_2021-12-26,72.918138774943,15.0,7.0,187,187,False
74,CVM-3509_rw_app_push_imp_2021-12-20_2021-12-26 > CVM-3509_email_open_2021-12-20_2021-12-26,-444.06050473295,94.0,72.0,370,370,False
75,FB_Impression_MobileFeed > FB_Impression_Instagram > FB_Impression_MobileFeed > CVM-3509_email_open_2021-12-20_2021-12-26 > CVM-3509_email_clk_2021-12-20_2021-12-26,6934.1187314635,213.0,160.0,463,463,False
76,FB_Impression_MobileFeed > FB_Impression_FacebookStory > FB_Impression_MobileFeed > CVM-3509_email_open_2021-12-20_2021-12-26,-342.69881825682,31.0,20.0,405,405,False
77,FB_Impression_Instagram > FB_Impression_InstagramStory > CVM-3509_email_open_2021-12-20_2021-12-26,-200.79423527573,5.0,9.0,221,221,False
78,_AlwaysOn_wow_web_view_2021-12-20_2021-12-26 > CVM-3509_rw_app_imp_2021-12-20_2021-12-26 > CVM-3509_rw_app_clk_2021-12-20_2021-12-26,1915.2875753136,81.0,44.0,138,138,False
79,FB_Impression_Instagram > CVM-3509_email_open_2021-12-20_2021-12-26 > CVM-3509_email_clk_2021-12-20_2021-12-26,13783.643968624,431.0,305.0,977,977,False
80,FB_Impression_MobileFeed,28803.886696496,1098.0,786.0,86486,86486,False
81,FB_Impression_Instagram > FB_Impression_MobileFeed > FB_Impression_Instagram > CVM-3509_email_open_2021-12-20_2021-12-26 > CVM-3509_email_clk_2021-12-20_2021-12-26,1503.6980443243,99.0,67.0,203,203,False
82,_AlwaysOn_wow_web_view_2021-12-20_2021-12-26 > _AlwaysOn_wow_web_clk_2021-12-20_2021-12-26,13233.405900731,115.0,55.0,3517,3517,False
83,FB_Impression_MobileFeed > CVM-3509_rw_app_imp_2021-12-20_2021-12-26 > CVM-3509_rw_app_clk_2021-12-20_2021-12-26,38376.148787878,740.0,439.0,1447,1447,False
84,FB_Impression_MobileFeed > CVM-3509_rw_app_push_imp_2021-12-20_2021-12-26 > CVM-3509_rw_app_imp_2021-12-20_2021-12-26 > CVM-3509_email_open_2021-12-20_2021-12-26,1777.6217117839,57.0,37.0,177,177,False
85,FB_Impression_Instagram > CVM-3509_rw_app_imp_2021-12-20_2021-12-26,-602.2105971854,26.0,4.0,260,260,False
86,FB_Impression_MobileFeed > CVM-3509_rw_app_push_imp_2021-12-20_2021-12-26 > CVM-3509_email_open_2021-12-20_2021-12-26 > CVM-3509_email_clk_2021-12-20_2021-12-26,7767.7848888475,175.0,92.0,276,276,False
87,FB_Impression_MobileFeed > FB_Impression_SuggestedVideo > FB_Impression_MobileFeed > CVM-3509_email_open_2021-12-20_2021-12-26 > CVM-3509_email_clk_2021-12-20_2021-12-26,-45.326633809024,113.0,97.0,276,276,False
88,FB_Impression_InstagramStory > FB_Impression_MobileFeed > CVM-3509_email_open_2021-12-20_2021-12-26,1500.3162807952,15.0,11.0,115,115,False
89,FB_Impression_MobileFeed > FB_Impression_SuggestedVideo > CVM-3509_email_open_2021-12-20_2021-12-26 > CVM-3509_email_clk_2021-12-20_2021-12-26,954.48535106682,89.0,60.0,187,187,False
90,_AlwaysOn_wow_web_clk_2021-12-20_2021-12-26 > CVM-3509_rw_app_imp_2021-12-20_2021-12-26 > CVM-3509_rw_app_clk_2021-12-20_2021-12-26,4991.6904477653,71.0,36.0,108,108,False
91,FB_Impression_MobileFeed > FB_Click_MobileFeed > FB_Impression_MobileFeed > CVM-3509_email_open_2021-12-20_2021-12-26 > CVM-3509_email_clk_2021-12-20_2021-12-26,1959.3437285848,60.0,45.0,142,142,False
92,CVM-3509_rw_app_imp_2021-12-20_2021-12-26 > CVM-3509_rw_app_clk_2021-12-20_2021-12-26 > CVM-3509_email_open_2021-12-20_2021-12-26 > CVM-3509_email_clk_2021-12-20_2021-12-26,16819.89781503,437.0,243.0,768,768,False
93,CVM-3509_email_open_2021-12-20_2021-12-26 > CVM-3509_email_clk_2021-12-20_2021-12-26 > CVM-3509_email_clk_2021-12-20_2021-12-26,3780.3774626621,91.0,50.0,154,154,False
94,FB_Impression_MobileFeed > CVM-3509_rw_app_push_imp_2021-12-20_2021-12-26 > CVM-3509_rw_app_imp_2021-12-20_2021-12-26 > CVM-3509_rw_app_clk_2021-12-20_2021-12-26,18849.048284085,161.0,103.0,293,293,False
95,_AlwaysOn_wow_web_view_2021-12-20_2021-12-26 > _AlwaysOn_sem_shopping_clk_2021-12-20_2021-12-26,807.50636219103,15.0,3.0,1349,1349,False
96,FB_Impression_FacebookStory > CVM-3509_email_open_2021-12-20_2021-12-26 > CVM-3509_email_clk_2021-12-20_2021-12-26,752.21416867702,63.0,68.0,169,169,False
97,FB_Impression_MobileFeed > FB_Impression_Instagram > FB_Impression_MobileFeed,-20.755554643092,59.0,47.0,2361,2361,False
98,CVM-3509_rw_app_push_clk_2021-12-20_2021-12-26 > CVM-3509_email_open_2021-12-20_2021-12-26,1826.6739158347,78.0,48.0,216,216,False
99,FB_Impression_MobileFeed > FB_Impression_SuggestedVideo > FB_Impression_MobileFeed > CVM-3509_email_open_2021-12-20_2021-12-26,2494.6873556672,26.0,9.0,358,358,False
100,CVM-3509_rw_app_push_clk_2021-12-20_2021-12-26 > CVM-3509_rw_app_imp_2021-12-20_2021-12-26,12699.703746243,174.0,97.0,830,830,False
101,_AlwaysOn_sem_shopping_clk_2021-12-20_2021-12-26,1231.0407926453,26.0,12.0,2220,2220,False
102,FB_Impression_Instagram > FB_Impression_MobileFeed > FB_Impression_Instagram > CVM-3509_email_open_2021-12-20_2021-12-26,-1593.2786317973,11.0,10.0,203,203,False
103,FB_Impression_InstagramStory > FB_Impression_Instagram > CVM-3509_email_open_2021-12-20_2021-12-26 > CVM-3509_email_clk_2021-12-20_2021-12-26,1914.2038739925,78.0,65.0,186,186,False
104,FB_Impression_MobileFeed > _AlwaysOn_wow_web_view_2021-12-20_2021-12-26,3244.7546053486,32.0,24.0,661,661,False
105,FB_Impression_Other > CVM-3509_email_open_2021-12-20_2021-12-26 > CVM-3509_email_clk_2021-12-20_2021-12-26,-50.815367856691,50.0,36.0,106,106,False
106,FB_Impression_Instagram,4715.5719204744,111.0,65.0,21604,21604,False
107,_AlwaysOn_sem_shopping_clk_2021-12-20_2021-12-26 > CVM-3509_email_open_2021-12-20_2021-12-26 > CVM-3509_email_clk_2021-12-20_2021-12-26,1196.4149861504,50.0,53.0,115,115,False
108,CVM-3509_rw_app_push_clk_2021-12-20_2021-12-26 > CVM-3509_rw_app_imp_2021-12-20_2021-12-26 > CVM-3509_email_open_2021-12-20_2021-12-26,4676.8473830297,53.0,29.0,205,205,False
109,FB_Impression_SuggestedVideo > CVM-3509_email_open_2021-12-20_2021-12-26,838.03444171586,24.0,21.0,666,666,False
110,FB_Impression_MobileFeed > CVM-3509_rw_app_push_imp_2021-12-20_2021-12-26 > CVM-3509_rw_app_imp_2021-12-20_2021-12-26 > CVM-3509_email_open_2021-12-20_2021-12-26 > CVM-3509_email_clk_2021-12-20_2021-12-26,5418.9254618395,89.0,50.0,156,156,False
111,CVM-3509_email_open_2021-12-20_2021-12-26 > CVM-3509_email_open_2021-12-20_2021-12-26 > CVM-3509_email_clk_2021-12-20_2021-12-26,12826.991030284,424.0,252.0,722,722,False
112,CVM-3509_rw_app_imp_2021-12-20_2021-12-26 > CVM-3509_rw_app_imp_2021-12-20_2021-12-26,3574.9640833095,52.0,33.0,114,114,False
113,FB_Impression_InstagramStory > FB_Impression_Instagram > FB_Impression_InstagramStory > CVM-3509_email_open_2021-12-20_2021-12-26 > CVM-3509_email_clk_2021-12-20_2021-12-26,-2905.5889413504,42.0,47.0,113,113,False
114,FB_Impression_Instagram > FB_Impression_MobileFeed > CVM-3509_rw_app_imp_2021-12-20_2021-12-26,-1397.4637802896,20.0,20.0,104,104,False
115,CVM-3509_email_open_2021-12-20_2021-12-26 > CVM-3509_email_open_2021-12-20_2021-12-26,390.66373947592,45.0,30.0,180,180,False
116,FB_Impression_SuggestedVideo > FB_Impression_MobileFeed,1227.8433632082,70.0,57.0,2773,2773,False
117,FB_Impression_Instagram > FB_Impression_InstagramStory > FB_Impression_Instagram > CVM-3509_email_open_2021-12-20_2021-12-26 > CVM-3509_email_clk_2021-12-20_2021-12-26,309.9008737863,82.0,59.0,177,177,False
118,FB_Impression_WebFeed > FB_Impression_MobileFeed > FB_Impression_WebFeed > FB_Impression_MobileFeed > CVM-3509_email_open_2021-12-20_2021-12-26,-55.010031072186,6.0,4.0,105,105,False
119,FB_Impression_MobileFeed > CVM-3509_rw_app_push_clk_2021-12-20_2021-12-26,6399.2799524869,97.0,58.0,244,244,False
120,CVM-3509_rw_app_clk_2021-12-20_2021-12-26 > CVM-3509_email_open_2021-12-20_2021-12-26 > CVM-3509_email_open_2021-12-20_2021-12-26 > CVM-3509_email_clk_2021-12-20_2021-12-26,-158.13602565534,62.0,47.0,117,117,False
121,CVM-3509_rw_app_push_clk_2021-12-20_2021-12-26 > CVM-3509_rw_app_imp_2021-12-20_2021-12-26 > CVM-3509_rw_app_clk_2021-12-20_2021-12-26,8737.7619938611,211.0,113.0,458,458,False
122,FB_Impression_MobileFeed > CVM-3509_rw_app_imp_2021-12-20_2021-12-26 > CVM-3509_rw_app_clk_2021-12-20_2021-12-26 > CVM-3509_email_open_2021-12-20_2021-12-26 > CVM-3509_email_clk_2021-12-20_2021-12-26,2715.5714349238,110.0,83.0,224,224,False
123,FB_Impression_MobileFeed > FB_Impression_FacebookStory > FB_Impression_MobileFeed > CVM-3509_email_open_2021-12-20_2021-12-26 > CVM-3509_email_clk_2021-12-20_2021-12-26,5498.9509392119,179.0,118.0,389,389,False
124,FB_Impression_WebFeed > CVM-3509_email_open_2021-12-20_2021-12-26 > CVM-3509_email_clk_2021-12-20_2021-12-26,8859.8495966004,326.0,230.0,753,753,False
125,FB_Impression_MobileFeed > FB_Impression_FacebookStory > CVM-3509_email_open_2021-12-20_2021-12-26,956.41338903544,16.0,17.0,293,293,False
126,FB_Impression_Instagram > FB_Impression_MobileFeed > FB_Impression_Instagram > FB_Impression_MobileFeed > CVM-3509_email_open_2021-12-20_2021-12-26,-1537.7041017323,9.0,7.0,131,131,False
127,FB_Impression_WebFeed > FB_Impression_MobileFeed > CVM-3509_email_open_2021-12-20_2021-12-26,2830.1623470119,25.0,16.0,510,510,False
128,FB_Impression_MobileFeed > FB_Impression_WebFeed > FB_Impression_MobileFeed > CVM-3509_email_open_2021-12-20_2021-12-26,1682.45768334,17.0,10.0,220,220,False
129,CVM-3509_rw_app_clk_2021-12-20_2021-12-26 > CVM-3509_email_open_2021-12-20_2021-12-26,72744.241422943,2115.0,1345.0,4077,4077,False
130,FB_Impression_Instagram > CVM-3509_rw_app_imp_2021-12-20_2021-12-26 > CVM-3509_rw_app_clk_2021-12-20_2021-12-26,3157.8105456449,64.0,44.0,147,147,False
131,CVM-3509_rw_app_imp_2021-12-20_2021-12-26 > CVM-3509_rw_app_clk_2021-12-20_2021-12-26 > CVM-3509_email_open_2021-12-20_2021-12-26,46436.963961742,1140.0,639.0,2296,2296,False
132,FB_Impression_Instagram > FB_Impression_MobileFeed > CVM-3509_email_open_2021-12-20_2021-12-26 > CVM-3509_email_clk_2021-12-20_2021-12-26,10130.273743867,237.0,172.0,509,509,False
133,FB_Impression_SuggestedVideo > FB_Impression_MobileFeed > CVM-3509_email_open_2021-12-20_2021-12-26,777.9775302765,38.0,18.0,501,501,False
134,FB_Impression_MobileFeed > FB_Impression_Instagram > CVM-3509_email_open_2021-12-20_2021-12-26 > CVM-3509_email_clk_2021-12-20_2021-12-26,5927.4899355474,138.0,93.0,293,293,False
135,CVM-3509_rw_app_clk_2021-12-20_2021-12-26,183076.5169206,4602.0,2920.0,8737,8737,False
136,CVM-3509_rw_app_push_imp_2021-12-20_2021-12-26 > CVM-3509_rw_app_imp_2021-12-20_2021-12-26 > CVM-3509_email_open_2021-12-20_2021-12-26 > CVM-3509_email_clk_2021-12-20_2021-12-26,3015.9610384442,91.0,50.0,168,168,False
137,FB_Impression_InstagramStory > CVM-3509_email_open_2021-12-20_2021-12-26,364.03990220073,29.0,18.0,586,586,False
138,FB_Impression_MobileFeed > FB_Impression_SuggestedVideo > CVM-3509_email_open_2021-12-20_2021-12-26,-299.14314335938,9.0,7.0,202,202,False
139,_AlwaysOn_wow_web_clk_2021-12-20_2021-12-26,21769.378844137,214.0,109.0,3397,3397,False
140,_AlwaysOn_wow_web_view_2021-12-20_2021-12-26 > CVM-3509_email_open_2021-12-20_2021-12-26 > CVM-3509_email_clk_2021-12-20_2021-12-26,2897.4830700683,209.0,152.0,479,479,False
