,channel_name,total_conversions,total_conversion_value,normalised_conversion_value
0,OSP-2373_email_open_2021-11-17_2021-11-23,1675.9911215799964,290987.3976749021,0.006870724202619977
1,OSP-2373_email_open_2021-11-24_2021-11-28,66791.34988222504,11996119.125953753,0.2832494694780104
2,OSP-2373_rw_app_imp_2021-11-24_2021-11-28,55907.75321616235,10230983.426238706,0.24157151136076527
3,OSP-2373_rw_app_clk_2021-11-24_2021-11-28,29009.130277224136,5683580.822668907,0.13419933862388755
4,OSP-2373_email_clk_2021-11-24_2021-11-28,37678.76336292807,6950455.376336331,0.16411247481850327
5,FB_Impression_MobileFeed,4117.558434499004,807371.1955774627,0.01906345380685451
6,OSP-2373_rw_app_imp_2021-11-17_2021-11-23,23815.626925167602,4302117.03033939,0.10158054898267468
7,_AlwaysOn_wow_web_view_2021-11-24_2021-11-28,2069.124841456786,255288.14448181057,0.006027802052419972
8,_AlwaysOn_wow_web_view_2021-11-17_2021-11-23,3538.2034788911037,1063632.6773474887,0.025114238064403948
9,_AlwaysOn_wow_web_clk_2021-11-17_2021-11-23,62.07374524370357,16060.222255569088,0.00037921009168264715
10,OSP-2373_email_clk_2021-11-17_2021-11-23,144.838738901975,16647.325753787805,0.0003930726377821895
11,FB_Impression_WebFeed,475.89871353506066,64433.865940945965,0.0015213968911582604
12,OSP-2373_rw_app_clk_2021-11-17_2021-11-23,2834.7010327957964,625868.0198499678,0.014777844628286137
13,_AlwaysOn_wow_web_clk_2021-11-24_2021-11-28,103.45624207283927,19456.137967690032,0.00045939363385581825
14,FB_Click_MobileFeed,144.838738901975,29302.291475747097,0.0006918786340691253
15,FB_Impression_Instagram,20.691248414567855,-523.3793534690425,-1.2357906973857595e-05
