,path,total_conversion_value,conversions,non_conversions,cnt,ppl,Converted
0,WCV-5070_rw_app_imp_2021-10-07_2021-10-31,6774.4453661345,11.0,18.0,562,562,False
1,WCV-5070_email_clk_2021-10-07_2021-10-31,17807.573596019,59.0,67.0,392,392,False
2,WCV-5070_display_clk_2021-10-07_2021-10-31,-963.4073497041,6.0,7.0,171,171,False
3,_AlwaysOn_sem_generic_clk_2021-10-07_2021-10-31,-4600.9489985694,1.0,9.0,628,628,False
4,_AlwaysOn_sem_shopping_clk_2021-10-07_2021-10-31,6752.1602633802,34.0,89.0,14694,14694,False
5,WCV-5070_email_open_2021-10-07_2021-10-31 > WCV-5070_email_clk_2021-10-07_2021-10-31,20964.355399407,45.0,33.0,367,367,False
6,WCV-5070_video_clk_2021-10-07_2021-10-31,5975.4453228524,14.0,21.0,585,585,False
7,WCV-5070_rw_app_clk_2021-10-07_2021-10-31,6514.0675973392,17.0,9.0,102,102,False
9,_AlwaysOn_sem_brand_clk_2021-10-07_2021-10-31,394.72331625155,1.0,2.0,322,322,False
10,_AlwaysOn_sem_other_clk_2021-10-07_2021-10-31,0.0,0.0,1.0,161,161,False
11,WCV-5070_email_open_2021-10-07_2021-10-31,108098.46187874,435.0,1094.0,23666,23666,False
