,path,total_conversion_value,conversions,non_conversions,cnt,ppl,Converted
0,WCV-5070_email_clk_2021-10-07_2021-10-31,-829.7348966732,10.0,21.0,291,291,False
1,WCV-5070_email_open_2021-10-07_2021-10-31,82534.182691544,136.0,588.0,19651,19651,False
2,_AlwaysOn_sem_shopping_clk_2021-10-07_2021-10-31,-1877.8445307446,7.0,18.0,5681,5681,False
3,WCV-5070_rw_app_imp_2021-10-07_2021-10-31,0.0,0.0,4.0,626,626,False
4,WCV-5070_email_open_2021-10-07_2021-10-31 > WCV-5070_email_clk_2021-10-07_2021-10-31,1840.0454426637,3.0,13.0,326,326,False
