,channel_from,channel_to,transition_probability
0,(start),FB_Impression_Instagram,0.0019357777271692097
1,(start),FB_Impression_MobileFeed,0.037121384650421314
2,(start),_AlwaysOn_sem_shopping_clk_2021-10-07_2021-10-10,0.0023153419873984666
3,(start),FB_Impression_WebFeed,0.0007970849464814393
4,(start),WCV-5070_rw_web_oap_clk_2021-10-07_2021-10-10,0.0022014727093296895
5,(start),WCV-5070_rw_app_imp_2021-10-07_2021-10-10,0.19133834358156837
6,(start),_AlwaysOn_sem_generic_clk_2021-10-07_2021-10-10,0.00011386927806877705
7,(start),WCV-5070_email_open_2021-10-07_2021-10-10,0.33872314582858876
8,(start),WCV-5070_rw_app_clk_2021-10-07_2021-10-10,0.06980186745616032
9,(start),WCV-5070_email_clk_2021-10-07_2021-10-10,0.3550064525924239
10,(start),FB_Impression_InstagramStory,0.000607302816366811
11,(start),WCV-5070_video_imp_2021-10-07_2021-10-10,3.7956426022925684e-05
12,FB_Impression_Instagram,WCV-5070_email_open_2021-10-07_2021-10-10,0.09333333333333334
13,FB_Impression_Instagram,FB_Impression_MobileFeed,0.44
14,FB_Impression_Instagram,WCV-5070_rw_app_imp_2021-10-07_2021-10-10,0.4
15,FB_Impression_Instagram,FB_Impression_InstagramStory,0.06666666666666667
16,WCV-5070_email_open_2021-10-07_2021-10-10,WCV-5070_email_clk_2021-10-07_2021-10-10,0.7350388305162174
17,WCV-5070_email_open_2021-10-07_2021-10-10,(conversion),0.2332571950662403
18,WCV-5070_email_open_2021-10-07_2021-10-10,(null),0.02923709456372773
19,WCV-5070_email_open_2021-10-07_2021-10-10,WCV-5070_email_open_2021-10-07_2021-10-10,0.0024668798538145273
20,WCV-5070_email_clk_2021-10-07_2021-10-10,(conversion),0.8900448327393954
21,WCV-5070_email_clk_2021-10-07_2021-10-10,(null),0.10995516726060467
22,FB_Impression_MobileFeed,WCV-5070_email_open_2021-10-07_2021-10-10,0.1345595353339787
23,FB_Impression_MobileFeed,WCV-5070_rw_app_imp_2021-10-07_2021-10-10,0.6447241045498547
24,FB_Impression_MobileFeed,FB_Impression_Instagram,0.023233301064859633
25,FB_Impression_MobileFeed,_AlwaysOn_sem_shopping_clk_2021-10-07_2021-10-10,0.000968054211035818
26,FB_Impression_MobileFeed,(conversion),0.15876089060987417
27,FB_Impression_MobileFeed,(null),0.016456921587608905
28,FB_Impression_MobileFeed,FB_Click_MobileFeed,0.021297192642787996
29,WCV-5070_rw_app_imp_2021-10-07_2021-10-10,WCV-5070_email_open_2021-10-07_2021-10-10,0.1370479321681952
30,WCV-5070_rw_app_imp_2021-10-07_2021-10-10,(conversion),0.5831458729884063
31,WCV-5070_rw_app_imp_2021-10-07_2021-10-10,(null),0.08790448174424641
32,WCV-5070_rw_app_imp_2021-10-07_2021-10-10,WCV-5070_rw_app_clk_2021-10-07_2021-10-10,0.1919017130991521
33,_AlwaysOn_sem_shopping_clk_2021-10-07_2021-10-10,WCV-5070_rw_app_imp_2021-10-07_2021-10-10,0.1774193548387097
34,_AlwaysOn_sem_shopping_clk_2021-10-07_2021-10-10,WCV-5070_email_open_2021-10-07_2021-10-10,0.5967741935483871
35,_AlwaysOn_sem_shopping_clk_2021-10-07_2021-10-10,(conversion),0.1935483870967742
36,_AlwaysOn_sem_shopping_clk_2021-10-07_2021-10-10,(null),0.03225806451612903
37,FB_Impression_WebFeed,WCV-5070_email_open_2021-10-07_2021-10-10,0.5238095238095238
38,FB_Impression_WebFeed,WCV-5070_rw_app_imp_2021-10-07_2021-10-10,0.47619047619047616
39,WCV-5070_rw_web_oap_clk_2021-10-07_2021-10-10,WCV-5070_email_open_2021-10-07_2021-10-10,0.6379310344827587
40,WCV-5070_rw_web_oap_clk_2021-10-07_2021-10-10,(conversion),0.3448275862068966
41,WCV-5070_rw_web_oap_clk_2021-10-07_2021-10-10,(null),0.017241379310344827
42,_AlwaysOn_sem_generic_clk_2021-10-07_2021-10-10,(conversion),1.0
43,WCV-5070_rw_app_clk_2021-10-07_2021-10-10,(conversion),0.6004070556309362
44,WCV-5070_rw_app_clk_2021-10-07_2021-10-10,(null),0.07021709633649932
45,WCV-5070_rw_app_clk_2021-10-07_2021-10-10,WCV-5070_email_open_2021-10-07_2021-10-10,0.3293758480325645
46,FB_Impression_InstagramStory,WCV-5070_rw_app_imp_2021-10-07_2021-10-10,1.0
47,WCV-5070_video_imp_2021-10-07_2021-10-10,(null),1.0
48,FB_Click_MobileFeed,FB_Impression_MobileFeed,1.0
