event,channel_prob_norm_AL,channel_prob_norm_shanglin,attributed_inc_sales_AL,attributed_inc_sales_shanglin
AlwaysOn_google_other_clk,0.00593406680560423,0.025944921687462017,6560.720606979325,7409.163216898476
AlwaysOn_sem_brand_clk,0.0,0.004153406780428207,0.0,-579.0443426457824
AlwaysOn_sem_shopping_clk,0.03315961404722289,0.04881855822420976,5405.817223361907,4693.630291362266
AlwaysOn_wow_web_clk,0.049442982600368945,0.04661595607877029,11561.303768568325,7214.037760638051
AlwaysOn_wow_web_view,0.08519646866692622,0.16527475337018552,74696.33370595762,82559.0487091053
CVM-5052_email_open,0.0,0.0,525381.4543959015,525381.4543958993
CVM-5052_rw_app_clk,0.49121788151008783,0.3167827325259157,33533.10376121363,25818.78826952421
CVM-5052_rw_app_imp,0.28925911932328957,0.37294540821278116,36934.59554001404,42944.32168679054
CVM-5052_rw_web_oap_clk,0.04578986704650043,0.01945844071266138,29657.667613574475,27628.614199063282
Total,1.0000000000000002,0.9999941775924139,723730.9966155709,723070.0141866356
