,campaign_code,campaign_start_date,channel,medium,event,channel_event,channel_prob_norm_AL,channel_prob_norm_shanglin,attributed_inc_sales_AL,attributed_inc_sales_shanglin,count_AL,count_shanglin
0,WCV-5070,2021-10-07,WCV-5070_email,WCV-5070_email,WCV-5070_email_clk,WCV-5070_email_clk,0.20738698828946706,0.20425043950484237,130961.68246838918,218151.8337327279,57239.0,57239.0
1,WCV-5070,2021-10-07,WCV-5070_email,WCV-5070_email,WCV-5070_email_open,DEFAULT,,,205942.26970072612,205942.26970072562,12642.0,12642.0
2,WCV-5070,2021-10-07,WCV-5070_email,WCV-5070_email,WCV-5070_email_open,WCV-5070_email_open,0.6752246534413167,0.2771040994556141,604793.0985755569,414893.6425639703,73859.0,73859.0
3,WCV-5070,2021-10-07,WCV-5070_rw_app,WCV-5070_rw_app,WCV-5070_rw_app_clk,WCV-5070_rw_app_clk,0.03960958212899521,0.20055383856477843,206631.7690184651,207768.75736285717,43233.0,43233.0
4,WCV-5070,2021-10-07,WCV-5070_rw_app,WCV-5070_rw_app,WCV-5070_rw_app_imp,WCV-5070_rw_app_imp,0.03779911252465841,0.2638515616998414,230314.4551863992,331144.75112616876,54899.0,54899.0
5,WCV-5070,2021-10-07,WCV-5070_rw_app_push,WCV-5070_rw_app_push,WCV-5070_rw_app_push_clk,WCV-5070_rw_app_push_clk,,0.01945560503505177,,2350.0590059566293,,4385.0
6,WCV-5070,2021-10-07,WCV-5070_rw_app_push,WCV-5070_rw_app_push,WCV-5070_rw_app_push_imp,WCV-5070_rw_app_push_imp,,0.013311729760824896,,1136.7429374822227,,3406.0
7,WCV-5070,2021-10-07,WCV-5070_rw_web_oap,WCV-5070_rw_web_oap,WCV-5070_rw_web_oap_clk,WCV-5070_rw_web_oap_clk,,0.0022588848584009784,,-1736.7475400842277,,1327.0
8,WCV-5070,2021-10-07,WCV-5070_video,WCV-5070_video,WCV-5070_video_clk,WCV-5070_video_clk,0.03768615080094131,,431.69557122877114,,48.0,
9,WCV-5070,2021-10-07,WCV-5070_video,WCV-5070_video,WCV-5070_video_imp,WCV-5070_video_imp,,0.0011289419785689165,,10.531446526883649,,133.0
10,WCV-5070,2021-10-07,AlwaysOn_sem,AlwaysOn_sem_brand,AlwaysOn_sem_brand_clk,_AlwaysOn_sem_brand_clk,0.0004250289077163001,0.0011284110254198905,112.60361142255307,109.40457891933916,53.0,53.0
11,WCV-5070,2021-10-07,AlwaysOn_sem,AlwaysOn_sem_shopping,AlwaysOn_sem_shopping_clk,_AlwaysOn_sem_shopping_clk,0.03678052802541171,0.016949670119530517,6374.61247563242,4539.878642478093,1472.0,1472.0
