,channel_name,total_conversions,total_conversion_value,normalised_conversion_value
0,RNL-5126_email_open_2021-11-24_2021-11-30,62.63767899761337,0.0,
1,_AlwaysOn_wow_web_view_2021-11-24_2021-11-30,10.69510739856802,0.0,
2,_AlwaysOn_wow_web_clk_2021-11-24_2021-11-30,5.597106205250597,0.0,
3,FB_Impression_MobileFeed,122.2807279236277,0.0,
4,RNL-5126_email_clk_2021-11-24_2021-11-30,35.0799522673031,0.0,
5,_AlwaysOn_sem_shopping_clk_2021-11-24_2021-11-30,2.709427207637231,0.0,
