event,channel_prob_norm_AL,channel_prob_norm_shanglin,attributed_inc_sales_AL,attributed_inc_sales_shanglin
AlwaysOn_sem_shopping_clk,0.00042941745253253485,0.007172595578948132,3164.9686240099445,3410.037635226704
AlwaysOn_wow_web_clk,0.0034778109714305523,0.00694199576191118,10158.98154877601,5436.001384832312
AlwaysOn_wow_web_view,0.0038408239693994346,0.028924982341296587,53211.162785757,66535.41065885808
CAT-5206_email_clk,0.21966925089592998,0.14443599632743534,933569.4931580027,1010078.9087271444
CAT-5206_email_open,0.38296563688548074,0.2128080655948603,9652225.08544956,9239875.565399582
CAT-5206_rw_app_clk,0.09299327427372675,0.0695684735959874,460073.309107695,337598.6317359688
CAT-5206_rw_app_imp,0.2226008406458265,0.4239739051227157,3600449.3295594268,4010417.1172887385
CAT-5206_rw_app_push_clk,0.0326040518708589,0.03445180791546118,150504.32437745726,163416.45969140326
CAT-5206_rw_app_push_imp,0.041305441958660594,0.0702816881475408,353211.7809057412,379655.50237211137
CAT-5206_rw_web_oap_clk,0.00011345107615408778,0.0014337189149615387,13682.113563298695,13826.914185742684
Total,1.0000000000000002,0.9999932293011182,15230250.549079724,15230250.549079608
