,path,total_conversion_value,conversions,non_conversions,cnt,ppl,Converted
0,FB_Impression_WebFeed > CAT-5112_email_open_2021-12-13_2021-12-26 > CAT-5112_email_clk_2021-12-13_2021-12-26,-1929.2709459555,3.0,0.0,144,144,False
1,CAT-5112_rw_app_imp_2021-12-13_2021-12-26,1064788.5398243,894.0,0.0,118583,118583,False
2,FB_Impression_MobileFeed > CAT-5112_rw_app_push_clk_2021-12-13_2021-12-26 > CAT-5112_rw_app_imp_2021-12-13_2021-12-26,15763.352506155,17.0,0.0,788,788,False
3,FB_Impression_Instagram > CAT-5112_email_open_2021-12-13_2021-12-26,727.2192250794,1.0,0.0,174,174,False
4,CAT-5112_rw_app_push_clk_2021-12-13_2021-12-26 > CAT-5112_rw_app_imp_2021-12-13_2021-12-26 > CAT-5112_rw_app_imp_2021-12-13_2021-12-26,1046.5962696918,1.0,0.0,120,120,False
5,CAT-5112_rw_app_push_clk_2021-12-13_2021-12-26 > CAT-5112_rw_app_imp_2021-12-13_2021-12-26 > CAT-5112_rw_app_imp_2021-12-13_2021-12-26 > CAT-5112_email_open_2021-12-13_2021-12-26,3493.2582388207,6.0,0.0,158,158,False
6,CAT-5112_display_imp_2021-12-13_2021-12-26 > CAT-5112_display_imp_2021-12-13_2021-12-26 > CAT-5112_display_clk_2021-12-13_2021-12-26,-1705.2362984685,1.0,0.0,172,172,False
7,FB_Impression_MobileFeed > _AlwaysOn_wow_web_view_2021-12-13_2021-12-26,9.2078570928711,2.0,0.0,816,816,False
8,FB_Impression_MobileFeed > FB_Impression_FacebookStory > FB_Impression_MobileFeed > CAT-5112_email_open_2021-12-13_2021-12-26,1415.1147696056,1.0,0.0,112,112,False
9,FB_Impression_MobileFeed > CAT-5112_email_open_2021-12-13_2021-12-26,6303.1851089216,47.0,0.0,4069,4069,False
10,FB_Impression_MobileFeed > CAT-5112_rw_app_imp_2021-12-13_2021-12-26 > CAT-5112_email_open_2021-12-13_2021-12-26,4095.9649079321,6.0,0.0,359,359,False
11,_AlwaysOn_wow_web_view_2021-12-13_2021-12-26 > _AlwaysOn_wow_web_clk_2021-12-13_2021-12-26,13119.497801497,11.0,0.0,2217,2217,False
12,_AlwaysOn_wow_web_view_2021-12-13_2021-12-26 > CAT-5112_rw_app_imp_2021-12-13_2021-12-26 > CAT-5112_email_open_2021-12-13_2021-12-26,-1682.2174610305,1.0,0.0,345,345,False
13,_AlwaysOn_wow_web_view_2021-12-13_2021-12-26,23813.799563397,15.0,0.0,28174,28174,False
14,CAT-5112_rw_app_push_clk_2021-12-13_2021-12-26 > CAT-5112_rw_app_imp_2021-12-13_2021-12-26,182596.78017232,175.0,0.0,10392,10392,False
16,CAT-5112_rw_app_clk_2021-12-13_2021-12-26 > CAT-5112_email_open_2021-12-13_2021-12-26 > CAT-5112_email_open_2021-12-13_2021-12-26 > CAT-5112_email_clk_2021-12-13_2021-12-26,20102.203740022,10.0,0.0,311,311,False
17,_AlwaysOn_wow_web_view_2021-12-13_2021-12-26 > CAT-5112_rw_app_imp_2021-12-13_2021-12-26 > CAT-5112_rw_app_clk_2021-12-13_2021-12-26,5836.9390312126,2.0,0.0,109,109,False
18,CAT-5112_rw_app_push_imp_2021-12-13_2021-12-26 > CAT-5112_email_open_2021-12-13_2021-12-26,154618.43949691,158.0,0.0,6972,6972,False
19,_AlwaysOn_wow_web_view_2021-12-13_2021-12-26 > CAT-5112_email_open_2021-12-13_2021-12-26 > CAT-5112_email_clk_2021-12-13_2021-12-26,10161.81584432,14.0,0.0,617,617,False
20,CAT-5112_rw_app_imp_2021-12-13_2021-12-26 > CAT-5112_email_open_2021-12-13_2021-12-26,549122.24123206,756.0,0.0,51453,51453,False
21,CAT-5112_rw_web_oap_clk_2021-12-13_2021-12-26 > CAT-5112_email_open_2021-12-13_2021-12-26,11123.601318893,5.0,0.0,265,265,False
22,_AlwaysOn_wow_web_view_2021-12-13_2021-12-26 > CAT-5112_email_open_2021-12-13_2021-12-26,17569.622447249,11.0,0.0,5276,5276,False
23,FB_Impression_MobileFeed > FB_Impression_Instagram > FB_Impression_MobileFeed > CAT-5112_rw_app_imp_2021-12-13_2021-12-26,-3753.3726842291,3.0,0.0,108,108,False
24,FB_Impression_MobileFeed > FB_Impression_FacebookStory > FB_Impression_MobileFeed > CAT-5112_rw_app_imp_2021-12-13_2021-12-26,17075.856468862,3.0,0.0,209,209,False
25,FB_Impression_MobileFeed,106307.02967225,251.0,0.0,173678,173678,False
26,FB_Impression_MobileFeed > CAT-5112_rw_app_imp_2021-12-13_2021-12-26,54528.867637839,57.0,0.0,4662,4662,False
27,FB_Impression_MobileFeed > FB_Click_MobileFeed > FB_Impression_MobileFeed > CAT-5112_rw_app_imp_2021-12-13_2021-12-26 > CAT-5112_rw_app_clk_2021-12-13_2021-12-26,60.440560720576,1.0,0.0,156,156,False
28,CAT-5112_rw_app_push_clk_2021-12-13_2021-12-26 > CAT-5112_rw_app_imp_2021-12-13_2021-12-26 > CAT-5112_rw_app_clk_2021-12-13_2021-12-26 > CAT-5112_email_open_2021-12-13_2021-12-26 > CAT-5112_email_clk_2021-12-13_2021-12-26,4057.6742762171,2.0,0.0,146,146,False
29,_AlwaysOn_wow_web_view_2021-12-13_2021-12-26 > _AlwaysOn_wow_web_clk_2021-12-13_2021-12-26 > CAT-5112_email_open_2021-12-13_2021-12-26,6593.2823082474,6.0,0.0,590,590,False
30,CAT-5112_rw_app_imp_2021-12-13_2021-12-26 > CAT-5112_rw_app_imp_2021-12-13_2021-12-26,55538.138950946,16.0,0.0,1043,1043,False
31,_AlwaysOn_wow_web_clk_2021-12-13_2021-12-26 > CAT-5112_email_open_2021-12-13_2021-12-26 > CAT-5112_email_clk_2021-12-13_2021-12-26,10953.74738055,3.0,0.0,187,187,False
32,FB_Impression_MobileFeed > CAT-5112_display_clk_2021-12-13_2021-12-26,335.9976628523,1.0,0.0,127,127,False
33,CAT-5112_email_open_2021-12-13_2021-12-26 > CAT-5112_email_clk_2021-12-13_2021-12-26,948798.17646122,946.0,0.0,67238,67238,False
34,FB_Impression_Instagram > CAT-5112_rw_app_imp_2021-12-13_2021-12-26,9096.2702952291,3.0,0.0,243,243,False
35,CAT-5112_display_clk_2021-12-13_2021-12-26,7020.4687935533,6.0,0.0,2974,2974,False
36,FB_Impression_MobileFeed > CAT-5112_email_open_2021-12-13_2021-12-26 > CAT-5112_email_clk_2021-12-13_2021-12-26,-220.49695457121,8.0,0.0,505,505,False
37,CAT-5112_rw_app_push_imp_2021-12-13_2021-12-26 > CAT-5112_rw_app_imp_2021-12-13_2021-12-26 > CAT-5112_rw_app_clk_2021-12-13_2021-12-26,7069.5134595253,5.0,0.0,1077,1077,False
38,CAT-5112_rw_app_imp_2021-12-13_2021-12-26 > CAT-5112_email_open_2021-12-13_2021-12-26 > CAT-5112_email_open_2021-12-13_2021-12-26,15305.944981598,10.0,0.0,292,292,False
39,CAT-5112_email_open_2021-12-13_2021-12-26,3032556.0032152,4897.0,0.0,1329788,1329788,False
40,CAT-5112_rw_app_push_imp_2021-12-13_2021-12-26 > CAT-5112_email_open_2021-12-13_2021-12-26 > CAT-5112_email_clk_2021-12-13_2021-12-26,12903.265369355,16.0,0.0,601,601,False
41,CAT-5112_rw_app_push_clk_2021-12-13_2021-12-26,270.28840187603,23.0,0.0,2022,2022,False
42,CAT-5112_rw_app_imp_2021-12-13_2021-12-26 > CAT-5112_email_open_2021-12-13_2021-12-26 > CAT-5112_email_open_2021-12-13_2021-12-26 > CAT-5112_email_clk_2021-12-13_2021-12-26,6088.0358193986,5.0,0.0,102,102,False
43,FB_Impression_InstagramStory > CAT-5112_rw_app_imp_2021-12-13_2021-12-26,994.46297707356,1.0,0.0,209,209,False
44,CAT-5112_display_imp_2021-12-13_2021-12-26 > CAT-5112_display_clk_2021-12-13_2021-12-26,25510.198588304,9.0,0.0,2473,2473,False
45,CAT-5112_rw_app_imp_2021-12-13_2021-12-26 > CAT-5112_rw_app_clk_2021-12-13_2021-12-26 > CAT-5112_email_open_2021-12-13_2021-12-26,124928.94706622,75.0,0.0,5742,5742,False
46,FB_Impression_WebFeed > CAT-5112_rw_app_imp_2021-12-13_2021-12-26,11821.639161801,5.0,0.0,386,386,False
47,CAT-5112_rw_app_push_imp_2021-12-13_2021-12-26 > CAT-5112_rw_app_imp_2021-12-13_2021-12-26,117892.96102933,69.0,0.0,8422,8422,False
48,CAT-5112_rw_app_clk_2021-12-13_2021-12-26,290178.59418911,175.0,0.0,13486,13486,False
49,FB_Impression_WebFeed > FB_Impression_MobileFeed > CAT-5112_rw_app_imp_2021-12-13_2021-12-26,2376.1857577129,2.0,0.0,157,157,False
50,FB_Impression_MobileFeed > CAT-5112_rw_app_push_imp_2021-12-13_2021-12-26,9805.2254461014,26.0,0.0,812,812,False
51,CAT-5112_rw_app_imp_2021-12-13_2021-12-26 > CAT-5112_rw_app_clk_2021-12-13_2021-12-26,273402.96244449,168.0,0.0,20997,20997,False
52,FB_Impression_MobileFeed > FB_Click_MobileFeed > FB_Impression_MobileFeed > CAT-5112_rw_app_imp_2021-12-13_2021-12-26,14248.060411322,6.0,0.0,363,363,False
53,CAT-5112_rw_app_imp_2021-12-13_2021-12-26 > CAT-5112_rw_app_imp_2021-12-13_2021-12-26 > CAT-5112_email_open_2021-12-13_2021-12-26,16212.951050089,24.0,0.0,1472,1472,False
54,_AlwaysOn_wow_web_clk_2021-12-13_2021-12-26 > CAT-5112_rw_app_imp_2021-12-13_2021-12-26,1114.153661896,1.0,0.0,108,108,False
55,CAT-5112_email_open_2021-12-13_2021-12-26 > CAT-5112_email_open_2021-12-13_2021-12-26,4785.2298502672,6.0,0.0,308,308,False
56,FB_Impression_WebFeed > CAT-5112_email_open_2021-12-13_2021-12-26,10537.857355282,10.0,0.0,1051,1051,False
57,FB_Impression_WebFeed > CAT-5112_rw_app_imp_2021-12-13_2021-12-26 > CAT-5112_rw_app_clk_2021-12-13_2021-12-26,3162.3338672163,2.0,0.0,126,126,False
58,CAT-5112_rw_app_push_imp_2021-12-13_2021-12-26 > CAT-5112_rw_app_imp_2021-12-13_2021-12-26 > CAT-5112_rw_app_clk_2021-12-13_2021-12-26 > CAT-5112_email_open_2021-12-13_2021-12-26,-26196.461571708,5.0,0.0,287,287,False
59,CAT-5112_display_imp_2021-12-13_2021-12-26,1150.8481573218,5.0,0.0,3468,3468,False
60,FB_Impression_FacebookStory > CAT-5112_email_open_2021-12-13_2021-12-26,2387.7939446419,2.0,0.0,290,290,False
61,FB_Impression_MobileFeed > CAT-5112_display_imp_2021-12-13_2021-12-26 > CAT-5112_display_clk_2021-12-13_2021-12-26,-6047.6681740307,5.0,0.0,340,340,False
62,CAT-5112_rw_app_clk_2021-12-13_2021-12-26 > CAT-5112_email_open_2021-12-13_2021-12-26 > CAT-5112_email_clk_2021-12-13_2021-12-26,286781.06068055,138.0,0.0,11842,11842,False
63,CAT-5112_rw_app_push_clk_2021-12-13_2021-12-26 > CAT-5112_email_open_2021-12-13_2021-12-26,3922.4400424879,8.0,0.0,612,612,False
64,CAT-5112_email_open_2021-12-13_2021-12-26 > CAT-5112_email_open_2021-12-13_2021-12-26 > CAT-5112_email_clk_2021-12-13_2021-12-26,13054.915081561,14.0,0.0,263,263,False
65,FB_Impression_MobileFeed > CAT-5112_rw_app_imp_2021-12-13_2021-12-26 > CAT-5112_rw_app_clk_2021-12-13_2021-12-26,8616.7290675293,7.0,0.0,1439,1439,False
66,FB_Impression_MobileFeed > CAT-5112_rw_app_push_clk_2021-12-13_2021-12-26 > CAT-5112_rw_app_imp_2021-12-13_2021-12-26 > CAT-5112_rw_app_clk_2021-12-13_2021-12-26,816.99917885277,1.0,0.0,147,147,False
67,CAT-5112_rw_app_imp_2021-12-13_2021-12-26 > CAT-5112_rw_app_clk_2021-12-13_2021-12-26 > CAT-5112_email_open_2021-12-13_2021-12-26 > CAT-5112_email_open_2021-12-13_2021-12-26 > CAT-5112_email_clk_2021-12-13_2021-12-26,1709.9359798953,1.0,0.0,111,111,False
68,FB_Impression_InstagramStory > CAT-5112_email_open_2021-12-13_2021-12-26,-2060.3068296566,2.0,0.0,255,255,False
69,CAT-5112_rw_web_oap_clk_2021-12-13_2021-12-26,1008.5080147173,1.0,0.0,672,672,False
70,CAT-5112_rw_app_imp_2021-12-13_2021-12-26 > CAT-5112_rw_app_imp_2021-12-13_2021-12-26 > CAT-5112_rw_app_clk_2021-12-13_2021-12-26 > CAT-5112_email_open_2021-12-13_2021-12-26 > CAT-5112_email_clk_2021-12-13_2021-12-26,457.01757378938,4.0,0.0,129,129,False
71,FB_Impression_MobileFeed > CAT-5112_rw_app_push_imp_2021-12-13_2021-12-26 > CAT-5112_rw_app_imp_2021-12-13_2021-12-26,-121.32476863456,15.0,0.0,861,861,False
72,FB_Impression_WebFeed > FB_Impression_MobileFeed > CAT-5112_email_open_2021-12-13_2021-12-26,8061.975248886,3.0,0.0,126,126,False
73,_AlwaysOn_sem_shopping_clk_2021-12-13_2021-12-26,-5749.3420620685,2.0,0.0,1474,1474,False
74,FB_Impression_FacebookStory > CAT-5112_rw_app_imp_2021-12-13_2021-12-26,10357.42170766,4.0,0.0,130,130,False
75,CAT-5112_rw_app_imp_2021-12-13_2021-12-26 > CAT-5112_email_open_2021-12-13_2021-12-26 > CAT-5112_email_clk_2021-12-13_2021-12-26,82690.422155051,129.0,0.0,4357,4357,False
76,CAT-5112_rw_app_push_imp_2021-12-13_2021-12-26 > CAT-5112_rw_app_push_clk_2021-12-13_2021-12-26 > CAT-5112_rw_app_imp_2021-12-13_2021-12-26,10062.236298373,6.0,0.0,486,486,False
77,FB_Impression_MobileFeed > CAT-5112_rw_app_push_clk_2021-12-13_2021-12-26 > CAT-5112_rw_app_imp_2021-12-13_2021-12-26 > CAT-5112_email_open_2021-12-13_2021-12-26,-3372.3738971075,6.0,0.0,105,105,False
78,CAT-5112_rw_app_imp_2021-12-13_2021-12-26 > CAT-5112_rw_app_clk_2021-12-13_2021-12-26 > CAT-5112_email_open_2021-12-13_2021-12-26 > CAT-5112_email_clk_2021-12-13_2021-12-26,148156.03276022,92.0,0.0,6864,6864,False
79,CAT-5112_rw_app_imp_2021-12-13_2021-12-26 > CAT-5112_rw_app_imp_2021-12-13_2021-12-26 > CAT-5112_email_open_2021-12-13_2021-12-26 > CAT-5112_email_clk_2021-12-13_2021-12-26,-127.77164764433,1.0,0.0,173,173,False
80,CAT-5112_rw_app_push_imp_2021-12-13_2021-12-26 > CAT-5112_rw_app_imp_2021-12-13_2021-12-26 > CAT-5112_email_open_2021-12-13_2021-12-26 > CAT-5112_email_clk_2021-12-13_2021-12-26,33613.678674229,10.0,0.0,286,286,False
81,CAT-5112_rw_app_push_imp_2021-12-13_2021-12-26 > CAT-5112_rw_app_imp_2021-12-13_2021-12-26 > CAT-5112_email_open_2021-12-13_2021-12-26,51342.450406309,61.0,0.0,3762,3762,False
82,CAT-5112_email_clk_2021-12-13_2021-12-26,1276160.294156,1240.0,0.0,48146,48146,False
83,_AlwaysOn_wow_web_clk_2021-12-13_2021-12-26 > CAT-5112_email_open_2021-12-13_2021-12-26,20843.49376923,7.0,0.0,817,817,False
84,CAT-5112_rw_app_push_imp_2021-12-13_2021-12-26 > CAT-5112_rw_app_push_clk_2021-12-13_2021-12-26 > CAT-5112_rw_app_imp_2021-12-13_2021-12-26 > CAT-5112_email_open_2021-12-13_2021-12-26,7484.8652105292,7.0,0.0,218,218,False
85,_AlwaysOn_sem_shopping_clk_2021-12-13_2021-12-26 > CAT-5112_email_open_2021-12-13_2021-12-26,8420.6187813934,1.0,0.0,383,383,False
86,_AlwaysOn_wow_web_clk_2021-12-13_2021-12-26,34488.238861038,13.0,0.0,1779,1779,False
87,CAT-5112_rw_app_push_clk_2021-12-13_2021-12-26 > CAT-5112_rw_app_imp_2021-12-13_2021-12-26 > CAT-5112_rw_app_clk_2021-12-13_2021-12-26 > CAT-5112_email_open_2021-12-13_2021-12-26,3028.1211709133,4.0,0.0,375,375,False
88,CAT-5112_rw_app_clk_2021-12-13_2021-12-26 > CAT-5112_email_open_2021-12-13_2021-12-26,118509.83387923,95.0,0.0,6467,6467,False
89,CAT-5112_rw_app_push_clk_2021-12-13_2021-12-26 > CAT-5112_rw_app_imp_2021-12-13_2021-12-26 > CAT-5112_email_open_2021-12-13_2021-12-26,42522.561387806,123.0,0.0,4948,4948,False
90,FB_Impression_MobileFeed > FB_Impression_FacebookStory > CAT-5112_rw_app_imp_2021-12-13_2021-12-26,3993.127590635,3.0,0.0,102,102,False
91,CAT-5112_rw_app_push_imp_2021-12-13_2021-12-26 > CAT-5112_rw_app_imp_2021-12-13_2021-12-26 > CAT-5112_rw_app_clk_2021-12-13_2021-12-26 > CAT-5112_email_open_2021-12-13_2021-12-26 > CAT-5112_email_clk_2021-12-13_2021-12-26,4499.0066667992,6.0,0.0,552,552,False
92,CAT-5112_rw_app_push_clk_2021-12-13_2021-12-26 > CAT-5112_rw_app_imp_2021-12-13_2021-12-26 > CAT-5112_rw_app_clk_2021-12-13_2021-12-26,29941.405278963,10.0,0.0,1662,1662,False
93,FB_Impression_WebFeed > CAT-5112_display_imp_2021-12-13_2021-12-26 > CAT-5112_display_clk_2021-12-13_2021-12-26,-1743.9642932938,1.0,0.0,152,152,False
94,CAT-5112_rw_app_push_clk_2021-12-13_2021-12-26 > CAT-5112_rw_app_imp_2021-12-13_2021-12-26 > CAT-5112_email_open_2021-12-13_2021-12-26 > CAT-5112_email_clk_2021-12-13_2021-12-26,13604.834277996,12.0,0.0,466,466,False
95,CAT-5112_rw_app_push_imp_2021-12-13_2021-12-26,293122.42281709,320.0,0.0,27568,27568,False
