,channel_from,channel_to,transition_probability
0,(start),_AlwaysOn_wow_web_view_2021-12-13_2021-12-19,0.016522264759218214
1,(start),CAT-5112_rw_app_clk_2021-12-13_2021-12-19,0.18517025992343342
2,(start),CAT-5112_rw_app_push_imp_2021-12-13_2021-12-19,0.034857948821277455
3,(start),CAT-5112_rw_app_imp_2021-12-13_2021-12-19,0.3237960910739472
4,(start),CAT-5112_rw_app_push_clk_2021-12-13_2021-12-19,0.025186379206125327
5,(start),FB_Impression_MobileFeed,0.02014910336490026
6,(start),_AlwaysOn_wow_web_clk_2021-12-13_2021-12-19,0.011283497884344146
7,(start),CAT-5112_email_open_2021-12-13_2021-12-19,0.21257304049969777
8,(start),CAT-5112_rw_web_oap_clk_2021-12-13_2021-12-19,0.0018134193028410237
9,(start),FB_Impression_WebFeed,0.0014104372355430183
10,(start),_AlwaysOn_sem_shopping_clk_2021-12-13_2021-12-19,0.0010074551682450132
11,(start),CAT-5112_email_clk_2021-12-13_2021-12-19,0.16481966552488414
12,(start),FB_Impression_Instagram,0.0010074551682450132
13,(start),CAT-5112_display_imp_2021-12-13_2021-12-19,0.00020149103364900262
14,(start),FB_Impression_InstagramStory,0.00020149103364900262
15,_AlwaysOn_wow_web_view_2021-12-13_2021-12-19,_AlwaysOn_sem_shopping_clk_2021-12-13_2021-12-19,0.07058823529411765
16,_AlwaysOn_wow_web_view_2021-12-13_2021-12-19,CAT-5112_rw_app_imp_2021-12-13_2021-12-19,0.1411764705882353
17,_AlwaysOn_wow_web_view_2021-12-13_2021-12-19,(conversion),0.21176470588235294
18,_AlwaysOn_wow_web_view_2021-12-13_2021-12-19,CAT-5112_rw_app_push_imp_2021-12-13_2021-12-19,0.023529411764705882
19,_AlwaysOn_wow_web_view_2021-12-13_2021-12-19,_AlwaysOn_wow_web_clk_2021-12-13_2021-12-19,0.38823529411764707
20,_AlwaysOn_wow_web_view_2021-12-13_2021-12-19,CAT-5112_email_open_2021-12-13_2021-12-19,0.10588235294117647
21,_AlwaysOn_wow_web_view_2021-12-13_2021-12-19,_AlwaysOn_sem_brand_clk_2021-12-13_2021-12-19,0.023529411764705882
22,_AlwaysOn_wow_web_view_2021-12-13_2021-12-19,CAT-5112_rw_app_push_clk_2021-12-13_2021-12-19,0.03529411764705882
23,_AlwaysOn_sem_shopping_clk_2021-12-13_2021-12-19,(conversion),0.6923076923076923
24,_AlwaysOn_sem_shopping_clk_2021-12-13_2021-12-19,CAT-5112_email_open_2021-12-13_2021-12-19,0.23076923076923078
25,_AlwaysOn_sem_shopping_clk_2021-12-13_2021-12-19,CAT-5112_rw_app_imp_2021-12-13_2021-12-19,0.07692307692307693
26,CAT-5112_rw_app_clk_2021-12-13_2021-12-19,CAT-5112_email_clk_2021-12-13_2021-12-19,0.012489233419465978
27,CAT-5112_rw_app_clk_2021-12-13_2021-12-19,CAT-5112_email_open_2021-12-13_2021-12-19,0.4280792420327304
28,CAT-5112_rw_app_clk_2021-12-13_2021-12-19,(conversion),0.5594315245478036
29,CAT-5112_email_clk_2021-12-13_2021-12-19,(conversion),0.9968888888888889
30,CAT-5112_email_clk_2021-12-13_2021-12-19,CAT-5112_email_clk_2021-12-13_2021-12-19,0.003111111111111111
31,CAT-5112_email_open_2021-12-13_2021-12-19,(conversion),0.3889602053915276
32,CAT-5112_email_open_2021-12-13_2021-12-19,CAT-5112_email_open_2021-12-13_2021-12-19,0.01668806161745828
33,CAT-5112_email_open_2021-12-13_2021-12-19,CAT-5112_email_clk_2021-12-13_2021-12-19,0.5943517329910141
34,CAT-5112_rw_app_imp_2021-12-13_2021-12-19,CAT-5112_email_open_2021-12-13_2021-12-19,0.08877159309021113
35,CAT-5112_rw_app_imp_2021-12-13_2021-12-19,CAT-5112_rw_app_clk_2021-12-13_2021-12-19,0.6703454894433781
36,CAT-5112_rw_app_imp_2021-12-13_2021-12-19,(conversion),0.19577735124760076
37,CAT-5112_rw_app_imp_2021-12-13_2021-12-19,CAT-5112_rw_app_imp_2021-12-13_2021-12-19,0.041746641074856046
38,CAT-5112_rw_app_imp_2021-12-13_2021-12-19,CAT-5112_email_clk_2021-12-13_2021-12-19,0.0033589251439539347
39,CAT-5112_rw_app_push_imp_2021-12-13_2021-12-19,CAT-5112_rw_app_imp_2021-12-13_2021-12-19,0.6684210526315789
40,CAT-5112_rw_app_push_imp_2021-12-13_2021-12-19,CAT-5112_rw_app_clk_2021-12-13_2021-12-19,0.010526315789473684
41,CAT-5112_rw_app_push_imp_2021-12-13_2021-12-19,CAT-5112_rw_app_push_clk_2021-12-13_2021-12-19,0.031578947368421054
42,CAT-5112_rw_app_push_imp_2021-12-13_2021-12-19,CAT-5112_email_open_2021-12-13_2021-12-19,0.1
43,CAT-5112_rw_app_push_imp_2021-12-13_2021-12-19,(conversion),0.18947368421052632
44,CAT-5112_rw_app_push_clk_2021-12-13_2021-12-19,CAT-5112_rw_app_imp_2021-12-13_2021-12-19,0.9787234042553191
45,CAT-5112_rw_app_push_clk_2021-12-13_2021-12-19,(conversion),0.02127659574468085
46,FB_Impression_MobileFeed,CAT-5112_rw_app_imp_2021-12-13_2021-12-19,0.5416666666666666
47,FB_Impression_MobileFeed,CAT-5112_rw_app_push_imp_2021-12-13_2021-12-19,0.10833333333333334
48,FB_Impression_MobileFeed,_AlwaysOn_wow_web_view_2021-12-13_2021-12-19,0.025
49,FB_Impression_MobileFeed,CAT-5112_rw_app_clk_2021-12-13_2021-12-19,0.03333333333333333
50,FB_Impression_MobileFeed,CAT-5112_display_imp_2021-12-13_2021-12-19,0.008333333333333333
51,FB_Impression_MobileFeed,FB_Click_MobileFeed,0.15833333333333333
52,FB_Impression_MobileFeed,CAT-5112_rw_app_push_clk_2021-12-13_2021-12-19,0.058333333333333334
53,FB_Impression_MobileFeed,FB_Impression_FacebookStory,0.008333333333333333
54,FB_Impression_MobileFeed,CAT-5112_email_open_2021-12-13_2021-12-19,0.058333333333333334
55,_AlwaysOn_wow_web_clk_2021-12-13_2021-12-19,CAT-5112_rw_app_imp_2021-12-13_2021-12-19,0.4044943820224719
56,_AlwaysOn_wow_web_clk_2021-12-13_2021-12-19,_AlwaysOn_sem_shopping_clk_2021-12-13_2021-12-19,0.02247191011235955
57,_AlwaysOn_wow_web_clk_2021-12-13_2021-12-19,CAT-5112_rw_app_push_imp_2021-12-13_2021-12-19,0.02247191011235955
58,_AlwaysOn_wow_web_clk_2021-12-13_2021-12-19,CAT-5112_email_open_2021-12-13_2021-12-19,0.21348314606741572
59,_AlwaysOn_wow_web_clk_2021-12-13_2021-12-19,(conversion),0.33707865168539325
60,CAT-5112_rw_web_oap_clk_2021-12-13_2021-12-19,(conversion),0.4444444444444444
61,CAT-5112_rw_web_oap_clk_2021-12-13_2021-12-19,CAT-5112_email_open_2021-12-13_2021-12-19,0.5555555555555556
62,FB_Impression_WebFeed,CAT-5112_email_open_2021-12-13_2021-12-19,0.2857142857142857
63,FB_Impression_WebFeed,CAT-5112_rw_app_imp_2021-12-13_2021-12-19,0.7142857142857143
64,CAT-5112_display_imp_2021-12-13_2021-12-19,CAT-5112_display_clk_2021-12-13_2021-12-19,1.0
65,CAT-5112_display_clk_2021-12-13_2021-12-19,(conversion),1.0
66,FB_Click_MobileFeed,FB_Impression_MobileFeed,1.0
67,FB_Impression_Instagram,CAT-5112_rw_app_imp_2021-12-13_2021-12-19,1.0
68,_AlwaysOn_sem_brand_clk_2021-12-13_2021-12-19,(conversion),1.0
69,FB_Impression_InstagramStory,CAT-5112_rw_app_imp_2021-12-13_2021-12-19,1.0
70,FB_Impression_FacebookStory,FB_Impression_MobileFeed,1.0
