,path,total_conversion_value,conversions,non_conversions,cnt,ppl,Converted
0,_AlwaysOn_wow_web_view_2021-08-25_2021-09-07 > CAT-4800_rw_app_imp_2021-08-25_2021-09-07,7581.2084974597,8.0,5.0,607,607,False
1,_AlwaysOn_sem_shopping_clk_2021-08-25_2021-09-07 > CAT-4800_rw_app_imp_2021-08-25_2021-09-07,3112.2430614909,1.0,0.0,120,120,False
2,FB_Impression_InstagramStory > FB_Impression_MobileFeed > _AlwaysOn_wow_web_view_2021-08-25_2021-09-07,154.90129724048,1.0,0.0,143,143,False
3,_AlwaysOn_wow_web_view_2021-08-25_2021-09-07 > _AlwaysOn_sem_brand_clk_2021-08-25_2021-09-07,-507.92521341158,0.0,1.0,133,133,False
4,CAT-4800_rw_app_imp_2021-08-25_2021-09-07 > CAT-4800_rw_app_clk_2021-08-25_2021-09-07,54774.462042664,153.0,103.0,803,803,False
5,FB_Impression_WebFeed > _AlwaysOn_wow_web_view_2021-08-25_2021-09-07,-8683.0190848594,0.0,5.0,159,159,False
6,_AlwaysOn_wow_web_view_2021-08-25_2021-09-07,78709.65679992,167.0,163.0,59879,59879,False
7,FB_Impression_MobileFeed > FB_Click_MobileFeed > FB_Impression_MobileFeed,11577.290253344,58.0,67.0,485,485,False
8,FB_Impression_InstagramStory > _AlwaysOn_wow_web_view_2021-08-25_2021-09-07,-6638.4047356414,1.0,7.0,867,867,False
9,_AlwaysOn_sem_shopping_clk_2021-08-25_2021-09-07,-1307.8407537498,21.0,18.0,7435,7435,False
10,FB_Impression_InstagramStory > _AlwaysOn_wow_web_view_2021-08-25_2021-09-07 > _AlwaysOn_wow_web_clk_2021-08-25_2021-09-07,-11061.449975055,2.0,3.0,184,184,False
11,_AlwaysOn_wow_web_view_2021-08-25_2021-09-07 > _AlwaysOn_sem_shopping_clk_2021-08-25_2021-09-07,-231.78520546949,1.0,2.0,449,449,False
12,FB_Impression_MobileFeed > CAT-4800_email_open_2021-08-25_2021-09-07,1631.4369626094,20.0,20.0,107,107,False
13,FB_Impression_InstagramStory > FB_Impression_MobileFeed > CAT-4800_rw_app_imp_2021-08-25_2021-09-07,-37640.437781767,8.0,14.0,126,126,False
14,FB_Impression_MobileFeed > _AlwaysOn_wow_web_view_2021-08-25_2021-09-07,4095.3469423886,11.0,13.0,2494,2494,False
15,FB_Impression_MobileFeed > FB_Impression_InstagramStory > _AlwaysOn_wow_web_view_2021-08-25_2021-09-07,836.75486629304,2.0,0.0,147,147,False
16,CAT-4800_email_clk_2021-08-25_2021-09-07,18649.965829103,24.0,24.0,139,139,False
17,_AlwaysOn_wow_web_clk_2021-08-25_2021-09-07 > CAT-4800_rw_app_imp_2021-08-25_2021-09-07,-1021.2650570706,2.0,3.0,168,168,False
18,_AlwaysOn_wow_web_view_2021-08-25_2021-09-07 > _AlwaysOn_wow_web_clk_2021-08-25_2021-09-07 > CAT-4800_rw_app_imp_2021-08-25_2021-09-07,-2749.9034476571,1.0,5.0,174,174,False
19,FB_Impression_MobileFeed > FB_Impression_InstagramStory > FB_Impression_MobileFeed,32597.598042028,142.0,194.0,4148,4148,False
20,CAT-4800_rw_app_clk_2021-08-25_2021-09-07,204623.01681816,365.0,263.0,1433,1433,False
21,_AlwaysOn_wow_web_clk_2021-08-25_2021-09-07,-5469.0758561139,30.0,34.0,5715,5715,False
22,FB_Impression_InstagramStory,100987.94844017,1148.0,1597.0,90936,90936,False
23,FB_Impression_MobileFeed > FB_Impression_InstagramStory,22783.223433311,151.0,205.0,5616,5616,False
24,FB_Impression_InstagramStory > CAT-4800_rw_app_imp_2021-08-25_2021-09-07,11097.098216252,67.0,57.0,804,804,False
25,FB_Impression_MobileFeed > FB_Impression_InstagramStory > FB_Impression_MobileFeed > _AlwaysOn_wow_web_view_2021-08-25_2021-09-07,4708.3555430665,1.0,2.0,157,157,False
26,FB_Impression_Instagram,-21779.175493551,89.0,147.0,5687,5687,False
27,FB_Impression_FacebookStory,17653.497569788,170.0,247.0,5242,5242,False
28,FB_Impression_InstagramStory > FB_Impression_MobileFeed,-2233.0692968925,191.0,280.0,6916,6916,False
29,_AlwaysOn_sem_brand_clk_2021-08-25_2021-09-07,-680.72821163282,8.0,11.0,2227,2227,False
30,CAT-4800_display_imp_2021-08-25_2021-09-07,4942.3073881567,21.0,21.0,305,305,False
31,FB_Impression_MobileFeed > _AlwaysOn_wow_web_view_2021-08-25_2021-09-07 > _AlwaysOn_wow_web_clk_2021-08-25_2021-09-07,-947.1405218815,2.0,3.0,576,576,False
32,FB_Impression_MobileFeed > _AlwaysOn_sem_shopping_clk_2021-08-25_2021-09-07,-958.2921456888,0.0,1.0,204,204,False
34,FB_Impression_InstagramStory > FB_Impression_MobileFeed > FB_Impression_InstagramStory,-40271.858012904,70.0,118.0,3263,3263,False
35,CAT-4800_email_open_2021-08-25_2021-09-07,-10904.626673851,253.0,337.0,4444,4444,False
36,_AlwaysOn_wow_web_view_2021-08-25_2021-09-07 > _AlwaysOn_wow_web_clk_2021-08-25_2021-09-07,-11493.730082413,27.0,33.0,8894,8894,False
37,CAT-4800_rw_app_imp_2021-08-25_2021-09-07,819707.61121093,2260.0,1842.0,43277,43277,False
38,CAT-4800_rw_web_oap_clk_2021-08-25_2021-09-07,140923.37223319,118.0,98.0,695,695,False
39,CAT-4800_email_open_2021-08-25_2021-09-07 > CAT-4800_email_clk_2021-08-25_2021-09-07,13261.052205732,15.0,12.0,130,130,False
40,FB_Impression_MobileFeed,-309310.43951051,4140.0,5575.0,102646,102646,False
41,FB_Impression_WebFeed,-88816.500017314,188.0,291.0,6255,6255,False
42,FB_Impression_MobileFeed > CAT-4800_rw_app_imp_2021-08-25_2021-09-07,151424.58359433,249.0,205.0,2044,2044,False
43,FB_Impression_MobileFeed > FB_Click_MobileFeed,-31102.347418159,46.0,72.0,548,548,False
