,channel_name,total_conversions,total_conversion_value,normalised_conversion_value
0,CAT-4800_display_imp_2021-08-25_2021-09-05,52.55859614676647,16542.247164817167,0.0007509428295812258
1,FB_Impression_Instagram,783.1230825868205,319953.2709667869,0.014524424175246152
2,CAT-4800_email_open_2021-08-25_2021-09-05,4357.107620566941,1285027.637563106,0.05833441373636869
3,FB_Impression_WebFeed,1813.2715670634432,613170.6719043301,0.027835161377311474
4,FB_Impression_MobileFeed,10406.602037059762,3917308.735497108,0.17782801072117607
5,_AlwaysOn_wow_web_view_2021-08-25_2021-09-05,562.3769787704013,605596.8258510857,0.027491343192915556
6,CAT-4800_rw_app_imp_2021-08-25_2021-09-05,15215.713584488894,9762087.291733645,0.4431543901160427
7,_AlwaysOn_wow_web_clk_2021-08-25_2021-09-05,583.4004172291078,781889.2634090455,0.035494218532313805
8,CAT-4800_rw_app_push_clk_2021-08-25_2021-09-05,141.90820959626947,75181.649517828,0.003412905154843619
9,FB_Impression_InstagramStory,2796.1173150079767,1142784.1043710934,0.051877203888118825
10,FB_Impression_FacebookStory,793.6348018161736,360753.4894707174,0.01637656864060256
11,_AlwaysOn_sem_brand_clk_2021-08-25_2021-09-05,5.255859614676647,4957.527240360578,0.0002250492025968664
12,FB_Click_MobileFeed,840.9375383482635,335675.3349836648,0.015238134417999738
13,CAT-4800_rw_app_clk_2021-08-25_2021-09-05,2638.441526567677,1785309.2426069388,0.0810449246080762
14,CAT-4800_email_clk_2021-08-25_2021-09-05,1208.847711375629,617068.4415640145,0.028012102402804346
15,CAT-4800_rw_app_push_imp_2021-08-25_2021-09-05,226.00196343109585,147011.50372602785,0.00667365403799626
16,_AlwaysOn_sem_shopping_clk_2021-08-25_2021-09-05,26.279298073383234,8723.531092390811,0.0003960086593550883
17,CAT-4800_rw_web_oap_clk_2021-08-25_2021-09-05,378.4218922567186,249596.45002144141,0.011330544306650843
