,channel_from,channel_to,transition_probability
0,(start),FB_Impression_MobileFeed,0.16938046068308182
1,(start),CAT-4800_email_open_2021-08-25_2021-08-29,0.045869737887212075
2,(start),_AlwaysOn_sem_shopping_clk_2021-08-25_2021-08-29,0.0003971405877680699
3,(start),_AlwaysOn_wow_web_view_2021-08-25_2021-08-29,0.005162827640984908
4,(start),CAT-4800_email_clk_2021-08-25_2021-08-29,0.0204527402700556
5,(start),CAT-4800_rw_app_imp_2021-08-25_2021-08-29,0.641977760127085
6,(start),_AlwaysOn_wow_web_clk_2021-08-25_2021-08-29,0.002581413820492454
7,(start),CAT-4800_rw_app_clk_2021-08-25_2021-08-29,0.09154090548054011
8,(start),CAT-4800_display_imp_2021-08-25_2021-08-29,0.0021842732327243845
9,(start),FB_Impression_Instagram,0.003177124702144559
10,(start),FB_Impression_InstagramStory,0.0013899920571882446
11,(start),CAT-4800_rw_app_push_clk_2021-08-25_2021-08-29,0.006354249404289118
12,(start),CAT-4800_rw_web_oap_clk_2021-08-25_2021-08-29,0.009531374106433678
13,FB_Impression_MobileFeed,(conversion),0.3704572098475967
14,FB_Impression_MobileFeed,(null),0.17233294255568582
15,FB_Impression_MobileFeed,CAT-4800_rw_app_imp_2021-08-25_2021-08-29,0.45720984759671746
16,CAT-4800_email_open_2021-08-25_2021-08-29,(conversion),0.5183673469387755
17,CAT-4800_email_open_2021-08-25_2021-08-29,(null),0.24897959183673468
18,CAT-4800_email_open_2021-08-25_2021-08-29,CAT-4800_email_clk_2021-08-25_2021-08-29,0.23265306122448978
19,CAT-4800_rw_app_imp_2021-08-25_2021-08-29,CAT-4800_rw_app_clk_2021-08-25_2021-08-29,0.07679693905438645
20,CAT-4800_rw_app_imp_2021-08-25_2021-08-29,(conversion),0.691172451489478
21,CAT-4800_rw_app_imp_2021-08-25_2021-08-29,(null),0.22820442743919103
22,CAT-4800_rw_app_imp_2021-08-25_2021-08-29,CAT-4800_email_open_2021-08-25_2021-08-29,0.0038261820169445205
23,CAT-4800_rw_app_clk_2021-08-25_2021-08-29,(conversion),0.7681940700808625
24,CAT-4800_rw_app_clk_2021-08-25_2021-08-29,(null),0.23180592991913745
25,_AlwaysOn_sem_shopping_clk_2021-08-25_2021-08-29,(conversion),0.5
26,_AlwaysOn_sem_shopping_clk_2021-08-25_2021-08-29,(null),0.5
27,_AlwaysOn_wow_web_view_2021-08-25_2021-08-29,_AlwaysOn_wow_web_clk_2021-08-25_2021-08-29,0.2692307692307692
28,_AlwaysOn_wow_web_view_2021-08-25_2021-08-29,CAT-4800_rw_app_imp_2021-08-25_2021-08-29,0.23076923076923078
29,_AlwaysOn_wow_web_view_2021-08-25_2021-08-29,(conversion),0.4230769230769231
30,_AlwaysOn_wow_web_view_2021-08-25_2021-08-29,(null),0.07692307692307693
31,_AlwaysOn_wow_web_clk_2021-08-25_2021-08-29,(conversion),0.95
32,_AlwaysOn_wow_web_clk_2021-08-25_2021-08-29,(null),0.05
33,CAT-4800_email_clk_2021-08-25_2021-08-29,(conversion),0.7875
34,CAT-4800_email_clk_2021-08-25_2021-08-29,(null),0.2125
35,CAT-4800_display_imp_2021-08-25_2021-08-29,(conversion),0.5454545454545454
36,CAT-4800_display_imp_2021-08-25_2021-08-29,(null),0.45454545454545453
37,FB_Impression_Instagram,CAT-4800_rw_app_imp_2021-08-25_2021-08-29,1.0
38,FB_Impression_InstagramStory,CAT-4800_rw_app_imp_2021-08-25_2021-08-29,1.0
39,CAT-4800_rw_app_push_clk_2021-08-25_2021-08-29,(conversion),0.59375
40,CAT-4800_rw_app_push_clk_2021-08-25_2021-08-29,(null),0.1875
41,CAT-4800_rw_app_push_clk_2021-08-25_2021-08-29,CAT-4800_rw_app_imp_2021-08-25_2021-08-29,0.21875
42,CAT-4800_rw_web_oap_clk_2021-08-25_2021-08-29,(conversion),0.6458333333333334
43,CAT-4800_rw_web_oap_clk_2021-08-25_2021-08-29,(null),0.3541666666666667
