,campaign_code,campaign_start_date,channel,medium,event,channel_event,channel_prob_norm_AL,channel_prob_norm_shanglin,attributed_inc_sales_AL,attributed_inc_sales_shanglin,count_AL,count_shanglin
0,WCT-5002,2021-09-09,WCT-5002_email,WCT-5002_email,WCT-5002_email_clk,WCT-5002_email_clk,0.293223993884546,0.08154345467390023,138437.78894059788,123875.22623132313,10388.0,10388
1,WCT-5002,2021-09-09,WCT-5002_email,WCT-5002_email,WCT-5002_email_open,DEFAULT,,,432870.961231643,432870.96123164194,13386.0,13386
2,WCT-5002,2021-09-09,WCT-5002_email,WCT-5002_email,WCT-5002_email_open,WCT-5002_email_open,0.45780646977037365,0.13213059785122722,673495.7409604961,560054.8327401108,33401.0,33401
3,WCT-5002,2021-09-09,WCT-5002_rw_app,WCT-5002_rw_app,WCT-5002_rw_app_clk,WCT-5002_rw_app_clk,0.07795967503839127,0.106173765623676,105978.81259775278,64972.63225341751,11957.0,11957
4,WCT-5002,2021-09-09,WCT-5002_rw_app,WCT-5002_rw_app,WCT-5002_rw_app_imp,WCT-5002_rw_app_imp,0.16617760399259707,0.504325386712461,672940.5804316727,773012.9971458141,32111.0,32111
5,WCT-5002,2021-09-09,WCT-5002_rw_app,WCT-5002_rw_app,WCT-5002_rw_app_push_clk,WCT-5002_rw_app_push_clk,0.0023558567391144987,0.09341889508418837,16436.509907007232,61796.85686425826,10411.0,10411
6,WCT-5002,2021-09-09,WCT-5002_rw_app_push,WCT-5002_rw_app_push,WCT-5002_rw_app_push_imp,WCT-5002_rw_app_push_imp,,0.05798414177639278,,38548.50807272182,,10281
7,WCT-5002,2021-09-09,WCT-5002_rw_web_oap,WCT-5002_rw_web_oap,WCT-5002_rw_web_oap_clk,WCT-5002_rw_web_oap_clk,0.0019231896593466713,0.008546000900215619,3547.070031603529,4082.0077960192284,880.0,880
8,WCT-5002,2021-09-09,AlwaysOn_sem,AlwaysOn_sem_generic,AlwaysOn_sem_generic_clk,_AlwaysOn_sem_generic_clk,,0.0011327293341925745,,53.642419696494066,,18
9,WCT-5002,2021-09-09,AlwaysOn_sem,AlwaysOn_sem_shopping,AlwaysOn_sem_shopping_clk,_AlwaysOn_sem_shopping_clk,0.000553210915630771,0.014739344872131984,5301.821563845203,5709.243105576063,494.0,494
