event,channel_prob_norm_AL,channel_prob_norm_shanglin,attributed_inc_sales_AL,attributed_inc_sales_shanglin
AlwaysOn_sem_generic_clk,0.0,0.0010193572149930436,0.0,203.00667477385582
AlwaysOn_sem_shopping_clk,0.0014787037471863005,0.013265416165444709,1538.0183243735446,1800.0497981928306
WCT-5002_email_clk,0.051850435189159716,0.09206821733913195,29554.169943950106,29627.102584833825
WCT-5002_email_open,0.08505483093021532,0.15298553407479823,449892.03431145014,452098.10636910226
WCT-5002_rw_app_clk,0.33975011217124096,0.07937169756833758,48359.94619530556,19402.007023064452
WCT-5002_rw_app_imp,0.33487820245612576,0.49974772543027357,202045.2895485075,229884.53010764736
WCT-5002_rw_app_push_clk,0.11070246193456353,0.06673407339330216,18262.748607867376,17934.78832479958
WCT-5002_rw_app_push_imp,0.06906713898594051,0.07722085635510677,19430.98098000575,18402.125688610926
WCT-5002_rw_web_oap_clk,0.007218114585567902,0.01758140265532402,6565.10806201061,6499.258605781135
Total,0.9999999999999999,0.9999942801967121,775648.2959734706,775850.9751768062
