,campaign_code,campaign_start_date,channel,medium,event,channel_event,channel_prob_norm_AL,channel_prob_norm_shanglin,attributed_inc_sales_AL,attributed_inc_sales_shanglin,count_AL,count_shanglin
0,WCT-5002,2021-09-09,WCT-5002_FB,WCT-5002_FB,WCT-5002_FB_impsclicks,,-1.0,,59510.57377353776,,13874.0,
1,WCT-5002,2021-09-09,WCT-5002_IG,WCT-5002_IG,WCT-5002_IG_impsclicks,,-1.0,,7445.440029858718,,13874.0,
2,WCT-5002,2021-09-09,WCT-5002_email,WCT-5002_email,WCT-5002_email_clk,WCT-5002_email_clk,0.12964501229837228,0.10079380100442244,41776.07479017721,33383.70463576895,1065.0,1065.0
3,WCT-5002,2021-09-09,WCT-5002_email,WCT-5002_email,WCT-5002_email_open,DEFAULT,,,489702.0351066375,518630.90202309773,6187.0,6187.0
4,WCT-5002,2021-09-09,WCT-5002_email,WCT-5002_email,WCT-5002_email_open,WCT-5002_email_open,0.10792334787524081,0.1453756745256093,79902.91370222981,96793.92967835907,1840.0,1840.0
5,WCT-5002,2021-09-09,WCT-5002_rw_app,WCT-5002_rw_app,WCT-5002_rw_app_clk,WCT-5002_rw_app_clk,0.12873086041962795,0.12078979570028946,23980.88182861195,24566.17727528693,1282.0,1282.0
6,WCT-5002,2021-09-09,WCT-5002_rw_app,WCT-5002_rw_app,WCT-5002_rw_app_imp,WCT-5002_rw_app_imp,0.4541216211546519,0.451418798529549,380974.6351405722,408825.3684772207,5044.0,5044.0
7,WCT-5002,2021-09-09,WCT-5002_rw_app,WCT-5002_rw_app,WCT-5002_rw_app_push_clk,WCT-5002_rw_app_push_clk,0.08666828491954823,0.06733067442542917,52774.413530414386,52165.86829478369,1707.0,1707.0
8,WCT-5002,2021-09-09,WCT-5002_rw_app,WCT-5002_rw_app,WCT-5002_rw_app_push_imp,WCT-5002_rw_app_push_imp,0.08074674902590186,0.06833560986461468,52744.897430074656,53351.431468640156,1970.0,1970.0
9,WCT-5002,2021-09-09,WCT-5002_rw_web_oap,WCT-5002_rw_web_oap,WCT-5002_rw_web_oap_clk,WCT-5002_rw_web_oap_clk,0.005876473674264021,0.018598547022748727,5447.345063993522,5952.830880441384,110.0,110.0
10,WCT-5002,2021-09-09,AlwaysOn_sem,AlwaysOn_sem_brand,AlwaysOn_sem_brand_clk,_AlwaysOn_sem_brand_clk,,0.0021870047875230617,,27.1734970894089,,5.0
11,WCT-5002,2021-09-09,AlwaysOn_sem_other,AlwaysOn_sem_other,AlwaysOn_sem_other_clk,_AlwaysOn_sem_other_clk,,0.0021871818585460787,,207.62665491356555,,5.0
12,WCT-5002,2021-09-09,AlwaysOn_sem,AlwaysOn_sem_shopping,AlwaysOn_sem_shopping_clk,_AlwaysOn_sem_shopping_clk,0.006287650632392901,0.022976088201379544,6114.7252647324185,6701.861131390413,116.0,116.0
