2021-08-05 06:00:12,323 [DEBUG  ]  Checking adc.json for explicit credentials as part of auth process...
2021-08-05 06:00:12,325 [INFO   ]  file_cache is only supported with oauth2client<4.0.0
2021-08-05 06:00:12,331 [DEBUG  ]  Checking argo-dschapter-dev-c9b15ee5d63f.json for explicit credentials as part of auth process...
2021-08-05 06:00:12,518 [DEBUG  ]  URL being requested: GET https://sheets.googleapis.com/v4/spreadsheets/1yWEmhDZvu_pWXl0DXkJ84ARHVSE_nIvoR7vs4V0OJDM/values/Social%20campaigns%20for%20MTA%21A1%3AH?alt=json
2021-08-05 06:00:12,519 [DEBUG  ]  Making request: POST https://oauth2.googleapis.com/token
2021-08-05 06:00:13,659 [DEBUG  ]  Converted retries value: 3 -> Retry(total=3, connect=None, read=None, redirect=None, status=None)
2021-08-05 06:00:13,660 [DEBUG  ]  Making request: POST https://oauth2.googleapis.com/token
2021-08-05 06:00:13,661 [DEBUG  ]  Starting new HTTPS connection (1): oauth2.googleapis.com:443
2021-08-05 06:00:13,714 [DEBUG  ]  https://oauth2.googleapis.com:443 "POST /token HTTP/1.1" 200 None
2021-08-05 06:00:13,716 [DEBUG  ]  Starting new HTTPS connection (1): bigquery.googleapis.com:443
2021-08-05 06:00:14,057 [DEBUG  ]  https://bigquery.googleapis.com:443 "POST /bigquery/v2/projects/wx-bq-poc/jobs?prettyPrint=false HTTP/1.1" 200 None
2021-08-05 06:00:14,309 [DEBUG  ]  https://bigquery.googleapis.com:443 "GET /bigquery/v2/projects/wx-bq-poc/queries/35e1448c-ad83-4bb5-8e1b-e3435a80e8b0?maxResults=0&location=US&prettyPrint=false HTTP/1.1" 200 None
2021-08-05 06:00:14,653 [DEBUG  ]  Started reading table 'wx-bq-poc._6917d7a279397ebb9ef4eb173f8ad02d21fee85a.anonacfbc2e4b0d4c73bd7a6bd3cb3147f19cdcd9f99' with BQ Storage API session 'projects/wx-bq-poc/locations/us/sessions/CAISDHBzYTNzUHY4TzZzMRoCb3MaAmpxGgJvdhoCanIaAm93GgJweBoCaXIaAmpzGgJweRoCcHoaAml3GgJuYRoCamMaAmpkGgJvahoCamY'.
2021-08-05 06:00:15,738 [DEBUG  ]  https://bigquery.googleapis.com:443 "POST /bigquery/v2/projects/wx-bq-poc/jobs?prettyPrint=false HTTP/1.1" 200 None
2021-08-05 06:00:15,984 [DEBUG  ]  https://bigquery.googleapis.com:443 "GET /bigquery/v2/projects/wx-bq-poc/queries/7feb28fb-5979-40c0-8b79-fc0a4d0075f8?maxResults=0&location=US&prettyPrint=false HTTP/1.1" 200 None
2021-08-05 06:00:16,932 [DEBUG  ]  Started reading table 'wx-bq-poc._6917d7a279397ebb9ef4eb173f8ad02d21fee85a.anonce885ff3ff33fcbc9fcc25f9bf7a1fee3a8b14cb' with BQ Storage API session 'projects/wx-bq-poc/locations/us/sessions/CAISDGpZUTc1OWd5Z0F5cRoCb3MaAmpxGgJvdhoCanIaAm93GgJweBoCaXIaAmpzGgJweRoCcHoaAml3GgJuYRoCamMaAmpkGgJvahoCamY'.
2021-08-05 06:00:18,247 [DEBUG  ]  https://bigquery.googleapis.com:443 "POST /bigquery/v2/projects/wx-bq-poc/jobs?prettyPrint=false HTTP/1.1" 200 None
2021-08-05 06:00:18,481 [DEBUG  ]  https://bigquery.googleapis.com:443 "GET /bigquery/v2/projects/wx-bq-poc/queries/11c115a2-298c-4985-9562-260e8fce0092?maxResults=0&location=US&prettyPrint=false HTTP/1.1" 200 None
2021-08-05 06:00:18,828 [DEBUG  ]  Started reading table 'wx-bq-poc._6917d7a279397ebb9ef4eb173f8ad02d21fee85a.anon23318bea1d20b549e8d2882a4e45806aad43f4f5' with BQ Storage API session 'projects/wx-bq-poc/locations/us/sessions/CAISDDZ1RDNCQnF3UXNoTRoCb3MaAmpxGgJvdhoCanIaAm93GgJweBoCaXIaAmpzGgJweRoCcHoaAml3GgJuYRoCamMaAmpkGgJvahoCamY'.
2021-08-05 06:00:19,935 [DEBUG  ]  https://bigquery.googleapis.com:443 "GET /bigquery/v2/projects/wx-bq-poc/datasets/wx_lty_digital_attribution_dev/tables/AL_FBAA_MC_dacamp_prod_event_mw_2021-07-26?prettyPrint=false HTTP/1.1" 200 None
2021-08-05 06:00:19,936 [WARNING]  Table wx-bq-poc.wx_lty_digital_attribution_dev.AL_FBAA_MC_dacamp_prod_event_mw_2021-07-26 already exists.
2021-08-05 06:00:19,936 [WARNING]  Tables were already backed up for 2021-07-26
2021-08-05 06:00:19,936 [INFO   ]  Exiting, no action taken.
2021-08-05 06:00:19,997 [DEBUG  ]  smtp login
2021-08-05 06:00:20,194 [DEBUG  ]  send message
2021-08-05 06:00:20,909 [DEBUG  ]  creating fw run marker
2021-08-05 06:00:20,910 [INFO   ]  starting FBAA_MC.run_MTA_FB_w_email for OSP-2373, {'campaign_ID': '23848626130780307,23848626123620307,23848626113520307,23848432397450307,23848236288380307', 'TTL_flag': False, 'division': 'supers'}
2021-08-05 06:00:20,910 [INFO   ]  campaign code is OSP-2373 fw is 2021-07-26
2021-08-05 06:00:20,911 [INFO   ]  check https://business.facebook.com/adsmanager for latest fb_campaign_id
2021-08-05 06:00:20,911 [WARNING]  FBAA MC already run for,/home/alau3/fbaa_mc_prod/OSP-2373/res_w_fb_weighted_OSP-2373_2021-07-26_2021-08-01_7.csv
2021-08-05 06:00:20,911 [INFO   ]  Exiting FBAA MC...
2021-08-05 06:00:20,911 [INFO   ]  finished FBAA_MC.run_MTA_FB_w_email for OSP-2373, {'campaign_ID': '23848626130780307,23848626123620307,23848626113520307,23848432397450307,23848236288380307', 'TTL_flag': False, 'division': 'supers'}
2021-08-05 06:00:20,912 [INFO   ]  starting run_downstream_process for OSP-2373, {'campaign_ID': '23848626130780307,23848626123620307,23848626113520307,23848432397450307,23848236288380307', 'TTL_flag': False, 'division': 'supers'}
2021-08-05 06:00:20,912 [INFO   ]  Running downstream process for OSP-2373 fw:2021-07-26 to 2021-08-01
2021-08-05 06:00:20,912 [INFO   ]  >>> Step 1: convert MC results to post MTA_format and upload to BQ
2021-08-05 06:00:20,914 [INFO   ]  removing facebook touchpoints from MC output
2021-08-05 06:00:20,915 [INFO   ]  mask_fb contains
2021-08-05 06:00:20,915 [INFO   ]      Unnamed: 0  ... normalised_conversion_value
11          11  ...                    0.000674

[1 rows x 5 columns]
2021-08-05 06:00:20,936 [INFO   ]  mask_ig contains
2021-08-05 06:00:20,937 [INFO   ]  Empty DataFrame
Columns: [Unnamed: 0, channel_name, total_conversions, total_conversion_value, normalised_conversion_value]
Index: []
2021-08-05 06:00:20,953 [INFO   ]  df generated for upload to BQ at `wx-bq-poc.personal.AL_FBAA_MC_mc_final_tmp`
2021-08-05 06:00:20,957 [DEBUG  ]  Checking adc.json for explicit credentials as part of auth process...
2021-08-05 06:00:20,957 [DEBUG  ]  Making request: POST https://oauth2.googleapis.com/token
2021-08-05 06:00:20,958 [DEBUG  ]  Starting new HTTPS connection (1): oauth2.googleapis.com:443
2021-08-05 06:00:21,002 [DEBUG  ]  https://oauth2.googleapis.com:443 "POST /token HTTP/1.1" 200 None
2021-08-05 06:00:21,005 [DEBUG  ]  Converted retries value: 3 -> Retry(total=3, connect=None, read=None, redirect=None, status=None)
2021-08-05 06:00:21,006 [DEBUG  ]  Starting new HTTPS connection (1): bigquery.googleapis.com:443
2021-08-05 06:00:21,125 [DEBUG  ]  https://bigquery.googleapis.com:443 "GET /bigquery/v2/projects/wx-bq-poc/datasets/personal/tables/AL_FBAA_MC_mc_final_tmp?prettyPrint=false HTTP/1.1" 200 None
2021-08-05 06:00:21,126 [DEBUG  ]  Converted retries value: 3 -> Retry(total=3, connect=None, read=None, redirect=None, status=None)
2021-08-05 06:00:21,127 [DEBUG  ]  Starting new HTTPS connection (1): bigquery.googleapis.com:443
2021-08-05 06:00:21,248 [DEBUG  ]  https://bigquery.googleapis.com:443 "GET /bigquery/v2/projects/wx-bq-poc/datasets/personal/tables/AL_FBAA_MC_mc_final_tmp?prettyPrint=false HTTP/1.1" 200 None
2021-08-05 06:00:21,443 [DEBUG  ]  https://bigquery.googleapis.com:443 "DELETE /bigquery/v2/projects/wx-bq-poc/datasets/personal/tables/AL_FBAA_MC_mc_final_tmp?prettyPrint=false HTTP/1.1" 200 None
2021-08-05 06:00:21,576 [DEBUG  ]  https://bigquery.googleapis.com:443 "GET /bigquery/v2/projects/wx-bq-poc/datasets/personal/tables/AL_FBAA_MC_mc_final_tmp?prettyPrint=false HTTP/1.1" 404 None
2021-08-05 06:00:21,577 [DEBUG  ]  Converted retries value: 3 -> Retry(total=3, connect=None, read=None, redirect=None, status=None)
2021-08-05 06:00:21,578 [DEBUG  ]  Starting new HTTPS connection (1): bigquery.googleapis.com:443
2021-08-05 06:00:21,740 [DEBUG  ]  https://bigquery.googleapis.com:443 "GET /bigquery/v2/projects/wx-bq-poc/datasets/personal?prettyPrint=false HTTP/1.1" 200 None
2021-08-05 06:00:21,961 [DEBUG  ]  https://bigquery.googleapis.com:443 "POST /bigquery/v2/projects/wx-bq-poc/datasets/personal/tables?prettyPrint=false HTTP/1.1" 200 None
2021-08-05 06:00:21,967 [INFO   ]  16 out of 16 rows loaded.
2021-08-05 06:00:22,899 [DEBUG  ]  https://bigquery.googleapis.com:443 "POST /upload/bigquery/v2/projects/wx-bq-poc/jobs?uploadType=multipart HTTP/1.1" 200 2528
2021-08-05 06:00:23,007 [DEBUG  ]  https://bigquery.googleapis.com:443 "GET /bigquery/v2/projects/wx-bq-poc/jobs/b0e9fe59-8d0a-4cd6-abd9-a1e295dac83a?location=US&prettyPrint=false HTTP/1.1" 200 None
2021-08-05 06:00:23,007 [DEBUG  ]  Retrying due to , sleeping 0.8s ...
2021-08-05 06:00:23,929 [DEBUG  ]  https://bigquery.googleapis.com:443 "GET /bigquery/v2/projects/wx-bq-poc/jobs/b0e9fe59-8d0a-4cd6-abd9-a1e295dac83a?location=US&prettyPrint=false HTTP/1.1" 200 None
2021-08-05 06:00:23,931 [DEBUG  ]  Retrying due to , sleeping 1.5s ...
2021-08-05 06:00:25,600 [DEBUG  ]  https://bigquery.googleapis.com:443 "GET /bigquery/v2/projects/wx-bq-poc/jobs/b0e9fe59-8d0a-4cd6-abd9-a1e295dac83a?location=US&prettyPrint=false HTTP/1.1" 200 None
2021-08-05 06:00:25,824 [DEBUG  ]  https://bigquery.googleapis.com:443 "POST /bigquery/v2/projects/wx-bq-poc/jobs?prettyPrint=false HTTP/1.1" 200 None
2021-08-05 06:00:31,127 [DEBUG  ]  https://bigquery.googleapis.com:443 "GET /bigquery/v2/projects/wx-bq-poc/queries/aee95149-0651-4114-a4c4-e789ed642d5a?maxResults=0&location=US&prettyPrint=false HTTP/1.1" 200 None
2021-08-05 06:00:31,215 [DEBUG  ]  https://bigquery.googleapis.com:443 "GET /bigquery/v2/projects/wx-bq-poc/jobs/aee95149-0651-4114-a4c4-e789ed642d5a?location=US&prettyPrint=false HTTP/1.1" 200 None
2021-08-05 06:00:31,555 [DEBUG  ]  Started reading table 'wx-bq-poc._6917d7a279397ebb9ef4eb173f8ad02d21fee85a.anond9b4de906779486e84bd53c8b9746f0931e7063b' with BQ Storage API session 'projects/wx-bq-poc/locations/us/sessions/CAISDDB5UnJqX2R1QkxVXxoCb3MaAmpxGgJvdhoCanIaAm93GgJweBoCaXIaAmpzGgJweRoCcHoaAml3GgJuYRoCamMaAmpkGgJvahoCamY'.
2021-08-05 06:00:32,294 [INFO   ]  post MTA output uploaded to BQ
2021-08-05 06:00:32,294 [INFO   ]  exported to `wx-bq-poc.personal.AL_FBAA_MC_dacamp_prod_mc_final_2021-07-26_OSP-2373`
2021-08-05 06:00:32,294 [INFO   ]  >>> Step 2: run post MTA processing (Shanglin's process)
2021-08-05 06:00:32,617 [DEBUG  ]  https://bigquery.googleapis.com:443 "POST /bigquery/v2/projects/wx-bq-poc/jobs?prettyPrint=false HTTP/1.1" 200 None
2021-08-05 06:00:42,567 [DEBUG  ]  https://bigquery.googleapis.com:443 "GET /bigquery/v2/projects/wx-bq-poc/queries/0c2d1767-4852-494d-9641-73db516fb270?maxResults=0&location=US&prettyPrint=false HTTP/1.1" 200 None
2021-08-05 06:00:42,568 [DEBUG  ]  Retrying due to , sleeping 0.4s ...
2021-08-05 06:00:52,863 [DEBUG  ]  https://bigquery.googleapis.com:443 "GET /bigquery/v2/projects/wx-bq-poc/queries/0c2d1767-4852-494d-9641-73db516fb270?maxResults=0&location=US&prettyPrint=false HTTP/1.1" 200 None
2021-08-05 06:00:52,864 [DEBUG  ]  Retrying due to , sleeping 3.9s ...
2021-08-05 06:00:57,449 [DEBUG  ]  https://bigquery.googleapis.com:443 "GET /bigquery/v2/projects/wx-bq-poc/queries/0c2d1767-4852-494d-9641-73db516fb270?maxResults=0&location=US&prettyPrint=false HTTP/1.1" 200 None
2021-08-05 06:00:57,551 [DEBUG  ]  https://bigquery.googleapis.com:443 "GET /bigquery/v2/projects/wx-bq-poc/jobs/0c2d1767-4852-494d-9641-73db516fb270?location=US&prettyPrint=false HTTP/1.1" 200 None
2021-08-05 06:00:57,552 [INFO   ]  exported to `wx-bq-poc.personal.AL_FBAA_MC_dacamp_prod_mc_final_crn_2021-07-26_OSP-2373`
2021-08-05 06:00:57,552 [INFO   ]  >>> Step 3: Compare results to BAU run
2021-08-05 06:00:57,822 [DEBUG  ]  https://bigquery.googleapis.com:443 "POST /bigquery/v2/projects/wx-bq-poc/jobs?prettyPrint=false HTTP/1.1" 200 None
2021-08-05 06:00:59,700 [DEBUG  ]  https://bigquery.googleapis.com:443 "GET /bigquery/v2/projects/wx-bq-poc/queries/034e0d31-89fa-47ce-8a0e-0ef7bb951c48?maxResults=0&location=US&prettyPrint=false HTTP/1.1" 200 None
2021-08-05 06:00:59,807 [DEBUG  ]  https://bigquery.googleapis.com:443 "GET /bigquery/v2/projects/wx-bq-poc/jobs/034e0d31-89fa-47ce-8a0e-0ef7bb951c48?location=US&prettyPrint=false HTTP/1.1" 200 None
2021-08-05 06:01:00,227 [DEBUG  ]  Started reading table 'wx-bq-poc._6917d7a279397ebb9ef4eb173f8ad02d21fee85a.anon43e3bf1c9dc495e3ceac3cfafcc2edbbc27ab813' with BQ Storage API session 'projects/wx-bq-poc/locations/us/sessions/CAISDC1NdXA3UkMyeUkxMxoCb3MaAmpxGgJvdhoCanIaAm93GgJweBoCaXIaAmpzGgJweRoCcHoaAml3GgJuYRoCamMaAmpkGgJvahoCamY'.
2021-08-05 06:01:01,065 [DEBUG  ]  findfont: Matching sans\-serif:style=normal:variant=normal:weight=normal:stretch=normal:size=12.0.
2021-08-05 06:01:01,066 [DEBUG  ]  findfont: score(<Font 'STIXNonUnicode' (STIXNonUniBolIta.ttf) italic normal 700 normal>) = 11.335
2021-08-05 06:01:01,066 [DEBUG  ]  findfont: score(<Font 'STIXGeneral' (STIXGeneral.ttf) normal normal 400 normal>) = 10.05
2021-08-05 06:01:01,066 [DEBUG  ]  findfont: score(<Font 'DejaVu Serif Display' (DejaVuSerifDisplay.ttf) normal normal 400 normal>) = 10.05
2021-08-05 06:01:01,066 [DEBUG  ]  findfont: score(<Font 'DejaVu Sans Mono' (DejaVuSansMono.ttf) normal normal 400 normal>) = 10.05
2021-08-05 06:01:01,066 [DEBUG  ]  findfont: score(<Font 'DejaVu Sans Mono' (DejaVuSansMono-BoldOblique.ttf) oblique normal 700 normal>) = 11.335
2021-08-05 06:01:01,066 [DEBUG  ]  findfont: score(<Font 'DejaVu Sans' (DejaVuSans-Bold.ttf) normal normal 700 normal>) = 0.33499999999999996
2021-08-05 06:01:01,066 [DEBUG  ]  findfont: score(<Font 'DejaVu Sans' (DejaVuSans-BoldOblique.ttf) oblique normal 700 normal>) = 1.335
2021-08-05 06:01:01,066 [DEBUG  ]  findfont: score(<Font 'STIXSizeFourSym' (STIXSizFourSymBol.ttf) normal normal 700 normal>) = 10.335
2021-08-05 06:01:01,066 [DEBUG  ]  findfont: score(<Font 'cmb10' (cmb10.ttf) normal normal 400 normal>) = 10.05
2021-08-05 06:01:01,066 [DEBUG  ]  findfont: score(<Font 'STIXNonUnicode' (STIXNonUniBol.ttf) normal normal 700 normal>) = 10.335
2021-08-05 06:01:01,066 [DEBUG  ]  findfont: score(<Font 'STIXSizeOneSym' (STIXSizOneSymBol.ttf) normal normal 700 normal>) = 10.335
2021-08-05 06:01:01,066 [DEBUG  ]  findfont: score(<Font 'DejaVu Sans' (DejaVuSans.ttf) normal normal 400 normal>) = 0.05
2021-08-05 06:01:01,066 [DEBUG  ]  findfont: score(<Font 'STIXSizeOneSym' (STIXSizOneSymReg.ttf) normal normal 400 normal>) = 10.05
2021-08-05 06:01:01,067 [DEBUG  ]  findfont: score(<Font 'DejaVu Serif' (DejaVuSerif-Italic.ttf) italic normal 400 normal>) = 11.05
2021-08-05 06:01:01,067 [DEBUG  ]  findfont: score(<Font 'DejaVu Sans Mono' (DejaVuSansMono-Bold.ttf) normal normal 700 normal>) = 10.335
2021-08-05 06:01:01,067 [DEBUG  ]  findfont: score(<Font 'cmex10' (cmex10.ttf) normal normal 400 normal>) = 10.05
2021-08-05 06:01:01,067 [DEBUG  ]  findfont: score(<Font 'DejaVu Sans' (DejaVuSans-Oblique.ttf) oblique normal 400 normal>) = 1.05
2021-08-05 06:01:01,067 [DEBUG  ]  findfont: score(<Font 'cmmi10' (cmmi10.ttf) normal normal 400 normal>) = 10.05
2021-08-05 06:01:01,067 [DEBUG  ]  findfont: score(<Font 'cmr10' (cmr10.ttf) normal normal 400 normal>) = 10.05
2021-08-05 06:01:01,067 [DEBUG  ]  findfont: score(<Font 'STIXSizeTwoSym' (STIXSizTwoSymBol.ttf) normal normal 700 normal>) = 10.335
2021-08-05 06:01:01,067 [DEBUG  ]  findfont: score(<Font 'STIXGeneral' (STIXGeneralItalic.ttf) italic normal 400 normal>) = 11.05
2021-08-05 06:01:01,067 [DEBUG  ]  findfont: score(<Font 'cmtt10' (cmtt10.ttf) normal normal 400 normal>) = 10.05
2021-08-05 06:01:01,067 [DEBUG  ]  findfont: score(<Font 'STIXSizeThreeSym' (STIXSizThreeSymReg.ttf) normal normal 400 normal>) = 10.05
2021-08-05 06:01:01,067 [DEBUG  ]  findfont: score(<Font 'DejaVu Serif' (DejaVuSerif.ttf) normal normal 400 normal>) = 10.05
2021-08-05 06:01:01,067 [DEBUG  ]  findfont: score(<Font 'DejaVu Sans Mono' (DejaVuSansMono-Oblique.ttf) oblique normal 400 normal>) = 11.05
2021-08-05 06:01:01,067 [DEBUG  ]  findfont: score(<Font 'DejaVu Sans Display' (DejaVuSansDisplay.ttf) normal normal 400 normal>) = 10.05
2021-08-05 06:01:01,067 [DEBUG  ]  findfont: score(<Font 'STIXSizeFiveSym' (STIXSizFiveSymReg.ttf) normal normal 400 normal>) = 10.05
2021-08-05 06:01:01,067 [DEBUG  ]  findfont: score(<Font 'STIXSizeFourSym' (STIXSizFourSymReg.ttf) normal normal 400 normal>) = 10.05
2021-08-05 06:01:01,067 [DEBUG  ]  findfont: score(<Font 'STIXNonUnicode' (STIXNonUniIta.ttf) italic normal 400 normal>) = 11.05
2021-08-05 06:01:01,067 [DEBUG  ]  findfont: score(<Font 'STIXGeneral' (STIXGeneralBol.ttf) normal normal 700 normal>) = 10.335
2021-08-05 06:01:01,068 [DEBUG  ]  findfont: score(<Font 'STIXNonUnicode' (STIXNonUni.ttf) normal normal 400 normal>) = 10.05
2021-08-05 06:01:01,068 [DEBUG  ]  findfont: score(<Font 'DejaVu Serif' (DejaVuSerif-BoldItalic.ttf) italic normal 700 normal>) = 11.335
2021-08-05 06:01:01,068 [DEBUG  ]  findfont: score(<Font 'STIXSizeThreeSym' (STIXSizThreeSymBol.ttf) normal normal 700 normal>) = 10.335
2021-08-05 06:01:01,068 [DEBUG  ]  findfont: score(<Font 'STIXSizeTwoSym' (STIXSizTwoSymReg.ttf) normal normal 400 normal>) = 10.05
2021-08-05 06:01:01,068 [DEBUG  ]  findfont: score(<Font 'DejaVu Serif' (DejaVuSerif-Bold.ttf) normal normal 700 normal>) = 10.335
2021-08-05 06:01:01,068 [DEBUG  ]  findfont: score(<Font 'cmsy10' (cmsy10.ttf) normal normal 400 normal>) = 10.05
2021-08-05 06:01:01,068 [DEBUG  ]  findfont: score(<Font 'cmss10' (cmss10.ttf) normal normal 400 normal>) = 10.05
2021-08-05 06:01:01,068 [DEBUG  ]  findfont: score(<Font 'STIXGeneral' (STIXGeneralBolIta.ttf) italic normal 700 normal>) = 11.335
2021-08-05 06:01:01,068 [DEBUG  ]  findfont: Matching sans\-serif:style=normal:variant=normal:weight=normal:stretch=normal:size=12.0 to DejaVu Sans ('/home/alau3/fbaa_mc_prod/MTA_AL/lib/python3.9/site-packages/matplotlib/mpl-data/fonts/ttf/DejaVuSans.ttf') with score of 0.050000.
2021-08-05 06:01:01,087 [DEBUG  ]  findfont: Matching sans\-serif:style=normal:variant=normal:weight=normal:stretch=normal:size=10.0.
2021-08-05 06:01:01,088 [DEBUG  ]  findfont: score(<Font 'STIXNonUnicode' (STIXNonUniBolIta.ttf) italic normal 700 normal>) = 11.335
2021-08-05 06:01:01,088 [DEBUG  ]  findfont: score(<Font 'STIXGeneral' (STIXGeneral.ttf) normal normal 400 normal>) = 10.05
2021-08-05 06:01:01,088 [DEBUG  ]  findfont: score(<Font 'DejaVu Serif Display' (DejaVuSerifDisplay.ttf) normal normal 400 normal>) = 10.05
2021-08-05 06:01:01,088 [DEBUG  ]  findfont: score(<Font 'DejaVu Sans Mono' (DejaVuSansMono.ttf) normal normal 400 normal>) = 10.05
2021-08-05 06:01:01,088 [DEBUG  ]  findfont: score(<Font 'DejaVu Sans Mono' (DejaVuSansMono-BoldOblique.ttf) oblique normal 700 normal>) = 11.335
2021-08-05 06:01:01,088 [DEBUG  ]  findfont: score(<Font 'DejaVu Sans' (DejaVuSans-Bold.ttf) normal normal 700 normal>) = 0.33499999999999996
2021-08-05 06:01:01,088 [DEBUG  ]  findfont: score(<Font 'DejaVu Sans' (DejaVuSans-BoldOblique.ttf) oblique normal 700 normal>) = 1.335
2021-08-05 06:01:01,088 [DEBUG  ]  findfont: score(<Font 'STIXSizeFourSym' (STIXSizFourSymBol.ttf) normal normal 700 normal>) = 10.335
2021-08-05 06:01:01,088 [DEBUG  ]  findfont: score(<Font 'cmb10' (cmb10.ttf) normal normal 400 normal>) = 10.05
2021-08-05 06:01:01,088 [DEBUG  ]  findfont: score(<Font 'STIXNonUnicode' (STIXNonUniBol.ttf) normal normal 700 normal>) = 10.335
2021-08-05 06:01:01,088 [DEBUG  ]  findfont: score(<Font 'STIXSizeOneSym' (STIXSizOneSymBol.ttf) normal normal 700 normal>) = 10.335
2021-08-05 06:01:01,089 [DEBUG  ]  findfont: score(<Font 'DejaVu Sans' (DejaVuSans.ttf) normal normal 400 normal>) = 0.05
2021-08-05 06:01:01,089 [DEBUG  ]  findfont: score(<Font 'STIXSizeOneSym' (STIXSizOneSymReg.ttf) normal normal 400 normal>) = 10.05
2021-08-05 06:01:01,089 [DEBUG  ]  findfont: score(<Font 'DejaVu Serif' (DejaVuSerif-Italic.ttf) italic normal 400 normal>) = 11.05
2021-08-05 06:01:01,089 [DEBUG  ]  findfont: score(<Font 'DejaVu Sans Mono' (DejaVuSansMono-Bold.ttf) normal normal 700 normal>) = 10.335
2021-08-05 06:01:01,089 [DEBUG  ]  findfont: score(<Font 'cmex10' (cmex10.ttf) normal normal 400 normal>) = 10.05
2021-08-05 06:01:01,089 [DEBUG  ]  findfont: score(<Font 'DejaVu Sans' (DejaVuSans-Oblique.ttf) oblique normal 400 normal>) = 1.05
2021-08-05 06:01:01,089 [DEBUG  ]  findfont: score(<Font 'cmmi10' (cmmi10.ttf) normal normal 400 normal>) = 10.05
2021-08-05 06:01:01,089 [DEBUG  ]  findfont: score(<Font 'cmr10' (cmr10.ttf) normal normal 400 normal>) = 10.05
2021-08-05 06:01:01,089 [DEBUG  ]  findfont: score(<Font 'STIXSizeTwoSym' (STIXSizTwoSymBol.ttf) normal normal 700 normal>) = 10.335
2021-08-05 06:01:01,089 [DEBUG  ]  findfont: score(<Font 'STIXGeneral' (STIXGeneralItalic.ttf) italic normal 400 normal>) = 11.05
2021-08-05 06:01:01,089 [DEBUG  ]  findfont: score(<Font 'cmtt10' (cmtt10.ttf) normal normal 400 normal>) = 10.05
2021-08-05 06:01:01,089 [DEBUG  ]  findfont: score(<Font 'STIXSizeThreeSym' (STIXSizThreeSymReg.ttf) normal normal 400 normal>) = 10.05
2021-08-05 06:01:01,089 [DEBUG  ]  findfont: score(<Font 'DejaVu Serif' (DejaVuSerif.ttf) normal normal 400 normal>) = 10.05
2021-08-05 06:01:01,089 [DEBUG  ]  findfont: score(<Font 'DejaVu Sans Mono' (DejaVuSansMono-Oblique.ttf) oblique normal 400 normal>) = 11.05
2021-08-05 06:01:01,089 [DEBUG  ]  findfont: score(<Font 'DejaVu Sans Display' (DejaVuSansDisplay.ttf) normal normal 400 normal>) = 10.05
2021-08-05 06:01:01,089 [DEBUG  ]  findfont: score(<Font 'STIXSizeFiveSym' (STIXSizFiveSymReg.ttf) normal normal 400 normal>) = 10.05
2021-08-05 06:01:01,089 [DEBUG  ]  findfont: score(<Font 'STIXSizeFourSym' (STIXSizFourSymReg.ttf) normal normal 400 normal>) = 10.05
2021-08-05 06:01:01,090 [DEBUG  ]  findfont: score(<Font 'STIXNonUnicode' (STIXNonUniIta.ttf) italic normal 400 normal>) = 11.05
2021-08-05 06:01:01,090 [DEBUG  ]  findfont: score(<Font 'STIXGeneral' (STIXGeneralBol.ttf) normal normal 700 normal>) = 10.335
2021-08-05 06:01:01,090 [DEBUG  ]  findfont: score(<Font 'STIXNonUnicode' (STIXNonUni.ttf) normal normal 400 normal>) = 10.05
2021-08-05 06:01:01,090 [DEBUG  ]  findfont: score(<Font 'DejaVu Serif' (DejaVuSerif-BoldItalic.ttf) italic normal 700 normal>) = 11.335
2021-08-05 06:01:01,090 [DEBUG  ]  findfont: score(<Font 'STIXSizeThreeSym' (STIXSizThreeSymBol.ttf) normal normal 700 normal>) = 10.335
2021-08-05 06:01:01,090 [DEBUG  ]  findfont: score(<Font 'STIXSizeTwoSym' (STIXSizTwoSymReg.ttf) normal normal 400 normal>) = 10.05
2021-08-05 06:01:01,090 [DEBUG  ]  findfont: score(<Font 'DejaVu Serif' (DejaVuSerif-Bold.ttf) normal normal 700 normal>) = 10.335
2021-08-05 06:01:01,090 [DEBUG  ]  findfont: score(<Font 'cmsy10' (cmsy10.ttf) normal normal 400 normal>) = 10.05
2021-08-05 06:01:01,090 [DEBUG  ]  findfont: score(<Font 'cmss10' (cmss10.ttf) normal normal 400 normal>) = 10.05
2021-08-05 06:01:01,090 [DEBUG  ]  findfont: score(<Font 'STIXGeneral' (STIXGeneralBolIta.ttf) italic normal 700 normal>) = 11.335
2021-08-05 06:01:01,090 [DEBUG  ]  findfont: Matching sans\-serif:style=normal:variant=normal:weight=normal:stretch=normal:size=10.0 to DejaVu Sans ('/home/alau3/fbaa_mc_prod/MTA_AL/lib/python3.9/site-packages/matplotlib/mpl-data/fonts/ttf/DejaVuSans.ttf') with score of 0.050000.
2021-08-05 06:01:01,376 [DEBUG  ]  locator: <matplotlib.colorbar._ColorbarAutoLocator object at 0x7f67b334caf0>
2021-08-05 06:01:01,376 [DEBUG  ]  Using auto colorbar locator <matplotlib.colorbar._ColorbarAutoLocator object at 0x7f67b334caf0> on colorbar
2021-08-05 06:01:01,376 [DEBUG  ]  Setting pcolormesh
2021-08-05 06:01:01,886 [INFO   ]  >>> Step 4 (only for fws with FB): Distribute FB inc sales
2021-08-05 06:01:01,886 [DEBUG  ]  2021-07-26 ... end of fw is 2021-08-01
2021-08-05 06:01:01,890 [INFO   ]  FB (inc IG):total attribution ratio is 0.000674
2021-08-05 06:01:01,890 [INFO   ]  non-FB:total attribution ratio is 0.999326
2021-08-05 06:01:01,890 [INFO   ]  IG:FB attribution ratio is 0.0
2021-08-05 06:01:01,890 [INFO   ]  NOT INCREASING inc sales... selected FB (inc IG) scaling ratio is (for missing slice of pie) 0.000674
2021-08-05 06:01:02,073 [DEBUG  ]  https://bigquery.googleapis.com:443 "POST /bigquery/v2/projects/wx-bq-poc/jobs?prettyPrint=false HTTP/1.1" 200 None
2021-08-05 06:01:11,988 [DEBUG  ]  https://bigquery.googleapis.com:443 "GET /bigquery/v2/projects/wx-bq-poc/queries/1813dc5d-4f74-4f9f-81c1-52508012c745?maxResults=0&location=US&prettyPrint=false HTTP/1.1" 200 None
2021-08-05 06:01:11,989 [DEBUG  ]  Retrying due to , sleeping 1.9s ...
2021-08-05 06:01:20,707 [DEBUG  ]  https://bigquery.googleapis.com:443 "GET /bigquery/v2/projects/wx-bq-poc/queries/1813dc5d-4f74-4f9f-81c1-52508012c745?maxResults=0&location=US&prettyPrint=false HTTP/1.1" 200 None
2021-08-05 06:01:20,821 [DEBUG  ]  https://bigquery.googleapis.com:443 "GET /bigquery/v2/projects/wx-bq-poc/jobs/1813dc5d-4f74-4f9f-81c1-52508012c745?location=US&prettyPrint=false HTTP/1.1" 200 None
2021-08-05 06:01:21,225 [DEBUG  ]  Started reading table 'wx-bq-poc._6917d7a279397ebb9ef4eb173f8ad02d21fee85a.anon9e235c40c8924fde1f5f85eb3f22f17ab485234e' with BQ Storage API session 'projects/wx-bq-poc/locations/us/sessions/CAISDE9GeU4taU82WTg2SBoCb3MaAmpxGgJvdhoCanIaAm93GgJweBoCaXIaAmpzGgJweRoCcHoaAml3GgJuYRoCamMaAmpkGgJvahoCamY'.
2021-08-05 06:01:22,203 [INFO   ]  fb inc sales for OSP-2373 increased by 0.0
2021-08-05 06:01:22,204 [INFO   ]  touchpoint count increased by 564870
2021-08-05 06:01:22,204 [INFO   ]  exported dacamp_prod_mc_final_crn_w_fb to `wx-bq-poc.personal.AL_FBAA_MC_dacamp_prod_mc_final_crn_w_fb_2021-07-26_OSP-2373`
2021-08-05 06:01:22,595 [DEBUG  ]  https://bigquery.googleapis.com:443 "POST /bigquery/v2/projects/wx-bq-poc/jobs?prettyPrint=false HTTP/1.1" 200 None
2021-08-05 06:01:24,536 [DEBUG  ]  https://bigquery.googleapis.com:443 "GET /bigquery/v2/projects/wx-bq-poc/queries/5082fead-ae03-4238-8325-37bac779dc09?maxResults=0&location=US&prettyPrint=false HTTP/1.1" 200 None
2021-08-05 06:01:24,656 [DEBUG  ]  https://bigquery.googleapis.com:443 "GET /bigquery/v2/projects/wx-bq-poc/jobs/5082fead-ae03-4238-8325-37bac779dc09?location=US&prettyPrint=false HTTP/1.1" 200 None
2021-08-05 06:01:25,048 [DEBUG  ]  Started reading table 'wx-bq-poc._6917d7a279397ebb9ef4eb173f8ad02d21fee85a.anon42bfc488f3b9b75d531874c58775ed4a3c4e711b' with BQ Storage API session 'projects/wx-bq-poc/locations/us/sessions/CAISDFBCbXVoUUNqZ0lNaxoCb3MaAmpxGgJvdhoCanIaAm93GgJweBoCaXIaAmpzGgJweRoCcHoaAml3GgJuYRoCamMaAmpkGgJvahoCamY'.
2021-08-05 06:01:26,895 [DEBUG  ]  locator: <matplotlib.colorbar._ColorbarAutoLocator object at 0x7f67b32144f0>
2021-08-05 06:01:26,895 [DEBUG  ]  Using auto colorbar locator <matplotlib.colorbar._ColorbarAutoLocator object at 0x7f67b32144f0> on colorbar
2021-08-05 06:01:26,895 [DEBUG  ]  Setting pcolormesh
2021-08-05 06:01:27,410 [DEBUG  ]  attaching image
2021-08-05 06:01:27,430 [DEBUG  ]  smtp login
2021-08-05 06:01:27,662 [DEBUG  ]  send message
2021-08-05 06:01:28,507 [INFO   ]  finished run_downstream_process for OSP-2373, {'campaign_ID': '23848626130780307,23848626123620307,23848626113520307,23848432397450307,23848236288380307', 'TTL_flag': False, 'division': 'supers'}
2021-08-05 06:01:28,704 [DEBUG  ]  https://bigquery.googleapis.com:443 "POST /bigquery/v2/projects/wx-bq-poc/jobs?prettyPrint=false HTTP/1.1" 200 None
2021-08-05 06:01:38,622 [DEBUG  ]  https://bigquery.googleapis.com:443 "GET /bigquery/v2/projects/wx-bq-poc/queries/4c5c1887-4084-4a1d-8aea-4c82fc2dc37c?maxResults=0&location=US&prettyPrint=false HTTP/1.1" 200 None
2021-08-05 06:01:38,623 [DEBUG  ]  Retrying due to , sleeping 1.0s ...
2021-08-05 06:01:47,083 [DEBUG  ]  https://bigquery.googleapis.com:443 "GET /bigquery/v2/projects/wx-bq-poc/queries/4c5c1887-4084-4a1d-8aea-4c82fc2dc37c?maxResults=0&location=US&prettyPrint=false HTTP/1.1" 200 None
2021-08-05 06:01:47,181 [DEBUG  ]  https://bigquery.googleapis.com:443 "GET /bigquery/v2/projects/wx-bq-poc/jobs/4c5c1887-4084-4a1d-8aea-4c82fc2dc37c?location=US&prettyPrint=false HTTP/1.1" 200 None
2021-08-05 06:01:47,182 [INFO   ]  SUCCESS... updated table `wx-bq-poc.personal.AL_FBAA_MC_dashboard_dacamp_prod_mc_final_crn_w_fb`
2021-08-05 06:01:47,183 [INFO   ]  dashboard data update complete
2021-08-05 06:01:47,183 [INFO   ]  starting FBAA_MC.run_MTA_FB_w_email for CAT-4753, {'campaign_ID': '6247725008031', 'TTL_flag': False, 'division': 'supers'}
2021-08-05 06:01:47,183 [INFO   ]  campaign code is CAT-4753 fw is 2021-07-26
2021-08-05 06:01:47,183 [INFO   ]  check https://business.facebook.com/adsmanager for latest fb_campaign_id
2021-08-05 06:01:47,183 [WARNING]  FBAA MC already run for,/home/alau3/fbaa_mc_prod/CAT-4753/res_w_fb_weighted_CAT-4753_2021-07-26_2021-08-01_7.csv
2021-08-05 06:01:47,183 [INFO   ]  Exiting FBAA MC...
2021-08-05 06:01:47,183 [INFO   ]  finished FBAA_MC.run_MTA_FB_w_email for CAT-4753, {'campaign_ID': '6247725008031', 'TTL_flag': False, 'division': 'supers'}
2021-08-05 06:01:47,183 [INFO   ]  starting run_downstream_process for CAT-4753, {'campaign_ID': '6247725008031', 'TTL_flag': False, 'division': 'supers'}
2021-08-05 06:01:47,183 [INFO   ]  Running downstream process for CAT-4753 fw:2021-07-26 to 2021-08-01
2021-08-05 06:01:47,183 [INFO   ]  >>> Step 1: convert MC results to post MTA_format and upload to BQ
2021-08-05 06:01:47,185 [INFO   ]  removing facebook touchpoints from MC output
2021-08-05 06:01:47,186 [INFO   ]  mask_fb contains
2021-08-05 06:01:47,186 [INFO   ]  Empty DataFrame
Columns: [Unnamed: 0, channel_name, total_conversions, total_conversion_value, normalised_conversion_value]
Index: []
2021-08-05 06:01:47,188 [INFO   ]  mask_ig contains
2021-08-05 06:01:47,189 [INFO   ]  Empty DataFrame
Columns: [Unnamed: 0, channel_name, total_conversions, total_conversion_value, normalised_conversion_value]
Index: []
2021-08-05 06:01:47,204 [INFO   ]  df generated for upload to BQ at `wx-bq-poc.personal.AL_FBAA_MC_mc_final_tmp`
2021-08-05 06:01:47,205 [DEBUG  ]  Converted retries value: 3 -> Retry(total=3, connect=None, read=None, redirect=None, status=None)
2021-08-05 06:01:47,206 [DEBUG  ]  Starting new HTTPS connection (1): bigquery.googleapis.com:443
2021-08-05 06:01:47,366 [DEBUG  ]  https://bigquery.googleapis.com:443 "GET /bigquery/v2/projects/wx-bq-poc/datasets/personal/tables/AL_FBAA_MC_mc_final_tmp?prettyPrint=false HTTP/1.1" 200 None
2021-08-05 06:01:47,368 [DEBUG  ]  Converted retries value: 3 -> Retry(total=3, connect=None, read=None, redirect=None, status=None)
2021-08-05 06:01:47,369 [DEBUG  ]  Starting new HTTPS connection (1): bigquery.googleapis.com:443
2021-08-05 06:01:47,663 [DEBUG  ]  https://bigquery.googleapis.com:443 "GET /bigquery/v2/projects/wx-bq-poc/datasets/personal/tables/AL_FBAA_MC_mc_final_tmp?prettyPrint=false HTTP/1.1" 200 None
2021-08-05 06:01:47,886 [DEBUG  ]  https://bigquery.googleapis.com:443 "DELETE /bigquery/v2/projects/wx-bq-poc/datasets/personal/tables/AL_FBAA_MC_mc_final_tmp?prettyPrint=false HTTP/1.1" 200 None
2021-08-05 06:01:48,007 [DEBUG  ]  https://bigquery.googleapis.com:443 "GET /bigquery/v2/projects/wx-bq-poc/datasets/personal/tables/AL_FBAA_MC_mc_final_tmp?prettyPrint=false HTTP/1.1" 404 None
2021-08-05 06:01:48,009 [DEBUG  ]  Converted retries value: 3 -> Retry(total=3, connect=None, read=None, redirect=None, status=None)
2021-08-05 06:01:48,010 [DEBUG  ]  Starting new HTTPS connection (1): bigquery.googleapis.com:443
2021-08-05 06:01:48,240 [DEBUG  ]  https://bigquery.googleapis.com:443 "GET /bigquery/v2/projects/wx-bq-poc/datasets/personal?prettyPrint=false HTTP/1.1" 200 None
2021-08-05 06:01:48,439 [DEBUG  ]  https://bigquery.googleapis.com:443 "POST /bigquery/v2/projects/wx-bq-poc/datasets/personal/tables?prettyPrint=false HTTP/1.1" 200 None
2021-08-05 06:01:48,440 [INFO   ]  9 out of 9 rows loaded.
2021-08-05 06:01:49,426 [DEBUG  ]  https://bigquery.googleapis.com:443 "POST /upload/bigquery/v2/projects/wx-bq-poc/jobs?uploadType=multipart HTTP/1.1" 200 2528
2021-08-05 06:01:49,519 [DEBUG  ]  https://bigquery.googleapis.com:443 "GET /bigquery/v2/projects/wx-bq-poc/jobs/62698b68-cdfa-47dd-a01e-77e19ddceb3a?location=US&prettyPrint=false HTTP/1.1" 200 None
2021-08-05 06:01:49,520 [DEBUG  ]  Retrying due to , sleeping 0.2s ...
2021-08-05 06:01:49,859 [DEBUG  ]  https://bigquery.googleapis.com:443 "GET /bigquery/v2/projects/wx-bq-poc/jobs/62698b68-cdfa-47dd-a01e-77e19ddceb3a?location=US&prettyPrint=false HTTP/1.1" 200 None
2021-08-05 06:01:49,860 [DEBUG  ]  Retrying due to , sleeping 3.8s ...
2021-08-05 06:01:53,724 [DEBUG  ]  https://bigquery.googleapis.com:443 "GET /bigquery/v2/projects/wx-bq-poc/jobs/62698b68-cdfa-47dd-a01e-77e19ddceb3a?location=US&prettyPrint=false HTTP/1.1" 200 None
2021-08-05 06:01:53,933 [DEBUG  ]  https://bigquery.googleapis.com:443 "POST /bigquery/v2/projects/wx-bq-poc/jobs?prettyPrint=false HTTP/1.1" 200 None
2021-08-05 06:01:59,600 [DEBUG  ]  https://bigquery.googleapis.com:443 "GET /bigquery/v2/projects/wx-bq-poc/queries/bee50cb9-0813-4879-b389-1b393cea537f?maxResults=0&location=US&prettyPrint=false HTTP/1.1" 200 None
2021-08-05 06:01:59,698 [DEBUG  ]  https://bigquery.googleapis.com:443 "GET /bigquery/v2/projects/wx-bq-poc/jobs/bee50cb9-0813-4879-b389-1b393cea537f?location=US&prettyPrint=false HTTP/1.1" 200 None
2021-08-05 06:02:00,212 [DEBUG  ]  Started reading table 'wx-bq-poc._6917d7a279397ebb9ef4eb173f8ad02d21fee85a.anonc176163b0b38408636b932d6083e6c34e3f4178b' with BQ Storage API session 'projects/wx-bq-poc/locations/us/sessions/CAISDEtWdkU1a1FOZ3dIVxoCb3MaAmpxGgJvdhoCanIaAm93GgJweBoCaXIaAmpzGgJweRoCcHoaAml3GgJuYRoCamMaAmpkGgJvahoCamY'.
2021-08-05 06:02:01,163 [INFO   ]  post MTA output uploaded to BQ
2021-08-05 06:02:01,163 [INFO   ]  exported to `wx-bq-poc.personal.AL_FBAA_MC_dacamp_prod_mc_final_2021-07-26_CAT-4753`
2021-08-05 06:02:01,163 [INFO   ]  >>> Step 2: run post MTA processing (Shanglin's process)
2021-08-05 06:02:01,377 [DEBUG  ]  https://bigquery.googleapis.com:443 "POST /bigquery/v2/projects/wx-bq-poc/jobs?prettyPrint=false HTTP/1.1" 200 None
2021-08-05 06:02:11,287 [DEBUG  ]  https://bigquery.googleapis.com:443 "GET /bigquery/v2/projects/wx-bq-poc/queries/05e7e866-e476-4107-aa2e-002d50876f1e?maxResults=0&location=US&prettyPrint=false HTTP/1.1" 200 None
2021-08-05 06:02:11,288 [DEBUG  ]  Retrying due to , sleeping 0.3s ...
2021-08-05 06:02:21,575 [DEBUG  ]  https://bigquery.googleapis.com:443 "GET /bigquery/v2/projects/wx-bq-poc/queries/05e7e866-e476-4107-aa2e-002d50876f1e?maxResults=0&location=US&prettyPrint=false HTTP/1.1" 200 None
2021-08-05 06:02:21,675 [DEBUG  ]  https://bigquery.googleapis.com:443 "GET /bigquery/v2/projects/wx-bq-poc/jobs/05e7e866-e476-4107-aa2e-002d50876f1e?location=US&prettyPrint=false HTTP/1.1" 200 None
2021-08-05 06:02:21,676 [INFO   ]  exported to `wx-bq-poc.personal.AL_FBAA_MC_dacamp_prod_mc_final_crn_2021-07-26_CAT-4753`
2021-08-05 06:02:21,676 [INFO   ]  >>> Step 3: Compare results to BAU run
2021-08-05 06:02:21,986 [DEBUG  ]  https://bigquery.googleapis.com:443 "POST /bigquery/v2/projects/wx-bq-poc/jobs?prettyPrint=false HTTP/1.1" 200 None
2021-08-05 06:02:23,302 [DEBUG  ]  https://bigquery.googleapis.com:443 "GET /bigquery/v2/projects/wx-bq-poc/queries/afe19d20-8537-4413-90f4-118f235ef98b?maxResults=0&location=US&prettyPrint=false HTTP/1.1" 200 None
2021-08-05 06:02:23,412 [DEBUG  ]  https://bigquery.googleapis.com:443 "GET /bigquery/v2/projects/wx-bq-poc/jobs/afe19d20-8537-4413-90f4-118f235ef98b?location=US&prettyPrint=false HTTP/1.1" 200 None
2021-08-05 06:02:23,868 [DEBUG  ]  Started reading table 'wx-bq-poc._6917d7a279397ebb9ef4eb173f8ad02d21fee85a.anon64f2506a1e131f592b885c97621e3c2712fe9ffe' with BQ Storage API session 'projects/wx-bq-poc/locations/us/sessions/CAISDE5XT1k5S0ptelF4NxoCb3MaAmpxGgJvdhoCanIaAm93GgJweBoCaXIaAmpzGgJweRoCcHoaAml3GgJuYRoCamMaAmpkGgJvahoCamY'.
2021-08-05 06:02:25,800 [DEBUG  ]  locator: <matplotlib.colorbar._ColorbarAutoLocator object at 0x7f67b3109b50>
2021-08-05 06:02:25,800 [DEBUG  ]  Using auto colorbar locator <matplotlib.colorbar._ColorbarAutoLocator object at 0x7f67b3109b50> on colorbar
2021-08-05 06:02:25,800 [DEBUG  ]  Setting pcolormesh
2021-08-05 06:02:26,296 [INFO   ]  >>> Step 4 (only for fws with FB): Distribute FB inc sales
2021-08-05 06:02:26,296 [DEBUG  ]  2021-07-26 ... end of fw is 2021-08-01
2021-08-05 06:02:26,298 [WARNING]  no FB attribution, not adding new rows
2021-08-05 06:02:26,540 [DEBUG  ]  https://bigquery.googleapis.com:443 "POST /bigquery/v2/projects/wx-bq-poc/jobs?prettyPrint=false HTTP/1.1" 200 None
2021-08-05 06:02:36,080 [DEBUG  ]  https://bigquery.googleapis.com:443 "GET /bigquery/v2/projects/wx-bq-poc/queries/a053de23-7c2d-499d-bf02-2b41bce2ed0f?maxResults=0&location=US&prettyPrint=false HTTP/1.1" 200 None
2021-08-05 06:02:36,177 [DEBUG  ]  https://bigquery.googleapis.com:443 "GET /bigquery/v2/projects/wx-bq-poc/jobs/a053de23-7c2d-499d-bf02-2b41bce2ed0f?location=US&prettyPrint=false HTTP/1.1" 200 None
2021-08-05 06:02:36,593 [DEBUG  ]  Started reading table 'wx-bq-poc._6917d7a279397ebb9ef4eb173f8ad02d21fee85a.anon0593a068e679d6119b8852813b6b111cc1f705ae' with BQ Storage API session 'projects/wx-bq-poc/locations/us/sessions/CAISDFNUVWRUZWNwdFVnNBoCb3MaAmpxGgJvdhoCanIaAm93GgJweBoCaXIaAmpzGgJweRoCcHoaAml3GgJuYRoCamMaAmpkGgJvahoCamY'.
2021-08-05 06:02:37,308 [INFO   ]  exported dacamp_prod_mc_final_crn_w_fb to `wx-bq-poc.personal.AL_FBAA_MC_dacamp_prod_mc_final_crn_w_fb_2021-07-26_CAT-4753`
2021-08-05 06:02:37,592 [DEBUG  ]  https://bigquery.googleapis.com:443 "POST /bigquery/v2/projects/wx-bq-poc/jobs?prettyPrint=false HTTP/1.1" 200 None
2021-08-05 06:02:39,086 [DEBUG  ]  https://bigquery.googleapis.com:443 "GET /bigquery/v2/projects/wx-bq-poc/queries/0fc86710-a3db-4d4c-9032-f53887211161?maxResults=0&location=US&prettyPrint=false HTTP/1.1" 200 None
2021-08-05 06:02:39,183 [DEBUG  ]  https://bigquery.googleapis.com:443 "GET /bigquery/v2/projects/wx-bq-poc/jobs/0fc86710-a3db-4d4c-9032-f53887211161?location=US&prettyPrint=false HTTP/1.1" 200 None
2021-08-05 06:02:39,550 [DEBUG  ]  Started reading table 'wx-bq-poc._6917d7a279397ebb9ef4eb173f8ad02d21fee85a.anon6769fde5c107886368e612494c8d9d000be6aea9' with BQ Storage API session 'projects/wx-bq-poc/locations/us/sessions/CAISDDJ6UXFuaWk0Ylc1cRoCb3MaAmpxGgJvdhoCanIaAm93GgJweBoCaXIaAmpzGgJweRoCcHoaAml3GgJuYRoCamMaAmpkGgJvahoCamY'.
2021-08-05 06:02:41,384 [DEBUG  ]  locator: <matplotlib.colorbar._ColorbarAutoLocator object at 0x7f67b307d8b0>
2021-08-05 06:02:41,384 [DEBUG  ]  Using auto colorbar locator <matplotlib.colorbar._ColorbarAutoLocator object at 0x7f67b307d8b0> on colorbar
2021-08-05 06:02:41,384 [DEBUG  ]  Setting pcolormesh
2021-08-05 06:02:41,874 [DEBUG  ]  attaching image
2021-08-05 06:02:41,934 [DEBUG  ]  smtp login
2021-08-05 06:02:42,128 [DEBUG  ]  send message
2021-08-05 06:02:42,895 [INFO   ]  finished run_downstream_process for CAT-4753, {'campaign_ID': '6247725008031', 'TTL_flag': False, 'division': 'supers'}
2021-08-05 06:02:43,195 [DEBUG  ]  https://bigquery.googleapis.com:443 "POST /bigquery/v2/projects/wx-bq-poc/jobs?prettyPrint=false HTTP/1.1" 200 None
2021-08-05 06:02:53,237 [DEBUG  ]  https://bigquery.googleapis.com:443 "GET /bigquery/v2/projects/wx-bq-poc/queries/8ada96b8-caa6-4cf1-a0e1-84a5f77a7815?maxResults=0&location=US&prettyPrint=false HTTP/1.1" 200 None
2021-08-05 06:02:53,238 [DEBUG  ]  Retrying due to , sleeping 1.9s ...
2021-08-05 06:02:55,214 [DEBUG  ]  https://bigquery.googleapis.com:443 "GET /bigquery/v2/projects/wx-bq-poc/queries/8ada96b8-caa6-4cf1-a0e1-84a5f77a7815?maxResults=0&location=US&prettyPrint=false HTTP/1.1" 200 None
2021-08-05 06:02:55,324 [DEBUG  ]  https://bigquery.googleapis.com:443 "GET /bigquery/v2/projects/wx-bq-poc/jobs/8ada96b8-caa6-4cf1-a0e1-84a5f77a7815?location=US&prettyPrint=false HTTP/1.1" 200 None
2021-08-05 06:02:55,325 [INFO   ]  SUCCESS... updated table `wx-bq-poc.personal.AL_FBAA_MC_dashboard_dacamp_prod_mc_final_crn_w_fb`
2021-08-05 06:02:55,326 [INFO   ]  dashboard data update complete
2021-08-05 06:02:55,326 [INFO   ]  starting FBAA_MC.run_MTA_FB_w_email for WCV-4697, {'campaign_ID': '6246870264431', 'TTL_flag': False, 'division': 'big_w'}
2021-08-05 06:02:55,326 [INFO   ]  campaign code is WCV-4697 fw is 2021-07-26
2021-08-05 06:02:55,326 [INFO   ]  check https://business.facebook.com/adsmanager for latest fb_campaign_id
2021-08-05 06:02:55,326 [INFO   ]  >>> Step 1: running MTA pipeline
2021-08-05 06:02:55,332 [INFO   ]  4 ".gz" files removed from /home/alau3/fbaa_mc_prod/MTA_AL/lib/python3.9/site-packages/fbaa/data/to_fbaa
2021-08-05 06:02:55,347 [DEBUG  ]  Converted retries value: 3 -> Retry(total=3, connect=None, read=None, redirect=None, status=None)
2021-08-05 06:02:55,348 [DEBUG  ]  Making request: POST https://oauth2.googleapis.com/token
2021-08-05 06:02:55,349 [DEBUG  ]  Starting new HTTPS connection (1): oauth2.googleapis.com:443
2021-08-05 06:02:55,366 [DEBUG  ]  https://oauth2.googleapis.com:443 "POST /token HTTP/1.1" 200 None
2021-08-05 06:02:55,367 [DEBUG  ]  Starting new HTTPS connection (1): bigquery.googleapis.com:443
2021-08-05 06:02:55,732 [DEBUG  ]  https://bigquery.googleapis.com:443 "POST /bigquery/v2/projects/wx-bq-poc/jobs?prettyPrint=false HTTP/1.1" 200 None
2021-08-05 06:02:55,994 [DEBUG  ]  https://bigquery.googleapis.com:443 "GET /bigquery/v2/projects/wx-bq-poc/queries/33008e3b-e4b3-4161-86da-4789b3d154af?maxResults=0&location=US&prettyPrint=false HTTP/1.1" 200 None
2021-08-05 06:02:56,085 [DEBUG  ]  https://bigquery.googleapis.com:443 "GET /bigquery/v2/projects/wx-bq-poc/jobs/33008e3b-e4b3-4161-86da-4789b3d154af?location=US&prettyPrint=false HTTP/1.1" 200 None
2021-08-05 06:02:56,444 [DEBUG  ]  Started reading table 'wx-bq-poc._5af36a7e7f619b4d03f3ebde03887e27eb1072e8.anonc05bd939847e2531ff4bf3529217b84a3524ba0f' with BQ Storage API session 'projects/wx-bq-poc/locations/us/sessions/CAISDEs1RVdpajdlbWtNURoCb3MaAm93GgJqcRoCb3YaAmpyGgJweBoCaXIaAmpzGgJweRoCcHoaAml3GgJuYRoCamMaAmpkGgJvahoCamY'.
2021-08-05 06:02:58,057 [INFO   ]  0 ".gz" files removed from /home/alau3/fbaa_mc_prod/MTA_AL/lib/python3.9/site-packages/fbaa/data/to_fbaa
2021-08-05 06:02:58,057 [DEBUG  ]  Converted retries value: 3 -> Retry(total=3, connect=None, read=None, redirect=None, status=None)
2021-08-05 06:02:58,059 [DEBUG  ]  Making request: POST https://oauth2.googleapis.com/token
2021-08-05 06:02:58,059 [DEBUG  ]  Starting new HTTPS connection (1): oauth2.googleapis.com:443
2021-08-05 06:02:58,077 [DEBUG  ]  https://oauth2.googleapis.com:443 "POST /token HTTP/1.1" 200 None
2021-08-05 06:02:58,079 [DEBUG  ]  Starting new HTTPS connection (1): bigquery.googleapis.com:443
2021-08-05 06:02:58,641 [DEBUG  ]  https://bigquery.googleapis.com:443 "POST /bigquery/v2/projects/gcp-wow-rwds-ai-mlt-evs-dev/jobs?prettyPrint=false HTTP/1.1" 200 None
2021-08-05 06:02:58,929 [DEBUG  ]  https://bigquery.googleapis.com:443 "GET /bigquery/v2/projects/gcp-wow-rwds-ai-mlt-evs-dev/queries/78840b33-23f4-49f4-a640-4532beb5fcdd?maxResults=0&location=US&prettyPrint=false HTTP/1.1" 200 None
2021-08-05 06:02:59,016 [DEBUG  ]  https://bigquery.googleapis.com:443 "GET /bigquery/v2/projects/gcp-wow-rwds-ai-mlt-evs-dev/jobs/78840b33-23f4-49f4-a640-4532beb5fcdd?location=US&prettyPrint=false HTTP/1.1" 200 None
2021-08-05 06:02:59,499 [DEBUG  ]  Started reading table 'gcp-wow-rwds-ai-mlt-evs-dev._c0973b280129d7a3dfabc9f540b7f275656dca82.anon0e7de90c1c83733825a509c14e61e3427dae5a50' with BQ Storage API session 'projects/gcp-wow-rwds-ai-mlt-evs-dev/locations/us/sessions/CAISDEVaQzJ4MzM4SkhnNRoCb3MaAm93GgJqcRoCb3YaAmpyGgJweBoCaXIaAmpzGgJweRoCcHoaAml3GgJuYRoCamMaAmpkGgJvahoCamY'.
2021-08-05 06:03:09,648 [INFO   ]  0 ".gz" files removed from /home/alau3/fbaa_mc_prod/MTA_AL/lib/python3.9/site-packages/fbaa/data/to_fbaa
2021-08-05 06:03:41,292 [INFO   ]  Writing: /home/alau3/fbaa_mc_prod/MTA_AL/lib/python3.9/site-packages/fbaa/data/to_fbaa/1_export_to_aa_0
2021-08-05 06:03:41,622 [INFO   ]  Compressing First...
2021-08-05 06:03:46,311 [INFO   ]  Compressing First...
2021-08-05 06:03:50,920 [INFO   ]  Compressing First...
2021-08-05 06:03:55,638 [INFO   ]  Compressing Last...
2021-08-05 06:04:00,216 [DEBUG  ]  Starting new HTTPS connection (1): graph.facebook.com:443
2021-08-05 06:04:00,338 [DEBUG  ]  https://graph.facebook.com:443 "POST /v5.0/905253956232223/aa_uploaded_data HTTP/1.1" 400 164
2021-08-05 06:04:00,340 [INFO   ]  Status not OK: (#3) Application does not have the capability to make this API call.
2021-08-05 06:04:00,340 [ERROR  ]  <class 'requests.exceptions.HTTPError'>
2021-08-05 06:04:00,340 [ERROR  ]  400 Client Error: Bad Request for url: https://graph.facebook.com/v5.0/905253956232223/aa_uploaded_data
2021-08-05 06:04:00,340 [ERROR  ]  ('400 Client Error: Bad Request for url: https://graph.facebook.com/v5.0/905253956232223/aa_uploaded_data',)
2021-08-05 06:04:05,367 [DEBUG  ]  smtp login
2021-08-05 06:04:05,561 [DEBUG  ]  send message
2021-08-05 06:04:06,212 [INFO   ]  finished FBAA_MC.run_MTA_FB_w_email for WCV-4697, {'campaign_ID': '6246870264431', 'TTL_flag': False, 'division': 'big_w'}
2021-08-05 06:04:06,212 [INFO   ]  starting run_downstream_process for WCV-4697, {'campaign_ID': '6246870264431', 'TTL_flag': False, 'division': 'big_w'}
2021-08-05 06:04:06,212 [INFO   ]  Running downstream process for WCV-4697 fw:2021-07-26 to 2021-08-01
2021-08-05 06:04:06,212 [INFO   ]  >>> Step 1: convert MC results to post MTA_format and upload to BQ
2021-08-05 06:04:06,213 [ERROR  ]  Uncaught exception: [Errno 2] No such file or directory: 'WCV-4697/res_w_fb_weighted_WCV-4697_2021-07-26_2021-08-01_7.csv'
NoneType: None
