2021-08-18 07:00:29,602 [DEBUG  ]  Checking adc.json for explicit credentials as part of auth process...
2021-08-18 07:00:29,605 [INFO   ]  file_cache is only supported with oauth2client<4.0.0
2021-08-18 07:00:29,609 [DEBUG  ]  Checking argo-dschapter-dev-c9b15ee5d63f.json for explicit credentials as part of auth process...
2021-08-18 07:00:29,760 [DEBUG  ]  URL being requested: GET https://sheets.googleapis.com/v4/spreadsheets/1yWEmhDZvu_pWXl0DXkJ84ARHVSE_nIvoR7vs4V0OJDM/values/Social%20campaigns%20for%20MTA%21A1%3AH?alt=json
2021-08-18 07:00:29,761 [DEBUG  ]  Making request: POST https://oauth2.googleapis.com/token
2021-08-18 07:00:30,408 [DEBUG  ]  This service is instrumented using OpenTelemetry. OpenTelemetry could not be imported; please add opentelemetry-api and opentelemetry-instrumentation packages in order to get BigQuery Tracing data.
2021-08-18 07:00:30,408 [DEBUG  ]  Converted retries value: 3 -> Retry(total=3, connect=None, read=None, redirect=None, status=None)
2021-08-18 07:00:30,408 [DEBUG  ]  Making request: POST https://oauth2.googleapis.com/token
2021-08-18 07:00:30,410 [DEBUG  ]  Starting new HTTPS connection (1): oauth2.googleapis.com:443
2021-08-18 07:00:30,480 [DEBUG  ]  https://oauth2.googleapis.com:443 "POST /token HTTP/1.1" 200 None
2021-08-18 07:00:30,482 [DEBUG  ]  Starting new HTTPS connection (1): bigquery.googleapis.com:443
2021-08-18 07:00:30,883 [DEBUG  ]  https://bigquery.googleapis.com:443 "POST /bigquery/v2/projects/wx-bq-poc/jobs?prettyPrint=false HTTP/1.1" 200 None
2021-08-18 07:00:31,101 [DEBUG  ]  https://bigquery.googleapis.com:443 "GET /bigquery/v2/projects/wx-bq-poc/queries/bda4306e-fc69-4b47-8041-f80508bd69d1?maxResults=0&location=US&prettyPrint=false HTTP/1.1" 200 None
2021-08-18 07:00:31,684 [DEBUG  ]  Started reading table 'wx-bq-poc._6917d7a279397ebb9ef4eb173f8ad02d21fee85a.anonf6f39259878e2d5d768764979dd2b5c5651cce65' with BQ Storage API session 'projects/wx-bq-poc/locations/us/sessions/CAISDGRLYjloR25mRi1qYRoCb3MaAmpxGgJvdhoCanIaAm93GgJweBoCaXIaAmpzGgJweRoCcHoaAml3GgJuYRoCamMaAmpkGgJvahoCamY'.
2021-08-18 07:00:32,717 [DEBUG  ]  https://bigquery.googleapis.com:443 "GET /bigquery/v2/projects/wx-bq-poc/datasets/wx_lty_digital_attribution_dev/tables/AL_FBAA_MC_dacamp_prod_event_mw_2021-08-09?prettyPrint=false HTTP/1.1" 200 None
2021-08-18 07:00:32,718 [WARNING]  Table wx-bq-poc.wx_lty_digital_attribution_dev.AL_FBAA_MC_dacamp_prod_event_mw_2021-08-09 already exists.
2021-08-18 07:00:32,718 [WARNING]  Tables were already backed up for 2021-08-09
2021-08-18 07:00:32,718 [INFO   ]  Exiting, no action taken.
2021-08-18 07:00:32,796 [DEBUG  ]  smtp login
2021-08-18 07:00:33,011 [DEBUG  ]  send message
2021-08-18 07:00:33,652 [DEBUG  ]  creating fw run marker
2021-08-18 07:00:33,652 [INFO   ]  starting FBAA_MC.run_MTA_FB_w_email for OSP-2373, {'campaign_ID': '23848432397450307,23848679125740307,23848678909750307,23848678909750307,23848626123620307,23848626159300307,23848626130780307,23848626120000307,23848626113520307,23848678992570307,23848678844720307', 'TTL_flag': False, 'division': 'supers'}
2021-08-18 07:00:33,652 [INFO   ]  campaign code is OSP-2373 fw is 2021-08-09
2021-08-18 07:00:33,654 [INFO   ]  check https://business.facebook.com/adsmanager for latest fb_campaign_id
2021-08-18 07:00:33,654 [INFO   ]  >>> Step 1: running MTA pipeline
2021-08-18 07:00:33,660 [INFO   ]  1 ".gz" files removed from /home/jovyan/02_nash/fbaa_mc_prod/MTA_AL/lib/python3.9/site-packages/fbaa/data/to_fbaa
2021-08-18 07:00:33,664 [DEBUG  ]  Converted retries value: 3 -> Retry(total=3, connect=None, read=None, redirect=None, status=None)
2021-08-18 07:00:33,665 [DEBUG  ]  Making request: POST https://oauth2.googleapis.com/token
2021-08-18 07:00:33,666 [DEBUG  ]  Starting new HTTPS connection (1): oauth2.googleapis.com:443
2021-08-18 07:00:33,687 [DEBUG  ]  https://oauth2.googleapis.com:443 "POST /token HTTP/1.1" 200 None
2021-08-18 07:00:33,689 [DEBUG  ]  Starting new HTTPS connection (1): bigquery.googleapis.com:443
2021-08-18 07:00:33,959 [DEBUG  ]  https://bigquery.googleapis.com:443 "POST /bigquery/v2/projects/wx-bq-poc/jobs?prettyPrint=false HTTP/1.1" 200 None
2021-08-18 07:00:43,924 [DEBUG  ]  https://bigquery.googleapis.com:443 "GET /bigquery/v2/projects/wx-bq-poc/queries/04fd7c85-678b-4dc2-a9e9-86f7e132b82f?maxResults=0&location=US&prettyPrint=false HTTP/1.1" 200 None
2021-08-18 07:00:43,925 [DEBUG  ]  Retrying due to , sleeping 1.7s ...
2021-08-18 07:00:49,231 [DEBUG  ]  https://bigquery.googleapis.com:443 "GET /bigquery/v2/projects/wx-bq-poc/queries/04fd7c85-678b-4dc2-a9e9-86f7e132b82f?maxResults=0&location=US&prettyPrint=false HTTP/1.1" 200 None
2021-08-18 07:00:49,332 [DEBUG  ]  https://bigquery.googleapis.com:443 "GET /bigquery/v2/projects/wx-bq-poc/jobs/04fd7c85-678b-4dc2-a9e9-86f7e132b82f?location=US&prettyPrint=false HTTP/1.1" 200 None
2021-08-18 07:00:49,949 [DEBUG  ]  Started reading table 'wx-bq-poc._5af36a7e7f619b4d03f3ebde03887e27eb1072e8.anone7add69f3af07dab11651710ca6ee82bb8709415' with BQ Storage API session 'projects/wx-bq-poc/locations/us/sessions/CAISDC1vd2syZU5jc1NMSBoCb3MaAmpxGgJvdhoCanIaAm93GgJweBoCaXIaAmpzGgJweRoCcHoaAml3GgJuYRoCamMaAmpkGgJvahoCamY'.
2021-08-18 07:00:52,882 [INFO   ]  0 ".gz" files removed from /home/jovyan/02_nash/fbaa_mc_prod/MTA_AL/lib/python3.9/site-packages/fbaa/data/to_fbaa
2021-08-18 07:00:52,882 [DEBUG  ]  Converted retries value: 3 -> Retry(total=3, connect=None, read=None, redirect=None, status=None)
2021-08-18 07:00:52,884 [DEBUG  ]  Making request: POST https://oauth2.googleapis.com/token
2021-08-18 07:00:52,885 [DEBUG  ]  Starting new HTTPS connection (1): oauth2.googleapis.com:443
2021-08-18 07:00:52,916 [DEBUG  ]  https://oauth2.googleapis.com:443 "POST /token HTTP/1.1" 200 None
2021-08-18 07:00:52,919 [DEBUG  ]  Starting new HTTPS connection (1): bigquery.googleapis.com:443
2021-08-18 07:00:53,430 [DEBUG  ]  https://bigquery.googleapis.com:443 "POST /bigquery/v2/projects/gcp-wow-rwds-ai-mlt-evs-dev/jobs?prettyPrint=false HTTP/1.1" 200 None
2021-08-18 07:00:53,752 [DEBUG  ]  https://bigquery.googleapis.com:443 "GET /bigquery/v2/projects/gcp-wow-rwds-ai-mlt-evs-dev/queries/2b828226-aaa7-4784-88ec-9e7f76296755?maxResults=0&location=US&prettyPrint=false HTTP/1.1" 200 None
2021-08-18 07:00:53,866 [DEBUG  ]  https://bigquery.googleapis.com:443 "GET /bigquery/v2/projects/gcp-wow-rwds-ai-mlt-evs-dev/jobs/2b828226-aaa7-4784-88ec-9e7f76296755?location=US&prettyPrint=false HTTP/1.1" 200 None
2021-08-18 07:00:54,445 [DEBUG  ]  Started reading table 'gcp-wow-rwds-ai-mlt-evs-dev._c0973b280129d7a3dfabc9f540b7f275656dca82.anon7c6fb3876ace41b4a16f45a48aea2c672e62f312' with BQ Storage API session 'projects/gcp-wow-rwds-ai-mlt-evs-dev/locations/us/sessions/CAISDGNGWGpmcVhwLXQ5cRoCb3MaAmpxGgJvdhoCanIaAm93GgJweBoCaXIaAmpzGgJweRoCcHoaAml3GgJuYRoCamMaAmpkGgJvahoCamY'.
2021-08-18 07:00:54,492 [INFO   ]  0 ".gz" files removed from /home/jovyan/02_nash/fbaa_mc_prod/MTA_AL/lib/python3.9/site-packages/fbaa/data/to_fbaa
2021-08-18 07:01:00,346 [INFO   ]  Writing: /home/jovyan/02_nash/fbaa_mc_prod/MTA_AL/lib/python3.9/site-packages/fbaa/data/to_fbaa/1_export_to_aa_0
2021-08-18 07:01:00,588 [INFO   ]  Compressing Last...
2021-08-18 07:01:07,647 [DEBUG  ]  Starting new HTTPS connection (1): graph.facebook.com:443
2021-08-18 07:01:08,803 [DEBUG  ]  https://graph.facebook.com:443 "POST /v5.0/905253956232223/aa_uploaded_data HTTP/1.1" 200 32
2021-08-18 07:01:08,805 [INFO   ]  Session id 448559609485885 is created on table matrix_al_1, partition 2021-08-09
2021-08-18 07:01:08,807 [DEBUG  ]  Starting new HTTPS connection (1): graph.facebook.com:443
2021-08-18 07:01:09,295 [DEBUG  ]  https://graph.facebook.com:443 "GET /v5.0/448559609485885?access_token=EAAC4ZBEgJsBMBAL5BOtSRt3Uk2hvckYcZA1KRPCV0ya0hXlShDchSDosZByE51qUqNWqL0JxluGL0xkOrwMLQzRuqp0PvEkk2EXYqx0BSfftJUTjWmuIZBK9moNWIugVTCf2EWM9QNfZCFOSTs65WjFw9dZAMZAlnpGjFISKckaMgZDZD HTTP/1.1" 200 65
2021-08-18 07:01:09,297 [INFO   ]  Trying to upload /home/jovyan/02_nash/fbaa_mc_prod/MTA_AL/lib/python3.9/site-packages/fbaa/data/to_fbaa/1_export_to_aa_0.gz
2021-08-18 07:01:09,332 [DEBUG  ]  Starting new HTTPS connection (1): graph.facebook.com:443
2021-08-18 07:01:59,349 [DEBUG  ]  Starting new HTTPS connection (1): graph.facebook.com:443
2021-08-18 07:01:59,794 [DEBUG  ]  https://graph.facebook.com:443 "GET /v5.0/448559609485885?access_token=EAAC4ZBEgJsBMBAL5BOtSRt3Uk2hvckYcZA1KRPCV0ya0hXlShDchSDosZByE51qUqNWqL0JxluGL0xkOrwMLQzRuqp0PvEkk2EXYqx0BSfftJUTjWmuIZBK9moNWIugVTCf2EWM9QNfZCFOSTs65WjFw9dZAMZAlnpGjFISKckaMgZDZD HTTP/1.1" 200 65
2021-08-18 07:01:59,796 [INFO   ]  Concurrent job: {i}
2021-08-18 07:02:17,046 [DEBUG  ]  https://graph.facebook.com:443 "POST /v5.0/905253956232223/aa_uploaded_data HTTP/1.1" 200 29
2021-08-18 07:03:29,870 [DEBUG  ]  Starting new HTTPS connection (1): graph.facebook.com:443
2021-08-18 07:03:30,631 [DEBUG  ]  https://graph.facebook.com:443 "GET /v5.0/448559609485885?access_token=EAAC4ZBEgJsBMBAL5BOtSRt3Uk2hvckYcZA1KRPCV0ya0hXlShDchSDosZByE51qUqNWqL0JxluGL0xkOrwMLQzRuqp0PvEkk2EXYqx0BSfftJUTjWmuIZBK9moNWIugVTCf2EWM9QNfZCFOSTs65WjFw9dZAMZAlnpGjFISKckaMgZDZD HTTP/1.1" 200 170
2021-08-18 07:03:30,634 [DEBUG  ]  Starting new HTTPS connection (1): graph.facebook.com:443
2021-08-18 07:03:31,085 [DEBUG  ]  https://graph.facebook.com:443 "GET /v5.0/448559609485885?access_token=EAAC4ZBEgJsBMBAL5BOtSRt3Uk2hvckYcZA1KRPCV0ya0hXlShDchSDosZByE51qUqNWqL0JxluGL0xkOrwMLQzRuqp0PvEkk2EXYqx0BSfftJUTjWmuIZBK9moNWIugVTCf2EWM9QNfZCFOSTs65WjFw9dZAMZAlnpGjFISKckaMgZDZD HTTP/1.1" 200 170
2021-08-18 07:03:31,087 [INFO   ]  Queue is empty. Upload status: WAITING_TASK_DEPENDENCY
2021-08-18 07:05:01,105 [DEBUG  ]  Starting new HTTPS connection (1): graph.facebook.com:443
2021-08-18 07:05:01,670 [DEBUG  ]  https://graph.facebook.com:443 "GET /v5.0/448559609485885?access_token=EAAC4ZBEgJsBMBAL5BOtSRt3Uk2hvckYcZA1KRPCV0ya0hXlShDchSDosZByE51qUqNWqL0JxluGL0xkOrwMLQzRuqp0PvEkk2EXYqx0BSfftJUTjWmuIZBK9moNWIugVTCf2EWM9QNfZCFOSTs65WjFw9dZAMZAlnpGjFISKckaMgZDZD HTTP/1.1" 200 173
2021-08-18 07:05:01,673 [DEBUG  ]  Starting new HTTPS connection (1): graph.facebook.com:443
2021-08-18 07:05:02,168 [DEBUG  ]  https://graph.facebook.com:443 "GET /v5.0/448559609485885?access_token=EAAC4ZBEgJsBMBAL5BOtSRt3Uk2hvckYcZA1KRPCV0ya0hXlShDchSDosZByE51qUqNWqL0JxluGL0xkOrwMLQzRuqp0PvEkk2EXYqx0BSfftJUTjWmuIZBK9moNWIugVTCf2EWM9QNfZCFOSTs65WjFw9dZAMZAlnpGjFISKckaMgZDZD HTTP/1.1" 200 173
2021-08-18 07:05:02,170 [INFO   ]  Queue is empty. Upload status: UPLOADING
2021-08-18 07:06:32,262 [DEBUG  ]  Starting new HTTPS connection (1): graph.facebook.com:443
2021-08-18 07:06:32,647 [DEBUG  ]  https://graph.facebook.com:443 "GET /v5.0/448559609485885?access_token=EAAC4ZBEgJsBMBAL5BOtSRt3Uk2hvckYcZA1KRPCV0ya0hXlShDchSDosZByE51qUqNWqL0JxluGL0xkOrwMLQzRuqp0PvEkk2EXYqx0BSfftJUTjWmuIZBK9moNWIugVTCf2EWM9QNfZCFOSTs65WjFw9dZAMZAlnpGjFISKckaMgZDZD HTTP/1.1" 200 173
2021-08-18 07:06:32,651 [DEBUG  ]  Starting new HTTPS connection (1): graph.facebook.com:443
2021-08-18 07:06:33,069 [DEBUG  ]  https://graph.facebook.com:443 "GET /v5.0/448559609485885?access_token=EAAC4ZBEgJsBMBAL5BOtSRt3Uk2hvckYcZA1KRPCV0ya0hXlShDchSDosZByE51qUqNWqL0JxluGL0xkOrwMLQzRuqp0PvEkk2EXYqx0BSfftJUTjWmuIZBK9moNWIugVTCf2EWM9QNfZCFOSTs65WjFw9dZAMZAlnpGjFISKckaMgZDZD HTTP/1.1" 200 173
2021-08-18 07:08:03,154 [DEBUG  ]  Starting new HTTPS connection (1): graph.facebook.com:443
2021-08-18 07:08:03,514 [DEBUG  ]  https://graph.facebook.com:443 "GET /v5.0/448559609485885?access_token=EAAC4ZBEgJsBMBAL5BOtSRt3Uk2hvckYcZA1KRPCV0ya0hXlShDchSDosZByE51qUqNWqL0JxluGL0xkOrwMLQzRuqp0PvEkk2EXYqx0BSfftJUTjWmuIZBK9moNWIugVTCf2EWM9QNfZCFOSTs65WjFw9dZAMZAlnpGjFISKckaMgZDZD HTTP/1.1" 200 173
2021-08-18 07:08:03,518 [DEBUG  ]  Starting new HTTPS connection (1): graph.facebook.com:443
2021-08-18 07:08:03,888 [DEBUG  ]  https://graph.facebook.com:443 "GET /v5.0/448559609485885?access_token=EAAC4ZBEgJsBMBAL5BOtSRt3Uk2hvckYcZA1KRPCV0ya0hXlShDchSDosZByE51qUqNWqL0JxluGL0xkOrwMLQzRuqp0PvEkk2EXYqx0BSfftJUTjWmuIZBK9moNWIugVTCf2EWM9QNfZCFOSTs65WjFw9dZAMZAlnpGjFISKckaMgZDZD HTTP/1.1" 200 173
2021-08-18 07:09:33,931 [DEBUG  ]  Starting new HTTPS connection (1): graph.facebook.com:443
2021-08-18 07:09:34,324 [DEBUG  ]  https://graph.facebook.com:443 "GET /v5.0/448559609485885?access_token=EAAC4ZBEgJsBMBAL5BOtSRt3Uk2hvckYcZA1KRPCV0ya0hXlShDchSDosZByE51qUqNWqL0JxluGL0xkOrwMLQzRuqp0PvEkk2EXYqx0BSfftJUTjWmuIZBK9moNWIugVTCf2EWM9QNfZCFOSTs65WjFw9dZAMZAlnpGjFISKckaMgZDZD HTTP/1.1" 200 173
2021-08-18 07:09:34,327 [DEBUG  ]  Starting new HTTPS connection (1): graph.facebook.com:443
2021-08-18 07:09:34,623 [DEBUG  ]  https://graph.facebook.com:443 "GET /v5.0/448559609485885?access_token=EAAC4ZBEgJsBMBAL5BOtSRt3Uk2hvckYcZA1KRPCV0ya0hXlShDchSDosZByE51qUqNWqL0JxluGL0xkOrwMLQzRuqp0PvEkk2EXYqx0BSfftJUTjWmuIZBK9moNWIugVTCf2EWM9QNfZCFOSTs65WjFw9dZAMZAlnpGjFISKckaMgZDZD HTTP/1.1" 200 173
2021-08-18 07:11:04,709 [DEBUG  ]  Starting new HTTPS connection (1): graph.facebook.com:443
2021-08-18 07:11:05,089 [DEBUG  ]  https://graph.facebook.com:443 "GET /v5.0/448559609485885?access_token=EAAC4ZBEgJsBMBAL5BOtSRt3Uk2hvckYcZA1KRPCV0ya0hXlShDchSDosZByE51qUqNWqL0JxluGL0xkOrwMLQzRuqp0PvEkk2EXYqx0BSfftJUTjWmuIZBK9moNWIugVTCf2EWM9QNfZCFOSTs65WjFw9dZAMZAlnpGjFISKckaMgZDZD HTTP/1.1" 200 173
2021-08-18 07:11:05,092 [DEBUG  ]  Starting new HTTPS connection (1): graph.facebook.com:443
2021-08-18 07:11:05,458 [DEBUG  ]  https://graph.facebook.com:443 "GET /v5.0/448559609485885?access_token=EAAC4ZBEgJsBMBAL5BOtSRt3Uk2hvckYcZA1KRPCV0ya0hXlShDchSDosZByE51qUqNWqL0JxluGL0xkOrwMLQzRuqp0PvEkk2EXYqx0BSfftJUTjWmuIZBK9moNWIugVTCf2EWM9QNfZCFOSTs65WjFw9dZAMZAlnpGjFISKckaMgZDZD HTTP/1.1" 200 173
2021-08-18 07:12:35,552 [DEBUG  ]  Starting new HTTPS connection (1): graph.facebook.com:443
2021-08-18 07:12:36,056 [DEBUG  ]  https://graph.facebook.com:443 "GET /v5.0/448559609485885?access_token=EAAC4ZBEgJsBMBAL5BOtSRt3Uk2hvckYcZA1KRPCV0ya0hXlShDchSDosZByE51qUqNWqL0JxluGL0xkOrwMLQzRuqp0PvEkk2EXYqx0BSfftJUTjWmuIZBK9moNWIugVTCf2EWM9QNfZCFOSTs65WjFw9dZAMZAlnpGjFISKckaMgZDZD HTTP/1.1" 200 173
2021-08-18 07:12:36,060 [DEBUG  ]  Starting new HTTPS connection (1): graph.facebook.com:443
2021-08-18 07:12:36,827 [DEBUG  ]  https://graph.facebook.com:443 "GET /v5.0/448559609485885?access_token=EAAC4ZBEgJsBMBAL5BOtSRt3Uk2hvckYcZA1KRPCV0ya0hXlShDchSDosZByE51qUqNWqL0JxluGL0xkOrwMLQzRuqp0PvEkk2EXYqx0BSfftJUTjWmuIZBK9moNWIugVTCf2EWM9QNfZCFOSTs65WjFw9dZAMZAlnpGjFISKckaMgZDZD HTTP/1.1" 200 173
2021-08-18 07:14:06,906 [DEBUG  ]  Starting new HTTPS connection (1): graph.facebook.com:443
2021-08-18 07:14:07,294 [DEBUG  ]  https://graph.facebook.com:443 "GET /v5.0/448559609485885?access_token=EAAC4ZBEgJsBMBAL5BOtSRt3Uk2hvckYcZA1KRPCV0ya0hXlShDchSDosZByE51qUqNWqL0JxluGL0xkOrwMLQzRuqp0PvEkk2EXYqx0BSfftJUTjWmuIZBK9moNWIugVTCf2EWM9QNfZCFOSTs65WjFw9dZAMZAlnpGjFISKckaMgZDZD HTTP/1.1" 200 173
2021-08-18 07:14:07,297 [DEBUG  ]  Starting new HTTPS connection (1): graph.facebook.com:443
2021-08-18 07:14:07,692 [DEBUG  ]  https://graph.facebook.com:443 "GET /v5.0/448559609485885?access_token=EAAC4ZBEgJsBMBAL5BOtSRt3Uk2hvckYcZA1KRPCV0ya0hXlShDchSDosZByE51qUqNWqL0JxluGL0xkOrwMLQzRuqp0PvEkk2EXYqx0BSfftJUTjWmuIZBK9moNWIugVTCf2EWM9QNfZCFOSTs65WjFw9dZAMZAlnpGjFISKckaMgZDZD HTTP/1.1" 200 173
2021-08-18 07:15:37,751 [DEBUG  ]  Starting new HTTPS connection (1): graph.facebook.com:443
2021-08-18 07:15:38,108 [DEBUG  ]  https://graph.facebook.com:443 "GET /v5.0/448559609485885?access_token=EAAC4ZBEgJsBMBAL5BOtSRt3Uk2hvckYcZA1KRPCV0ya0hXlShDchSDosZByE51qUqNWqL0JxluGL0xkOrwMLQzRuqp0PvEkk2EXYqx0BSfftJUTjWmuIZBK9moNWIugVTCf2EWM9QNfZCFOSTs65WjFw9dZAMZAlnpGjFISKckaMgZDZD HTTP/1.1" 200 173
2021-08-18 07:15:38,111 [DEBUG  ]  Starting new HTTPS connection (1): graph.facebook.com:443
2021-08-18 07:15:38,470 [DEBUG  ]  https://graph.facebook.com:443 "GET /v5.0/448559609485885?access_token=EAAC4ZBEgJsBMBAL5BOtSRt3Uk2hvckYcZA1KRPCV0ya0hXlShDchSDosZByE51qUqNWqL0JxluGL0xkOrwMLQzRuqp0PvEkk2EXYqx0BSfftJUTjWmuIZBK9moNWIugVTCf2EWM9QNfZCFOSTs65WjFw9dZAMZAlnpGjFISKckaMgZDZD HTTP/1.1" 200 173
2021-08-18 07:17:08,511 [DEBUG  ]  Starting new HTTPS connection (1): graph.facebook.com:443
2021-08-18 07:17:08,881 [DEBUG  ]  https://graph.facebook.com:443 "GET /v5.0/448559609485885?access_token=EAAC4ZBEgJsBMBAL5BOtSRt3Uk2hvckYcZA1KRPCV0ya0hXlShDchSDosZByE51qUqNWqL0JxluGL0xkOrwMLQzRuqp0PvEkk2EXYqx0BSfftJUTjWmuIZBK9moNWIugVTCf2EWM9QNfZCFOSTs65WjFw9dZAMZAlnpGjFISKckaMgZDZD HTTP/1.1" 200 173
2021-08-18 07:17:08,884 [DEBUG  ]  Starting new HTTPS connection (1): graph.facebook.com:443
2021-08-18 07:17:09,250 [DEBUG  ]  https://graph.facebook.com:443 "GET /v5.0/448559609485885?access_token=EAAC4ZBEgJsBMBAL5BOtSRt3Uk2hvckYcZA1KRPCV0ya0hXlShDchSDosZByE51qUqNWqL0JxluGL0xkOrwMLQzRuqp0PvEkk2EXYqx0BSfftJUTjWmuIZBK9moNWIugVTCf2EWM9QNfZCFOSTs65WjFw9dZAMZAlnpGjFISKckaMgZDZD HTTP/1.1" 200 173
2021-08-18 07:18:39,345 [DEBUG  ]  Starting new HTTPS connection (1): graph.facebook.com:443
2021-08-18 07:18:39,709 [DEBUG  ]  https://graph.facebook.com:443 "GET /v5.0/448559609485885?access_token=EAAC4ZBEgJsBMBAL5BOtSRt3Uk2hvckYcZA1KRPCV0ya0hXlShDchSDosZByE51qUqNWqL0JxluGL0xkOrwMLQzRuqp0PvEkk2EXYqx0BSfftJUTjWmuIZBK9moNWIugVTCf2EWM9QNfZCFOSTs65WjFw9dZAMZAlnpGjFISKckaMgZDZD HTTP/1.1" 200 173
2021-08-18 07:18:39,712 [DEBUG  ]  Starting new HTTPS connection (1): graph.facebook.com:443
2021-08-18 07:18:40,033 [DEBUG  ]  https://graph.facebook.com:443 "GET /v5.0/448559609485885?access_token=EAAC4ZBEgJsBMBAL5BOtSRt3Uk2hvckYcZA1KRPCV0ya0hXlShDchSDosZByE51qUqNWqL0JxluGL0xkOrwMLQzRuqp0PvEkk2EXYqx0BSfftJUTjWmuIZBK9moNWIugVTCf2EWM9QNfZCFOSTs65WjFw9dZAMZAlnpGjFISKckaMgZDZD HTTP/1.1" 200 173
2021-08-18 07:20:10,103 [DEBUG  ]  Starting new HTTPS connection (1): graph.facebook.com:443
2021-08-18 07:20:10,516 [DEBUG  ]  https://graph.facebook.com:443 "GET /v5.0/448559609485885?access_token=EAAC4ZBEgJsBMBAL5BOtSRt3Uk2hvckYcZA1KRPCV0ya0hXlShDchSDosZByE51qUqNWqL0JxluGL0xkOrwMLQzRuqp0PvEkk2EXYqx0BSfftJUTjWmuIZBK9moNWIugVTCf2EWM9QNfZCFOSTs65WjFw9dZAMZAlnpGjFISKckaMgZDZD HTTP/1.1" 200 173
2021-08-18 07:20:10,519 [DEBUG  ]  Starting new HTTPS connection (1): graph.facebook.com:443
2021-08-18 07:20:10,988 [DEBUG  ]  https://graph.facebook.com:443 "GET /v5.0/448559609485885?access_token=EAAC4ZBEgJsBMBAL5BOtSRt3Uk2hvckYcZA1KRPCV0ya0hXlShDchSDosZByE51qUqNWqL0JxluGL0xkOrwMLQzRuqp0PvEkk2EXYqx0BSfftJUTjWmuIZBK9moNWIugVTCf2EWM9QNfZCFOSTs65WjFw9dZAMZAlnpGjFISKckaMgZDZD HTTP/1.1" 200 173
2021-08-18 07:21:41,055 [DEBUG  ]  Starting new HTTPS connection (1): graph.facebook.com:443
2021-08-18 07:21:41,625 [DEBUG  ]  https://graph.facebook.com:443 "GET /v5.0/448559609485885?access_token=EAAC4ZBEgJsBMBAL5BOtSRt3Uk2hvckYcZA1KRPCV0ya0hXlShDchSDosZByE51qUqNWqL0JxluGL0xkOrwMLQzRuqp0PvEkk2EXYqx0BSfftJUTjWmuIZBK9moNWIugVTCf2EWM9QNfZCFOSTs65WjFw9dZAMZAlnpGjFISKckaMgZDZD HTTP/1.1" 200 173
2021-08-18 07:21:41,628 [DEBUG  ]  Starting new HTTPS connection (1): graph.facebook.com:443
2021-08-18 07:21:42,006 [DEBUG  ]  https://graph.facebook.com:443 "GET /v5.0/448559609485885?access_token=EAAC4ZBEgJsBMBAL5BOtSRt3Uk2hvckYcZA1KRPCV0ya0hXlShDchSDosZByE51qUqNWqL0JxluGL0xkOrwMLQzRuqp0PvEkk2EXYqx0BSfftJUTjWmuIZBK9moNWIugVTCf2EWM9QNfZCFOSTs65WjFw9dZAMZAlnpGjFISKckaMgZDZD HTTP/1.1" 200 173
2021-08-18 07:23:12,011 [DEBUG  ]  Starting new HTTPS connection (1): graph.facebook.com:443
2021-08-18 07:23:12,442 [DEBUG  ]  https://graph.facebook.com:443 "GET /v5.0/448559609485885?access_token=EAAC4ZBEgJsBMBAL5BOtSRt3Uk2hvckYcZA1KRPCV0ya0hXlShDchSDosZByE51qUqNWqL0JxluGL0xkOrwMLQzRuqp0PvEkk2EXYqx0BSfftJUTjWmuIZBK9moNWIugVTCf2EWM9QNfZCFOSTs65WjFw9dZAMZAlnpGjFISKckaMgZDZD HTTP/1.1" 200 173
2021-08-18 07:23:12,446 [DEBUG  ]  Starting new HTTPS connection (1): graph.facebook.com:443
2021-08-18 07:23:12,866 [DEBUG  ]  https://graph.facebook.com:443 "GET /v5.0/448559609485885?access_token=EAAC4ZBEgJsBMBAL5BOtSRt3Uk2hvckYcZA1KRPCV0ya0hXlShDchSDosZByE51qUqNWqL0JxluGL0xkOrwMLQzRuqp0PvEkk2EXYqx0BSfftJUTjWmuIZBK9moNWIugVTCf2EWM9QNfZCFOSTs65WjFw9dZAMZAlnpGjFISKckaMgZDZD HTTP/1.1" 200 173
2021-08-18 07:24:42,877 [DEBUG  ]  Starting new HTTPS connection (1): graph.facebook.com:443
2021-08-18 07:24:43,332 [DEBUG  ]  https://graph.facebook.com:443 "GET /v5.0/448559609485885?access_token=EAAC4ZBEgJsBMBAL5BOtSRt3Uk2hvckYcZA1KRPCV0ya0hXlShDchSDosZByE51qUqNWqL0JxluGL0xkOrwMLQzRuqp0PvEkk2EXYqx0BSfftJUTjWmuIZBK9moNWIugVTCf2EWM9QNfZCFOSTs65WjFw9dZAMZAlnpGjFISKckaMgZDZD HTTP/1.1" 200 173
2021-08-18 07:24:43,335 [DEBUG  ]  Starting new HTTPS connection (1): graph.facebook.com:443
2021-08-18 07:24:43,677 [DEBUG  ]  https://graph.facebook.com:443 "GET /v5.0/448559609485885?access_token=EAAC4ZBEgJsBMBAL5BOtSRt3Uk2hvckYcZA1KRPCV0ya0hXlShDchSDosZByE51qUqNWqL0JxluGL0xkOrwMLQzRuqp0PvEkk2EXYqx0BSfftJUTjWmuIZBK9moNWIugVTCf2EWM9QNfZCFOSTs65WjFw9dZAMZAlnpGjFISKckaMgZDZD HTTP/1.1" 200 173
2021-08-18 07:26:13,764 [DEBUG  ]  Starting new HTTPS connection (1): graph.facebook.com:443
2021-08-18 07:26:13,966 [DEBUG  ]  https://graph.facebook.com:443 "GET /v5.0/448559609485885?access_token=EAAC4ZBEgJsBMBAL5BOtSRt3Uk2hvckYcZA1KRPCV0ya0hXlShDchSDosZByE51qUqNWqL0JxluGL0xkOrwMLQzRuqp0PvEkk2EXYqx0BSfftJUTjWmuIZBK9moNWIugVTCf2EWM9QNfZCFOSTs65WjFw9dZAMZAlnpGjFISKckaMgZDZD HTTP/1.1" 200 173
2021-08-18 07:26:13,970 [DEBUG  ]  Starting new HTTPS connection (1): graph.facebook.com:443
2021-08-18 07:26:14,427 [DEBUG  ]  https://graph.facebook.com:443 "GET /v5.0/448559609485885?access_token=EAAC4ZBEgJsBMBAL5BOtSRt3Uk2hvckYcZA1KRPCV0ya0hXlShDchSDosZByE51qUqNWqL0JxluGL0xkOrwMLQzRuqp0PvEkk2EXYqx0BSfftJUTjWmuIZBK9moNWIugVTCf2EWM9QNfZCFOSTs65WjFw9dZAMZAlnpGjFISKckaMgZDZD HTTP/1.1" 200 173
2021-08-18 07:27:44,518 [DEBUG  ]  Starting new HTTPS connection (1): graph.facebook.com:443
2021-08-18 07:27:45,025 [DEBUG  ]  https://graph.facebook.com:443 "GET /v5.0/448559609485885?access_token=EAAC4ZBEgJsBMBAL5BOtSRt3Uk2hvckYcZA1KRPCV0ya0hXlShDchSDosZByE51qUqNWqL0JxluGL0xkOrwMLQzRuqp0PvEkk2EXYqx0BSfftJUTjWmuIZBK9moNWIugVTCf2EWM9QNfZCFOSTs65WjFw9dZAMZAlnpGjFISKckaMgZDZD HTTP/1.1" 200 173
2021-08-18 07:27:45,028 [DEBUG  ]  Starting new HTTPS connection (1): graph.facebook.com:443
2021-08-18 07:27:45,405 [DEBUG  ]  https://graph.facebook.com:443 "GET /v5.0/448559609485885?access_token=EAAC4ZBEgJsBMBAL5BOtSRt3Uk2hvckYcZA1KRPCV0ya0hXlShDchSDosZByE51qUqNWqL0JxluGL0xkOrwMLQzRuqp0PvEkk2EXYqx0BSfftJUTjWmuIZBK9moNWIugVTCf2EWM9QNfZCFOSTs65WjFw9dZAMZAlnpGjFISKckaMgZDZD HTTP/1.1" 200 173
2021-08-18 07:29:15,491 [DEBUG  ]  Starting new HTTPS connection (1): graph.facebook.com:443
2021-08-18 07:29:15,904 [DEBUG  ]  https://graph.facebook.com:443 "GET /v5.0/448559609485885?access_token=EAAC4ZBEgJsBMBAL5BOtSRt3Uk2hvckYcZA1KRPCV0ya0hXlShDchSDosZByE51qUqNWqL0JxluGL0xkOrwMLQzRuqp0PvEkk2EXYqx0BSfftJUTjWmuIZBK9moNWIugVTCf2EWM9QNfZCFOSTs65WjFw9dZAMZAlnpGjFISKckaMgZDZD HTTP/1.1" 200 173
2021-08-18 07:29:15,907 [DEBUG  ]  Starting new HTTPS connection (1): graph.facebook.com:443
2021-08-18 07:29:16,307 [DEBUG  ]  https://graph.facebook.com:443 "GET /v5.0/448559609485885?access_token=EAAC4ZBEgJsBMBAL5BOtSRt3Uk2hvckYcZA1KRPCV0ya0hXlShDchSDosZByE51qUqNWqL0JxluGL0xkOrwMLQzRuqp0PvEkk2EXYqx0BSfftJUTjWmuIZBK9moNWIugVTCf2EWM9QNfZCFOSTs65WjFw9dZAMZAlnpGjFISKckaMgZDZD HTTP/1.1" 200 173
2021-08-18 07:30:46,311 [DEBUG  ]  Starting new HTTPS connection (1): graph.facebook.com:443
2021-08-18 07:30:46,894 [DEBUG  ]  https://graph.facebook.com:443 "GET /v5.0/448559609485885?access_token=EAAC4ZBEgJsBMBAL5BOtSRt3Uk2hvckYcZA1KRPCV0ya0hXlShDchSDosZByE51qUqNWqL0JxluGL0xkOrwMLQzRuqp0PvEkk2EXYqx0BSfftJUTjWmuIZBK9moNWIugVTCf2EWM9QNfZCFOSTs65WjFw9dZAMZAlnpGjFISKckaMgZDZD HTTP/1.1" 200 173
2021-08-18 07:30:46,897 [DEBUG  ]  Starting new HTTPS connection (1): graph.facebook.com:443
2021-08-18 07:30:47,278 [DEBUG  ]  https://graph.facebook.com:443 "GET /v5.0/448559609485885?access_token=EAAC4ZBEgJsBMBAL5BOtSRt3Uk2hvckYcZA1KRPCV0ya0hXlShDchSDosZByE51qUqNWqL0JxluGL0xkOrwMLQzRuqp0PvEkk2EXYqx0BSfftJUTjWmuIZBK9moNWIugVTCf2EWM9QNfZCFOSTs65WjFw9dZAMZAlnpGjFISKckaMgZDZD HTTP/1.1" 200 173
2021-08-18 07:32:17,332 [DEBUG  ]  Starting new HTTPS connection (1): graph.facebook.com:443
2021-08-18 07:32:17,711 [DEBUG  ]  https://graph.facebook.com:443 "GET /v5.0/448559609485885?access_token=EAAC4ZBEgJsBMBAL5BOtSRt3Uk2hvckYcZA1KRPCV0ya0hXlShDchSDosZByE51qUqNWqL0JxluGL0xkOrwMLQzRuqp0PvEkk2EXYqx0BSfftJUTjWmuIZBK9moNWIugVTCf2EWM9QNfZCFOSTs65WjFw9dZAMZAlnpGjFISKckaMgZDZD HTTP/1.1" 200 173
2021-08-18 07:32:17,714 [DEBUG  ]  Starting new HTTPS connection (1): graph.facebook.com:443
2021-08-18 07:32:18,057 [DEBUG  ]  https://graph.facebook.com:443 "GET /v5.0/448559609485885?access_token=EAAC4ZBEgJsBMBAL5BOtSRt3Uk2hvckYcZA1KRPCV0ya0hXlShDchSDosZByE51qUqNWqL0JxluGL0xkOrwMLQzRuqp0PvEkk2EXYqx0BSfftJUTjWmuIZBK9moNWIugVTCf2EWM9QNfZCFOSTs65WjFw9dZAMZAlnpGjFISKckaMgZDZD HTTP/1.1" 200 173
2021-08-18 07:33:48,069 [DEBUG  ]  Starting new HTTPS connection (1): graph.facebook.com:443
2021-08-18 07:33:48,296 [DEBUG  ]  https://graph.facebook.com:443 "GET /v5.0/448559609485885?access_token=EAAC4ZBEgJsBMBAL5BOtSRt3Uk2hvckYcZA1KRPCV0ya0hXlShDchSDosZByE51qUqNWqL0JxluGL0xkOrwMLQzRuqp0PvEkk2EXYqx0BSfftJUTjWmuIZBK9moNWIugVTCf2EWM9QNfZCFOSTs65WjFw9dZAMZAlnpGjFISKckaMgZDZD HTTP/1.1" 200 173
2021-08-18 07:33:48,299 [DEBUG  ]  Starting new HTTPS connection (1): graph.facebook.com:443
2021-08-18 07:33:48,658 [DEBUG  ]  https://graph.facebook.com:443 "GET /v5.0/448559609485885?access_token=EAAC4ZBEgJsBMBAL5BOtSRt3Uk2hvckYcZA1KRPCV0ya0hXlShDchSDosZByE51qUqNWqL0JxluGL0xkOrwMLQzRuqp0PvEkk2EXYqx0BSfftJUTjWmuIZBK9moNWIugVTCf2EWM9QNfZCFOSTs65WjFw9dZAMZAlnpGjFISKckaMgZDZD HTTP/1.1" 200 173
2021-08-18 07:35:18,698 [DEBUG  ]  Starting new HTTPS connection (1): graph.facebook.com:443
2021-08-18 07:35:19,086 [DEBUG  ]  https://graph.facebook.com:443 "GET /v5.0/448559609485885?access_token=EAAC4ZBEgJsBMBAL5BOtSRt3Uk2hvckYcZA1KRPCV0ya0hXlShDchSDosZByE51qUqNWqL0JxluGL0xkOrwMLQzRuqp0PvEkk2EXYqx0BSfftJUTjWmuIZBK9moNWIugVTCf2EWM9QNfZCFOSTs65WjFw9dZAMZAlnpGjFISKckaMgZDZD HTTP/1.1" 200 173
2021-08-18 07:35:19,089 [DEBUG  ]  Starting new HTTPS connection (1): graph.facebook.com:443
2021-08-18 07:35:19,437 [DEBUG  ]  https://graph.facebook.com:443 "GET /v5.0/448559609485885?access_token=EAAC4ZBEgJsBMBAL5BOtSRt3Uk2hvckYcZA1KRPCV0ya0hXlShDchSDosZByE51qUqNWqL0JxluGL0xkOrwMLQzRuqp0PvEkk2EXYqx0BSfftJUTjWmuIZBK9moNWIugVTCf2EWM9QNfZCFOSTs65WjFw9dZAMZAlnpGjFISKckaMgZDZD HTTP/1.1" 200 173
2021-08-18 07:36:49,523 [DEBUG  ]  Starting new HTTPS connection (1): graph.facebook.com:443
2021-08-18 07:36:50,220 [DEBUG  ]  https://graph.facebook.com:443 "GET /v5.0/448559609485885?access_token=EAAC4ZBEgJsBMBAL5BOtSRt3Uk2hvckYcZA1KRPCV0ya0hXlShDchSDosZByE51qUqNWqL0JxluGL0xkOrwMLQzRuqp0PvEkk2EXYqx0BSfftJUTjWmuIZBK9moNWIugVTCf2EWM9QNfZCFOSTs65WjFw9dZAMZAlnpGjFISKckaMgZDZD HTTP/1.1" 200 173
2021-08-18 07:36:50,224 [DEBUG  ]  Starting new HTTPS connection (1): graph.facebook.com:443
2021-08-18 07:36:50,616 [DEBUG  ]  https://graph.facebook.com:443 "GET /v5.0/448559609485885?access_token=EAAC4ZBEgJsBMBAL5BOtSRt3Uk2hvckYcZA1KRPCV0ya0hXlShDchSDosZByE51qUqNWqL0JxluGL0xkOrwMLQzRuqp0PvEkk2EXYqx0BSfftJUTjWmuIZBK9moNWIugVTCf2EWM9QNfZCFOSTs65WjFw9dZAMZAlnpGjFISKckaMgZDZD HTTP/1.1" 200 173
2021-08-18 07:38:20,683 [DEBUG  ]  Starting new HTTPS connection (1): graph.facebook.com:443
2021-08-18 07:38:21,171 [DEBUG  ]  https://graph.facebook.com:443 "GET /v5.0/448559609485885?access_token=EAAC4ZBEgJsBMBAL5BOtSRt3Uk2hvckYcZA1KRPCV0ya0hXlShDchSDosZByE51qUqNWqL0JxluGL0xkOrwMLQzRuqp0PvEkk2EXYqx0BSfftJUTjWmuIZBK9moNWIugVTCf2EWM9QNfZCFOSTs65WjFw9dZAMZAlnpGjFISKckaMgZDZD HTTP/1.1" 200 173
2021-08-18 07:38:21,174 [DEBUG  ]  Starting new HTTPS connection (1): graph.facebook.com:443
2021-08-18 07:38:21,489 [DEBUG  ]  https://graph.facebook.com:443 "GET /v5.0/448559609485885?access_token=EAAC4ZBEgJsBMBAL5BOtSRt3Uk2hvckYcZA1KRPCV0ya0hXlShDchSDosZByE51qUqNWqL0JxluGL0xkOrwMLQzRuqp0PvEkk2EXYqx0BSfftJUTjWmuIZBK9moNWIugVTCf2EWM9QNfZCFOSTs65WjFw9dZAMZAlnpGjFISKckaMgZDZD HTTP/1.1" 200 173
2021-08-18 07:39:51,495 [DEBUG  ]  Starting new HTTPS connection (1): graph.facebook.com:443
2021-08-18 07:39:51,869 [DEBUG  ]  https://graph.facebook.com:443 "GET /v5.0/448559609485885?access_token=EAAC4ZBEgJsBMBAL5BOtSRt3Uk2hvckYcZA1KRPCV0ya0hXlShDchSDosZByE51qUqNWqL0JxluGL0xkOrwMLQzRuqp0PvEkk2EXYqx0BSfftJUTjWmuIZBK9moNWIugVTCf2EWM9QNfZCFOSTs65WjFw9dZAMZAlnpGjFISKckaMgZDZD HTTP/1.1" 200 173
2021-08-18 07:39:51,872 [DEBUG  ]  Starting new HTTPS connection (1): graph.facebook.com:443
2021-08-18 07:39:52,325 [DEBUG  ]  https://graph.facebook.com:443 "GET /v5.0/448559609485885?access_token=EAAC4ZBEgJsBMBAL5BOtSRt3Uk2hvckYcZA1KRPCV0ya0hXlShDchSDosZByE51qUqNWqL0JxluGL0xkOrwMLQzRuqp0PvEkk2EXYqx0BSfftJUTjWmuIZBK9moNWIugVTCf2EWM9QNfZCFOSTs65WjFw9dZAMZAlnpGjFISKckaMgZDZD HTTP/1.1" 200 173
2021-08-18 07:41:22,368 [DEBUG  ]  Starting new HTTPS connection (1): graph.facebook.com:443
2021-08-18 07:41:22,790 [DEBUG  ]  https://graph.facebook.com:443 "GET /v5.0/448559609485885?access_token=EAAC4ZBEgJsBMBAL5BOtSRt3Uk2hvckYcZA1KRPCV0ya0hXlShDchSDosZByE51qUqNWqL0JxluGL0xkOrwMLQzRuqp0PvEkk2EXYqx0BSfftJUTjWmuIZBK9moNWIugVTCf2EWM9QNfZCFOSTs65WjFw9dZAMZAlnpGjFISKckaMgZDZD HTTP/1.1" 200 188
2021-08-18 07:41:22,793 [DEBUG  ]  Starting new HTTPS connection (1): graph.facebook.com:443
2021-08-18 07:41:23,282 [DEBUG  ]  https://graph.facebook.com:443 "GET /v5.0/448559609485885?access_token=EAAC4ZBEgJsBMBAL5BOtSRt3Uk2hvckYcZA1KRPCV0ya0hXlShDchSDosZByE51qUqNWqL0JxluGL0xkOrwMLQzRuqp0PvEkk2EXYqx0BSfftJUTjWmuIZBK9moNWIugVTCf2EWM9QNfZCFOSTs65WjFw9dZAMZAlnpGjFISKckaMgZDZD HTTP/1.1" 200 188
2021-08-18 07:41:23,284 [INFO   ]  Queue is empty. Upload status: EII_MATCHING_IN_PROGRESS
2021-08-18 07:42:53,376 [DEBUG  ]  Starting new HTTPS connection (1): graph.facebook.com:443
2021-08-18 07:42:53,796 [DEBUG  ]  https://graph.facebook.com:443 "GET /v5.0/448559609485885?access_token=EAAC4ZBEgJsBMBAL5BOtSRt3Uk2hvckYcZA1KRPCV0ya0hXlShDchSDosZByE51qUqNWqL0JxluGL0xkOrwMLQzRuqp0PvEkk2EXYqx0BSfftJUTjWmuIZBK9moNWIugVTCf2EWM9QNfZCFOSTs65WjFw9dZAMZAlnpGjFISKckaMgZDZD HTTP/1.1" 200 188
2021-08-18 07:42:53,799 [DEBUG  ]  Starting new HTTPS connection (1): graph.facebook.com:443
2021-08-18 07:42:54,074 [DEBUG  ]  https://graph.facebook.com:443 "GET /v5.0/448559609485885?access_token=EAAC4ZBEgJsBMBAL5BOtSRt3Uk2hvckYcZA1KRPCV0ya0hXlShDchSDosZByE51qUqNWqL0JxluGL0xkOrwMLQzRuqp0PvEkk2EXYqx0BSfftJUTjWmuIZBK9moNWIugVTCf2EWM9QNfZCFOSTs65WjFw9dZAMZAlnpGjFISKckaMgZDZD HTTP/1.1" 200 188
2021-08-18 07:44:24,168 [DEBUG  ]  Starting new HTTPS connection (1): graph.facebook.com:443
2021-08-18 07:44:24,396 [DEBUG  ]  https://graph.facebook.com:443 "GET /v5.0/448559609485885?access_token=EAAC4ZBEgJsBMBAL5BOtSRt3Uk2hvckYcZA1KRPCV0ya0hXlShDchSDosZByE51qUqNWqL0JxluGL0xkOrwMLQzRuqp0PvEkk2EXYqx0BSfftJUTjWmuIZBK9moNWIugVTCf2EWM9QNfZCFOSTs65WjFw9dZAMZAlnpGjFISKckaMgZDZD HTTP/1.1" 200 188
2021-08-18 07:44:24,400 [DEBUG  ]  Starting new HTTPS connection (1): graph.facebook.com:443
2021-08-18 07:44:24,687 [DEBUG  ]  https://graph.facebook.com:443 "GET /v5.0/448559609485885?access_token=EAAC4ZBEgJsBMBAL5BOtSRt3Uk2hvckYcZA1KRPCV0ya0hXlShDchSDosZByE51qUqNWqL0JxluGL0xkOrwMLQzRuqp0PvEkk2EXYqx0BSfftJUTjWmuIZBK9moNWIugVTCf2EWM9QNfZCFOSTs65WjFw9dZAMZAlnpGjFISKckaMgZDZD HTTP/1.1" 200 188
2021-08-18 07:45:54,781 [DEBUG  ]  Starting new HTTPS connection (1): graph.facebook.com:443
2021-08-18 07:45:55,005 [DEBUG  ]  https://graph.facebook.com:443 "GET /v5.0/448559609485885?access_token=EAAC4ZBEgJsBMBAL5BOtSRt3Uk2hvckYcZA1KRPCV0ya0hXlShDchSDosZByE51qUqNWqL0JxluGL0xkOrwMLQzRuqp0PvEkk2EXYqx0BSfftJUTjWmuIZBK9moNWIugVTCf2EWM9QNfZCFOSTs65WjFw9dZAMZAlnpGjFISKckaMgZDZD HTTP/1.1" 200 188
2021-08-18 07:45:55,009 [DEBUG  ]  Starting new HTTPS connection (1): graph.facebook.com:443
2021-08-18 07:45:55,271 [DEBUG  ]  https://graph.facebook.com:443 "GET /v5.0/448559609485885?access_token=EAAC4ZBEgJsBMBAL5BOtSRt3Uk2hvckYcZA1KRPCV0ya0hXlShDchSDosZByE51qUqNWqL0JxluGL0xkOrwMLQzRuqp0PvEkk2EXYqx0BSfftJUTjWmuIZBK9moNWIugVTCf2EWM9QNfZCFOSTs65WjFw9dZAMZAlnpGjFISKckaMgZDZD HTTP/1.1" 200 188
2021-08-18 07:47:25,365 [DEBUG  ]  Starting new HTTPS connection (1): graph.facebook.com:443
2021-08-18 07:47:25,604 [DEBUG  ]  https://graph.facebook.com:443 "GET /v5.0/448559609485885?access_token=EAAC4ZBEgJsBMBAL5BOtSRt3Uk2hvckYcZA1KRPCV0ya0hXlShDchSDosZByE51qUqNWqL0JxluGL0xkOrwMLQzRuqp0PvEkk2EXYqx0BSfftJUTjWmuIZBK9moNWIugVTCf2EWM9QNfZCFOSTs65WjFw9dZAMZAlnpGjFISKckaMgZDZD HTTP/1.1" 200 188
2021-08-18 07:47:25,608 [DEBUG  ]  Starting new HTTPS connection (1): graph.facebook.com:443
2021-08-18 07:47:25,850 [DEBUG  ]  https://graph.facebook.com:443 "GET /v5.0/448559609485885?access_token=EAAC4ZBEgJsBMBAL5BOtSRt3Uk2hvckYcZA1KRPCV0ya0hXlShDchSDosZByE51qUqNWqL0JxluGL0xkOrwMLQzRuqp0PvEkk2EXYqx0BSfftJUTjWmuIZBK9moNWIugVTCf2EWM9QNfZCFOSTs65WjFw9dZAMZAlnpGjFISKckaMgZDZD HTTP/1.1" 200 188
2021-08-18 07:48:55,941 [DEBUG  ]  Starting new HTTPS connection (1): graph.facebook.com:443
2021-08-18 07:48:56,317 [DEBUG  ]  https://graph.facebook.com:443 "GET /v5.0/448559609485885?access_token=EAAC4ZBEgJsBMBAL5BOtSRt3Uk2hvckYcZA1KRPCV0ya0hXlShDchSDosZByE51qUqNWqL0JxluGL0xkOrwMLQzRuqp0PvEkk2EXYqx0BSfftJUTjWmuIZBK9moNWIugVTCf2EWM9QNfZCFOSTs65WjFw9dZAMZAlnpGjFISKckaMgZDZD HTTP/1.1" 200 188
2021-08-18 07:48:56,321 [DEBUG  ]  Starting new HTTPS connection (1): graph.facebook.com:443
2021-08-18 07:48:56,674 [DEBUG  ]  https://graph.facebook.com:443 "GET /v5.0/448559609485885?access_token=EAAC4ZBEgJsBMBAL5BOtSRt3Uk2hvckYcZA1KRPCV0ya0hXlShDchSDosZByE51qUqNWqL0JxluGL0xkOrwMLQzRuqp0PvEkk2EXYqx0BSfftJUTjWmuIZBK9moNWIugVTCf2EWM9QNfZCFOSTs65WjFw9dZAMZAlnpGjFISKckaMgZDZD HTTP/1.1" 200 188
2021-08-18 07:50:26,740 [DEBUG  ]  Starting new HTTPS connection (1): graph.facebook.com:443
2021-08-18 07:50:26,979 [DEBUG  ]  https://graph.facebook.com:443 "GET /v5.0/448559609485885?access_token=EAAC4ZBEgJsBMBAL5BOtSRt3Uk2hvckYcZA1KRPCV0ya0hXlShDchSDosZByE51qUqNWqL0JxluGL0xkOrwMLQzRuqp0PvEkk2EXYqx0BSfftJUTjWmuIZBK9moNWIugVTCf2EWM9QNfZCFOSTs65WjFw9dZAMZAlnpGjFISKckaMgZDZD HTTP/1.1" 200 188
2021-08-18 07:50:26,983 [DEBUG  ]  Starting new HTTPS connection (1): graph.facebook.com:443
2021-08-18 07:50:27,325 [DEBUG  ]  https://graph.facebook.com:443 "GET /v5.0/448559609485885?access_token=EAAC4ZBEgJsBMBAL5BOtSRt3Uk2hvckYcZA1KRPCV0ya0hXlShDchSDosZByE51qUqNWqL0JxluGL0xkOrwMLQzRuqp0PvEkk2EXYqx0BSfftJUTjWmuIZBK9moNWIugVTCf2EWM9QNfZCFOSTs65WjFw9dZAMZAlnpGjFISKckaMgZDZD HTTP/1.1" 200 188
2021-08-18 07:51:57,346 [DEBUG  ]  Starting new HTTPS connection (1): graph.facebook.com:443
2021-08-18 07:51:57,573 [DEBUG  ]  https://graph.facebook.com:443 "GET /v5.0/448559609485885?access_token=EAAC4ZBEgJsBMBAL5BOtSRt3Uk2hvckYcZA1KRPCV0ya0hXlShDchSDosZByE51qUqNWqL0JxluGL0xkOrwMLQzRuqp0PvEkk2EXYqx0BSfftJUTjWmuIZBK9moNWIugVTCf2EWM9QNfZCFOSTs65WjFw9dZAMZAlnpGjFISKckaMgZDZD HTTP/1.1" 200 188
2021-08-18 07:51:57,576 [DEBUG  ]  Starting new HTTPS connection (1): graph.facebook.com:443
2021-08-18 07:51:57,794 [DEBUG  ]  https://graph.facebook.com:443 "GET /v5.0/448559609485885?access_token=EAAC4ZBEgJsBMBAL5BOtSRt3Uk2hvckYcZA1KRPCV0ya0hXlShDchSDosZByE51qUqNWqL0JxluGL0xkOrwMLQzRuqp0PvEkk2EXYqx0BSfftJUTjWmuIZBK9moNWIugVTCf2EWM9QNfZCFOSTs65WjFw9dZAMZAlnpGjFISKckaMgZDZD HTTP/1.1" 200 188
2021-08-18 07:53:27,857 [DEBUG  ]  Starting new HTTPS connection (1): graph.facebook.com:443
2021-08-18 07:53:28,101 [DEBUG  ]  https://graph.facebook.com:443 "GET /v5.0/448559609485885?access_token=EAAC4ZBEgJsBMBAL5BOtSRt3Uk2hvckYcZA1KRPCV0ya0hXlShDchSDosZByE51qUqNWqL0JxluGL0xkOrwMLQzRuqp0PvEkk2EXYqx0BSfftJUTjWmuIZBK9moNWIugVTCf2EWM9QNfZCFOSTs65WjFw9dZAMZAlnpGjFISKckaMgZDZD HTTP/1.1" 200 188
2021-08-18 07:53:28,104 [DEBUG  ]  Starting new HTTPS connection (1): graph.facebook.com:443
2021-08-18 07:53:28,317 [DEBUG  ]  https://graph.facebook.com:443 "GET /v5.0/448559609485885?access_token=EAAC4ZBEgJsBMBAL5BOtSRt3Uk2hvckYcZA1KRPCV0ya0hXlShDchSDosZByE51qUqNWqL0JxluGL0xkOrwMLQzRuqp0PvEkk2EXYqx0BSfftJUTjWmuIZBK9moNWIugVTCf2EWM9QNfZCFOSTs65WjFw9dZAMZAlnpGjFISKckaMgZDZD HTTP/1.1" 200 188
2021-08-18 07:54:58,326 [DEBUG  ]  Starting new HTTPS connection (1): graph.facebook.com:443
2021-08-18 07:54:58,560 [DEBUG  ]  https://graph.facebook.com:443 "GET /v5.0/448559609485885?access_token=EAAC4ZBEgJsBMBAL5BOtSRt3Uk2hvckYcZA1KRPCV0ya0hXlShDchSDosZByE51qUqNWqL0JxluGL0xkOrwMLQzRuqp0PvEkk2EXYqx0BSfftJUTjWmuIZBK9moNWIugVTCf2EWM9QNfZCFOSTs65WjFw9dZAMZAlnpGjFISKckaMgZDZD HTTP/1.1" 200 188
2021-08-18 07:54:58,563 [DEBUG  ]  Starting new HTTPS connection (1): graph.facebook.com:443
2021-08-18 07:54:58,890 [DEBUG  ]  https://graph.facebook.com:443 "GET /v5.0/448559609485885?access_token=EAAC4ZBEgJsBMBAL5BOtSRt3Uk2hvckYcZA1KRPCV0ya0hXlShDchSDosZByE51qUqNWqL0JxluGL0xkOrwMLQzRuqp0PvEkk2EXYqx0BSfftJUTjWmuIZBK9moNWIugVTCf2EWM9QNfZCFOSTs65WjFw9dZAMZAlnpGjFISKckaMgZDZD HTTP/1.1" 200 188
2021-08-18 07:56:28,938 [DEBUG  ]  Starting new HTTPS connection (1): graph.facebook.com:443
2021-08-18 07:56:29,315 [DEBUG  ]  https://graph.facebook.com:443 "GET /v5.0/448559609485885?access_token=EAAC4ZBEgJsBMBAL5BOtSRt3Uk2hvckYcZA1KRPCV0ya0hXlShDchSDosZByE51qUqNWqL0JxluGL0xkOrwMLQzRuqp0PvEkk2EXYqx0BSfftJUTjWmuIZBK9moNWIugVTCf2EWM9QNfZCFOSTs65WjFw9dZAMZAlnpGjFISKckaMgZDZD HTTP/1.1" 200 188
2021-08-18 07:56:29,319 [DEBUG  ]  Starting new HTTPS connection (1): graph.facebook.com:443
2021-08-18 07:56:29,678 [DEBUG  ]  https://graph.facebook.com:443 "GET /v5.0/448559609485885?access_token=EAAC4ZBEgJsBMBAL5BOtSRt3Uk2hvckYcZA1KRPCV0ya0hXlShDchSDosZByE51qUqNWqL0JxluGL0xkOrwMLQzRuqp0PvEkk2EXYqx0BSfftJUTjWmuIZBK9moNWIugVTCf2EWM9QNfZCFOSTs65WjFw9dZAMZAlnpGjFISKckaMgZDZD HTTP/1.1" 200 188
2021-08-18 07:57:59,771 [DEBUG  ]  Starting new HTTPS connection (1): graph.facebook.com:443
2021-08-18 07:58:00,339 [DEBUG  ]  https://graph.facebook.com:443 "GET /v5.0/448559609485885?access_token=EAAC4ZBEgJsBMBAL5BOtSRt3Uk2hvckYcZA1KRPCV0ya0hXlShDchSDosZByE51qUqNWqL0JxluGL0xkOrwMLQzRuqp0PvEkk2EXYqx0BSfftJUTjWmuIZBK9moNWIugVTCf2EWM9QNfZCFOSTs65WjFw9dZAMZAlnpGjFISKckaMgZDZD HTTP/1.1" 200 188
2021-08-18 07:58:00,343 [DEBUG  ]  Starting new HTTPS connection (1): graph.facebook.com:443
2021-08-18 07:58:00,774 [DEBUG  ]  https://graph.facebook.com:443 "GET /v5.0/448559609485885?access_token=EAAC4ZBEgJsBMBAL5BOtSRt3Uk2hvckYcZA1KRPCV0ya0hXlShDchSDosZByE51qUqNWqL0JxluGL0xkOrwMLQzRuqp0PvEkk2EXYqx0BSfftJUTjWmuIZBK9moNWIugVTCf2EWM9QNfZCFOSTs65WjFw9dZAMZAlnpGjFISKckaMgZDZD HTTP/1.1" 200 188
2021-08-18 07:59:30,868 [DEBUG  ]  Starting new HTTPS connection (1): graph.facebook.com:443
2021-08-18 07:59:31,126 [DEBUG  ]  https://graph.facebook.com:443 "GET /v5.0/448559609485885?access_token=EAAC4ZBEgJsBMBAL5BOtSRt3Uk2hvckYcZA1KRPCV0ya0hXlShDchSDosZByE51qUqNWqL0JxluGL0xkOrwMLQzRuqp0PvEkk2EXYqx0BSfftJUTjWmuIZBK9moNWIugVTCf2EWM9QNfZCFOSTs65WjFw9dZAMZAlnpGjFISKckaMgZDZD HTTP/1.1" 200 188
2021-08-18 07:59:31,129 [DEBUG  ]  Starting new HTTPS connection (1): graph.facebook.com:443
2021-08-18 07:59:31,503 [DEBUG  ]  https://graph.facebook.com:443 "GET /v5.0/448559609485885?access_token=EAAC4ZBEgJsBMBAL5BOtSRt3Uk2hvckYcZA1KRPCV0ya0hXlShDchSDosZByE51qUqNWqL0JxluGL0xkOrwMLQzRuqp0PvEkk2EXYqx0BSfftJUTjWmuIZBK9moNWIugVTCf2EWM9QNfZCFOSTs65WjFw9dZAMZAlnpGjFISKckaMgZDZD HTTP/1.1" 200 188
2021-08-18 08:01:01,596 [DEBUG  ]  Starting new HTTPS connection (1): graph.facebook.com:443
2021-08-18 08:01:01,987 [DEBUG  ]  https://graph.facebook.com:443 "GET /v5.0/448559609485885?access_token=EAAC4ZBEgJsBMBAL5BOtSRt3Uk2hvckYcZA1KRPCV0ya0hXlShDchSDosZByE51qUqNWqL0JxluGL0xkOrwMLQzRuqp0PvEkk2EXYqx0BSfftJUTjWmuIZBK9moNWIugVTCf2EWM9QNfZCFOSTs65WjFw9dZAMZAlnpGjFISKckaMgZDZD HTTP/1.1" 200 188
2021-08-18 08:01:01,990 [DEBUG  ]  Starting new HTTPS connection (1): graph.facebook.com:443
2021-08-18 08:01:02,369 [DEBUG  ]  https://graph.facebook.com:443 "GET /v5.0/448559609485885?access_token=EAAC4ZBEgJsBMBAL5BOtSRt3Uk2hvckYcZA1KRPCV0ya0hXlShDchSDosZByE51qUqNWqL0JxluGL0xkOrwMLQzRuqp0PvEkk2EXYqx0BSfftJUTjWmuIZBK9moNWIugVTCf2EWM9QNfZCFOSTs65WjFw9dZAMZAlnpGjFISKckaMgZDZD HTTP/1.1" 200 188
2021-08-18 08:02:32,463 [DEBUG  ]  Starting new HTTPS connection (1): graph.facebook.com:443
2021-08-18 08:02:32,777 [DEBUG  ]  https://graph.facebook.com:443 "GET /v5.0/448559609485885?access_token=EAAC4ZBEgJsBMBAL5BOtSRt3Uk2hvckYcZA1KRPCV0ya0hXlShDchSDosZByE51qUqNWqL0JxluGL0xkOrwMLQzRuqp0PvEkk2EXYqx0BSfftJUTjWmuIZBK9moNWIugVTCf2EWM9QNfZCFOSTs65WjFw9dZAMZAlnpGjFISKckaMgZDZD HTTP/1.1" 200 188
2021-08-18 08:02:32,780 [DEBUG  ]  Starting new HTTPS connection (1): graph.facebook.com:443
2021-08-18 08:02:33,012 [DEBUG  ]  https://graph.facebook.com:443 "GET /v5.0/448559609485885?access_token=EAAC4ZBEgJsBMBAL5BOtSRt3Uk2hvckYcZA1KRPCV0ya0hXlShDchSDosZByE51qUqNWqL0JxluGL0xkOrwMLQzRuqp0PvEkk2EXYqx0BSfftJUTjWmuIZBK9moNWIugVTCf2EWM9QNfZCFOSTs65WjFw9dZAMZAlnpGjFISKckaMgZDZD HTTP/1.1" 200 188
2021-08-18 08:04:03,079 [DEBUG  ]  Starting new HTTPS connection (1): graph.facebook.com:443
2021-08-18 08:04:03,495 [DEBUG  ]  https://graph.facebook.com:443 "GET /v5.0/448559609485885?access_token=EAAC4ZBEgJsBMBAL5BOtSRt3Uk2hvckYcZA1KRPCV0ya0hXlShDchSDosZByE51qUqNWqL0JxluGL0xkOrwMLQzRuqp0PvEkk2EXYqx0BSfftJUTjWmuIZBK9moNWIugVTCf2EWM9QNfZCFOSTs65WjFw9dZAMZAlnpGjFISKckaMgZDZD HTTP/1.1" 200 171
2021-08-18 08:04:03,499 [DEBUG  ]  Starting new HTTPS connection (1): graph.facebook.com:443
2021-08-18 08:04:03,964 [DEBUG  ]  https://graph.facebook.com:443 "GET /v5.0/448559609485885?access_token=EAAC4ZBEgJsBMBAL5BOtSRt3Uk2hvckYcZA1KRPCV0ya0hXlShDchSDosZByE51qUqNWqL0JxluGL0xkOrwMLQzRuqp0PvEkk2EXYqx0BSfftJUTjWmuIZBK9moNWIugVTCf2EWM9QNfZCFOSTs65WjFw9dZAMZAlnpGjFISKckaMgZDZD HTTP/1.1" 200 171
2021-08-18 08:04:03,965 [INFO   ]  Queue is empty. Upload status: SUCCESS
2021-08-18 08:04:03,966 [INFO   ]  2021-08-09 08:04:03 >>> {"newtable": "matrix_al_1", "session_id": "448559609485885", "upload_result": "SUCCESS"}
2021-08-18 08:04:03,975 [INFO   ]  Start: 1628467200	 End: 1629071999
2021-08-18 08:04:03,977 [DEBUG  ]  Starting new HTTPS connection (1): graph.facebook.com:443
2021-08-18 08:04:09,796 [DEBUG  ]  https://graph.facebook.com:443 "POST /v5.0/184549573529263/execute_template HTTP/1.1" 200 31
2021-08-18 08:05:09,860 [DEBUG  ]  Starting new HTTPS connection (1): graph.facebook.com:443
2021-08-18 08:05:10,720 [DEBUG  ]  https://graph.facebook.com:443 "GET /v5.0/994310784702474?access_token=EAAC4ZBEgJsBMBAL5BOtSRt3Uk2hvckYcZA1KRPCV0ya0hXlShDchSDosZByE51qUqNWqL0JxluGL0xkOrwMLQzRuqp0PvEkk2EXYqx0BSfftJUTjWmuIZBK9moNWIugVTCf2EWM9QNfZCFOSTs65WjFw9dZAMZAlnpGjFISKckaMgZDZD HTTP/1.1" 200 1172
2021-08-18 08:05:10,722 [INFO   ]  https://graph.facebook.com/v5.0/994310784702474
2021-08-18 08:05:10,722 [INFO   ]  [{'name': 'event_concat', 'type': 'STRING'}, {'name': 'val', 'type': 'FLOAT64'}, {'name': 'val_type', 'type': 'FLOAT64'}, {'name': 'val_type_2', 'type': 'FLOAT64'}, {'name': 'cnt', 'type': 'INT64'}, {'name': 'ppl', 'type': 'INT64'}]
2021-08-18 08:06:10,785 [DEBUG  ]  Making request: POST https://oauth2.googleapis.com/token
2021-08-18 08:06:10,786 [DEBUG  ]  Resetting dropped connection: oauth2.googleapis.com
2021-08-18 08:06:10,829 [DEBUG  ]  https://oauth2.googleapis.com:443 "POST /token HTTP/1.1" 200 None
2021-08-18 08:06:10,831 [DEBUG  ]  Resetting dropped connection: bigquery.googleapis.com
2021-08-18 08:06:10,989 [DEBUG  ]  https://bigquery.googleapis.com:443 "GET /bigquery/v2/projects/wx-bq-poc/datasets/xueyuan/tables/AL_FBAA_MC_MTA_package_output?prettyPrint=false HTTP/1.1" 200 None
2021-08-18 08:06:10,990 [INFO   ]  Rows to insert 27
2021-08-18 08:06:11,224 [DEBUG  ]  https://bigquery.googleapis.com:443 "POST /bigquery/v2/projects/wx-bq-poc/datasets/xueyuan/tables/AL_FBAA_MC_MTA_package_output/insertAll?prettyPrint=false HTTP/1.1" 200 None
2021-08-18 08:06:11,225 [INFO   ]  New rows have been added:
2021-08-18 08:06:11,836 [DEBUG  ]  https://bigquery.googleapis.com:443 "POST /bigquery/v2/projects/wx-bq-poc/jobs?prettyPrint=false HTTP/1.1" 200 None
2021-08-18 08:06:12,074 [DEBUG  ]  https://bigquery.googleapis.com:443 "GET /bigquery/v2/projects/wx-bq-poc/queries/32f5c2d5-a964-4b84-bb07-995f375ba72c?maxResults=0&location=US&prettyPrint=false HTTP/1.1" 200 None
2021-08-18 08:06:12,075 [INFO   ]  <google.cloud.bigquery.table.RowIterator object at 0x7f44de201550>
2021-08-18 08:06:12,076 [INFO   ]   -- /home/jovyan/02_nash/fbaa_mc_prod/MTA_AL/lib/python3.9/site-packages/fbaa/sql/general_select.sql 
  SELECT
	* EXCEPT (result_id, extract_date, template_id)
from
 `wx-bq-poc.xueyuan.AL_FBAA_MC_MTA_package_output`

 WHERE result_id='994310784702474' and val is not NULL
 

2021-08-18 08:06:12,619 [DEBUG  ]  https://bigquery.googleapis.com:443 "POST /bigquery/v2/projects/wx-bq-poc/jobs?prettyPrint=false HTTP/1.1" 200 None
2021-08-18 08:06:12,858 [DEBUG  ]  https://bigquery.googleapis.com:443 "GET /bigquery/v2/projects/wx-bq-poc/queries/94486178-35f0-431e-9962-de177a64c041?maxResults=0&location=US&prettyPrint=false HTTP/1.1" 200 None
2021-08-18 08:06:13,300 [DEBUG  ]  Started reading table 'wx-bq-poc._5af36a7e7f619b4d03f3ebde03887e27eb1072e8.anon3ba87313_2dcf_48ba_bcbd_bba806133197' with BQ Storage API session 'projects/wx-bq-poc/locations/us/sessions/CAISDFRmbFdRbEdBT1VGNxoCb3MaAmpxGgJvdhoCanIaAm93GgJweBoCaXIaAmpzGgJweRoCcHoaAml3GgJuYRoCamMaAmpkGgJvahoCamY'.
2021-08-18 08:06:14,012 [INFO   ]   -- /home/jovyan/02_nash/fbaa_mc_prod/MTA_AL/lib/python3.9/site-packages/fbaa/sql/fingerprint.sql 
  SELECT
event,fingerprint

from
 xueyuan.event_fingerprint f
where
event IS NOT NULL
AND fingerprint  IS NOT NULL
 

2021-08-18 08:06:14,477 [DEBUG  ]  https://bigquery.googleapis.com:443 "POST /bigquery/v2/projects/wx-bq-poc/jobs?prettyPrint=false HTTP/1.1" 200 None
2021-08-18 08:06:14,944 [DEBUG  ]  https://bigquery.googleapis.com:443 "GET /bigquery/v2/projects/wx-bq-poc/queries/807b2464-f443-4af9-861e-2d5b4a311a6f?maxResults=0&location=US&prettyPrint=false HTTP/1.1" 200 None
2021-08-18 08:06:15,333 [DEBUG  ]  Started reading table 'wx-bq-poc._5af36a7e7f619b4d03f3ebde03887e27eb1072e8.anon64bba718915f6b03cae2604bebb9343f6481d2cd' with BQ Storage API session 'projects/wx-bq-poc/locations/us/sessions/CAISDDhkcFloT0M3eUlidRoCb3MaAmpxGgJvdhoCanIaAm93GgJweBoCaXIaAmpzGgJweRoCcHoaAml3GgJuYRoCamMaAmpkGgJvahoCamY'.
2021-08-18 08:06:16,336 [INFO   ]                     channel_name  total_conversions  total_conversion_value  normalised_conversion_value
0        FB_Impression_InStream         865.547839            8.090953e+05                     0.032587
1      FB_Impression_MobileFeed       18712.509011            1.714523e+07                     0.690529
2  FB_Impression_InstagramStory        5689.587399            5.197103e+06                     0.209315
3           FB_Click_MobileFeed         146.904908            1.269082e+05                     0.005111
4   FB_Impression_FacebookStory         631.294066            5.880907e+05                     0.023686
5       FB_Impression_Instagram         103.230476            8.635465e+04                     0.003478
6         FB_Impression_WebFeed         905.251868            8.380873e+05                     0.033754
7  FB_Impression_SuggestedVideo          43.674432            3.824197e+04                     0.001540
2021-08-18 08:06:16,349 [INFO   ]  >>> Step 2: saving output
2021-08-18 08:06:16,351 [INFO   ]  >>> Step 3: generating diagnostics
2021-08-18 08:06:16,358 [INFO   ]  >>> Step 4: email notifications
2021-08-18 08:06:16,454 [DEBUG  ]  smtp login
2021-08-18 08:06:16,658 [DEBUG  ]  send message
2021-08-18 08:06:17,379 [INFO   ]  finished FBAA_MC.run_MTA_FB_w_email for OSP-2373, {'campaign_ID': '23848432397450307,23848679125740307,23848678909750307,23848678909750307,23848626123620307,23848626159300307,23848626130780307,23848626120000307,23848626113520307,23848678992570307,23848678844720307', 'TTL_flag': False, 'division': 'supers'}
2021-08-18 08:06:17,379 [INFO   ]  starting run_downstream_process for OSP-2373, {'campaign_ID': '23848432397450307,23848679125740307,23848678909750307,23848678909750307,23848626123620307,23848626159300307,23848626130780307,23848626120000307,23848626113520307,23848678992570307,23848678844720307', 'TTL_flag': False, 'division': 'supers'}
2021-08-18 08:06:17,379 [INFO   ]  Running downstream process for OSP-2373 fw:2021-08-09 to 2021-08-15
2021-08-18 08:06:17,379 [INFO   ]  >>> Step 1: convert MC results to post MTA_format and upload to BQ
2021-08-18 08:06:17,383 [INFO   ]  removing facebook touchpoints from MC output
2021-08-18 08:06:17,384 [INFO   ]  mask_fb contains
2021-08-18 08:06:17,384 [INFO   ]     Unnamed: 0                  channel_name  total_conversions  total_conversion_value  normalised_conversion_value
0           0        FB_Impression_InStream         865.547839            8.090953e+05                     0.032587
1           1      FB_Impression_MobileFeed       18712.509011            1.714523e+07                     0.690529
2           2  FB_Impression_InstagramStory        5689.587399            5.197103e+06                     0.209315
3           3           FB_Click_MobileFeed         146.904908            1.269082e+05                     0.005111
4           4   FB_Impression_FacebookStory         631.294066            5.880907e+05                     0.023686
5           5       FB_Impression_Instagram         103.230476            8.635465e+04                     0.003478
6           6         FB_Impression_WebFeed         905.251868            8.380873e+05                     0.033754
7           7  FB_Impression_SuggestedVideo          43.674432            3.824197e+04                     0.001540
2021-08-18 08:06:17,399 [INFO   ]  mask_ig contains
2021-08-18 08:06:17,405 [INFO   ]     Unnamed: 0                  channel_name  total_conversions  total_conversion_value  normalised_conversion_value
2           2  FB_Impression_InstagramStory        5689.587399            5.197103e+06                     0.209315
5           5       FB_Impression_Instagram         103.230476            8.635465e+04                     0.003478
2021-08-18 08:06:17,421 [ERROR  ]  Uncaught exception: cannot set a frame with no defined index and a scalar
NoneType: None
