'2022-01-19 01:45:09,954 | main.py | function: <module> | line: 57 : INFO - UPDATE_FINAL_TABLES = False'
'2022-01-19 01:45:09,954 | main.py | function: <module> | line: 58 : INFO - FB_TABLE_NUM = 0'
'2022-01-19 01:45:09,954 | main.py | function: <module> | line: 59 : INFO - FBAA_TABLE_MAPPING = {0: 'h_crn_seg_128', 1: 'matrix_al_1', 2: 'h_crn_seg_129'}'
'2022-01-19 01:45:09,955 | main.py | function: <module> | line: 60 : INFO - NEW_DEFINITION = False'
'2022-01-19 01:45:09,955 | main.py | function: <module> | line: 61 : INFO - EMAIL_RECIPIENT_ALL = ('alau3@woolworths.com.au', 'wxu@woolworths.com.au')'
'2022-01-19 01:45:09,955 | main.py | function: <module> | line: 62 : INFO - EMAIL_RECIPIENT = alau3@woolworths.com.au'
'2022-01-19 01:45:09,956 | _default.py | function: _get_explicit_environ_credentials | line: 206 : DEBUG - Checking adc.json for explicit credentials as part of auth process...'
'2022-01-19 01:45:09,958 | __init__.py | function: autodetect | line: 49 : INFO - file_cache is only supported with oauth2client<4.0.0'
'2022-01-19 01:45:09,963 | _default.py | function: _get_explicit_environ_credentials | line: 206 : DEBUG - Checking argo-dschapter-dev-c9b15ee5d63f.json for explicit credentials as part of auth process...'
'2022-01-19 01:45:10,115 | discovery.py | function: method | line: 1159 : DEBUG - URL being requested: GET https://sheets.googleapis.com/v4/spreadsheets/1yWEmhDZvu_pWXl0DXkJ84ARHVSE_nIvoR7vs4V0OJDM/values/Social%20campaigns%20for%20MTA%21A1%3AH?alt=json'
'2022-01-19 01:45:10,117 | google_auth_httplib2.py | function: __call__ | line: 118 : DEBUG - Making request: POST https://oauth2.googleapis.com/token'
'2022-01-19 01:45:10,889 | retry.py | function: from_int | line: 230 : DEBUG - Converted retries value: 3 -> Retry(total=3, connect=None, read=None, redirect=None, status=None)'
'2022-01-19 01:45:10,890 | requests.py | function: __call__ | line: 182 : DEBUG - Making request: POST https://oauth2.googleapis.com/token'
'2022-01-19 01:45:10,891 | connectionpool.py | function: _new_conn | line: 939 : DEBUG - Starting new HTTPS connection (1): oauth2.googleapis.com:443'
'2022-01-19 01:45:10,939 | connectionpool.py | function: _make_request | line: 433 : DEBUG - https://oauth2.googleapis.com:443 "POST /token HTTP/1.1" 200 None'
'2022-01-19 01:45:10,941 | connectionpool.py | function: _new_conn | line: 939 : DEBUG - Starting new HTTPS connection (1): bigquery.googleapis.com:443'
'2022-01-19 01:45:11,097 | connectionpool.py | function: _make_request | line: 433 : DEBUG - https://bigquery.googleapis.com:443 "GET /bigquery/v2/projects/wx-bq-poc/datasets/wx_lty_digital_attribution_dev/tables/AL_FBAA_MC_dacamp_prod_event_mw_2022-01-10?prettyPrint=false HTTP/1.1" 404 None'
'2022-01-19 01:45:11,098 | backup_MTA_tables.py | function: backup_MTA_tables | line: 127 : INFO - 
    BQ row count check should look something like:
    0	dacamp_prod_mc_final	400
    1	dacamp_prod_online_sales	300,000
    2	dacamp_prod_mc_final_crn	6m
    3	dacamp_prod_activation	5m
    4	dacamp_prod_event_mw	28m
    5	marketable_crn	10m
    '
'2022-01-19 01:45:11,293 | connectionpool.py | function: _make_request | line: 433 : DEBUG - https://bigquery.googleapis.com:443 "POST /bigquery/v2/projects/wx-bq-poc/jobs?prettyPrint=false HTTP/1.1" 200 None'
'2022-01-19 01:45:21,267 | connectionpool.py | function: _make_request | line: 433 : DEBUG - https://bigquery.googleapis.com:443 "GET /bigquery/v2/projects/wx-bq-poc/queries/2866077c-6e4f-4ffd-9374-e3ad52a699dc?maxResults=0&location=US&prettyPrint=false HTTP/1.1" 200 None'
'2022-01-19 01:45:21,267 | retry.py | function: retry_target | line: 212 : DEBUG - Retrying due to , sleeping 0.4s ...'
'2022-01-19 01:45:31,622 | connectionpool.py | function: _make_request | line: 433 : DEBUG - https://bigquery.googleapis.com:443 "GET /bigquery/v2/projects/wx-bq-poc/queries/2866077c-6e4f-4ffd-9374-e3ad52a699dc?maxResults=0&location=US&prettyPrint=false HTTP/1.1" 200 None'
'2022-01-19 01:45:31,623 | retry.py | function: retry_target | line: 212 : DEBUG - Retrying due to , sleeping 3.8s ...'
'2022-01-19 01:45:45,355 | connectionpool.py | function: _make_request | line: 433 : DEBUG - https://bigquery.googleapis.com:443 "GET /bigquery/v2/projects/wx-bq-poc/queries/2866077c-6e4f-4ffd-9374-e3ad52a699dc?maxResults=0&location=US&prettyPrint=false HTTP/1.1" 200 None'
'2022-01-19 01:45:45,356 | retry.py | function: retry_target | line: 212 : DEBUG - Retrying due to , sleeping 6.6s ...'
'2022-01-19 01:46:01,876 | connectionpool.py | function: _make_request | line: 433 : DEBUG - https://bigquery.googleapis.com:443 "GET /bigquery/v2/projects/wx-bq-poc/queries/2866077c-6e4f-4ffd-9374-e3ad52a699dc?maxResults=0&location=US&prettyPrint=false HTTP/1.1" 200 None'
'2022-01-19 01:46:01,877 | retry.py | function: retry_target | line: 212 : DEBUG - Retrying due to , sleeping 11.0s ...'
'2022-01-19 01:46:22,759 | connectionpool.py | function: _make_request | line: 433 : DEBUG - https://bigquery.googleapis.com:443 "GET /bigquery/v2/projects/wx-bq-poc/queries/2866077c-6e4f-4ffd-9374-e3ad52a699dc?maxResults=0&location=US&prettyPrint=false HTTP/1.1" 200 None'
'2022-01-19 01:46:22,760 | retry.py | function: retry_target | line: 212 : DEBUG - Retrying due to , sleeping 30.4s ...'
'2022-01-19 01:47:02,881 | connectionpool.py | function: _make_request | line: 433 : DEBUG - https://bigquery.googleapis.com:443 "GET /bigquery/v2/projects/wx-bq-poc/queries/2866077c-6e4f-4ffd-9374-e3ad52a699dc?maxResults=0&location=US&prettyPrint=false HTTP/1.1" 200 None'
'2022-01-19 01:47:02,882 | retry.py | function: retry_target | line: 212 : DEBUG - Retrying due to , sleeping 52.3s ...'
'2022-01-19 01:48:05,120 | connectionpool.py | function: _make_request | line: 433 : DEBUG - https://bigquery.googleapis.com:443 "GET /bigquery/v2/projects/wx-bq-poc/queries/2866077c-6e4f-4ffd-9374-e3ad52a699dc?maxResults=0&location=US&prettyPrint=false HTTP/1.1" 200 None'
'2022-01-19 01:48:05,121 | retry.py | function: retry_target | line: 212 : DEBUG - Retrying due to , sleeping 60.0s ...'
'2022-01-19 01:49:15,124 | connectionpool.py | function: _make_request | line: 433 : DEBUG - https://bigquery.googleapis.com:443 "GET /bigquery/v2/projects/wx-bq-poc/queries/2866077c-6e4f-4ffd-9374-e3ad52a699dc?maxResults=0&location=US&prettyPrint=false HTTP/1.1" 200 None'
'2022-01-19 01:49:15,125 | retry.py | function: retry_target | line: 212 : DEBUG - Retrying due to , sleeping 60.0s ...'
'2022-01-19 01:50:15,460 | connectionpool.py | function: _make_request | line: 433 : DEBUG - https://bigquery.googleapis.com:443 "GET /bigquery/v2/projects/wx-bq-poc/queries/2866077c-6e4f-4ffd-9374-e3ad52a699dc?maxResults=0&location=US&prettyPrint=false HTTP/1.1" 200 None'
'2022-01-19 01:50:15,551 | connectionpool.py | function: _make_request | line: 433 : DEBUG - https://bigquery.googleapis.com:443 "GET /bigquery/v2/projects/wx-bq-poc/jobs/2866077c-6e4f-4ffd-9374-e3ad52a699dc?location=US&prettyPrint=false HTTP/1.1" 200 None'
'2022-01-19 01:50:15,942 | _pandas_helpers.py | function: _download_table_bqstorage | line: 640 : DEBUG - Started reading table 'wx-bq-poc._6917d7a279397ebb9ef4eb173f8ad02d21fee85a.anon306185171ed3eb825a54116d21ab929f0fbf1956' with BQ Storage API session 'projects/wx-bq-poc/locations/us/sessions/CAISDDh1U21iWG05eVdwRRoCcHoaAnB5'.'
'2022-01-19 01:50:17,817 | backup_MTA_tables.py | function: backup_this_week | line: 158 : INFO -                       table     count
0  dacamp_prod_online_sales    424902
1   dacamp_prod_mc_union_fb   5111070
2      dacamp_prod_mc_final       230
3    dacamp_prod_activation   2057601
4  dacamp_prod_mc_final_crn   3572596
5            marketable_crn   9867331
6      dacamp_prod_event_mw  40569230'
'2022-01-19 01:50:17,890 | email_notifications.py | function: send_email_notification | line: 42 : DEBUG - smtp login'
'2022-01-19 01:50:18,082 | email_notifications.py | function: send_email_notification | line: 44 : DEBUG - send message'
'2022-01-19 01:50:18,784 | main.py | function: <module> | line: 139 : DEBUG - creating fw run marker'
