03_run_fbaa_mc.sh: running
03_run_fbaa_mc.sh: git pull
From https://bitbucket.org/andrewolau/fbaa_mc_prod
 * branch            master     -> FETCH_HEAD
Already up to date.
03_run_fbaa_mc.sh: autorun.py
AUTORUN: checking if final MTA tables were run today...
  table_catalog  ...      creation_time_AEST
0     wx-bq-poc  ... 2021-11-04 11:56:07.167

[1 rows x 9 columns]
wx-bq-poc.digital_attribution_modelling.dacamp_prod_mc_final_crn last updated 2021-11-04 11:56:07.167000
today is 2021-11-10
created_today... results.creation_time_AEST[0] >= today = False
AUTORUN: MTA not run today, exiting...
03_run_fbaa_mc.sh: git push
[master 728177e] latest weeks results
 2 files changed, 21 insertions(+)
 create mode 100644 logs/2021_11_10_04_45_PM.log
To https://bitbucket.org/andrewolau/fbaa_mc_prod.git
   02d19ae..728177e  master -> master
