03_run_fbaa_mc.sh: running
03_run_fbaa_mc.sh: git pull
From https://bitbucket.org/andrewolau/fbaa_mc_prod
 * branch            master     -> FETCH_HEAD
Already up to date.
03_run_fbaa_mc.sh: autorun.py
AUTORUN: checking if final MTA tables were run today...
                 table_catalog  ...      creation_time_AEST
0  gcp-wow-rwds-ai-safari-prod  ... 2021-11-24 17:42:55.752

[1 rows x 9 columns]
gcp-wow-rwds-ai-safari-prod.digital_attribution_modelling.dacamp_prod_mc_final_crn last updated 2021-11-24 17:42:55.752000
today is 2021-11-24
created_today... results.creation_time_AEST[0] >= today = True
AUTORUN: MTA not run today, exiting...
03_run_fbaa_mc.sh: git push
[wdp-migration 80a6b1b] latest weeks results
 2 files changed, 20 insertions(+)
 create mode 100644 logs/2021_11_24_10_00_PM.log
Everything up-to-date
