03_run_fbaa_mc.sh: running
03_run_fbaa_mc.sh: git pull
From https://bitbucket.org/andrewolau/fbaa_mc_prod
 * branch              master     -> FETCH_HEAD
Already up to date.
03_run_fbaa_mc.sh: autorun.py
INFO:root:UPDATE_FINAL_TABLES = False
'2022-02-02 00:45:09,583 | main.py | function: <module> | line: 57 : INFO - UPDATE_FINAL_TABLES = False'
INFO:root:FB_TABLE_NUM = 2
'2022-02-02 00:45:09,584 | main.py | function: <module> | line: 58 : INFO - FB_TABLE_NUM = 2'
INFO:root:FBAA_TABLE_MAPPING = {0: 'h_crn_seg_128', 1: 'matrix_al_1', 2: 'h_crn_seg_129'}
'2022-02-02 00:45:09,584 | main.py | function: <module> | line: 59 : INFO - FBAA_TABLE_MAPPING = {0: 'h_crn_seg_128', 1: 'matrix_al_1', 2: 'h_crn_seg_129'}'
INFO:root:NEW_DEFINITION = False
'2022-02-02 00:45:09,584 | main.py | function: <module> | line: 60 : INFO - NEW_DEFINITION = False'
INFO:root:EMAIL_RECIPIENT_ALL = ('alau3@woolworths.com.au', 'wxu@woolworths.com.au')
'2022-02-02 00:45:09,584 | main.py | function: <module> | line: 61 : INFO - EMAIL_RECIPIENT_ALL = ('alau3@woolworths.com.au', 'wxu@woolworths.com.au')'
INFO:root:EMAIL_RECIPIENT = alau3@woolworths.com.au
'2022-02-02 00:45:09,584 | main.py | function: <module> | line: 62 : INFO - EMAIL_RECIPIENT = alau3@woolworths.com.au'
DEBUG:google.auth._default:Checking adc.json for explicit credentials as part of auth process...
INFO:googleapiclient.discovery_cache:file_cache is only supported with oauth2client<4.0.0
'2022-02-02 00:45:09,589 | __init__.py | function: autodetect | line: 49 : INFO - file_cache is only supported with oauth2client<4.0.0'
DEBUG:google.auth._default:Checking argo-dschapter-dev-c9b15ee5d63f.json for explicit credentials as part of auth process...
DEBUG:googleapiclient.discovery:URL being requested: GET https://sheets.googleapis.com/v4/spreadsheets/1yWEmhDZvu_pWXl0DXkJ84ARHVSE_nIvoR7vs4V0OJDM/values/Social%20campaigns%20for%20MTA%21A1%3AH?alt=json
DEBUG:google_auth_httplib2:Making request: POST https://oauth2.googleapis.com/token
DEBUG:urllib3.util.retry:Converted retries value: 3 -> Retry(total=3, connect=None, read=None, redirect=None, status=None)
DEBUG:google.auth.transport.requests:Making request: POST https://oauth2.googleapis.com/token
DEBUG:urllib3.connectionpool:Starting new HTTPS connection (1): oauth2.googleapis.com:443
DEBUG:urllib3.connectionpool:https://oauth2.googleapis.com:443 "POST /token HTTP/1.1" 200 None
DEBUG:urllib3.connectionpool:Starting new HTTPS connection (1): bigquery.googleapis.com:443
DEBUG:urllib3.connectionpool:https://bigquery.googleapis.com:443 "GET /bigquery/v2/projects/wx-bq-poc/datasets/wx_lty_digital_attribution_dev/tables/AL_FBAA_MC_dacamp_prod_event_mw_2022-01-24?prettyPrint=false HTTP/1.1" 404 None
INFO:root:
    BQ row count check should look something like:
    0	dacamp_prod_mc_final	400
    1	dacamp_prod_online_sales	300,000
    2	dacamp_prod_mc_final_crn	6m
    3	dacamp_prod_activation	5m
    4	dacamp_prod_event_mw	28m
    5	marketable_crn	10m
    
'2022-02-02 00:45:11,030 | backup_MTA_tables.py | function: backup_MTA_tables | line: 127 : INFO - 
    BQ row count check should look something like:
    0	dacamp_prod_mc_final	400
    1	dacamp_prod_online_sales	300,000
    2	dacamp_prod_mc_final_crn	6m
    3	dacamp_prod_activation	5m
    4	dacamp_prod_event_mw	28m
    5	marketable_crn	10m
    '
DEBUG:urllib3.connectionpool:https://bigquery.googleapis.com:443 "POST /bigquery/v2/projects/wx-bq-poc/jobs?prettyPrint=false HTTP/1.1" 200 None
DEBUG:urllib3.connectionpool:https://bigquery.googleapis.com:443 "GET /bigquery/v2/projects/wx-bq-poc/queries/e896b26e-92bc-4d3a-840d-28b6f96f2120?maxResults=0&location=US&prettyPrint=false HTTP/1.1" 200 None
DEBUG:google.api_core.retry:Retrying due to , sleeping 1.2s ...
DEBUG:urllib3.connectionpool:https://bigquery.googleapis.com:443 "GET /bigquery/v2/projects/wx-bq-poc/queries/e896b26e-92bc-4d3a-840d-28b6f96f2120?maxResults=0&location=US&prettyPrint=false HTTP/1.1" 200 None
DEBUG:google.api_core.retry:Retrying due to , sleeping 2.9s ...
DEBUG:urllib3.connectionpool:https://bigquery.googleapis.com:443 "GET /bigquery/v2/projects/wx-bq-poc/queries/e896b26e-92bc-4d3a-840d-28b6f96f2120?maxResults=0&location=US&prettyPrint=false HTTP/1.1" 200 None
DEBUG:google.api_core.retry:Retrying due to , sleeping 3.2s ...
DEBUG:urllib3.connectionpool:https://bigquery.googleapis.com:443 "GET /bigquery/v2/projects/wx-bq-poc/queries/e896b26e-92bc-4d3a-840d-28b6f96f2120?maxResults=0&location=US&prettyPrint=false HTTP/1.1" 200 None
DEBUG:google.api_core.retry:Retrying due to , sleeping 0.4s ...
DEBUG:urllib3.connectionpool:https://bigquery.googleapis.com:443 "GET /bigquery/v2/projects/wx-bq-poc/queries/e896b26e-92bc-4d3a-840d-28b6f96f2120?maxResults=0&location=US&prettyPrint=false HTTP/1.1" 200 None
DEBUG:google.api_core.retry:Retrying due to , sleeping 4.2s ...
DEBUG:urllib3.connectionpool:https://bigquery.googleapis.com:443 "GET /bigquery/v2/projects/wx-bq-poc/queries/e896b26e-92bc-4d3a-840d-28b6f96f2120?maxResults=0&location=US&prettyPrint=false HTTP/1.1" 200 None
DEBUG:google.api_core.retry:Retrying due to , sleeping 23.0s ...
DEBUG:urllib3.connectionpool:https://bigquery.googleapis.com:443 "GET /bigquery/v2/projects/wx-bq-poc/queries/e896b26e-92bc-4d3a-840d-28b6f96f2120?maxResults=0&location=US&prettyPrint=false HTTP/1.1" 200 None
DEBUG:google.api_core.retry:Retrying due to , sleeping 60.0s ...
DEBUG:urllib3.connectionpool:https://bigquery.googleapis.com:443 "GET /bigquery/v2/projects/wx-bq-poc/queries/e896b26e-92bc-4d3a-840d-28b6f96f2120?maxResults=0&location=US&prettyPrint=false HTTP/1.1" 200 None
DEBUG:google.api_core.retry:Retrying due to , sleeping 60.0s ...
DEBUG:urllib3.connectionpool:https://bigquery.googleapis.com:443 "GET /bigquery/v2/projects/wx-bq-poc/queries/e896b26e-92bc-4d3a-840d-28b6f96f2120?maxResults=0&location=US&prettyPrint=false HTTP/1.1" 200 None
DEBUG:urllib3.connectionpool:https://bigquery.googleapis.com:443 "GET /bigquery/v2/projects/wx-bq-poc/jobs/e896b26e-92bc-4d3a-840d-28b6f96f2120?location=US&prettyPrint=false HTTP/1.1" 200 None
DEBUG:google.cloud.bigquery._pandas_helpers:Started reading table 'wx-bq-poc._6917d7a279397ebb9ef4eb173f8ad02d21fee85a.anoncc4fcb05e55ce0d4123a59417a753dc9a1e50f2d' with BQ Storage API session 'projects/wx-bq-poc/locations/us/sessions/CAISDF9fV3Y3MS0wODZjUxoCcHoaAnB5'.
INFO:root:                      table     count
0  dacamp_prod_mc_final_crn   4528636
1   dacamp_prod_mc_union_fb   5898697
2      dacamp_prod_mc_final       309
3  dacamp_prod_online_sales    373319
4    dacamp_prod_activation   2997129
5            marketable_crn   9485609
6      dacamp_prod_event_mw  50283176
'2022-02-02 00:49:07,811 | backup_MTA_tables.py | function: backup_this_week | line: 158 : INFO -                       table     count
0  dacamp_prod_mc_final_crn   4528636
1   dacamp_prod_mc_union_fb   5898697
2      dacamp_prod_mc_final       309
3  dacamp_prod_online_sales    373319
4    dacamp_prod_activation   2997129
5            marketable_crn   9485609
6      dacamp_prod_event_mw  50283176'
DEBUG:root:smtp login
DEBUG:root:send message
DEBUG:root:creating fw run marker
AUTORUN: checking if final MTA tables were run today...
                 table_catalog  ...      creation_time_AEST
0  gcp-wow-rwds-ai-safari-prod  ... 2022-02-02 11:39:27.762

[1 rows x 9 columns]
gcp-wow-rwds-ai-safari-prod.digital_attribution_modelling.dacamp_prod_mc_final_crn last updated 2022-02-02 11:39:27.762000
today is 2022-02-02
created_today... results.creation_time_AEST[0] >= today = True
MTA run today... kicking off Social Media Attribution
Looking for attribution at path level? Try ChannelAttributionPro! Visit www.channelattribution.net for more information.
03_run_fbaa_mc.sh: git push
[master c5d866aa] latest weeks results
 4 files changed, 170 insertions(+)
 create mode 100644 logs/02-02-2022_1045.log
 create mode 100644 logs/2022_02_02_12_45_AM.log
 create mode 100644 logs/fw_run_marker/2022-01-24.txt
remote: 
remote: [38;5;226;48;5;232mYou are using an account password for Git over HTTPS.[38;5;226;48;5;232m        
remote: [38;5;226;48;5;232mBeginning March 1, 2022, users are required to use app passwords[38;5;226;48;5;232m        
remote: [38;5;226;48;5;232mfor Git over HTTPS.[38;5;226;48;5;232m        
remote: [38;5;226;48;5;232mTo avoid any disruptions, change the password used in your Git client[38;5;226;48;5;232m        
remote: [38;5;226;48;5;232mto an app password.[38;5;226;48;5;232m        
remote: [38;5;226;48;5;232mNote, these credentials may have been automatically stored in your Git client[38;5;226;48;5;232m        
remote: [38;5;226;48;5;232mand/or a credential manager such as Git Credential Manager (GCM).[38;5;226;48;5;232m        
remote: [38;5;226;48;5;232mMore details:[38;5;226;48;5;232m        
remote: [38;5;226;48;5;232mhttps://bitbucket.org/blog/deprecating-atlassian-account-password-for-bitbucket-api-and-git-activity[0m        
To https://bitbucket.org/andrewolau/fbaa_mc_prod.git
   3566b2f6..c5d866aa  master -> master
