03_run_fbaa_mc.sh: running
03_run_fbaa_mc.sh: git pull
From https://bitbucket.org/andrewolau/fbaa_mc_prod
 * branch              master     -> FETCH_HEAD
Already up to date.
03_run_fbaa_mc.sh: autorun.py
AUTORUN: checking if final MTA tables were run today...
                 table_catalog  ...      creation_time_AEST
0  gcp-wow-rwds-ai-safari-prod  ... 2022-04-28 09:21:12.216

[1 rows x 14 columns]
gcp-wow-rwds-ai-safari-prod.digital_attribution_modelling.dacamp_prod_mc_final_crn last updated 2022-04-28 09:21:12.216000
today is 2022-04-28
created_today... results.creation_time_AEST[0] >= today = True
AUTORUN: MTA not run today, exiting...
03_run_fbaa_mc.sh: git push
[master 9f21332f] latest weeks results
 2 files changed, 25 insertions(+)
 create mode 100644 logs/2022_04_28_10_15_AM.log
remote: WARNING Repository size in Bitbucket is currently 2.5 GB        
remote: Above the 4 GB size limit further commits are rejected        
remote: Reduce repository size by removing large files from history        
remote: HINT Learn how to reduce repository size: https://confluence.atlassian.com/x/xgMvEw
To https://bitbucket.org/andrewolau/fbaa_mc_prod.git
   779d6021..9f21332f  master -> master
