03_run_fbaa_mc.sh: running
03_run_fbaa_mc.sh: git pull
From https://bitbucket.org/andrewolau/fbaa_mc_prod
 * branch              master     -> FETCH_HEAD
Already up to date.
03_run_fbaa_mc.sh: autorun.py
AUTORUN: checking if final MTA tables were run today...
                 table_catalog  ...      creation_time_AEST
0  gcp-wow-rwds-ai-safari-prod  ... 2022-02-16 16:00:59.266

[1 rows x 9 columns]
gcp-wow-rwds-ai-safari-prod.digital_attribution_modelling.dacamp_prod_mc_final_crn last updated 2022-02-16 16:00:59.266000
today is 2022-02-18
created_today... results.creation_time_AEST[0] >= today = False
AUTORUN: MTA not run today, exiting...
03_run_fbaa_mc.sh: git push
[master b2c13268] latest weeks results
 2 files changed, 34 insertions(+)
 create mode 100644 logs/2022_02_18_11_00_AM.log
remote: WARNING Repository size in Bitbucket is currently 2.1 GB        
remote: Above the 4 GB size limit further commits are rejected        
remote: Reduce repository size by removing large files from history        
remote: HINT Learn how to reduce repository size: https://confluence.atlassian.com/x/xgMvEw        
remote: [38;5;226;48;5;232mYou are using an account password for Git over HTTPS.[38;5;226;48;5;232m        
remote: [38;5;226;48;5;232mBeginning March 1, 2022, users are required to use app passwords[38;5;226;48;5;232m        
remote: [38;5;226;48;5;232mfor Git over HTTPS.[38;5;226;48;5;232m        
remote: [38;5;226;48;5;232mTo avoid any disruptions, change the password used in your Git client[38;5;226;48;5;232m        
remote: [38;5;226;48;5;232mto an app password.[38;5;226;48;5;232m        
remote: [38;5;226;48;5;232mNote, these credentials may have been automatically stored in your Git client[38;5;226;48;5;232m        
remote: [38;5;226;48;5;232mand/or a credential manager such as Git Credential Manager (GCM).[38;5;226;48;5;232m        
remote: [38;5;226;48;5;232mMore details:[38;5;226;48;5;232m        
remote: [38;5;226;48;5;232mhttps://bitbucket.org/blog/deprecating-atlassian-account-password-for-bitbucket-api-and-git-activity[0m        
To https://bitbucket.org/andrewolau/fbaa_mc_prod.git
   392584d1..b2c13268  master -> master
