'2022-02-23 02:48:20,559 | main.py | function: <module> | line: 57 : INFO - UPDATE_FINAL_TABLES = True'
'2022-02-23 02:48:20,559 | main.py | function: <module> | line: 58 : INFO - FB_TABLE_NUM = 2'
'2022-02-23 02:48:20,560 | main.py | function: <module> | line: 59 : INFO - FBAA_TABLE_MAPPING = {0: 'h_crn_seg_128', 1: 'matrix_al_1', 2: 'h_crn_seg_129'}'
'2022-02-23 02:48:20,560 | main.py | function: <module> | line: 60 : INFO - NEW_DEFINITION = False'
'2022-02-23 02:48:20,560 | main.py | function: <module> | line: 61 : INFO - EMAIL_RECIPIENT_ALL = ('alau3@woolworths.com.au', 'wxu@woolworths.com.au')'
'2022-02-23 02:48:20,560 | main.py | function: <module> | line: 62 : INFO - EMAIL_RECIPIENT = alau3@woolworths.com.au'
'2022-02-23 02:48:20,562 | _default.py | function: _get_explicit_environ_credentials | line: 206 : DEBUG - Checking adc.json for explicit credentials as part of auth process...'
'2022-02-23 02:48:20,566 | __init__.py | function: autodetect | line: 49 : INFO - file_cache is only supported with oauth2client<4.0.0'
'2022-02-23 02:48:20,571 | _default.py | function: _get_explicit_environ_credentials | line: 206 : DEBUG - Checking argo-dschapter-dev-c9b15ee5d63f.json for explicit credentials as part of auth process...'
'2022-02-23 02:48:20,730 | discovery.py | function: method | line: 1159 : DEBUG - URL being requested: GET https://sheets.googleapis.com/v4/spreadsheets/1yWEmhDZvu_pWXl0DXkJ84ARHVSE_nIvoR7vs4V0OJDM/values/Social%20campaigns%20for%20MTA%21A1%3AH?alt=json'
'2022-02-23 02:48:20,732 | google_auth_httplib2.py | function: __call__ | line: 118 : DEBUG - Making request: POST https://oauth2.googleapis.com/token'
'2022-02-23 02:48:21,612 | opentelemetry_tracing.py | function: create_span | line: 66 : DEBUG - This service is instrumented using OpenTelemetry. OpenTelemetry could not be imported; please add opentelemetry-api and opentelemetry-instrumentation packages in order to get BigQuery Tracing data.'
'2022-02-23 02:48:21,613 | retry.py | function: from_int | line: 230 : DEBUG - Converted retries value: 3 -> Retry(total=3, connect=None, read=None, redirect=None, status=None)'
'2022-02-23 02:48:21,613 | requests.py | function: __call__ | line: 182 : DEBUG - Making request: POST https://oauth2.googleapis.com/token'
'2022-02-23 02:48:21,615 | connectionpool.py | function: _new_conn | line: 939 : DEBUG - Starting new HTTPS connection (1): oauth2.googleapis.com:443'
'2022-02-23 02:48:21,666 | connectionpool.py | function: _make_request | line: 433 : DEBUG - https://oauth2.googleapis.com:443 "POST /token HTTP/1.1" 200 None'
'2022-02-23 02:48:21,668 | connectionpool.py | function: _new_conn | line: 939 : DEBUG - Starting new HTTPS connection (1): bigquery.googleapis.com:443'
'2022-02-23 02:48:22,233 | connectionpool.py | function: _make_request | line: 433 : DEBUG - https://bigquery.googleapis.com:443 "POST /bigquery/v2/projects/wx-bq-poc/jobs?prettyPrint=false HTTP/1.1" 200 None'
'2022-02-23 02:48:22,457 | connectionpool.py | function: _make_request | line: 433 : DEBUG - https://bigquery.googleapis.com:443 "GET /bigquery/v2/projects/wx-bq-poc/queries/cb437d40-cb2d-4db5-9b86-16f790fd1d0e?maxResults=0&location=US&prettyPrint=false HTTP/1.1" 200 None'
'2022-02-23 02:48:22,905 | _pandas_helpers.py | function: _download_table_bqstorage | line: 640 : DEBUG - Started reading table 'wx-bq-poc._6917d7a279397ebb9ef4eb173f8ad02d21fee85a.anond16babac7baabab5ad6c357f8dceff5384fa67d5' with BQ Storage API session 'projects/wx-bq-poc/locations/us/sessions/CAISDHowQlpnTGN5SGxnchoCcHoaAnB5'.'
'2022-02-23 02:48:24,703 | connectionpool.py | function: _make_request | line: 433 : DEBUG - https://bigquery.googleapis.com:443 "GET /bigquery/v2/projects/wx-bq-poc/datasets/wx_lty_digital_attribution_dev/tables/AL_FBAA_MC_dacamp_prod_event_mw_2022-02-14?prettyPrint=false HTTP/1.1" 200 None'
'2022-02-23 02:48:24,704 | backup_MTA_tables.py | function: check_if_BQ_table_exists | line: 37 : WARNING - Table wx-bq-poc.wx_lty_digital_attribution_dev.AL_FBAA_MC_dacamp_prod_event_mw_2022-02-14 already exists.'
'2022-02-23 02:48:24,704 | backup_MTA_tables.py | function: backup_MTA_tables | line: 56 : WARNING - Tables were already backed up for 2022-02-14'
'2022-02-23 02:48:24,704 | backup_MTA_tables.py | function: backup_MTA_tables | line: 60 : INFO - Exiting, no action taken.'
'2022-02-23 02:48:24,771 | email_notifications.py | function: send_email_notification | line: 42 : DEBUG - smtp login'
'2022-02-23 02:48:25,049 | email_notifications.py | function: send_email_notification | line: 44 : DEBUG - send message'
'2022-02-23 02:48:26,195 | main.py | function: <module> | line: 139 : DEBUG - creating fw run marker'
'2022-02-23 02:48:26,196 | main.py | function: <module> | line: 152 : INFO - starting FBAA_MC.run_MTA_FB_w_email for CVM-3509, {'campaign_ID': '23848975278470307,23848975270820307,23848975265370307,23848975242000307,23848975236320307,23848975212490307,23848975163970307,23848974633740307', 'TTL_flag': False, 'division': 'supers', 'order': 3}'
'2022-02-23 02:48:26,196 | FBAA_MC.py | function: run_MTA_FB_w_email | line: 194 : INFO - campaign code is CVM-3509 fw is 2022-02-14'
'2022-02-23 02:48:26,196 | FBAA_MC.py | function: run_mta_FB | line: 32 : INFO - check https://business.facebook.com/adsmanager for latest fb_campaign_id'
'2022-02-23 02:48:26,196 | FBAA_MC.py | function: run_mta_FB | line: 65 : INFO - using SQL conversion fileconversion_qty_BTL.sql'
'2022-02-23 02:48:26,196 | FBAA_MC.py | function: run_mta_FB | line: 66 : INFO - using SQL event filecampaign_events_shanglin.sql'
'2022-02-23 02:48:26,196 | FBAA_MC.py | function: run_mta_FB | line: 70 : INFO - using FBAA table h_crn_seg_129'
'2022-02-23 02:48:26,196 | FBAA_MC.py | function: run_mta_FB | line: 89 : INFO - >>> Step 1: running MTA pipeline'
'2022-02-23 02:48:26,203 | FBAA_MC.py | function: run_mta_FB | line: 125 : INFO - fbm.run_pipeline():'
'2022-02-23 02:48:26,204 | utils_db.py | function: init_folder | line: 22 : INFO - 2 ".gz" files removed from /home/alau3/fbaa_mc_prod/MTA_AL/lib/python3.9/site-packages/fbaa/data/to_fbaa'
'2022-02-23 02:48:26,213 | retry.py | function: from_int | line: 230 : DEBUG - Converted retries value: 3 -> Retry(total=3, connect=None, read=None, redirect=None, status=None)'
'2022-02-23 02:48:26,215 | requests.py | function: __call__ | line: 182 : DEBUG - Making request: POST https://oauth2.googleapis.com/token'
'2022-02-23 02:48:26,216 | connectionpool.py | function: _new_conn | line: 939 : DEBUG - Starting new HTTPS connection (1): oauth2.googleapis.com:443'
'2022-02-23 02:48:26,235 | connectionpool.py | function: _make_request | line: 433 : DEBUG - https://oauth2.googleapis.com:443 "POST /token HTTP/1.1" 200 None'
'2022-02-23 02:48:26,237 | connectionpool.py | function: _new_conn | line: 939 : DEBUG - Starting new HTTPS connection (1): bigquery.googleapis.com:443'
'2022-02-23 02:48:26,498 | connectionpool.py | function: _make_request | line: 433 : DEBUG - https://bigquery.googleapis.com:443 "POST /bigquery/v2/projects/wx-bq-poc/jobs?prettyPrint=false HTTP/1.1" 200 None'
'2022-02-23 02:48:36,400 | connectionpool.py | function: _make_request | line: 433 : DEBUG - https://bigquery.googleapis.com:443 "GET /bigquery/v2/projects/wx-bq-poc/queries/13a391fd-20a9-4f76-821b-632b92c2012d?maxResults=0&location=US&prettyPrint=false HTTP/1.1" 200 None'
'2022-02-23 02:48:36,401 | retry.py | function: retry_target | line: 212 : DEBUG - Retrying due to , sleeping 0.5s ...'
'2022-02-23 02:48:42,541 | connectionpool.py | function: _make_request | line: 433 : DEBUG - https://bigquery.googleapis.com:443 "GET /bigquery/v2/projects/wx-bq-poc/queries/13a391fd-20a9-4f76-821b-632b92c2012d?maxResults=0&location=US&prettyPrint=false HTTP/1.1" 200 None'
'2022-02-23 02:48:42,623 | connectionpool.py | function: _make_request | line: 433 : DEBUG - https://bigquery.googleapis.com:443 "GET /bigquery/v2/projects/wx-bq-poc/jobs/13a391fd-20a9-4f76-821b-632b92c2012d?location=US&prettyPrint=false HTTP/1.1" 200 None'
'2022-02-23 02:48:43,332 | _pandas_helpers.py | function: _download_table_bqstorage | line: 640 : DEBUG - Started reading table 'wx-bq-poc._5af36a7e7f619b4d03f3ebde03887e27eb1072e8.anond60171662eb21d8caa711429263b16f75a61450c' with BQ Storage API session 'projects/wx-bq-poc/locations/us/sessions/CAISDG9DdHhXa08xS2VRShoCcHoaAnB5'.'
'2022-02-23 02:48:44,830 | utils_db.py | function: init_folder | line: 22 : INFO - 0 ".gz" files removed from /home/alau3/fbaa_mc_prod/MTA_AL/lib/python3.9/site-packages/fbaa/data/to_fbaa'
'2022-02-23 02:48:44,831 | retry.py | function: from_int | line: 230 : DEBUG - Converted retries value: 3 -> Retry(total=3, connect=None, read=None, redirect=None, status=None)'
'2022-02-23 02:48:44,832 | requests.py | function: __call__ | line: 182 : DEBUG - Making request: POST https://oauth2.googleapis.com/token'
'2022-02-23 02:48:44,833 | connectionpool.py | function: _new_conn | line: 939 : DEBUG - Starting new HTTPS connection (1): oauth2.googleapis.com:443'
'2022-02-23 02:48:44,852 | connectionpool.py | function: _make_request | line: 433 : DEBUG - https://oauth2.googleapis.com:443 "POST /token HTTP/1.1" 200 None'
'2022-02-23 02:48:44,854 | connectionpool.py | function: _new_conn | line: 939 : DEBUG - Starting new HTTPS connection (1): bigquery.googleapis.com:443'
'2022-02-23 02:48:45,216 | connectionpool.py | function: _make_request | line: 433 : DEBUG - https://bigquery.googleapis.com:443 "POST /bigquery/v2/projects/gcp-wow-rwds-ai-mlt-evs-dev/jobs?prettyPrint=false HTTP/1.1" 200 None'
'2022-02-23 02:48:45,466 | connectionpool.py | function: _make_request | line: 433 : DEBUG - https://bigquery.googleapis.com:443 "GET /bigquery/v2/projects/gcp-wow-rwds-ai-mlt-evs-dev/queries/6c5da953-8090-47d1-ad07-d6a3f84f0175?maxResults=0&location=US&prettyPrint=false HTTP/1.1" 200 None'
'2022-02-23 02:48:45,571 | connectionpool.py | function: _make_request | line: 433 : DEBUG - https://bigquery.googleapis.com:443 "GET /bigquery/v2/projects/gcp-wow-rwds-ai-mlt-evs-dev/jobs/6c5da953-8090-47d1-ad07-d6a3f84f0175?location=US&prettyPrint=false HTTP/1.1" 200 None'
'2022-02-23 02:48:47,399 | _pandas_helpers.py | function: _download_table_bqstorage | line: 640 : DEBUG - Started reading table 'gcp-wow-rwds-ai-mlt-evs-dev._c0973b280129d7a3dfabc9f540b7f275656dca82.anona11f49341951ca2f0ac3a47435c3ed4796538549' with BQ Storage API session 'projects/gcp-wow-rwds-ai-mlt-evs-dev/locations/us/sessions/CAISDGhfa3hZeHByeE1taBoCcHoaAnB5'.'
'2022-02-23 02:48:57,529 | utils_db.py | function: init_folder | line: 22 : INFO - 0 ".gz" files removed from /home/alau3/fbaa_mc_prod/MTA_AL/lib/python3.9/site-packages/fbaa/data/to_fbaa'
'2022-02-23 02:49:04,999 | api_wrapper.py | function: splitFile | line: 231 : INFO - Writing: /home/alau3/fbaa_mc_prod/MTA_AL/lib/python3.9/site-packages/fbaa/data/to_fbaa/1_export_to_aa_0'
'2022-02-23 02:49:05,399 | api_wrapper.py | function: splitFile | line: 238 : INFO - Compressing First...'
'2022-02-23 02:49:09,000 | api_wrapper.py | function: splitFile | line: 246 : INFO - Compressing Last...'
'2022-02-23 02:49:11,413 | connectionpool.py | function: _new_conn | line: 939 : DEBUG - Starting new HTTPS connection (1): graph.facebook.com:443'
'2022-02-23 02:49:11,782 | connectionpool.py | function: _make_request | line: 433 : DEBUG - https://graph.facebook.com:443 "POST /v5.0/905253956232223/aa_uploaded_data HTTP/1.1" 400 258'
'2022-02-23 02:49:11,783 | api_wrapper.py | function: processResponse | line: 186 : INFO - Status not OK: Error validating access token: Session has expired on Thursday, 10-Feb-22 15:21:16 PST. The current time is Tuesday, 22-Feb-22 18:49:11 PST.'
'2022-02-23 02:49:11,784 | FBAA_MC.py | function: run_MTA_FB_w_email | line: 200 : ERROR - <class 'requests.exceptions.HTTPError'>'
'2022-02-23 02:49:11,784 | FBAA_MC.py | function: run_MTA_FB_w_email | line: 201 : ERROR - 400 Client Error: Bad Request for url: https://graph.facebook.com/v5.0/905253956232223/aa_uploaded_data'
'2022-02-23 02:49:11,784 | FBAA_MC.py | function: run_MTA_FB_w_email | line: 202 : ERROR - ('400 Client Error: Bad Request for url: https://graph.facebook.com/v5.0/905253956232223/aa_uploaded_data',)'
'2022-02-23 02:49:16,876 | email_notifications.py | function: send_email_notification | line: 42 : DEBUG - smtp login'
'2022-02-23 02:49:17,095 | email_notifications.py | function: send_email_notification | line: 44 : DEBUG - send message'
'2022-02-23 02:49:17,950 | main.py | function: <module> | line: 175 : INFO - finished FBAA_MC.run_MTA_FB_w_email for CVM-3509, {'campaign_ID': '23848975278470307,23848975270820307,23848975265370307,23848975242000307,23848975236320307,23848975212490307,23848975163970307,23848974633740307', 'TTL_flag': False, 'division': 'supers', 'order': 3}'
'2022-02-23 02:49:17,950 | main.py | function: <module> | line: 179 : WARNING - FBAA MC part failed, moving to next campaign code'
