,channel_name,total_conversions,total_conversion_value,normalised_conversion_value
0,FB_Impression_MobileFeed,20560.076923076922,3119752.0019968967,0.1361821592212133
1,FB_Impression_WebFeed,2553.471586971587,368746.711422199,0.01609638308912179
2,CAT-5206_rw_app_imp_2021-11-03_2021-11-07,27797.118156618155,4194354.226688539,0.18309026318869423
3,CAT-5206_email_clk_2021-11-03_2021-11-07,25905.167706167704,4139115.774656099,0.18067901650466292
4,FB_Impression_FacebookStory,873.2079002079003,137787.3184793602,0.006014636590283346
5,_AlwaysOn_wow_web_view_2021-11-03_2021-11-07,396.91268191268193,72370.68918193807,0.0031590962072675136
6,FB_Click_MobileFeed,1005.5121275121276,154931.18452625425,0.006762993733470011
7,_AlwaysOn_sem_shopping_clk_2021-11-03_2021-11-07,39.69126819126819,8091.294272826298,0.0003531979222266457
8,FB_Impression_InstagramStory,952.5904365904366,145218.83765123703,0.00633903427525069
9,CAT-5206_rw_app_push_imp_2021-11-03_2021-11-07,5212.786555786555,778297.3979878129,0.033973924884538875
10,CAT-5206_email_open_2021-11-03_2021-11-07,50500.52356202356,7216026.377469121,0.31499108020508365
11,FB_Impression_Instagram,886.4383229383229,139742.3854044344,0.006099978385114526
12,CAT-5206_rw_app_push_clk_2021-11-03_2021-11-07,4048.509355509356,614341.5378619044,0.026816989642690876
13,CAT-5206_rw_app_clk_2021-11-03_2021-11-07,11629.54158004158,1752224.8877047328,0.07648741582537363
14,_AlwaysOn_wow_web_clk_2021-11-03_2021-11-07,357.22141372141374,65530.62021384205,0.0028605162686374244
15,_AlwaysOn_sem_brand_clk_2021-11-03_2021-11-07,0.0,0.0,0.0
16,CAT-5206_rw_web_oap_clk_2021-11-03_2021-11-07,13.230422730422731,2137.700825426703,9.331405637026271e-05
