,path,total_conversion_value,conversions,non_conversions,cnt,ppl,Converted
0,OSP-2373_rw_app_imp_2021-09-08_2021-09-12 > OSP-2373_rw_app_imp_2021-09-01_2021-09-07 > OSP-2373_email_open_2021-09-01_2021-09-07,26637.053567477,770.0,566.0,3082,3082,False
1,_AlwaysOn_sem_shopping_clk_2021-09-08_2021-09-12 > _AlwaysOn_sem_shopping_clk_2021-09-01_2021-09-07,320.92543278844,2.0,2.0,127,127,False
2,_AlwaysOn_wow_web_view_2021-09-08_2021-09-12 > _AlwaysOn_wow_web_clk_2021-09-08_2021-09-12 > OSP-2373_email_open_2021-09-01_2021-09-07,1770.9033088272,21.0,13.0,184,184,False
3,_AlwaysOn_wow_web_view_2021-09-01_2021-09-07 > _AlwaysOn_wow_web_view_2021-09-01_2021-09-07 > _AlwaysOn_wow_web_clk_2021-09-01_2021-09-07,1608.5876565967,11.0,4.0,271,271,False
4,_AlwaysOn_wow_web_view_2021-09-01_2021-09-07 > OSP-2373_email_open_2021-09-01_2021-09-07 > OSP-2373_email_clk_2021-09-01_2021-09-07,19339.57087961,191.0,70.0,1038,1038,False
5,OSP-2373_rw_app_imp_2021-09-08_2021-09-12 > OSP-2373_email_open_2021-09-08_2021-09-12 > OSP-2373_email_clk_2021-09-08_2021-09-12,9738.7318441008,218.0,135.0,842,842,False
6,OSP-2373_email_open_2021-09-01_2021-09-07,367229.01421109,8387.0,7076.0,217000,217000,False
7,OSP-2373_rw_app_imp_2021-09-08_2021-09-12 > OSP-2373_rw_app_imp_2021-09-01_2021-09-07 > OSP-2373_rw_app_clk_2021-09-08_2021-09-12,80217.443310111,1651.0,1082.0,3865,3865,False
8,OSP-2373_rw_app_imp_2021-09-08_2021-09-12 > OSP-2373_rw_app_imp_2021-09-01_2021-09-07 > OSP-2373_email_open_2021-09-08_2021-09-12 > OSP-2373_email_open_2021-09-01_2021-09-07 > OSP-2373_email_clk_2021-09-01_2021-09-07,1633.6502088595,40.0,35.0,110,110,False
9,_AlwaysOn_sem_shopping_clk_2021-09-08_2021-09-12 > OSP-2373_email_open_2021-09-01_2021-09-07,562.07744678455,13.0,6.0,147,147,False
10,OSP-2373_rw_app_imp_2021-09-08_2021-09-12,860027.58682201,17547.0,12972.0,176893,176893,False
11,_AlwaysOn_wow_web_view_2021-09-08_2021-09-12 > _AlwaysOn_wow_web_clk_2021-09-08_2021-09-12 > OSP-2373_email_open_2021-09-01_2021-09-07 > OSP-2373_email_clk_2021-09-01_2021-09-07,5433.9864422324,54.0,26.0,107,107,False
12,OSP-2373_rw_app_imp_2021-09-08_2021-09-12 > OSP-2373_rw_app_imp_2021-09-01_2021-09-07 > OSP-2373_email_open_2021-09-01_2021-09-07 > OSP-2373_email_clk_2021-09-01_2021-09-07,20668.118985015,451.0,326.0,1246,1246,False
13,OSP-2373_rw_app_clk_2021-09-01_2021-09-07 > OSP-2373_email_open_2021-09-01_2021-09-07,695.97855833652,30.0,28.0,166,166,False
14,OSP-2373_rw_app_imp_2021-09-01_2021-09-07 > OSP-2373_email_open_2021-09-01_2021-09-07,50896.591693022,1296.0,943.0,5507,5507,False
15,OSP-2373_rw_app_imp_2021-09-01_2021-09-07 > OSP-2373_rw_app_clk_2021-09-01_2021-09-07,79465.873593046,1085.0,589.0,3705,3705,False
16,OSP-2373_rw_app_clk_2021-09-08_2021-09-12 > OSP-2373_email_open_2021-09-08_2021-09-12,10096.988530943,199.0,122.0,578,578,False
17,OSP-2373_rw_app_imp_2021-09-01_2021-09-07 > OSP-2373_rw_app_imp_2021-09-01_2021-09-07 > OSP-2373_email_open_2021-09-01_2021-09-07,1181.3827358168,46.0,42.0,104,104,False
18,OSP-2373_rw_app_imp_2021-09-08_2021-09-12 > OSP-2373_rw_app_clk_2021-09-08_2021-09-12 > OSP-2373_email_open_2021-09-01_2021-09-07 > OSP-2373_email_clk_2021-09-01_2021-09-07,1273.6978182096,130.0,71.0,248,248,False
19,OSP-2373_rw_app_imp_2021-09-01_2021-09-07 > OSP-2373_email_open_2021-09-08_2021-09-12 > OSP-2373_email_open_2021-09-01_2021-09-07,3167.628577523,113.0,77.0,445,445,False
20,_AlwaysOn_sem_shopping_clk_2021-09-01_2021-09-07,4364.6915002104,49.0,12.0,5854,5854,False
21,OSP-2373_rw_app_imp_2021-09-01_2021-09-07 > OSP-2373_rw_app_clk_2021-09-08_2021-09-12 > OSP-2373_email_open_2021-09-01_2021-09-07 > OSP-2373_email_clk_2021-09-01_2021-09-07,6187.8457190462,201.0,134.0,293,293,False
22,_AlwaysOn_wow_web_view_2021-09-01_2021-09-07 > OSP-2373_rw_app_imp_2021-09-08_2021-09-12 > OSP-2373_rw_app_clk_2021-09-08_2021-09-12,2436.2295841232,22.0,8.0,108,108,False
23,OSP-2373_rw_app_imp_2021-09-08_2021-09-12 > OSP-2373_rw_app_imp_2021-09-01_2021-09-07 > OSP-2373_rw_app_clk_2021-09-08_2021-09-12 > OSP-2373_rw_app_clk_2021-09-01_2021-09-07,14373.662548533,266.0,171.0,482,482,False
24,OSP-2373_email_clk_2021-09-08_2021-09-12,185595.74313426,3651.0,2771.0,16077,16077,False
25,_AlwaysOn_sem_brand_clk_2021-09-08_2021-09-12,-428.47924495783,14.0,16.0,316,316,False
26,_AlwaysOn_wow_web_view_2021-09-01_2021-09-07 > OSP-2373_rw_app_imp_2021-09-01_2021-09-07,6627.8588174379,36.0,9.0,428,428,False
27,OSP-2373_rw_app_imp_2021-09-08_2021-09-12 > OSP-2373_rw_app_imp_2021-09-01_2021-09-07 > OSP-2373_rw_app_clk_2021-09-01_2021-09-07 > OSP-2373_email_open_2021-09-01_2021-09-07,3204.2074550859,62.0,30.0,137,137,False
28,_AlwaysOn_wow_web_view_2021-09-01_2021-09-07 > OSP-2373_email_open_2021-09-01_2021-09-07,6993.0906747675,69.0,20.0,1946,1946,False
29,OSP-2373_rw_app_clk_2021-09-01_2021-09-07 > OSP-2373_email_open_2021-09-01_2021-09-07 > OSP-2373_email_clk_2021-09-01_2021-09-07,4120.8888160512,48.0,26.0,131,131,False
30,OSP-2373_email_open_2021-09-08_2021-09-12 > OSP-2373_email_open_2021-09-01_2021-09-07,30474.668522961,746.0,635.0,10265,10265,False
31,_AlwaysOn_wow_web_clk_2021-09-08_2021-09-12 > OSP-2373_email_open_2021-09-01_2021-09-07 > OSP-2373_email_clk_2021-09-01_2021-09-07,8758.106361198,118.0,79.0,271,271,False
32,_AlwaysOn_wow_web_view_2021-09-01_2021-09-07 > _AlwaysOn_wow_web_clk_2021-09-01_2021-09-07 > OSP-2373_rw_app_imp_2021-09-01_2021-09-07,2667.2248748197,14.0,2.0,139,139,False
33,_AlwaysOn_wow_web_clk_2021-09-01_2021-09-07,16747.079973523,103.0,24.0,4251,4251,False
34,OSP-2373_rw_app_imp_2021-09-08_2021-09-12 > OSP-2373_rw_app_imp_2021-09-01_2021-09-07 > OSP-2373_email_open_2021-09-08_2021-09-12 > OSP-2373_email_open_2021-09-01_2021-09-07,2720.0181439252,77.0,36.0,232,232,False
36,OSP-2373_rw_app_imp_2021-09-01_2021-09-07,599560.5115986,10049.0,6372.0,69038,69038,False
37,OSP-2373_rw_app_imp_2021-09-08_2021-09-12 > OSP-2373_rw_app_imp_2021-09-01_2021-09-07 > OSP-2373_rw_app_clk_2021-09-08_2021-09-12 > OSP-2373_email_open_2021-09-08_2021-09-12,380.98581074971,69.0,43.0,145,145,False
38,_AlwaysOn_wow_web_view_2021-09-08_2021-09-12 > _AlwaysOn_wow_web_view_2021-09-01_2021-09-07 > OSP-2373_email_open_2021-09-01_2021-09-07,1462.7647002295,9.0,4.0,155,155,False
39,_AlwaysOn_wow_web_clk_2021-09-08_2021-09-12 > OSP-2373_email_open_2021-09-08_2021-09-12,1011.7407948745,22.0,19.0,101,101,False
40,OSP-2373_rw_app_imp_2021-09-08_2021-09-12 > OSP-2373_rw_app_clk_2021-09-08_2021-09-12,162393.020768,2889.0,1890.0,11782,11782,False
41,_AlwaysOn_wow_web_view_2021-09-08_2021-09-12 > _AlwaysOn_wow_web_view_2021-09-01_2021-09-07 > OSP-2373_email_open_2021-09-01_2021-09-07 > OSP-2373_email_clk_2021-09-01_2021-09-07,2019.5293720038,27.0,9.0,112,112,False
42,OSP-2373_rw_app_clk_2021-09-08_2021-09-12 > OSP-2373_email_open_2021-09-08_2021-09-12 > OSP-2373_email_clk_2021-09-08_2021-09-12,2218.7541553409,66.0,45.0,196,196,False
43,OSP-2373_rw_app_clk_2021-09-08_2021-09-12,153911.36235546,3525.0,2492.0,11416,11416,False
44,_AlwaysOn_wow_web_clk_2021-09-01_2021-09-07 > OSP-2373_rw_app_imp_2021-09-08_2021-09-12 > OSP-2373_rw_app_imp_2021-09-01_2021-09-07,2012.3666405447,19.0,5.0,129,129,False
45,_AlwaysOn_wow_web_view_2021-09-08_2021-09-12 > _AlwaysOn_wow_web_view_2021-09-01_2021-09-07 > _AlwaysOn_wow_web_clk_2021-09-01_2021-09-07,2709.0736199745,23.0,7.0,406,406,False
46,_AlwaysOn_wow_web_view_2021-09-01_2021-09-07 > OSP-2373_email_open_2021-09-08_2021-09-12 > OSP-2373_email_clk_2021-09-08_2021-09-12,3982.4728342229,33.0,9.0,158,158,False
47,_AlwaysOn_wow_web_view_2021-09-01_2021-09-07 > OSP-2373_rw_app_imp_2021-09-08_2021-09-12 > OSP-2373_rw_app_imp_2021-09-01_2021-09-07,6274.1918241656,59.0,11.0,391,391,False
48,_AlwaysOn_wow_web_view_2021-09-01_2021-09-07 > _AlwaysOn_wow_web_clk_2021-09-01_2021-09-07 > OSP-2373_email_open_2021-09-08_2021-09-12,669.37283356038,10.0,5.0,132,132,False
49,_AlwaysOn_wow_web_view_2021-09-08_2021-09-12 > OSP-2373_email_open_2021-09-08_2021-09-12,776.01561244462,51.0,45.0,313,313,False
50,OSP-2373_email_open_2021-09-08_2021-09-12 > OSP-2373_email_open_2021-09-01_2021-09-07 > OSP-2373_email_clk_2021-09-01_2021-09-07,46492.507241686,1269.0,916.0,5263,5263,False
51,_AlwaysOn_wow_web_view_2021-09-08_2021-09-12 > _AlwaysOn_wow_web_view_2021-09-01_2021-09-07 > _AlwaysOn_wow_web_clk_2021-09-08_2021-09-12 > _AlwaysOn_wow_web_clk_2021-09-01_2021-09-07,467.36470128184,6.0,4.0,203,203,False
52,_AlwaysOn_wow_web_clk_2021-09-01_2021-09-07 > OSP-2373_email_open_2021-09-08_2021-09-12,922.35600585057,6.0,3.0,101,101,False
53,_AlwaysOn_wow_web_view_2021-09-01_2021-09-07,69237.351533639,558.0,179.0,49523,49523,False
54,_AlwaysOn_wow_web_view_2021-09-01_2021-09-07 > _AlwaysOn_sem_shopping_clk_2021-09-01_2021-09-07,194.2740892062,6.0,4.0,326,326,False
55,OSP-2373_rw_app_imp_2021-09-08_2021-09-12 > OSP-2373_rw_app_imp_2021-09-01_2021-09-07 > OSP-2373_rw_app_clk_2021-09-08_2021-09-12 > OSP-2373_email_open_2021-09-01_2021-09-07,6933.9265878505,216.0,166.0,436,436,False
56,_AlwaysOn_wow_web_clk_2021-09-01_2021-09-07 > OSP-2373_rw_app_imp_2021-09-01_2021-09-07,923.73897332257,10.0,1.0,113,113,False
57,_AlwaysOn_wow_web_view_2021-09-08_2021-09-12 > OSP-2373_email_open_2021-09-01_2021-09-07,3669.4768479551,81.0,69.0,870,870,False
58,_AlwaysOn_sem_shopping_clk_2021-09-01_2021-09-07 > OSP-2373_email_open_2021-09-01_2021-09-07,1377.5993437539,8.0,1.0,252,252,False
59,OSP-2373_email_open_2021-09-01_2021-09-07 > OSP-2373_email_open_2021-09-01_2021-09-07 > OSP-2373_email_clk_2021-09-01_2021-09-07,5465.3314996462,123.0,101.0,227,227,False
60,OSP-2373_email_open_2021-09-01_2021-09-07 > OSP-2373_email_clk_2021-09-08_2021-09-12,16197.701138469,346.0,258.0,1623,1623,False
61,_AlwaysOn_wow_web_view_2021-09-08_2021-09-12 > _AlwaysOn_sem_shopping_clk_2021-09-08_2021-09-12,953.74089122261,8.0,3.0,134,134,False
62,OSP-2373_rw_app_imp_2021-09-08_2021-09-12 > OSP-2373_rw_app_imp_2021-09-01_2021-09-07 > OSP-2373_email_open_2021-09-08_2021-09-12 > OSP-2373_email_clk_2021-09-08_2021-09-12,3793.5653674554,67.0,31.0,183,183,False
63,_AlwaysOn_wow_web_clk_2021-09-08_2021-09-12 > OSP-2373_email_open_2021-09-01_2021-09-07,2574.3298021271,43.0,35.0,230,230,False
64,OSP-2373_rw_app_imp_2021-09-08_2021-09-12 > OSP-2373_rw_app_imp_2021-09-01_2021-09-07,313250.10202106,6502.0,4353.0,32285,32285,False
65,OSP-2373_rw_app_clk_2021-09-01_2021-09-07,25226.762455435,371.0,170.0,1767,1767,False
66,OSP-2373_rw_app_imp_2021-09-08_2021-09-12 > OSP-2373_email_open_2021-09-08_2021-09-12,21364.804855542,563.0,418.0,3765,3765,False
67,OSP-2373_rw_app_imp_2021-09-01_2021-09-07 > OSP-2373_rw_app_clk_2021-09-08_2021-09-12,93957.867951964,2041.0,1361.0,4493,4493,False
68,_AlwaysOn_wow_web_view_2021-09-08_2021-09-12 > OSP-2373_rw_app_imp_2021-09-01_2021-09-07,1175.4075160201,17.0,14.0,127,127,False
69,_AlwaysOn_wow_web_clk_2021-09-08_2021-09-12,28102.127590955,283.0,163.0,3157,3157,False
70,OSP-2373_rw_app_imp_2021-09-01_2021-09-07 > OSP-2373_rw_app_imp_2021-09-01_2021-09-07,9090.2790500757,177.0,123.0,419,419,False
71,OSP-2373_email_open_2021-09-08_2021-09-12 > OSP-2373_email_open_2021-09-01_2021-09-07 > OSP-2373_email_clk_2021-09-08_2021-09-12,6572.4713649726,207.0,158.0,1192,1192,False
72,_AlwaysOn_wow_web_view_2021-09-01_2021-09-07 > OSP-2373_email_open_2021-09-08_2021-09-12 > OSP-2373_email_open_2021-09-01_2021-09-07,151.47186568321,4.0,3.0,103,103,False
73,OSP-2373_rw_app_imp_2021-09-08_2021-09-12 > OSP-2373_email_open_2021-09-01_2021-09-07,51950.690658762,1497.0,1154.0,9986,9986,False
74,_AlwaysOn_sem_shopping_clk_2021-09-08_2021-09-12,3987.5475500811,73.0,73.0,3287,3287,False
75,OSP-2373_rw_app_imp_2021-09-08_2021-09-12 > OSP-2373_rw_app_clk_2021-09-08_2021-09-12 > OSP-2373_email_open_2021-09-08_2021-09-12,2514.7407405368,118.0,62.0,355,355,False
76,OSP-2373_rw_app_imp_2021-09-01_2021-09-07 > OSP-2373_rw_app_imp_2021-09-01_2021-09-07 > OSP-2373_rw_app_clk_2021-09-08_2021-09-12,3415.247301557,69.0,52.0,113,113,False
77,OSP-2373_rw_app_imp_2021-09-08_2021-09-12 > OSP-2373_rw_app_imp_2021-09-01_2021-09-07 > OSP-2373_rw_app_clk_2021-09-01_2021-09-07,31928.572508016,513.0,289.0,1370,1370,False
78,_AlwaysOn_wow_web_view_2021-09-08_2021-09-12 > OSP-2373_email_open_2021-09-01_2021-09-07 > OSP-2373_email_clk_2021-09-01_2021-09-07,9180.6535400237,110.0,88.0,436,436,False
79,_AlwaysOn_wow_web_view_2021-09-01_2021-09-07 > _AlwaysOn_wow_web_clk_2021-09-08_2021-09-12,4072.1915419796,32.0,8.0,682,682,False
80,_AlwaysOn_wow_web_view_2021-09-08_2021-09-12,76058.018381835,916.0,708.0,26701,26701,False
81,OSP-2373_email_open_2021-09-01_2021-09-07 > OSP-2373_email_clk_2021-09-08_2021-09-12 > OSP-2373_email_clk_2021-09-01_2021-09-07,3695.2469329073,48.0,31.0,176,176,False
82,OSP-2373_rw_app_imp_2021-09-08_2021-09-12 > OSP-2373_rw_app_clk_2021-09-08_2021-09-12 > OSP-2373_email_open_2021-09-01_2021-09-07,9751.3490957363,184.0,113.0,742,742,False
83,_AlwaysOn_wow_web_view_2021-09-01_2021-09-07 > _AlwaysOn_wow_web_clk_2021-09-01_2021-09-07 > OSP-2373_email_open_2021-09-01_2021-09-07,1444.1117461826,18.0,3.0,372,372,False
84,OSP-2373_rw_app_imp_2021-09-01_2021-09-07 > OSP-2373_rw_app_clk_2021-09-08_2021-09-12 > OSP-2373_email_open_2021-09-08_2021-09-12,3403.5166905961,90.0,70.0,180,180,False
85,OSP-2373_rw_app_imp_2021-09-01_2021-09-07 > OSP-2373_rw_app_clk_2021-09-08_2021-09-12 > OSP-2373_rw_app_clk_2021-09-01_2021-09-07,20192.140423842,393.0,265.0,710,710,False
86,_AlwaysOn_wow_web_clk_2021-09-01_2021-09-07 > OSP-2373_rw_app_imp_2021-09-08_2021-09-12,1864.5363200609,26.0,14.0,255,255,False
87,_AlwaysOn_wow_web_view_2021-09-08_2021-09-12 > OSP-2373_rw_app_imp_2021-09-08_2021-09-12 > OSP-2373_rw_app_imp_2021-09-01_2021-09-07,4483.3561769689,74.0,46.0,188,188,False
88,_AlwaysOn_wow_web_view_2021-09-01_2021-09-07 > _AlwaysOn_wow_web_clk_2021-09-01_2021-09-07 > OSP-2373_email_open_2021-09-01_2021-09-07 > OSP-2373_email_clk_2021-09-01_2021-09-07,6443.9208994847,52.0,19.0,218,218,False
89,_AlwaysOn_wow_web_view_2021-09-08_2021-09-12 > OSP-2373_rw_app_imp_2021-09-08_2021-09-12,21402.071953634,264.0,165.0,915,915,False
90,OSP-2373_rw_app_imp_2021-09-01_2021-09-07 > OSP-2373_rw_app_clk_2021-09-01_2021-09-07 > OSP-2373_email_open_2021-09-01_2021-09-07,6841.349143523,127.0,67.0,331,331,False
91,_AlwaysOn_sem_shopping_clk_2021-09-08_2021-09-12 > OSP-2373_rw_app_imp_2021-09-08_2021-09-12,1880.3101730423,41.0,27.0,188,188,False
92,_AlwaysOn_wow_web_view_2021-09-08_2021-09-12 > _AlwaysOn_wow_web_view_2021-09-01_2021-09-07 > _AlwaysOn_wow_web_clk_2021-09-08_2021-09-12,3024.673568487,22.0,9.0,672,672,False
93,OSP-2373_email_clk_2021-09-01_2021-09-07,795199.07832934,17468.0,13007.0,62755,62755,False
94,OSP-2373_rw_app_imp_2021-09-08_2021-09-12 > OSP-2373_rw_app_imp_2021-09-01_2021-09-07 > OSP-2373_rw_app_clk_2021-09-08_2021-09-12 > OSP-2373_email_open_2021-09-01_2021-09-07 > OSP-2373_email_clk_2021-09-01_2021-09-07,2516.6831034647,82.0,68.0,138,138,False
95,OSP-2373_rw_app_clk_2021-09-08_2021-09-12 > OSP-2373_email_open_2021-09-01_2021-09-07,11173.349953455,329.0,270.0,1150,1150,False
96,_AlwaysOn_sem_brand_clk_2021-09-01_2021-09-07 > OSP-2373_email_open_2021-09-01_2021-09-07,779.55934061331,7.0,3.0,137,137,False
97,_AlwaysOn_wow_web_view_2021-09-01_2021-09-07 > OSP-2373_rw_app_imp_2021-09-08_2021-09-12 > OSP-2373_email_open_2021-09-01_2021-09-07,1521.0819286727,23.0,10.0,162,162,False
98,_AlwaysOn_wow_web_clk_2021-09-08_2021-09-12 > OSP-2373_rw_app_imp_2021-09-08_2021-09-12,12526.16752501,138.0,66.0,346,346,False
99,_AlwaysOn_sem_shopping_clk_2021-09-01_2021-09-07 > OSP-2373_rw_app_imp_2021-09-08_2021-09-12,528.33010942068,13.0,11.0,273,273,False
100,_AlwaysOn_wow_web_view_2021-09-01_2021-09-07 > _AlwaysOn_wow_web_clk_2021-09-01_2021-09-07 > OSP-2373_rw_app_imp_2021-09-08_2021-09-12 > OSP-2373_rw_app_imp_2021-09-01_2021-09-07,2191.7703460383,17.0,5.0,129,129,False
101,_AlwaysOn_wow_web_view_2021-09-01_2021-09-07 > _AlwaysOn_wow_web_clk_2021-09-08_2021-09-12 > _AlwaysOn_wow_web_clk_2021-09-01_2021-09-07,1559.4672179786,18.0,3.0,278,278,False
102,OSP-2373_email_open_2021-09-01_2021-09-07 > OSP-2373_email_clk_2021-09-01_2021-09-07,710194.66908621,15575.0,11371.0,75075,75075,False
103,OSP-2373_rw_app_imp_2021-09-01_2021-09-07 > OSP-2373_rw_app_clk_2021-09-01_2021-09-07 > OSP-2373_email_open_2021-09-08_2021-09-12,2517.291420133,44.0,24.0,137,137,False
104,OSP-2373_rw_app_imp_2021-09-08_2021-09-12 > OSP-2373_email_open_2021-09-01_2021-09-07 > OSP-2373_email_clk_2021-09-01_2021-09-07,35597.638423107,930.0,615.0,3285,3285,False
105,_AlwaysOn_wow_web_view_2021-09-01_2021-09-07 > _AlwaysOn_wow_web_clk_2021-09-01_2021-09-07 > OSP-2373_rw_app_imp_2021-09-08_2021-09-12,3741.6556508087,29.0,12.0,256,256,False
106,OSP-2373_email_open_2021-09-08_2021-09-12,191038.35646472,4142.0,3265.0,99330,99330,False
107,OSP-2373_rw_app_imp_2021-09-08_2021-09-12 > OSP-2373_email_open_2021-09-08_2021-09-12 > OSP-2373_email_open_2021-09-01_2021-09-07,2297.6359536967,117.0,92.0,661,661,False
108,_AlwaysOn_wow_web_view_2021-09-08_2021-09-12 > _AlwaysOn_wow_web_clk_2021-09-08_2021-09-12 > OSP-2373_rw_app_imp_2021-09-08_2021-09-12,11808.78404229,136.0,80.0,370,370,False
109,OSP-2373_rw_app_imp_2021-09-01_2021-09-07 > OSP-2373_rw_app_clk_2021-09-01_2021-09-07 > OSP-2373_email_open_2021-09-01_2021-09-07 > OSP-2373_email_clk_2021-09-01_2021-09-07,5088.804174179,130.0,89.0,241,241,False
110,_AlwaysOn_wow_web_clk_2021-09-01_2021-09-07 > OSP-2373_email_open_2021-09-01_2021-09-07,1381.4432384641,17.0,5.0,390,390,False
111,_AlwaysOn_wow_web_view_2021-09-08_2021-09-12 > _AlwaysOn_wow_web_view_2021-09-01_2021-09-07 > OSP-2373_rw_app_imp_2021-09-08_2021-09-12,2351.0956709465,24.0,5.0,158,158,False
112,OSP-2373_rw_app_imp_2021-09-08_2021-09-12 > OSP-2373_rw_app_imp_2021-09-08_2021-09-12 > OSP-2373_rw_app_imp_2021-09-01_2021-09-07,1256.504887378,48.0,37.0,158,158,False
113,OSP-2373_rw_app_imp_2021-09-01_2021-09-07 > OSP-2373_email_open_2021-09-08_2021-09-12,14833.425689495,398.0,276.0,1920,1920,False
114,OSP-2373_rw_app_clk_2021-09-08_2021-09-12 > OSP-2373_email_open_2021-09-08_2021-09-12 > OSP-2373_email_open_2021-09-01_2021-09-07,770.19200687454,47.0,32.0,131,131,False
115,_AlwaysOn_wow_web_view_2021-09-01_2021-09-07 > OSP-2373_email_open_2021-09-08_2021-09-12,5091.4174064819,33.0,6.0,563,563,False
116,OSP-2373_rw_app_imp_2021-09-01_2021-09-07 > OSP-2373_email_open_2021-09-08_2021-09-12 > OSP-2373_email_open_2021-09-01_2021-09-07 > OSP-2373_email_clk_2021-09-01_2021-09-07,2472.470691927,129.0,101.0,334,334,False
117,_AlwaysOn_wow_web_view_2021-09-01_2021-09-07 > _AlwaysOn_wow_web_clk_2021-09-01_2021-09-07,20838.093688469,145.0,30.0,7760,7760,False
118,_AlwaysOn_wow_web_view_2021-09-08_2021-09-12 > _AlwaysOn_wow_web_clk_2021-09-08_2021-09-12,28874.403378848,269.0,171.0,4788,4788,False
119,OSP-2373_rw_app_imp_2021-09-01_2021-09-07 > OSP-2373_email_open_2021-09-01_2021-09-07 > OSP-2373_email_clk_2021-09-01_2021-09-07,41983.510262341,1083.0,729.0,3226,3226,False
120,_AlwaysOn_sem_brand_clk_2021-09-01_2021-09-07,1124.446376288,22.0,8.0,1542,1542,False
121,_AlwaysOn_wow_web_view_2021-09-01_2021-09-07 > _AlwaysOn_wow_web_view_2021-09-01_2021-09-07,0.76058321849271,5.0,5.0,375,375,False
122,OSP-2373_rw_app_imp_2021-09-08_2021-09-12 > OSP-2373_rw_app_imp_2021-09-01_2021-09-07 > OSP-2373_email_open_2021-09-08_2021-09-12,8659.2428886776,230.0,137.0,917,917,False
123,OSP-2373_email_open_2021-09-08_2021-09-12 > OSP-2373_email_clk_2021-09-08_2021-09-12,137586.40582251,2984.0,2088.0,18360,18360,False
124,OSP-2373_rw_app_imp_2021-09-01_2021-09-07 > OSP-2373_rw_app_clk_2021-09-08_2021-09-12 > OSP-2373_email_open_2021-09-01_2021-09-07,10126.817050983,264.0,185.0,527,527,False
125,OSP-2373_rw_app_imp_2021-09-01_2021-09-07 > OSP-2373_email_open_2021-09-08_2021-09-12 > OSP-2373_email_clk_2021-09-08_2021-09-12,6131.6173071468,148.0,119.0,504,504,False
126,_AlwaysOn_wow_web_view_2021-09-01_2021-09-07 > OSP-2373_rw_app_imp_2021-09-08_2021-09-12,15378.06319032,132.0,47.0,1232,1232,False
127,_AlwaysOn_wow_web_clk_2021-09-01_2021-09-07 > OSP-2373_email_open_2021-09-01_2021-09-07 > OSP-2373_email_clk_2021-09-01_2021-09-07,5258.0587081812,52.0,24.0,277,277,False
128,_AlwaysOn_wow_web_view_2021-09-08_2021-09-12 > OSP-2373_rw_app_imp_2021-09-08_2021-09-12 > OSP-2373_rw_app_clk_2021-09-08_2021-09-12,6728.7646479482,48.0,32.0,122,122,False
129,OSP-2373_rw_app_clk_2021-09-08_2021-09-12 > OSP-2373_email_open_2021-09-01_2021-09-07 > OSP-2373_email_clk_2021-09-01_2021-09-07,8118.8763204587,227.0,162.0,464,464,False
130,_AlwaysOn_wow_web_view_2021-09-08_2021-09-12 > _AlwaysOn_wow_web_view_2021-09-01_2021-09-07,13018.992384246,92.0,29.0,3460,3460,False
131,_AlwaysOn_sem_shopping_clk_2021-09-01_2021-09-07 > OSP-2373_email_open_2021-09-01_2021-09-07 > OSP-2373_email_clk_2021-09-01_2021-09-07,1109.4747585638,23.0,7.0,182,182,False
132,OSP-2373_rw_app_imp_2021-09-08_2021-09-12 > OSP-2373_email_open_2021-09-08_2021-09-12 > OSP-2373_email_open_2021-09-01_2021-09-07 > OSP-2373_email_clk_2021-09-01_2021-09-07,3992.5087332278,77.0,63.0,284,284,False
