event,channel_prob_norm_AL,channel_prob_norm_shanglin,attributed_inc_sales_AL,attributed_inc_sales_shanglin
AlwaysOn_sem_brand_clk,0.0024983159999360603,0.0024983159999360603,369.8586148138005,258.2293045482535
AlwaysOn_sem_shopping_clk,0.00630125427853914,0.033742333437889946,4166.197603894732,5052.668497424354
AlwaysOn_wow_web_clk,0.007749076322130839,0.018865220594209045,10777.011690737734,10385.61752046154
AlwaysOn_wow_web_view,0.01363092960993677,0.053616942741436247,97511.56786398955,147952.7208483889
CVM-3509_FB_impsclicks,-1.0,0.0,437442.50843801745,0.0
CVM-3509_IG_impsclicks,-1.0,0.0,56943.335406812424,0.0
CVM-3509_email_clk,0.27171188412104924,0.15068335491308474,545135.7202442801,585496.4279751749
CVM-3509_email_open,0.3621761456536231,0.19830866397887834,2757857.9350165664,2955941.5859602923
CVM-3509_rw_app_clk,0.1681617968340478,0.02620468705198397,563484.6216418014,98250.92364413603
CVM-3509_rw_app_imp,0.13105911821792793,0.4677536638779138,551935.235540889,1223800.8468887717
CVM-3509_rw_app_push_clk,0.023948993276730907,0.025961983418859632,9298.187189424476,9323.327444900227
CVM-3509_rw_app_push_imp,0.01526080168601437,0.021016843720029228,-5719.446584459731,-6906.140478262707
CVM-3509_rw_web_oap_clk,0.0013412779499532793,0.0013412779499532793,6519.939267509054,7129.935761903612
Total,-0.9961604060501105,0.9999932876841743,5035722.671934277,5036686.143367738
