,campaign_code,campaign_start_date,channel,medium,event,channel_event,channel_prob_norm_AL,channel_prob_norm_shanglin,attributed_inc_sales_AL,attributed_inc_sales_shanglin,count_AL,count_shanglin
0,CVM-3509,2021-09-27,CVM-3509_email,CVM-3509_email,CVM-3509_email_clk,CVM-3509_email_clk,0.29080119489843737,0.17922800134569616,156985.28505046756,172534.63190923567,46893,46893
1,CVM-3509,2021-09-27,CVM-3509_email,CVM-3509_email,CVM-3509_email_open,CVM-3509_email_open,0.47133568295250766,0.2399962936474558,896900.0788472359,855892.8286675026,149786,149786
2,CVM-3509,2021-09-27,CVM-3509_email,CVM-3509_email,CVM-3509_email_open,DEFAULT,,,764109.874590566,764109.8745905769,87094,87094
3,CVM-3509,2021-09-27,CVM-3509_rw_app,CVM-3509_rw_app,CVM-3509_rw_app_clk,CVM-3509_rw_app_clk,0.027749432856820157,0.03967340644886399,5782.225584356289,2994.480035311406,4988,4988
4,CVM-3509,2021-09-27,CVM-3509_rw_app,CVM-3509_rw_app,CVM-3509_rw_app_imp,CVM-3509_rw_app_imp,0.15094002560099035,0.4236095978894832,240322.92685452008,267592.1619798525,56743,56743
5,CVM-3509,2021-09-27,CVM-3509_rw_app,CVM-3509_rw_app,CVM-3509_rw_app_push_clk,CVM-3509_rw_app_push_clk,0.02653809841856333,0.03935015507580976,36004.257827756795,34692.27127302131,15936,15936
6,CVM-3509,2021-09-27,CVM-3509_rw_app,CVM-3509_rw_app,CVM-3509_rw_app_push_imp,CVM-3509_rw_app_push_imp,0.015203085968306074,0.03541513956822879,39507.95361738239,40493.76380798221,21950,21950
7,CVM-3509,2021-09-27,CVM-3509_rw_web_oap,CVM-3509_rw_web_oap,CVM-3509_rw_web_oap_clk,CVM-3509_rw_web_oap_clk,0.001739356867767831,0.0013341121453850557,1865.8766723844167,1886.1353335032334,620,620
8,CVM-3509,2021-09-27,AlwaysOn_sem,AlwaysOn_sem_shopping,AlwaysOn_sem_shopping_clk,_AlwaysOn_sem_shopping_clk,0.0056901855637201786,0.004004337126744191,1136.5598597834703,919.7076513076443,211,211
9,CVM-3509,2021-09-27,AlwaysOn_wow_web,AlwaysOn_wow_web,AlwaysOn_wow_web_clk,_AlwaysOn_wow_web_clk,0.0021656840717062514,0.012764635672403097,-173.92114242693458,-108.51216289980175,550,550
10,CVM-3509,2021-09-27,AlwaysOn_wow_web,AlwaysOn_wow_web,AlwaysOn_wow_web_view,_AlwaysOn_wow_web_view,0.007837252801180847,0.024617511653920256,9473.861594926482,10907.636271556868,1957,1957
