,campaign_code,campaign_start_date,channel,medium,event,channel_event,channel_prob_norm_AL,channel_prob_norm_shanglin,attributed_inc_sales_AL,attributed_inc_sales_shanglin,count_AL,count_shanglin
0,CVM-3509,2021-10-25,CVM-3509_display,CVM-3509_display,CVM-3509_display_clk,CVM-3509_display_clk,0.031096375812104837,0.005155489792862355,8903.147872357913,5004.194581393255,3970.0,3970
1,CVM-3509,2021-10-25,CVM-3509_display,CVM-3509_display,CVM-3509_display_imp,CVM-3509_display_imp,0.03491657240640741,0.009451731286914315,18125.285520765785,15134.525850364305,5990.0,5990
2,CVM-3509,2021-10-25,CVM-3509_email,CVM-3509_email,CVM-3509_email_clk,CVM-3509_email_clk,0.2745079197584763,0.21424937288255455,148459.07397929617,147519.37293794,32184.0,32184
3,CVM-3509,2021-10-25,CVM-3509_email,CVM-3509_email,CVM-3509_email_open,CVM-3509_email_open,0.36258667369937747,0.27578908637009675,536567.5298961151,516159.7640141532,82608.0,82608
4,CVM-3509,2021-10-25,CVM-3509_email,CVM-3509_email,CVM-3509_email_open,DEFAULT,,,310014.3778392796,310014.37783927773,31976.0,31976
5,CVM-3509,2021-10-25,CVM-3509_rw_app,CVM-3509_rw_app,CVM-3509_rw_app_clk,CVM-3509_rw_app_clk,0.14531942953491536,0.03132820239502138,118635.26337193017,25086.817566095135,17864.0,17864
6,CVM-3509,2021-10-25,CVM-3509_rw_app,CVM-3509_rw_app,CVM-3509_rw_app_imp,CVM-3509_rw_app_imp,0.10536189819900459,0.3020038710880061,131708.26456231205,241768.1373449497,30773.0,30773
7,CVM-3509,2021-10-25,CVM-3509_rw_app,CVM-3509_rw_app,CVM-3509_rw_app_push_clk,CVM-3509_rw_app_push_clk,0.01118437730007586,0.023903817746612484,6967.288745694329,8889.938301535181,6344.0,6344
8,CVM-3509,2021-10-25,CVM-3509_rw_app,CVM-3509_rw_app,CVM-3509_rw_app_push_imp,CVM-3509_rw_app_push_imp,0.019567023819355475,0.01991984812217707,24665.207825669186,23213.46467862866,8935.0,8935
9,CVM-3509,2021-10-25,CVM-3509_rw_web_oap,CVM-3509_rw_web_oap,CVM-3509_rw_web_oap_clk,CVM-3509_rw_web_oap_clk,,0.0013270185759806004,,1028.67376521146,,580
10,CVM-3509,2021-10-25,AlwaysOn_google_other,AlwaysOn_google_other,AlwaysOn_google_other_clk,_AlwaysOn_google_other_clk,,0.0013270185759806004,,480.83078744773667,,124
11,CVM-3509,2021-10-25,AlwaysOn_sem,AlwaysOn_sem_brand,AlwaysOn_sem_brand_clk,_AlwaysOn_sem_brand_clk,,0.0012663815835373198,,3.958485817504884,,28
12,CVM-3509,2021-10-25,AlwaysOn_sem,AlwaysOn_sem_shopping,AlwaysOn_sem_shopping_clk,_AlwaysOn_sem_shopping_clk,,0.02662108712914118,,1102.5847318895217,,316
13,CVM-3509,2021-10-25,AlwaysOn_wow_web,AlwaysOn_wow_web,AlwaysOn_wow_web_clk,_AlwaysOn_wow_web_clk,0.005424448185349533,0.019825218197438012,2279.9036199309026,2307.088858552776,785.0,785
14,CVM-3509,2021-10-25,AlwaysOn_wow_web,AlwaysOn_wow_web,AlwaysOn_wow_web_view,_AlwaysOn_wow_web_view,0.010213163034351193,0.06782311488597216,18745.981788600115,29207.656255426125,3887.0,3887
