,campaign_code,campaign_start_date,channel,medium,event,channel_event,channel_prob_norm_AL,channel_prob_norm_shanglin,attributed_inc_sales_AL,attributed_inc_sales_shanglin,count_AL,count_shanglin
0,CAT-4753,2021-07-28,CAT-4753_display,CAT-4753_display,CAT-4753_display_imp,CAT-4753_display_imp,0.0021922265601512017,,8909.441471160198,,293,
1,CAT-4753,2021-07-28,CAT-4753_email,CAT-4753_email,CAT-4753_email_clk,CAT-4753_email_clk,0.1297786763758508,0.07332242490323358,169505.30787215056,151102.8445479899,8983,8983.0
2,CAT-4753,2021-07-28,CAT-4753_email,CAT-4753_email,CAT-4753_email_open,CAT-4753_email_open,0.15709763606807223,0.10733798284803267,622904.1195360683,633311.5170859388,22483,22483.0
3,CAT-4753,2021-07-28,CAT-4753_email,CAT-4753_email,CAT-4753_email_open,DEFAULT,,,7932009.27878635,7932009.278786333,199140,199140.0
4,CAT-4753,2021-07-28,CAT-4753_rw_app,CAT-4753_rw_app,CAT-4753_rw_app_clk,CAT-4753_rw_app_clk,0.1080103359240971,0.05594756096891248,70337.41065367711,44614.14273065944,7113,7113.0
5,CAT-4753,2021-07-28,CAT-4753_rw_app,CAT-4753_rw_app,CAT-4753_rw_app_imp,CAT-4753_rw_app_imp,0.5670412400744723,0.7023204462054972,2974093.683820341,3005733.643908431,71689,71689.0
6,CAT-4753,2021-07-28,CAT-4753_rw_app,CAT-4753_rw_app,CAT-4753_rw_app_push_clk,CAT-4753_rw_app_push_clk,0.004698957333258504,0.0050882537156138295,13182.069154750805,13354.402960650852,1066,1066.0
7,CAT-4753,2021-07-28,CAT-4753_rw_app,CAT-4753_rw_app,CAT-4753_rw_app_push_imp,CAT-4753_rw_app_push_imp,0.0010475435494798008,0.0012720634289034574,2448.1663121432866,2450.7951228444617,207,207.0
8,CAT-4753,2021-07-28,CAT-4753_rw_web_oap,CAT-4753_rw_web_oap,CAT-4753_rw_web_oap_clk,CAT-4753_rw_web_oap_clk,0.005403671556662405,0.007632580584330183,28730.18498250229,28864.105627521072,967,967.0
9,CAT-4753,2021-07-28,AlwaysOn_sem,AlwaysOn_sem_shopping,AlwaysOn_sem_shopping_clk,_AlwaysOn_sem_shopping_clk,0.0013330315315645011,0.0025435267954262205,3614.0423918844153,3601.0732681804384,146,146.0
10,CAT-4753,2021-07-28,AlwaysOn_wow_web,AlwaysOn_wow_web,AlwaysOn_wow_web_clk,_AlwaysOn_wow_web_clk,0.010893051886462111,0.010648052661809859,10824.538256509975,5712.162932248796,490,490.0
11,CAT-4753,2021-07-28,AlwaysOn_wow_web,AlwaysOn_wow_web,AlwaysOn_wow_web_view,_AlwaysOn_wow_web_view,0.012135973158936511,0.03388016756030409,40474.321680261404,47387.08934178251,1371,1371.0
