,path,total_conversion_value,conversions,non_conversions,cnt,ppl,Converted
0,_AlwaysOn_wow_web_clk_2021-12-14_2021-12-19,10230.902152765,61.0,0.0,9163,9163,False
1,RNL-5164_email_clk_2021-12-14_2021-12-19,137453.22832335,1162.0,0.0,32273,32273,False
2,FB_Impression_FacebookStory > _AlwaysOn_wow_web_view_2021-12-14_2021-12-19,2545.4893066987,19.0,0.0,540,540,False
3,_AlwaysOn_sem_shopping_clk_2021-12-14_2021-12-19 > RNL-5164_email_open_2021-12-14_2021-12-19,160.2673340256,2.0,0.0,285,285,False
4,_AlwaysOn_wow_web_view_2021-12-14_2021-12-19 > RNL-5164_email_open_2021-12-14_2021-12-19 > RNL-5164_email_clk_2021-12-14_2021-12-19,3344.752460831,25.0,0.0,724,724,False
5,FB_Impression_InstagramStory > _AlwaysOn_wow_web_view_2021-12-14_2021-12-19,1681.3031747005,10.0,0.0,689,689,False
6,FB_Impression_InstagramStory > FB_Impression_FacebookStory > RNL-5164_email_open_2021-12-14_2021-12-19,986.10502833574,7.0,0.0,613,613,False
7,_AlwaysOn_wow_web_view_2021-12-14_2021-12-19 > _AlwaysOn_wow_web_clk_2021-12-14_2021-12-19 > RNL-5164_email_open_2021-12-14_2021-12-19,2890.2187554018,13.0,0.0,323,323,False
8,_AlwaysOn_wow_web_view_2021-12-14_2021-12-19 > RNL-5164_email_open_2021-12-14_2021-12-19,3854.6758959654,20.0,0.0,1873,1873,False
9,_AlwaysOn_wow_web_view_2021-12-14_2021-12-19 > _AlwaysOn_sem_shopping_clk_2021-12-14_2021-12-19,741.16709089241,4.0,0.0,4279,4279,False
10,FB_Impression_FacebookStory > FB_Impression_InstagramStory > RNL-5164_email_open_2021-12-14_2021-12-19,493.91995516103,3.0,0.0,537,537,False
11,_AlwaysOn_wow_web_clk_2021-12-14_2021-12-19 > _AlwaysOn_sem_shopping_clk_2021-12-14_2021-12-19 > _AlwaysOn_sem_shopping_clk_2021-12-14_2021-12-19,6.8130094806169,1.0,0.0,171,171,False
12,FB_Impression_FacebookStory > _AlwaysOn_wow_web_view_2021-12-14_2021-12-19 > RNL-5164_email_open_2021-12-14_2021-12-19 > RNL-5164_email_clk_2021-12-14_2021-12-19,522.69252806736,11.0,0.0,135,135,False
13,FB_Impression_InstagramStory > FB_Impression_FacebookStory > RNL-5164_email_open_2021-12-14_2021-12-19 > RNL-5164_email_clk_2021-12-14_2021-12-19,761.59764434637,10.0,0.0,255,255,False
14,FB_Impression_InstagramStory > _AlwaysOn_wow_web_view_2021-12-14_2021-12-19 > RNL-5164_email_open_2021-12-14_2021-12-19,872.7629786008,8.0,0.0,238,238,False
15,RNL-5164_email_open_2021-12-14_2021-12-19 > RNL-5164_email_clk_2021-12-14_2021-12-19,82586.529514073,633.0,0.0,38099,38099,False
16,_AlwaysOn_wow_web_view_2021-12-14_2021-12-19 > _AlwaysOn_wow_web_clk_2021-12-14_2021-12-19,6301.505279461,40.0,0.0,14559,14559,False
17,_AlwaysOn_wow_web_view_2021-12-14_2021-12-19 > _AlwaysOn_sem_shopping_clk_2021-12-14_2021-12-19 > RNL-5164_email_open_2021-12-14_2021-12-19,156.79109117635,3.0,0.0,106,106,False
18,FB_Impression_FacebookStory > FB_Impression_InstagramStory > FB_Impression_FacebookStory > FB_Impression_InstagramStory > FB_Impression_FacebookStory > RNL-5164_email_open_2021-12-14_2021-12-19,46.288101743989,1.0,0.0,128,128,False
19,_AlwaysOn_wow_web_clk_2021-12-14_2021-12-19 > _AlwaysOn_sem_shopping_clk_2021-12-14_2021-12-19,177.72863751878,1.0,0.0,448,448,False
20,_AlwaysOn_sem_shopping_clk_2021-12-14_2021-12-19 > RNL-5164_email_open_2021-12-14_2021-12-19 > RNL-5164_email_clk_2021-12-14_2021-12-19,2158.752773851,12.0,0.0,198,198,False
21,FB_Impression_FacebookStory,17813.777743894,124.0,0.0,39615,39615,False
22,FB_Impression_InstagramStory > _AlwaysOn_wow_web_view_2021-12-14_2021-12-19 > _AlwaysOn_wow_web_clk_2021-12-14_2021-12-19,1546.8361426109,14.0,0.0,161,161,False
23,_AlwaysOn_wow_web_view_2021-12-14_2021-12-19,16111.198569911,88.0,0.0,96021,96021,False
24,FB_Impression_InstagramStory > _AlwaysOn_wow_web_view_2021-12-14_2021-12-19 > _AlwaysOn_sem_shopping_clk_2021-12-14_2021-12-19,20.60408812459,1.0,0.0,115,115,False
25,_AlwaysOn_wow_web_clk_2021-12-14_2021-12-19 > RNL-5164_email_open_2021-12-14_2021-12-19,4616.3372834009,28.0,0.0,360,360,False
26,FB_Impression_FacebookStory > FB_Impression_InstagramStory > RNL-5164_email_open_2021-12-14_2021-12-19 > RNL-5164_email_clk_2021-12-14_2021-12-19,642.41507901788,5.0,0.0,201,201,False
27,FB_Impression_InstagramStory > FB_Impression_FacebookStory > FB_Impression_InstagramStory > RNL-5164_email_open_2021-12-14_2021-12-19,145.17548663459,4.0,0.0,754,754,False
28,FB_Impression_FacebookStory > RNL-5164_email_open_2021-12-14_2021-12-19,6675.5553427959,62.0,0.0,12853,12853,False
29,FB_Impression_FacebookStory > FB_Impression_InstagramStory > FB_Impression_FacebookStory > RNL-5164_email_open_2021-12-14_2021-12-19 > RNL-5164_email_clk_2021-12-14_2021-12-19,505.45829657005,5.0,0.0,156,156,False
30,_AlwaysOn_sem_shopping_clk_2021-12-14_2021-12-19,657.07661265407,3.0,0.0,7372,7372,False
31,FB_Impression_FacebookStory > _AlwaysOn_wow_web_view_2021-12-14_2021-12-19 > RNL-5164_email_open_2021-12-14_2021-12-19,1247.0109025838,7.0,0.0,259,259,False
32,FB_Impression_InstagramStory > FB_Impression_FacebookStory > FB_Impression_InstagramStory > FB_Impression_FacebookStory > RNL-5164_email_open_2021-12-14_2021-12-19,139.12027843052,2.0,0.0,239,239,False
33,FB_Impression_InstagramStory > FB_Impression_FacebookStory > FB_Impression_InstagramStory > FB_Impression_FacebookStory > FB_Impression_InstagramStory > FB_Impression_FacebookStory > FB_Impression_InstagramStory > RNL-5164_email_open_2021-12-14_2021-12-19,114.30475447798,4.0,0.0,133,133,False
34,RNL-5164_email_open_2021-12-14_2021-12-19,62447.495861087,481.0,0.0,207497,207497,False
35,_AlwaysOn_wow_web_view_2021-12-14_2021-12-19 > _AlwaysOn_wow_web_clk_2021-12-14_2021-12-19 > RNL-5164_email_open_2021-12-14_2021-12-19 > RNL-5164_email_clk_2021-12-14_2021-12-19,1017.6062939448,15.0,0.0,168,168,False
36,_AlwaysOn_wow_web_clk_2021-12-14_2021-12-19 > RNL-5164_email_open_2021-12-14_2021-12-19 > RNL-5164_email_clk_2021-12-14_2021-12-19,6432.1657752769,35.0,0.0,231,231,False
37,FB_Impression_InstagramStory > RNL-5164_email_open_2021-12-14_2021-12-19 > RNL-5164_email_clk_2021-12-14_2021-12-19,10911.377914237,112.0,0.0,3308,3308,False
38,FB_Impression_FacebookStory > _AlwaysOn_wow_web_view_2021-12-14_2021-12-19 > _AlwaysOn_wow_web_clk_2021-12-14_2021-12-19,1182.1749794566,10.0,0.0,143,143,False
39,FB_Impression_InstagramStory,21220.089568593,148.0,0.0,61716,61716,False
40,FB_Impression_FacebookStory > FB_Impression_InstagramStory > FB_Impression_FacebookStory > RNL-5164_email_open_2021-12-14_2021-12-19,-33.323300256256,3.0,0.0,416,416,False
41,FB_Impression_InstagramStory > RNL-5164_email_open_2021-12-14_2021-12-19,5869.5547962924,65.0,0.0,10787,10787,False
43,FB_Impression_FacebookStory > RNL-5164_email_open_2021-12-14_2021-12-19 > RNL-5164_email_clk_2021-12-14_2021-12-19,15964.387519631,150.0,0.0,5021,5021,False
44,FB_Impression_InstagramStory > FB_Impression_FacebookStory > FB_Impression_InstagramStory > RNL-5164_email_open_2021-12-14_2021-12-19 > RNL-5164_email_clk_2021-12-14_2021-12-19,240.5317466662,8.0,0.0,271,271,False
45,_AlwaysOn_wow_web_view_2021-12-14_2021-12-19 > _AlwaysOn_wow_web_clk_2021-12-14_2021-12-19 > _AlwaysOn_sem_shopping_clk_2021-12-14_2021-12-19,-0.12323684656451,1.0,0.0,371,371,False
