,channel_name,total_conversions,total_conversion_value,normalised_conversion_value
0,_AlwaysOn_wow_web_clk_2021-12-14_2021-12-19,134.21686900958466,19057.57797733367,0.043966144068441855
1,RNL-5164_email_clk_2021-12-14_2021-12-19,1407.9655591054313,170983.55225573145,0.39446185138271234
2,FB_Impression_FacebookStory,287.88862619808305,38654.61538915697,0.08917682987477193
3,_AlwaysOn_wow_web_view_2021-12-14_2021-12-19,182.96338658146965,27484.81513462488,0.06340791801249002
4,_AlwaysOn_sem_shopping_clk_2021-12-14_2021-12-19,16.175974440894567,2050.2104056962985,0.0047298689358464575
5,RNL-5164_email_open_2021-12-14_2021-12-19,1119.2025559105432,138790.29904209066,0.3201914897183814
6,FB_Impression_InstagramStory,272.5870287539936,36439.22933100066,0.08406589800735605
