event,channel_prob_norm_AL,channel_prob_norm_shanglin,attributed_inc_sales_AL,attributed_inc_sales_shanglin
AlwaysOn_sem_brand_clk,0.0,0.003520401367016363,0.0,1004.6928210186641
AlwaysOn_sem_shopping_clk,0.0012917755272956522,0.010751262301276394,10197.297855948198,10523.827194734902
AlwaysOn_wow_web_clk,0.042370932024281605,0.105834722214433,201988.9584906888,137092.83629376785
AlwaysOn_wow_web_view,0.04650025307765243,0.2280208394169278,479409.0833548321,576559.3590751047
CVM-1661_email_open,0.00014062491035381772,0.0,96.54317095162091,0.0
CVM-1661_rw_app_clk,0.0,0.0011337144546391966,0.0,61.81338655987314
CVM-1661_rw_app_imp,0.007868920864107553,0.02295324316829827,7785.548416930995,8940.844795288162
OSP-2373_email_clk,0.18458263036250924,0.34174412065643484,837902.2035643372,699106.9915557847
OSP-2373_email_open,0.22176233126185163,0.6043914348298796,7906675.866504555,8072956.787716687
OSP-2373_rw_app_clk,0.09335148025200843,0.09743876250680109,156800.60144408455,107091.0259326591
OSP-2373_rw_app_imp,0.3974260110952282,0.5650421157132455,3744408.134226491,3732880.2503482206
OSP-2373_rw_web_oap_clk,0.0047050406247112755,0.019155664590697632,25165.532767191107,25060.74809761463
Total,0.9999999999999999,1.9999862812196498,13370429.769796012,13371279.17721744
