,campaign_code,campaign_start_date,channel,medium,event,channel_event,channel_prob_norm_AL,channel_prob_norm_shanglin,attributed_inc_sales_AL,attributed_inc_sales_shanglin,count_AL,count_shanglin
0,OSP-2373,2021-09-29,OSP-2373_FB,OSP-2373_FB,OSP-2373_FB_impsclicks,,,-1.0,,291385.96581912704,,254348
1,OSP-2373,2021-09-29,OSP-2373_IG,OSP-2373_IG,OSP-2373_IG_impsclicks,,,-1.0,,35616.673817916395,,254348
2,OSP-2373,2021-09-29,OSP-2373_email,OSP-2373_email,OSP-2373_email_clk,OSP-2373_email_clk,0.005025757993971084,0.005025757993971084,27590.26597907902,24927.96015993321,37365.0,37365
3,OSP-2373,2021-09-29,OSP-2373_email,OSP-2373_email,OSP-2373_email_open,DEFAULT,,,543565.9028084849,491114.8439012008,77327.0,77327
4,OSP-2373,2021-09-29,OSP-2373_email,OSP-2373_email,OSP-2373_email_open,OSP-2373_email_open,0.02755173168440686,0.02755173168440686,283349.588478736,256007.9434640949,75419.0,75419
5,OSP-2373,2021-09-29,OSP-2373_rw_app,OSP-2373_rw_app,OSP-2373_rw_app_clk,OSP-2373_rw_app_clk,0.01864063490633715,0.01864063490633715,7429.411854306342,6712.515307257852,19707.0,19707
6,OSP-2373,2021-09-29,OSP-2373_rw_app,OSP-2373_rw_app,OSP-2373_rw_app_imp,OSP-2373_rw_app_imp,0.16581627566639628,0.16581627566639628,336074.1283962773,303644.86119123414,88710.0,88710
7,OSP-2373,2021-09-29,AlwaysOn_sem,AlwaysOn_sem_brand,AlwaysOn_sem_brand_clk,_AlwaysOn_sem_brand_clk,0.00030029597363233227,0.00030029597363233227,325.06170721542924,293.69507684813493,134.0,134
8,OSP-2373,2021-09-29,AlwaysOn_sem,AlwaysOn_sem_shopping,AlwaysOn_sem_shopping_clk,_AlwaysOn_sem_shopping_clk,0.0011542871026905238,0.0011542871026905238,1144.5371024521417,1034.0956956749408,463.0,463
9,OSP-2373,2021-09-29,AlwaysOn_wow_web,AlwaysOn_wow_web,AlwaysOn_wow_web_clk,_AlwaysOn_wow_web_clk,0.005363679021186526,0.005363679021186526,3496.2869635882944,3158.914894191689,2753.0,2753
10,OSP-2373,2021-09-29,AlwaysOn_wow_web,AlwaysOn_wow_web,AlwaysOn_wow_web_view,_AlwaysOn_wow_web_view,0.015971926506664024,0.015971926506664024,42178.44834418902,38108.46480164454,9540.0,9540
11,OSP-2373,2021-10-06,OSP-2373_FB,OSP-2373_FB,OSP-2373_FB_impsclicks,,,-1.0,,584434.797984203,,204059
12,OSP-2373,2021-10-06,OSP-2373_IG,OSP-2373_IG,OSP-2373_IG_impsclicks,,,-1.0,,71436.60302615356,,204059
13,OSP-2373,2021-10-06,OSP-2373_email,OSP-2373_email,OSP-2373_email_clk,OSP-2373_email_clk,0.211043890434338,0.211043890434338,581605.7571160423,525484.0657632739,30540.0,30540
14,OSP-2373,2021-10-06,OSP-2373_email,OSP-2373_email,OSP-2373_email_open,DEFAULT,,,3578110.554991853,3232842.968252197,78530.0,78530
15,OSP-2373,2021-10-06,OSP-2373_email,OSP-2373_email,OSP-2373_email_open,OSP-2373_email_open,0.24168689474105715,0.24168689474105715,1768651.3058625793,1597986.3812399695,62275.0,62275
16,OSP-2373,2021-10-06,OSP-2373_rw_app,OSP-2373_rw_app,OSP-2373_rw_app_clk,OSP-2373_rw_app_clk,0.0765954498509779,0.0765954498509779,162069.76456046422,146430.9418820574,16001.0,16001
17,OSP-2373,2021-10-06,OSP-2373_rw_app,OSP-2373_rw_app,OSP-2373_rw_app_imp,OSP-2373_rw_app_imp,0.19432112475906368,0.19432112475906368,2595298.4287925046,2344866.696288216,71754.0,71754
18,OSP-2373,2021-10-06,AlwaysOn_sem,AlwaysOn_sem_brand,AlwaysOn_sem_brand_clk,_AlwaysOn_sem_brand_clk,4.8674957417436396e-05,4.8674957417436396e-05,697.2397795358454,629.9600540049005,115.0,115
19,OSP-2373,2021-10-06,AlwaysOn_sem,AlwaysOn_sem_shopping,AlwaysOn_sem_shopping_clk,_AlwaysOn_sem_shopping_clk,0.0018205935060355948,0.0018205935060355948,5423.995034847928,4900.609955659377,381.0,381
20,OSP-2373,2021-10-06,AlwaysOn_wow_web,AlwaysOn_wow_web,AlwaysOn_wow_web_clk,_AlwaysOn_wow_web_clk,0.015736610822879495,0.015736610822879495,39056.55792597524,35287.81928746496,2511.0,2511
21,OSP-2373,2021-10-06,AlwaysOn_wow_web,AlwaysOn_wow_web,AlwaysOn_wow_web_view,_AlwaysOn_wow_web_view,0.018922172072945886,0.018922172072945886,209748.38713578426,189508.84497075155,7883.0,7883
