event,channel_prob_norm_AL,channel_prob_norm_shanglin,attributed_inc_sales_AL,attributed_inc_sales_shanglin
AlwaysOn_sem_brand_clk,0.00022432380371680024,0.00022432380371680024,-6.44949421647286,-6.449494216472866
AlwaysOn_sem_shopping_clk,0.003974285522661288,0.003974285522661288,4026.9225185428236,4026.9225185428254
AlwaysOn_wow_web_clk,0.02391020429324598,0.02391020429324598,75657.20608422655,75657.20608422653
AlwaysOn_wow_web_view,0.028287712045709335,0.028287712045709335,220464.681563593,220464.68156359342
OSP-2373_FB_impsclicks,-2.0,-2.0,29985.96953944547,29985.969539467507
OSP-2373_IG_impsclicks,-2.0,-2.0,1623.5642838656577,1623.5642838680392
OSP-2373_email_clk,0.23676451799083817,0.23676451799083817,1524104.3114635013,1524104.3114634969
OSP-2373_email_open,0.22985532213497442,0.22985532213497442,2922487.4792054063,2922487.4792054007
OSP-2373_rw_app_clk,0.24212850981973333,0.24212850981973333,1634372.1140756076,1634372.1140755897
OSP-2373_rw_app_imp,0.2348551243891207,0.2348551243891207,366291.1404475757,366291.14044761925
Total,-3.0,-3.0,6779006.939687548,6779006.939687588
