event,channel_prob_norm_AL,channel_prob_norm_shanglin,attributed_inc_sales_AL,attributed_inc_sales_shanglin
AlwaysOn_sem_brand_clk,0.00011243959224837453,0.006306510148803728,594.8919218097348,1188.426804416738
AlwaysOn_sem_shopping_clk,0.0016999954488449228,0.048373974570424694,5612.526829368734,10637.221410827682
AlwaysOn_wow_web_clk,0.013967551144428443,0.05718327931718063,90175.81629120566,78551.97721239214
AlwaysOn_wow_web_view,0.0273606011588009,0.15801233741317244,631007.249517971,738936.3250571602
OSP-2373_email_clk,0.20403803952391938,0.37591441252579777,1612281.2592650661,1812998.6946152984
OSP-2373_email_open,0.24108080623287825,0.5432497752734933,6243523.024469323,6297848.389475121
OSP-2373_rw_app_clk,0.2773656329920804,0.11491179925495318,3185889.740714089,805092.0821987771
OSP-2373_rw_app_imp,0.23437493390679925,0.6960384549998024,3864416.8001713017,5888617.493138738
Total,1.0,1.9999905435036283,15633501.309180137,15633870.60991273
