event,channel_prob_norm_AL,channel_prob_norm_shanglin,attributed_inc_sales_AL,attributed_inc_sales_shanglin
AlwaysOn_sem_brand_clk,0.0011905618525799046,0.0011905618525799046,-39.078688984636045,-23.419169430476902
AlwaysOn_sem_shopping_clk,0.001476478032798798,0.06058942549118991,1609.3375201706112,6008.172651276787
AlwaysOn_wow_web_clk,0.02402710489992916,0.049261002705636964,85208.38330963181,55365.85348655206
AlwaysOn_wow_web_view,0.029780033553718985,0.11701265353395925,251098.57126040172,296394.70861532417
OSP-2373_FB_impsclicks,-2.0,0.0,35193.3409630776,0.0
OSP-2373_IG_impsclicks,-2.0,0.0,541.5905705693003,0.0
OSP-2373_email_clk,0.18969659077526443,0.42802289712568353,919667.9089917459,682046.3698384513
OSP-2373_email_open,0.20637509668625437,0.6528509893874119,2263026.741623773,2446373.315584485
OSP-2373_rw_app_clk,0.2694636537307847,0.06617536788923661,1658333.80805527,153636.50922966623
OSP-2373_rw_app_imp,0.27918104232124974,0.6248874816535108,970951.2471821089,2545460.9685755805
Total,-2.99880943814742,1.9999903796392087,6185591.850787764,6185262.478811906
