,campaign_code,campaign_start_date,channel,medium,event,channel_event,channel_prob_norm_AL,channel_prob_norm_shanglin,attributed_inc_sales_AL,attributed_inc_sales_shanglin,count_AL,count_shanglin
0,OSP-2373,2021-08-18,OSP-2373_email,OSP-2373_email,OSP-2373_email_clk,OSP-2373_email_clk,0.11005443414720306,0.14566444076503068,261126.9842504364,169325.50809739245,69950.0,69950.0
1,OSP-2373,2021-08-18,OSP-2373_email,OSP-2373_email,OSP-2373_email_open,DEFAULT,,,775008.1901981243,775008.1901981218,48867.0,48867.0
2,OSP-2373,2021-08-18,OSP-2373_email,OSP-2373_email,OSP-2373_email_open,OSP-2373_email_open,0.0972023253773885,0.2839638255363239,506430.756812578,618110.2814786484,111822.0,111822.0
3,OSP-2373,2021-08-18,OSP-2373_rw_app,OSP-2373_rw_app,OSP-2373_rw_app_clk,OSP-2373_rw_app_clk,0.023105105485103954,0.05068926813009356,16091.575246064216,23184.66869418874,19430.0,19430.0
4,OSP-2373,2021-08-18,OSP-2373_rw_app,OSP-2373_rw_app,OSP-2373_rw_app_imp,OSP-2373_rw_app_imp,0.24353547994612712,0.2925193181674149,808570.1210604237,757324.5273335967,100459.0,100459.0
5,OSP-2373,2021-08-18,OSP-2373_rw_web_oap,OSP-2373_rw_web_oap,OSP-2373_rw_web_oap_clk,OSP-2373_rw_web_oap_clk,,0.013579235400160735,,2626.318780380533,,2104.0
6,OSP-2373,2021-08-18,AlwaysOn_sem,AlwaysOn_sem_brand,AlwaysOn_sem_brand_clk,_AlwaysOn_sem_brand_clk,4.250279380603533e-05,,434.70481144868205,,198.0,
7,OSP-2373,2021-08-18,AlwaysOn_sem,AlwaysOn_sem_shopping,AlwaysOn_sem_shopping_clk,_AlwaysOn_sem_shopping_clk,0.0005663920218296846,0.004937267349322337,1903.7701183288164,1829.0343076698741,515.0,515.0
8,OSP-2373,2021-08-18,AlwaysOn_wow_web,AlwaysOn_wow_web,AlwaysOn_wow_web_clk,_AlwaysOn_wow_web_clk,0.006145905255340664,0.07457123609629124,72084.80823934649,75392.42771400613,6284.0,6284.0
9,OSP-2373,2021-08-18,AlwaysOn_wow_web,AlwaysOn_wow_web,AlwaysOn_wow_web_view,_AlwaysOn_wow_web_view,0.010461771872057992,0.134069562768864,160425.73455952475,180896.83649261552,12226.0,12226.0
10,OSP-2373,2021-08-25,OSP-2373_email,OSP-2373_email,OSP-2373_email_clk,OSP-2373_email_clk,0.060304009684498755,0.08518887293278465,200007.35402320916,135618.58180599194,10293.0,10293.0
11,OSP-2373,2021-08-25,OSP-2373_email,OSP-2373_email,OSP-2373_email_open,DEFAULT,,,4072198.4366409895,4072198.436641031,81355.0,81355.0
12,OSP-2373,2021-08-25,OSP-2373_email,OSP-2373_email,OSP-2373_email_open,OSP-2373_email_open,0.07291716825630695,0.19321187675476933,705540.7773534912,771444.3829134731,24220.0,24220.0
13,OSP-2373,2021-08-25,OSP-2373_rw_app,OSP-2373_rw_app,OSP-2373_rw_app_clk,OSP-2373_rw_app_clk,0.09633437775351336,0.10339158360141186,218628.90942947133,164382.51445421274,18180.0,18180.0
14,OSP-2373,2021-08-25,OSP-2373_rw_app,OSP-2373_rw_app,OSP-2373_rw_app_imp,OSP-2373_rw_app_imp,0.24865060100745726,0.38599524544527103,2955431.5512806703,2951391.613661192,73390.0,73390.0
15,OSP-2373,2021-08-25,OSP-2373_rw_web_oap,OSP-2373_rw_web_oap,OSP-2373_rw_web_oap_clk,OSP-2373_rw_web_oap_clk,0.0009867033333757953,0.004992753290937112,13525.149709877262,13586.422017819,455.0,455.0
16,OSP-2373,2021-08-25,AlwaysOn_sem,AlwaysOn_sem_brand,AlwaysOn_sem_brand_clk,_AlwaysOn_sem_brand_clk,,0.0012473440784093316,,1482.2460499151916,,147.0
17,OSP-2373,2021-08-25,AlwaysOn_sem,AlwaysOn_sem_shopping,AlwaysOn_sem_shopping_clk,_AlwaysOn_sem_shopping_clk,0.00020696330619031172,0.007490724106865406,9544.919618925396,9799.912569027612,433.0,433.0
18,OSP-2373,2021-08-25,AlwaysOn_wow_web,AlwaysOn_wow_web,AlwaysOn_wow_web_clk,_AlwaysOn_wow_web_clk,0.012689610649977904,0.06113723555116355,74185.11607115551,54575.789042701785,3007.0,3007.0
19,OSP-2373,2021-08-25,AlwaysOn_wow_web,AlwaysOn_wow_web,AlwaysOn_wow_web_view,_AlwaysOn_wow_web_view,0.016796649109822585,0.1573384738449062,325019.78000932705,401058.44092534424,8500.0,8500.0
