,campaign_code,campaign_start_date,channel,medium,event,channel_event,channel_prob_norm_AL,channel_prob_norm_shanglin,attributed_inc_sales_AL,attributed_inc_sales_shanglin,count_AL,count_shanglin
0,OSP-2373,2021-11-10,OSP-2373_FB,OSP-2373_FB,OSP-2373_FB_impsclicks,,-1.0,,109924.57938258548,,312815.0,
1,OSP-2373,2021-11-10,OSP-2373_IG,OSP-2373_IG,OSP-2373_IG_impsclicks,,-1.0,,2507.9791852702238,,312815.0,
2,OSP-2373,2021-11-10,OSP-2373_email,OSP-2373_email,OSP-2373_email_clk,OSP-2373_email_clk,0.0014365071292676585,0.18204347374861474,9497.883824438377,31294.59851299526,103745.0,103745.0
3,OSP-2373,2021-11-10,OSP-2373_email,OSP-2373_email,OSP-2373_email_open,DEFAULT,,,187862.79485709636,194919.8032528836,27979.0,27979.0
4,OSP-2373,2021-11-10,OSP-2373_email,OSP-2373_email,OSP-2373_email_open,OSP-2373_email_open,0.014904050655697488,0.30689321244977197,139848.89870262763,71729.6750191898,159469.0,159469.0
5,OSP-2373,2021-11-10,OSP-2373_rw_app,OSP-2373_rw_app,OSP-2373_rw_app_clk,OSP-2373_rw_app_clk,0.023701593978199514,0.0995136293452356,-28928.54693075955,-54810.48110716019,124177.0,124177.0
6,OSP-2373,2021-11-10,OSP-2373_rw_app,OSP-2373_rw_app,OSP-2373_rw_app_imp,OSP-2373_rw_app_imp,0.11295968547420698,0.16265331141255748,-182030.2087869396,-107031.40259280115,149798.0,149798.0
7,OSP-2373,2021-11-10,AlwaysOn_sem,AlwaysOn_sem_brand,AlwaysOn_sem_brand_clk,_AlwaysOn_sem_brand_clk,0.00023933747873959943,0.009926248547921299,283.62502697275033,291.78724679024054,312.0,312.0
8,OSP-2373,2021-11-10,AlwaysOn_sem,AlwaysOn_sem_shopping,AlwaysOn_sem_shopping_clk,_AlwaysOn_sem_shopping_clk,0.0013993011459886397,0.06750641766680862,1422.0367862339604,2185.065256363004,2149.0,2149.0
9,OSP-2373,2021-11-10,AlwaysOn_wow_web,AlwaysOn_wow_web,AlwaysOn_wow_web_clk,_AlwaysOn_wow_web_clk,0.0054686055331611945,0.04842130369178768,15307.638035525697,11403.181853827213,8214.0,8214.0
10,OSP-2373,2021-11-10,AlwaysOn_wow_web,AlwaysOn_wow_web,AlwaysOn_wow_web_view,_AlwaysOn_wow_web_view,0.00898639806619485,0.12303773888896871,63732.27305458612,64789.92334109251,32396.0,32396.0
11,OSP-2373,2021-11-17,OSP-2373_FB,OSP-2373_FB,OSP-2373_FB_impsclicks,,-1.0,,243654.1739316391,,277349.0,
12,OSP-2373,2021-11-17,OSP-2373_IG,OSP-2373_IG,OSP-2373_IG_impsclicks,,-1.0,,5559.080599185605,,277349.0,
13,OSP-2373,2021-11-17,OSP-2373_email,OSP-2373_email,OSP-2373_email_clk,OSP-2373_email_clk,0.2707075532932785,0.05378872307414314,1985825.3125288726,722039.0699884311,123129.0,123129.0
14,OSP-2373,2021-11-17,OSP-2373_email,OSP-2373_email,OSP-2373_email_open,DEFAULT,,,1236803.164400951,1283263.296763789,25061.0,25061.0
15,OSP-2373,2021-11-17,OSP-2373_email,OSP-2373_email,OSP-2373_email_open,OSP-2373_email_open,0.23499267602671783,0.22860207306510832,2789020.248673052,4257844.988577404,170082.0,170082.0
16,OSP-2373,2021-11-17,OSP-2373_rw_app,OSP-2373_rw_app,OSP-2373_rw_app_clk,OSP-2373_rw_app_clk,0.20206492390021474,0.061851031814485494,1932263.5992636965,1073245.5245426635,107270.0,107270.0
17,OSP-2373,2021-11-17,OSP-2373_rw_app,OSP-2373_rw_app,OSP-2373_rw_app_imp,OSP-2373_rw_app_imp,0.1152430753029459,0.11090529842597399,1418608.0189195063,2289087.330094072,135221.0,135221.0
18,OSP-2373,2021-11-17,AlwaysOn_sem,AlwaysOn_sem_brand,AlwaysOn_sem_brand_clk,_AlwaysOn_sem_brand_clk,,0.018541849526008063,,81.31558478281289,,42.0
19,OSP-2373,2021-11-17,AlwaysOn_sem,AlwaysOn_sem_shopping,AlwaysOn_sem_shopping_clk,_AlwaysOn_sem_shopping_clk,0.0009340015872889348,0.11434747265702892,1046.8705099595063,4032.34344884078,354.0,354.0
20,OSP-2373,2021-11-17,AlwaysOn_wow_web,AlwaysOn_wow_web,AlwaysOn_wow_web_clk,_AlwaysOn_wow_web_clk,0.0016815062632795357,0.07366150751610563,3095.109394423264,5438.933448063354,670.0,670.0
21,OSP-2373,2021-11-17,AlwaysOn_wow_web,AlwaysOn_wow_web,AlwaysOn_wow_web_view,_AlwaysOn_wow_web_view,0.005280784164818705,0.3382972937776703,53620.91451015542,139095.41802810365,4012.0,4012.0
