event,channel_prob_norm_AL,channel_prob_norm_shanglin,attributed_inc_sales_AL,attributed_inc_sales_shanglin
AlwaysOn_sem_brand_clk,0.0,0.0005454220447986006,0.0,-25.728565846984225
AlwaysOn_sem_shopping_clk,0.0021701788650895382,0.0023470002102612027,8657.57077664667,9578.556979319099
AlwaysOn_wow_web_clk,0.05263317714372556,0.054239095049168955,207532.66569532728,224443.6947465974
AlwaysOn_wow_web_view,0.04259389387070178,0.04534466490743726,252397.81867056165,286605.7735349934
CVM-1661_email_open,0.0,0.00019741225554670023,0.0,366.56796561716993
CVM-1661_rw_app_imp,0.0032151623861039536,0.004211232872564604,4948.940840979527,5656.484660768263
OSP-2373_FB_impsclicks,-2.0,0.0,861773.7385883592,0.0
OSP-2373_IG_impsclicks,-2.0,0.0,204121.43127624012,0.0
OSP-2373_email_clk,0.19175769407070697,0.19356690837728271,746483.3071255984,862668.6482844445
OSP-2373_email_open,0.2218383398425336,0.21991456581733304,6084543.482506739,6670693.435944836
OSP-2373_rw_app_clk,0.09372204701994782,0.0917815144769076,154007.69287325075,169474.78512150672
OSP-2373_rw_app_imp,0.3881527143883281,0.3853394623595604,2870533.5248694955,3163845.6644413923
OSP-2373_rw_web_oap_clk,0.003916792412862595,0.002512721629139003,20821.630466201408,22880.245571422645
Total,-2.999999999999999,1.0000000000000002,11415821.803689402,11416188.128685052
