event,channel_prob_norm_AL,channel_prob_norm_shanglin,attributed_inc_sales_AL,attributed_inc_sales_shanglin
AlwaysOn_sem_shopping_clk,0.00572098860857925,0.06834426710530812,94.14808900058237,489.2253010738026
AlwaysOn_wow_web_clk,0.05317902309563657,0.0994413038761761,5999.348485397958,5463.1330344384705
AlwaysOn_wow_web_view,0.07669472062829324,0.21110899757319357,30810.73453266273,38186.32157095292
RNL-5164_email_clk,0.47711930053210744,0.27016222727214645,95395.74221421784,73484.87742114632
RNL-5164_email_open,0.38728596713538344,0.35093937562738625,316124.20643806393,330800.6224317313
Total,1.0,0.9999961714542105,448424.17975934304,448424.1797593428
